{
    "textures": {
        "0": "gci:items/common/mpz",
        "particle": "gci:items/common/mpz"
    },
    "elements": [
        {
            "from": [
                4.73856,
                3.46416,
                5.39692
            ],
            "to": [
                5.35997,
                6.26396,
                6.66764
            ],
            "rotation": {
                "angle": 0,
                "axis": "y",
                "origin": [
                    5.04988,
                    5.43912,
                    5.43228
                ]
            },
            "faces": {
                "north": {
                    "uv": [
                        3.16667,
                        8.93333,
                        4.33333,
                        10.01667
                    ],
                    "texture": "#0"
                },
                "east": {
                    "uv": [
                        3.16667,
                        8.93333,
                        4.33333,
                        10.01667
                    ],
                    "texture": "#0"
                },
                "south": {
                    "uv": [
                        3.16667,
                        8.93333,
                        4.33333,
                        10.01667
                    ],
                    "texture": "#0"
                },
                "west": {
                    "uv": [
                        3.16667,
                        8.93333,
                        4.33333,
                        10.01667
                    ],
                    "texture": "#0"
                },
                "up": {
                    "uv": [
                        3.16667,
                        8.93333,
                        4.33333,
                        10.01667
                    ],
                    "texture": "#0"
                },
                "down": {
                    "uv": [
                        3.16667,
                        8.93333,
                        4.33333,
                        10.01667
                    ],
                    "texture": "#0"
                }
            }
        },
        {
            "from": [
                4.73856,
                1.73552,
                5.05308
            ],
            "to": [
                5.35997,
                3.78532,
                6.32379
            ],
            "rotation": {
                "angle": 22.5,
                "axis": "x",
                "origin": [
                    5.04926,
                    2.76042,
                    5.68843
                ]
            },
            "faces": {
                "north": {
                    "uv": [
                        3.16667,
                        8.93333,
                        4.33333,
                        10.01667
                    ],
                    "texture": "#0"
                },
                "east": {
                    "uv": [
                        3.16667,
                        8.93333,
                        4.33333,
                        10.01667
                    ],
                    "texture": "#0"
                },
                "south": {
                    "uv": [
                        3.16667,
                        8.93333,
                        4.33333,
                        10.01667
                    ],
                    "texture": "#0"
                },
                "west": {
                    "uv": [
                        3.16667,
                        8.93333,
                        4.33333,
                        10.01667
                    ],
                    "texture": "#0"
                },
                "up": {
                    "uv": [
                        3.16667,
                        8.93333,
                        4.33333,
                        10.01667
                    ],
                    "texture": "#0"
                },
                "down": {
                    "uv": [
                        3.16667,
                        8.93333,
                        4.33333,
                        10.01667
                    ],
                    "texture": "#0"
                }
            }
        },
        {
            "from": [
                4.71356,
                1.73552,
                6.29879
            ],
            "to": [
                5.38497,
                3.78532,
                6.32379
            ],
            "rotation": {
                "angle": 22.5,
                "axis": "x",
                "origin": [
                    5.04926,
                    2.76042,
                    5.68843
                ]
            },
            "faces": {
                "north": {
                    "uv": [
                        3.16667,
                        8.93333,
                        4.33333,
                        10.01667
                    ],
                    "texture": "#0"
                },
                "east": {
                    "uv": [
                        3.16667,
                        8.93333,
                        4.33333,
                        10.01667
                    ],
                    "texture": "#0"
                },
                "south": {
                    "uv": [
                        3.16667,
                        8.93333,
                        4.33333,
                        10.01667
                    ],
                    "texture": "#0"
                },
                "west": {
                    "uv": [
                        3.16667,
                        8.93333,
                        4.33333,
                        10.01667
                    ],
                    "texture": "#0"
                },
                "up": {
                    "uv": [
                        3.16667,
                        8.93333,
                        4.33333,
                        10.01667
                    ],
                    "texture": "#0"
                },
                "down": {
                    "uv": [
                        3.16667,
                        8.93333,
                        4.33333,
                        10.01667
                    ],
                    "texture": "#0"
                }
            }
        },
        {
            "from": [
                4.71356,
                3.46416,
                6.64264
            ],
            "to": [
                5.38497,
                4.58896,
                6.66764
            ],
            "rotation": {
                "angle": 0,
                "axis": "x",
                "origin": [
                    5.04926,
                    4.48906,
                    6.65514
                ]
            },
            "faces": {
                "north": {
                    "uv": [
                        3.16667,
                        8.93333,
                        4.33333,
                        10.01667
                    ],
                    "texture": "#0"
                },
                "east": {
                    "uv": [
                        3.16667,
                        8.93333,
                        4.33333,
                        10.01667
                    ],
                    "texture": "#0"
                },
                "south": {
                    "uv": [
                        3.16667,
                        8.93333,
                        4.33333,
                        10.01667
                    ],
                    "texture": "#0"
                },
                "west": {
                    "uv": [
                        3.16667,
                        8.93333,
                        4.33333,
                        10.01667
                    ],
                    "texture": "#0"
                },
                "up": {
                    "uv": [
                        3.16667,
                        8.93333,
                        4.33333,
                        10.01667
                    ],
                    "texture": "#0"
                },
                "down": {
                    "uv": [
                        3.16667,
                        8.93333,
                        4.33333,
                        10.01667
                    ],
                    "texture": "#0"
                }
            }
        },
        {
            "from": [
                4.71356,
                3.56416,
                6.24264
            ],
            "to": [
                5.38497,
                4.58896,
                6.36764
            ],
            "rotation": {
                "angle": 0,
                "axis": "x",
                "origin": [
                    5.04926,
                    4.58906,
                    6.35514
                ]
            },
            "faces": {
                "north": {
                    "uv": [
                        3.16667,
                        8.93333,
                        4.33333,
                        10.01667
                    ],
                    "texture": "#0"
                },
                "east": {
                    "uv": [
                        3.16667,
                        8.93333,
                        4.33333,
                        10.01667
                    ],
                    "texture": "#0"
                },
                "south": {
                    "uv": [
                        3.16667,
                        8.93333,
                        4.33333,
                        10.01667
                    ],
                    "texture": "#0"
                },
                "west": {
                    "uv": [
                        3.16667,
                        8.93333,
                        4.33333,
                        10.01667
                    ],
                    "texture": "#0"
                },
                "up": {
                    "uv": [
                        3.16667,
                        8.93333,
                        4.33333,
                        10.01667
                    ],
                    "texture": "#0"
                },
                "down": {
                    "uv": [
                        3.16667,
                        8.93333,
                        4.33333,
                        10.01667
                    ],
                    "texture": "#0"
                }
            }
        },
        {
            "from": [
                4.71356,
                1.83552,
                5.89879
            ],
            "to": [
                5.38497,
                3.88532,
                6.02379
            ],
            "rotation": {
                "angle": 22.5,
                "axis": "x",
                "origin": [
                    5.04926,
                    2.86042,
                    5.38843
                ]
            },
            "faces": {
                "north": {
                    "uv": [
                        3.16667,
                        8.93333,
                        4.33333,
                        10.01667
                    ],
                    "texture": "#0"
                },
                "east": {
                    "uv": [
                        3.16667,
                        8.93333,
                        4.33333,
                        10.01667
                    ],
                    "texture": "#0"
                },
                "south": {
                    "uv": [
                        3.16667,
                        8.93333,
                        4.33333,
                        10.01667
                    ],
                    "texture": "#0"
                },
                "west": {
                    "uv": [
                        3.16667,
                        8.93333,
                        4.33333,
                        10.01667
                    ],
                    "texture": "#0"
                },
                "up": {
                    "uv": [
                        3.16667,
                        8.93333,
                        4.33333,
                        10.01667
                    ],
                    "texture": "#0"
                },
                "down": {
                    "uv": [
                        3.16667,
                        8.93333,
                        4.33333,
                        10.01667
                    ],
                    "texture": "#0"
                }
            }
        },
        {
            "from": [
                4.71356,
                3.67177,
                5.70437
            ],
            "to": [
                5.38497,
                4.59657,
                5.82937
            ],
            "rotation": {
                "angle": 0,
                "axis": "x",
                "origin": [
                    5.04926,
                    4.69667,
                    5.81687
                ]
            },
            "faces": {
                "north": {
                    "uv": [
                        3.16667,
                        8.93333,
                        4.33333,
                        10.01667
                    ],
                    "texture": "#0"
                },
                "east": {
                    "uv": [
                        3.16667,
                        8.93333,
                        4.33333,
                        10.01667
                    ],
                    "texture": "#0"
                },
                "south": {
                    "uv": [
                        3.16667,
                        8.93333,
                        4.33333,
                        10.01667
                    ],
                    "texture": "#0"
                },
                "west": {
                    "uv": [
                        3.16667,
                        8.93333,
                        4.33333,
                        10.01667
                    ],
                    "texture": "#0"
                },
                "up": {
                    "uv": [
                        3.16667,
                        8.93333,
                        4.33333,
                        10.01667
                    ],
                    "texture": "#0"
                },
                "down": {
                    "uv": [
                        3.16667,
                        8.93333,
                        4.33333,
                        10.01667
                    ],
                    "texture": "#0"
                }
            }
        },
        {
            "from": [
                4.71356,
                2.03552,
                5.39879
            ],
            "to": [
                5.38497,
                3.98532,
                5.52379
            ],
            "rotation": {
                "angle": 22.5,
                "axis": "x",
                "origin": [
                    5.04926,
                    3.06042,
                    4.88843
                ]
            },
            "faces": {
                "north": {
                    "uv": [
                        3.16667,
                        8.93333,
                        4.33333,
                        10.01667
                    ],
                    "texture": "#0"
                },
                "east": {
                    "uv": [
                        3.16667,
                        8.93333,
                        4.33333,
                        10.01667
                    ],
                    "texture": "#0"
                },
                "south": {
                    "uv": [
                        3.16667,
                        8.93333,
                        4.33333,
                        10.01667
                    ],
                    "texture": "#0"
                },
                "west": {
                    "uv": [
                        3.16667,
                        8.93333,
                        4.33333,
                        10.01667
                    ],
                    "texture": "#0"
                },
                "up": {
                    "uv": [
                        3.16667,
                        8.93333,
                        4.33333,
                        10.01667
                    ],
                    "texture": "#0"
                },
                "down": {
                    "uv": [
                        3.16667,
                        8.93333,
                        4.33333,
                        10.01667
                    ],
                    "texture": "#0"
                }
            }
        },
        {
            "from": [
                4.71356,
                1.54272,
                5.59631
            ],
            "to": [
                5.38497,
                1.61752,
                6.91703
            ],
            "rotation": {
                "angle": 22.5,
                "axis": "x",
                "origin": [
                    5.07426,
                    4.19262,
                    6.28167
                ]
            },
            "faces": {
                "north": {
                    "uv": [
                        3.16667,
                        8.93333,
                        4.33333,
                        10.01667
                    ],
                    "texture": "#0"
                },
                "east": {
                    "uv": [
                        3.16667,
                        8.93333,
                        4.33333,
                        10.01667
                    ],
                    "texture": "#0"
                },
                "south": {
                    "uv": [
                        3.16667,
                        8.93333,
                        4.33333,
                        10.01667
                    ],
                    "texture": "#0"
                },
                "west": {
                    "uv": [
                        3.16667,
                        8.93333,
                        4.33333,
                        10.01667
                    ],
                    "texture": "#0"
                },
                "up": {
                    "uv": [
                        3.16667,
                        8.93333,
                        4.33333,
                        10.01667
                    ],
                    "texture": "#0"
                },
                "down": {
                    "uv": [
                        3.16667,
                        8.93333,
                        4.33333,
                        10.01667
                    ],
                    "texture": "#0"
                }
            }
        }
    ],
    "display": {
        "thirdperson_righthand": {
            "translation": [
                3.25,
                3.75,
                1
            ],
            "scale": [
                1.1,
                1.1,
                1.1
            ]
        },
        "thirdperson_lefthand": {
            "translation": [
                -3.25,
                3.75,
                0.75
            ],
            "scale": [
                1.1,
                1.1,
                1.1
            ]
        },
        "firstperson_righthand": {
            "translation": [
                -1.75,
                6.25,
                4.75
            ],
            "scale": [
                1.1,
                1.1,
                1.1
            ]
        },
        "firstperson_lefthand": {
            "translation": [
                -8.75,
                6,
                5.5
            ],
            "scale": [
                1.1,
                1.1,
                1.1
            ]
        },
        "ground": {
            "translation": [
                4.5,
                7.25,
                1
            ],
            "scale": [
                1.1,
                1.1,
                1.1
            ]
        },
        "gui": {
            "rotation": [
                90,
                45,
                -90
            ],
            "translation": [
                3.25,
                1.75,
                0
            ]
        },
        "fixed": {
            "rotation": [
                90,
                45,
                -90
            ],
            "translation": [
                3.25,
                2,
                -3.75
            ],
            "scale": [
                1.1,
                1.1,
                1.1
            ]
        }
    }
}