{
    "textures": {
        "0": "gci:items/common/mpz",
        "particle": "gci:items/common/mpz"
    },
    "elements": [
        {
            "from": [
                6.97765,
                3.50398,
                19.19613
            ],
            "to": [
                8.02873,
                5.61868,
                21.66993
            ],
            "rotation": {
                "angle": -22.5,
                "axis": "x",
                "origin": [
                    7.49629,
                    3.6636,
                    14.5477
                ]
            },
            "faces": {
                "north": {
                    "uv": [
                        3.83333,
                        6.33333,
                        4.58233,
                        6.83333
                    ],
                    "texture": "#0"
                },
                "east": {
                    "uv": [
                        3.83333,
                        6.33333,
                        4.58233,
                        6.83333
                    ],
                    "texture": "#0"
                },
                "south": {
                    "uv": [
                        3.83333,
                        6.33333,
                        4.58233,
                        6.83333
                    ],
                    "texture": "#0"
                },
                "west": {
                    "uv": [
                        3.83333,
                        6.33333,
                        4.58233,
                        6.83333
                    ],
                    "texture": "#0"
                },
                "up": {
                    "uv": [
                        3.83333,
                        6.33333,
                        4.58233,
                        6.83333
                    ],
                    "texture": "#0"
                },
                "down": {
                    "uv": [
                        3.83333,
                        6.33333,
                        4.58233,
                        6.83333
                    ],
                    "texture": "#0"
                }
            }
        },
        {
            "from": [
                6.97765,
                4.62722,
                23.79159
            ],
            "to": [
                8.02873,
                6.14342,
                27.36951
            ],
            "rotation": {
                "angle": 0,
                "axis": "y",
                "origin": [
                    7.5,
                    8.262,
                    7.12
                ]
            },
            "faces": {
                "north": {
                    "uv": [
                        3.83333,
                        6.33333,
                        4.58233,
                        6.83333
                    ],
                    "texture": "#0"
                },
                "east": {
                    "uv": [
                        3.83333,
                        6.33333,
                        4.58233,
                        6.83333
                    ],
                    "texture": "#0"
                },
                "south": {
                    "uv": [
                        3.83333,
                        6.33333,
                        4.58233,
                        6.83333
                    ],
                    "texture": "#0"
                },
                "west": {
                    "uv": [
                        3.83333,
                        6.33333,
                        4.58233,
                        6.83333
                    ],
                    "texture": "#0"
                },
                "up": {
                    "uv": [
                        3.83333,
                        6.33333,
                        4.58233,
                        6.83333
                    ],
                    "texture": "#0"
                },
                "down": {
                    "uv": [
                        3.83333,
                        6.33333,
                        4.58233,
                        6.83333
                    ],
                    "texture": "#0"
                }
            }
        },
        {
            "from": [
                6.97708,
                3.03122,
                27.36948
            ],
            "to": [
                8.02987,
                6.14342,
                28.9524
            ],
            "rotation": {
                "angle": 0,
                "axis": "y",
                "origin": [
                    7.5,
                    8.262,
                    7.12
                ]
            },
            "faces": {
                "north": {
                    "uv": [
                        3.83333,
                        6.33333,
                        4.58233,
                        6.83333
                    ],
                    "texture": "#0"
                },
                "east": {
                    "uv": [
                        3.83333,
                        6.33333,
                        4.58233,
                        6.83333
                    ],
                    "texture": "#0"
                },
                "south": {
                    "uv": [
                        3.83333,
                        6.33333,
                        4.58233,
                        6.83333
                    ],
                    "texture": "#0"
                },
                "west": {
                    "uv": [
                        3.83333,
                        6.33333,
                        4.58233,
                        6.83333
                    ],
                    "texture": "#0"
                },
                "up": {
                    "uv": [
                        3.83333,
                        6.33333,
                        4.58233,
                        6.83333
                    ],
                    "texture": "#0"
                },
                "down": {
                    "uv": [
                        3.83333,
                        6.33333,
                        4.58233,
                        6.83333
                    ],
                    "texture": "#0"
                }
            }
        },
        {
            "from": [
                6.87765,
                4.64342,
                24.67957
            ],
            "to": [
                8.12873,
                7.19542,
                27.35237
            ],
            "rotation": {
                "angle": 0,
                "axis": "y",
                "origin": [
                    7.5,
                    8.262,
                    7.12
                ]
            },
            "faces": {
                "north": {
                    "uv": [
                        3.83333,
                        6.33333,
                        4.58233,
                        6.83333
                    ],
                    "texture": "#0"
                },
                "east": {
                    "uv": [
                        3.83333,
                        6.33333,
                        4.58233,
                        6.83333
                    ],
                    "texture": "#0"
                },
                "south": {
                    "uv": [
                        3.83333,
                        6.33333,
                        4.58233,
                        6.83333
                    ],
                    "texture": "#0"
                },
                "west": {
                    "uv": [
                        3.83333,
                        6.33333,
                        4.58233,
                        6.83333
                    ],
                    "texture": "#0"
                },
                "up": {
                    "uv": [
                        3.83333,
                        6.33333,
                        4.58233,
                        6.83333
                    ],
                    "texture": "#0"
                },
                "down": {
                    "uv": [
                        3.83333,
                        6.33333,
                        4.58233,
                        6.83333
                    ],
                    "texture": "#0"
                }
            }
        },
        {
            "from": [
                6.87765,
                3.24342,
                27.07957
            ],
            "to": [
                8.12873,
                7.89542,
                28.75237
            ],
            "rotation": {
                "angle": 0,
                "axis": "y",
                "origin": [
                    7.5,
                    8.262,
                    7.12
                ]
            },
            "faces": {
                "north": {
                    "uv": [
                        3.83333,
                        6.33333,
                        4.58233,
                        6.83333
                    ],
                    "texture": "#0"
                },
                "east": {
                    "uv": [
                        3.83333,
                        6.33333,
                        4.58233,
                        6.83333
                    ],
                    "texture": "#0"
                },
                "south": {
                    "uv": [
                        3.83333,
                        6.33333,
                        4.58233,
                        6.83333
                    ],
                    "texture": "#0"
                },
                "west": {
                    "uv": [
                        3.83333,
                        6.33333,
                        4.58233,
                        6.83333
                    ],
                    "texture": "#0"
                },
                "up": {
                    "uv": [
                        3.83333,
                        6.33333,
                        4.58233,
                        6.83333
                    ],
                    "texture": "#0"
                },
                "down": {
                    "uv": [
                        3.83333,
                        6.33333,
                        4.58233,
                        6.83333
                    ],
                    "texture": "#0"
                }
            }
        },
        {
            "from": [
                6.87765,
                11.93245,
                16.79154
            ],
            "to": [
                8.12873,
                13.08445,
                23.96434
            ],
            "rotation": {
                "angle": 22.5,
                "axis": "x",
                "origin": [
                    7.5,
                    7.75103,
                    5.63197
                ]
            },
            "faces": {
                "north": {
                    "uv": [
                        3.83333,
                        6.33333,
                        4.58233,
                        6.83333
                    ],
                    "texture": "#0"
                },
                "east": {
                    "uv": [
                        3.83333,
                        6.33333,
                        4.58233,
                        6.83333
                    ],
                    "texture": "#0"
                },
                "south": {
                    "uv": [
                        3.83333,
                        6.33333,
                        4.58233,
                        6.83333
                    ],
                    "texture": "#0"
                },
                "west": {
                    "uv": [
                        3.83333,
                        6.33333,
                        4.58233,
                        6.83333
                    ],
                    "texture": "#0"
                },
                "up": {
                    "uv": [
                        3.83333,
                        6.33333,
                        4.58233,
                        6.83333
                    ],
                    "texture": "#0"
                },
                "down": {
                    "uv": [
                        3.83333,
                        6.33333,
                        4.58233,
                        6.83333
                    ],
                    "texture": "#0"
                }
            }
        },
        {
            "from": [
                6.87765,
                11.83245,
                19.19154
            ],
            "to": [
                8.12873,
                13.58445,
                27.26434
            ],
            "rotation": {
                "angle": 22.5,
                "axis": "x",
                "origin": [
                    7.5,
                    7.75103,
                    5.63197
                ]
            },
            "faces": {
                "north": {
                    "uv": [
                        3.83333,
                        6.33333,
                        4.58233,
                        6.83333
                    ],
                    "texture": "#0"
                },
                "east": {
                    "uv": [
                        3.83333,
                        6.33333,
                        4.58233,
                        6.83333
                    ],
                    "texture": "#0"
                },
                "south": {
                    "uv": [
                        3.83333,
                        6.33333,
                        4.58233,
                        6.83333
                    ],
                    "texture": "#0"
                },
                "west": {
                    "uv": [
                        3.83333,
                        6.33333,
                        4.58233,
                        6.83333
                    ],
                    "texture": "#0"
                },
                "up": {
                    "uv": [
                        3.83333,
                        6.33333,
                        4.58233,
                        6.83333
                    ],
                    "texture": "#0"
                },
                "down": {
                    "uv": [
                        3.83333,
                        6.33333,
                        4.58233,
                        6.83333
                    ],
                    "texture": "#0"
                }
            }
        },
        {
            "from": [
                6.87765,
                6.14342,
                20.37957
            ],
            "to": [
                8.12873,
                7.89542,
                28.75237
            ],
            "rotation": {
                "angle": 0,
                "axis": "y",
                "origin": [
                    7.5,
                    8.262,
                    7.12
                ]
            },
            "faces": {
                "north": {
                    "uv": [
                        3.83333,
                        6.33333,
                        4.58233,
                        6.83333
                    ],
                    "texture": "#0"
                },
                "east": {
                    "uv": [
                        3.83333,
                        6.33333,
                        4.58233,
                        6.83333
                    ],
                    "texture": "#0"
                },
                "south": {
                    "uv": [
                        3.83333,
                        6.33333,
                        4.58233,
                        6.83333
                    ],
                    "texture": "#0"
                },
                "west": {
                    "uv": [
                        3.83333,
                        6.33333,
                        4.58233,
                        6.83333
                    ],
                    "texture": "#0"
                },
                "up": {
                    "uv": [
                        3.83333,
                        6.33333,
                        4.58233,
                        6.83333
                    ],
                    "texture": "#0"
                },
                "down": {
                    "uv": [
                        3.83333,
                        6.33333,
                        4.58233,
                        6.83333
                    ],
                    "texture": "#0"
                }
            }
        },
        {
            "from": [
                6.97765,
                6.14342,
                20.37957
            ],
            "to": [
                8.02873,
                8.19542,
                28.95237
            ],
            "rotation": {
                "angle": 0,
                "axis": "y",
                "origin": [
                    7.5,
                    8.262,
                    7.12
                ]
            },
            "faces": {
                "north": {
                    "uv": [
                        3.83333,
                        6.33333,
                        4.58233,
                        6.83333
                    ],
                    "texture": "#0"
                },
                "east": {
                    "uv": [
                        3.83333,
                        6.33333,
                        4.58233,
                        6.83333
                    ],
                    "texture": "#0"
                },
                "south": {
                    "uv": [
                        3.83333,
                        6.33333,
                        4.58233,
                        6.83333
                    ],
                    "texture": "#0"
                },
                "west": {
                    "uv": [
                        3.83333,
                        6.33333,
                        4.58233,
                        6.83333
                    ],
                    "texture": "#0"
                },
                "up": {
                    "uv": [
                        3.83333,
                        6.33333,
                        4.58233,
                        6.83333
                    ],
                    "texture": "#0"
                },
                "down": {
                    "uv": [
                        3.83333,
                        6.33333,
                        4.58233,
                        6.83333
                    ],
                    "texture": "#0"
                }
            }
        },
        {
            "from": [
                6.97708,
                7.09396,
                17.43301
            ],
            "to": [
                8.0293,
                8.61017,
                28.39981
            ],
            "rotation": {
                "angle": 22.5,
                "axis": "x",
                "origin": [
                    7.49589,
                    7.65252,
                    17.67241
                ]
            },
            "faces": {
                "north": {
                    "uv": [
                        3.83333,
                        6.33333,
                        4.58233,
                        6.83333
                    ],
                    "texture": "#0"
                },
                "east": {
                    "uv": [
                        3.83333,
                        6.33333,
                        4.58233,
                        6.83333
                    ],
                    "texture": "#0"
                },
                "south": {
                    "uv": [
                        3.83333,
                        6.33333,
                        4.58233,
                        6.83333
                    ],
                    "texture": "#0"
                },
                "west": {
                    "uv": [
                        3.83333,
                        6.33333,
                        4.58233,
                        6.83333
                    ],
                    "texture": "#0"
                },
                "up": {
                    "uv": [
                        3.83333,
                        6.33333,
                        4.58233,
                        6.83333
                    ],
                    "texture": "#0"
                },
                "down": {
                    "uv": [
                        3.83333,
                        6.33333,
                        4.58233,
                        6.83333
                    ],
                    "texture": "#0"
                }
            }
        }
    ],
    "display": {
        "thirdperson_righthand": {
            "translation": [
                0.75,
                1.5,
                -6
            ],
            "scale": [
                1,
                1,
                0.75
            ]
        },
        "thirdperson_lefthand": {
            "translation": [
                0.75,
                1.5,
                -6
            ],
            "scale": [
                1,
                1,
                0.75
            ]
        },
        "firstperson_righthand": {
            "translation": [
                0,
                3.25,
                -6
            ],
            "scale": [
                1,
                1,
                0.75
            ]
        },
        "firstperson_lefthand": {
            "translation": [
                0,
                3.25,
                -6
            ],
            "scale": [
                1,
                1,
                0.75
            ]
        },
        "ground": {
            "translation": [
                7,
                5.5,
                3.5
            ],
            "scale": [
                1.2,
                1.2,
                1.2
            ]
        },
        "gui": {
            "rotation": [
                54,
                -44,
                63
            ],
            "translation": [
                -2,
                3,
                0
            ]
        },
        "head": {
            "translation": [
                6.25,
                11.5,
                0
            ]
        },
        "fixed": {
            "rotation": [
                90,
                45,
                -90
            ],
            "translation": [
                0.25,
                2,
                -1.75
            ],
            "scale": [
                1,
                1,
                0.75
            ]
        }
    }
}