{
    "textures": {
        "0": "gci:items/common/mpz",
        "particle": "MPZ"
    },
    "elements": [
        {
            "from": [
                3.92773,
                2.89313,
                10.4241
            ],
            "to": [
                4.21533,
                4.27953,
                12.0241
            ],
            "rotation": {
                "angle": 22.5,
                "axis": "z",
                "origin": [
                    -1.54702,
                    3.73573,
                    9.5641
                ]
            },
            "faces": {
                "north": {
                    "uv": [
                        11.16667,
                        0.6,
                        12.66667,
                        2.01667
                    ],
                    "rotation": 270,
                    "texture": "#0"
                },
                "east": {
                    "uv": [
                        11.16667,
                        0.6,
                        12.66667,
                        2.01667
                    ],
                    "rotation": 270,
                    "texture": "#0"
                },
                "south": {
                    "uv": [
                        11.16667,
                        0.6,
                        12.66667,
                        2.01667
                    ],
                    "rotation": 270,
                    "texture": "#0"
                },
                "west": {
                    "uv": [
                        11.16667,
                        0.6,
                        12.66667,
                        2.01667
                    ],
                    "rotation": 270,
                    "texture": "#0"
                },
                "up": {
                    "uv": [
                        11.16667,
                        0.6,
                        12.66667,
                        2.01667
                    ],
                    "rotation": 270,
                    "texture": "#0"
                },
                "down": {
                    "uv": [
                        11.16667,
                        0.6,
                        12.66667,
                        2.01667
                    ],
                    "rotation": 270,
                    "texture": "#0"
                }
            }
        },
        {
            "from": [
                4.02703,
                2.85342,
                10.4241
            ],
            "to": [
                4.31463,
                2.93982,
                12.0241
            ],
            "rotation": {
                "angle": 22.5,
                "axis": "z",
                "origin": [
                    -1.44772,
                    3.49602,
                    9.5641
                ]
            },
            "faces": {
                "north": {
                    "uv": [
                        11.16667,
                        0.6,
                        12.66667,
                        2.01667
                    ],
                    "rotation": 270,
                    "texture": "#0"
                },
                "east": {
                    "uv": [
                        11.16667,
                        0.6,
                        12.66667,
                        2.01667
                    ],
                    "rotation": 270,
                    "texture": "#0"
                },
                "south": {
                    "uv": [
                        11.16667,
                        0.6,
                        12.66667,
                        2.01667
                    ],
                    "rotation": 270,
                    "texture": "#0"
                },
                "west": {
                    "uv": [
                        11.16667,
                        0.6,
                        12.66667,
                        2.01667
                    ],
                    "rotation": 270,
                    "texture": "#0"
                },
                "up": {
                    "uv": [
                        11.16667,
                        0.6,
                        12.66667,
                        2.01667
                    ],
                    "rotation": 270,
                    "texture": "#0"
                },
                "down": {
                    "uv": [
                        11.16667,
                        0.6,
                        12.66667,
                        2.01667
                    ],
                    "rotation": 270,
                    "texture": "#0"
                }
            }
        },
        {
            "from": [
                6.6625,
                1.95041,
                10.4241
            ],
            "to": [
                6.9501,
                2.93681,
                12.0241
            ],
            "rotation": {
                "angle": 22.5,
                "axis": "z",
                "origin": [
                    -1.11225,
                    2.89301,
                    9.5641
                ]
            },
            "faces": {
                "north": {
                    "uv": [
                        11.16667,
                        0.6,
                        12.66667,
                        2.01667
                    ],
                    "rotation": 270,
                    "texture": "#0"
                },
                "east": {
                    "uv": [
                        11.16667,
                        0.6,
                        12.66667,
                        2.01667
                    ],
                    "rotation": 270,
                    "texture": "#0"
                },
                "south": {
                    "uv": [
                        11.16667,
                        0.6,
                        12.66667,
                        2.01667
                    ],
                    "rotation": 270,
                    "texture": "#0"
                },
                "west": {
                    "uv": [
                        11.16667,
                        0.6,
                        12.66667,
                        2.01667
                    ],
                    "rotation": 270,
                    "texture": "#0"
                },
                "up": {
                    "uv": [
                        11.16667,
                        0.6,
                        12.66667,
                        2.01667
                    ],
                    "rotation": 270,
                    "texture": "#0"
                },
                "down": {
                    "uv": [
                        11.16667,
                        0.6,
                        12.66667,
                        2.01667
                    ],
                    "rotation": 270,
                    "texture": "#0"
                }
            }
        },
        {
            "from": [
                5.51183,
                1.20725,
                10.4241
            ],
            "to": [
                5.79943,
                2.59365,
                12.0241
            ],
            "rotation": {
                "angle": 45,
                "axis": "z",
                "origin": [
                    0.03708,
                    1.44985,
                    9.5641
                ]
            },
            "faces": {
                "north": {
                    "uv": [
                        11.16667,
                        0.6,
                        12.66667,
                        2.01667
                    ],
                    "rotation": 270,
                    "texture": "#0"
                },
                "east": {
                    "uv": [
                        11.16667,
                        0.6,
                        12.66667,
                        2.01667
                    ],
                    "rotation": 270,
                    "texture": "#0"
                },
                "south": {
                    "uv": [
                        11.16667,
                        0.6,
                        12.66667,
                        2.01667
                    ],
                    "rotation": 270,
                    "texture": "#0"
                },
                "west": {
                    "uv": [
                        11.16667,
                        0.6,
                        12.66667,
                        2.01667
                    ],
                    "rotation": 270,
                    "texture": "#0"
                },
                "up": {
                    "uv": [
                        11.16667,
                        0.6,
                        12.66667,
                        2.01667
                    ],
                    "rotation": 270,
                    "texture": "#0"
                },
                "down": {
                    "uv": [
                        11.16667,
                        0.6,
                        12.66667,
                        2.01667
                    ],
                    "rotation": 270,
                    "texture": "#0"
                }
            }
        },
        {
            "from": [
                5.62459,
                1.19449,
                10.4241
            ],
            "to": [
                5.91219,
                1.28089,
                12.0241
            ],
            "rotation": {
                "angle": 45,
                "axis": "z",
                "origin": [
                    0.14984,
                    1.33709,
                    9.5641
                ]
            },
            "faces": {
                "north": {
                    "uv": [
                        11.16667,
                        0.6,
                        12.66667,
                        2.01667
                    ],
                    "rotation": 270,
                    "texture": "#0"
                },
                "east": {
                    "uv": [
                        11.16667,
                        0.6,
                        12.66667,
                        2.01667
                    ],
                    "rotation": 270,
                    "texture": "#0"
                },
                "south": {
                    "uv": [
                        11.16667,
                        0.6,
                        12.66667,
                        2.01667
                    ],
                    "rotation": 270,
                    "texture": "#0"
                },
                "west": {
                    "uv": [
                        11.16667,
                        0.6,
                        12.66667,
                        2.01667
                    ],
                    "rotation": 270,
                    "texture": "#0"
                },
                "up": {
                    "uv": [
                        11.16667,
                        0.6,
                        12.66667,
                        2.01667
                    ],
                    "rotation": 270,
                    "texture": "#0"
                },
                "down": {
                    "uv": [
                        11.16667,
                        0.6,
                        12.66667,
                        2.01667
                    ],
                    "rotation": 270,
                    "texture": "#0"
                }
            }
        },
        {
            "from": [
                7.61989,
                -0.20551,
                10.4241
            ],
            "to": [
                7.90749,
                0.48089,
                12.0241
            ],
            "rotation": {
                "angle": 45,
                "axis": "z",
                "origin": [
                    0.74514,
                    1.33709,
                    9.5641
                ]
            },
            "faces": {
                "north": {
                    "uv": [
                        11.16667,
                        0.6,
                        12.66667,
                        2.01667
                    ],
                    "rotation": 270,
                    "texture": "#0"
                },
                "east": {
                    "uv": [
                        11.16667,
                        0.6,
                        12.66667,
                        2.01667
                    ],
                    "rotation": 270,
                    "texture": "#0"
                },
                "south": {
                    "uv": [
                        11.16667,
                        0.6,
                        12.66667,
                        2.01667
                    ],
                    "rotation": 270,
                    "texture": "#0"
                },
                "west": {
                    "uv": [
                        11.16667,
                        0.6,
                        12.66667,
                        2.01667
                    ],
                    "rotation": 270,
                    "texture": "#0"
                },
                "up": {
                    "uv": [
                        11.16667,
                        0.6,
                        12.66667,
                        2.01667
                    ],
                    "rotation": 270,
                    "texture": "#0"
                },
                "down": {
                    "uv": [
                        11.16667,
                        0.6,
                        12.66667,
                        2.01667
                    ],
                    "rotation": 270,
                    "texture": "#0"
                }
            }
        },
        {
            "from": [
                0.76163,
                5.61358,
                10.4241
            ],
            "to": [
                2.14803,
                5.90118,
                12.0241
            ],
            "rotation": {
                "angle": -22.5,
                "axis": "z",
                "origin": [
                    2.50543,
                    0.13883,
                    9.5641
                ]
            },
            "faces": {
                "north": {
                    "uv": [
                        11.16667,
                        0.6,
                        12.66667,
                        2.01667
                    ],
                    "texture": "#0"
                },
                "east": {
                    "uv": [
                        11.16667,
                        0.6,
                        12.66667,
                        2.01667
                    ],
                    "rotation": 180,
                    "texture": "#0"
                },
                "south": {
                    "uv": [
                        11.16667,
                        0.6,
                        12.66667,
                        2.01667
                    ],
                    "rotation": 180,
                    "texture": "#0"
                },
                "west": {
                    "uv": [
                        11.16667,
                        0.6,
                        12.66667,
                        2.01667
                    ],
                    "rotation": 180,
                    "texture": "#0"
                },
                "up": {
                    "uv": [
                        11.16667,
                        0.6,
                        12.66667,
                        2.01667
                    ],
                    "rotation": 180,
                    "texture": "#0"
                },
                "down": {
                    "uv": [
                        11.16667,
                        0.6,
                        12.66667,
                        2.01667
                    ],
                    "rotation": 180,
                    "texture": "#0"
                }
            }
        },
        {
            "from": [
                2.10896,
                5.55255,
                10.4241
            ],
            "to": [
                2.19536,
                5.84015,
                12.0241
            ],
            "rotation": {
                "angle": -22.5,
                "axis": "z",
                "origin": [
                    2.65276,
                    0.07781,
                    9.5641
                ]
            },
            "faces": {
                "north": {
                    "uv": [
                        11.16667,
                        0.6,
                        12.66667,
                        2.01667
                    ],
                    "texture": "#0"
                },
                "east": {
                    "uv": [
                        11.16667,
                        0.6,
                        12.66667,
                        2.01667
                    ],
                    "rotation": 180,
                    "texture": "#0"
                },
                "south": {
                    "uv": [
                        11.16667,
                        0.6,
                        12.66667,
                        2.01667
                    ],
                    "rotation": 180,
                    "texture": "#0"
                },
                "west": {
                    "uv": [
                        11.16667,
                        0.6,
                        12.66667,
                        2.01667
                    ],
                    "rotation": 180,
                    "texture": "#0"
                },
                "up": {
                    "uv": [
                        11.16667,
                        0.6,
                        12.66667,
                        2.01667
                    ],
                    "rotation": 180,
                    "texture": "#0"
                },
                "down": {
                    "uv": [
                        11.16667,
                        0.6,
                        12.66667,
                        2.01667
                    ],
                    "rotation": 180,
                    "texture": "#0"
                }
            }
        },
        {
            "from": [
                3.80595,
                6.16485,
                10.4241
            ],
            "to": [
                4.89235,
                6.45245,
                12.0241
            ],
            "rotation": {
                "angle": -22.5,
                "axis": "z",
                "origin": [
                    3.74975,
                    0.6901,
                    9.5641
                ]
            },
            "faces": {
                "north": {
                    "uv": [
                        11.16667,
                        0.6,
                        12.66667,
                        2.01667
                    ],
                    "texture": "#0"
                },
                "east": {
                    "uv": [
                        11.16667,
                        0.6,
                        12.66667,
                        2.01667
                    ],
                    "rotation": 180,
                    "texture": "#0"
                },
                "south": {
                    "uv": [
                        11.16667,
                        0.6,
                        12.66667,
                        2.01667
                    ],
                    "rotation": 180,
                    "texture": "#0"
                },
                "west": {
                    "uv": [
                        11.16667,
                        0.6,
                        12.66667,
                        2.01667
                    ],
                    "rotation": 180,
                    "texture": "#0"
                },
                "up": {
                    "uv": [
                        11.16667,
                        0.6,
                        12.66667,
                        2.01667
                    ],
                    "rotation": 180,
                    "texture": "#0"
                },
                "down": {
                    "uv": [
                        11.16667,
                        0.6,
                        12.66667,
                        2.01667
                    ],
                    "rotation": 180,
                    "texture": "#0"
                }
            }
        },
        {
            "from": [
                2.98947,
                5.57656,
                10.4241
            ],
            "to": [
                4.37587,
                5.86416,
                12.0241
            ],
            "rotation": {
                "angle": 0,
                "axis": "y",
                "origin": [
                    7.23327,
                    0.10181,
                    9.5641
                ]
            },
            "faces": {
                "north": {
                    "uv": [
                        11.16667,
                        0.6,
                        12.66667,
                        2.01667
                    ],
                    "texture": "#0"
                },
                "east": {
                    "uv": [
                        11.16667,
                        0.6,
                        12.66667,
                        2.01667
                    ],
                    "rotation": 180,
                    "texture": "#0"
                },
                "south": {
                    "uv": [
                        11.16667,
                        0.6,
                        12.66667,
                        2.01667
                    ],
                    "rotation": 180,
                    "texture": "#0"
                },
                "west": {
                    "uv": [
                        11.16667,
                        0.6,
                        12.66667,
                        2.01667
                    ],
                    "rotation": 180,
                    "texture": "#0"
                },
                "up": {
                    "uv": [
                        11.16667,
                        0.6,
                        12.66667,
                        2.01667
                    ],
                    "rotation": 180,
                    "texture": "#0"
                },
                "down": {
                    "uv": [
                        11.16667,
                        0.6,
                        12.66667,
                        2.01667
                    ],
                    "rotation": 180,
                    "texture": "#0"
                }
            }
        },
        {
            "from": [
                4.04893,
                5.57656,
                10.4241
            ],
            "to": [
                4.43533,
                6.16416,
                12.0241
            ],
            "rotation": {
                "angle": 0,
                "axis": "y",
                "origin": [
                    7.29273,
                    0.10181,
                    9.5641
                ]
            },
            "faces": {
                "north": {
                    "uv": [
                        11.16667,
                        0.6,
                        12.66667,
                        2.01667
                    ],
                    "texture": "#0"
                },
                "east": {
                    "uv": [
                        11.16667,
                        0.6,
                        12.66667,
                        2.01667
                    ],
                    "rotation": 180,
                    "texture": "#0"
                },
                "south": {
                    "uv": [
                        11.16667,
                        0.6,
                        12.66667,
                        2.01667
                    ],
                    "rotation": 180,
                    "texture": "#0"
                },
                "west": {
                    "uv": [
                        11.16667,
                        0.6,
                        12.66667,
                        2.01667
                    ],
                    "rotation": 180,
                    "texture": "#0"
                },
                "up": {
                    "uv": [
                        11.16667,
                        0.6,
                        12.66667,
                        2.01667
                    ],
                    "rotation": 180,
                    "texture": "#0"
                },
                "down": {
                    "uv": [
                        11.16667,
                        0.6,
                        12.66667,
                        2.01667
                    ],
                    "rotation": 180,
                    "texture": "#0"
                }
            }
        },
        {
            "from": [
                6.02413,
                5.57656,
                10.4241
            ],
            "to": [
                7.01053,
                5.86416,
                12.0241
            ],
            "rotation": {
                "angle": 0,
                "axis": "y",
                "origin": [
                    7.46793,
                    0.10181,
                    9.5641
                ]
            },
            "faces": {
                "north": {
                    "uv": [
                        11.16667,
                        0.6,
                        12.66667,
                        2.01667
                    ],
                    "texture": "#0"
                },
                "east": {
                    "uv": [
                        11.16667,
                        0.6,
                        12.66667,
                        2.01667
                    ],
                    "rotation": 180,
                    "texture": "#0"
                },
                "south": {
                    "uv": [
                        11.16667,
                        0.6,
                        12.66667,
                        2.01667
                    ],
                    "rotation": 180,
                    "texture": "#0"
                },
                "west": {
                    "uv": [
                        11.16667,
                        0.6,
                        12.66667,
                        2.01667
                    ],
                    "rotation": 180,
                    "texture": "#0"
                },
                "up": {
                    "uv": [
                        11.16667,
                        0.6,
                        12.66667,
                        2.01667
                    ],
                    "rotation": 180,
                    "texture": "#0"
                },
                "down": {
                    "uv": [
                        11.16667,
                        0.6,
                        12.66667,
                        2.01667
                    ],
                    "rotation": 180,
                    "texture": "#0"
                }
            }
        },
        {
            "from": [
                5.56467,
                5.57656,
                10.4241
            ],
            "to": [
                6.85107,
                6.16416,
                12.0241
            ],
            "rotation": {
                "angle": 0,
                "axis": "y",
                "origin": [
                    7.30847,
                    0.10181,
                    9.5641
                ]
            },
            "faces": {
                "north": {
                    "uv": [
                        11.16667,
                        0.6,
                        12.66667,
                        2.01667
                    ],
                    "texture": "#0"
                },
                "east": {
                    "uv": [
                        11.16667,
                        0.6,
                        12.66667,
                        2.01667
                    ],
                    "rotation": 180,
                    "texture": "#0"
                },
                "south": {
                    "uv": [
                        11.16667,
                        0.6,
                        12.66667,
                        2.01667
                    ],
                    "rotation": 180,
                    "texture": "#0"
                },
                "west": {
                    "uv": [
                        11.16667,
                        0.6,
                        12.66667,
                        2.01667
                    ],
                    "rotation": 180,
                    "texture": "#0"
                },
                "up": {
                    "uv": [
                        11.16667,
                        0.6,
                        12.66667,
                        2.01667
                    ],
                    "rotation": 180,
                    "texture": "#0"
                },
                "down": {
                    "uv": [
                        11.16667,
                        0.6,
                        12.66667,
                        2.01667
                    ],
                    "rotation": 180,
                    "texture": "#0"
                }
            }
        },
        {
            "from": [
                3.8562,
                6.15689,
                10.4241
            ],
            "to": [
                6.1438,
                6.44329,
                12.0241
            ],
            "rotation": {
                "angle": 0,
                "axis": "y",
                "origin": [
                    -2.21855,
                    5.89949,
                    9.5641
                ]
            },
            "faces": {
                "north": {
                    "uv": [
                        11.16667,
                        0.6,
                        12.66667,
                        2.01667
                    ],
                    "rotation": 270,
                    "texture": "#0"
                },
                "east": {
                    "uv": [
                        11.16667,
                        0.6,
                        12.66667,
                        2.01667
                    ],
                    "rotation": 270,
                    "texture": "#0"
                },
                "south": {
                    "uv": [
                        11.16667,
                        0.6,
                        12.66667,
                        2.01667
                    ],
                    "rotation": 270,
                    "texture": "#0"
                },
                "west": {
                    "uv": [
                        11.16667,
                        0.6,
                        12.66667,
                        2.01667
                    ],
                    "rotation": 270,
                    "texture": "#0"
                },
                "up": {
                    "uv": [
                        11.16667,
                        0.6,
                        12.66667,
                        2.01667
                    ],
                    "rotation": 270,
                    "texture": "#0"
                },
                "down": {
                    "uv": [
                        11.16667,
                        0.6,
                        12.66667,
                        2.01667
                    ],
                    "rotation": 270,
                    "texture": "#0"
                }
            }
        },
        {
            "from": [
                6.1438,
                5.05689,
                10.4241
            ],
            "to": [
                6.4314,
                6.44329,
                12.0241
            ],
            "rotation": {
                "angle": 0,
                "axis": "y",
                "origin": [
                    -2.33095,
                    5.89949,
                    9.5641
                ]
            },
            "faces": {
                "north": {
                    "uv": [
                        11.16667,
                        0.6,
                        12.66667,
                        2.01667
                    ],
                    "rotation": 270,
                    "texture": "#0"
                },
                "east": {
                    "uv": [
                        11.16667,
                        0.6,
                        12.66667,
                        2.01667
                    ],
                    "rotation": 270,
                    "texture": "#0"
                },
                "south": {
                    "uv": [
                        11.16667,
                        0.6,
                        12.66667,
                        2.01667
                    ],
                    "rotation": 270,
                    "texture": "#0"
                },
                "west": {
                    "uv": [
                        11.16667,
                        0.6,
                        12.66667,
                        2.01667
                    ],
                    "rotation": 270,
                    "texture": "#0"
                },
                "up": {
                    "uv": [
                        11.16667,
                        0.6,
                        12.66667,
                        2.01667
                    ],
                    "rotation": 270,
                    "texture": "#0"
                },
                "down": {
                    "uv": [
                        11.16667,
                        0.6,
                        12.66667,
                        2.01667
                    ],
                    "rotation": 270,
                    "texture": "#0"
                }
            }
        },
        {
            "from": [
                3.5686,
                5.05689,
                10.4241
            ],
            "to": [
                3.8562,
                6.44329,
                12.0241
            ],
            "rotation": {
                "angle": 0,
                "axis": "y",
                "origin": [
                    -1.90615,
                    5.89949,
                    9.5641
                ]
            },
            "faces": {
                "north": {
                    "uv": [
                        11.16667,
                        0.6,
                        12.66667,
                        2.01667
                    ],
                    "rotation": 270,
                    "texture": "#0"
                },
                "east": {
                    "uv": [
                        11.16667,
                        0.6,
                        12.66667,
                        2.01667
                    ],
                    "rotation": 270,
                    "texture": "#0"
                },
                "south": {
                    "uv": [
                        11.16667,
                        0.6,
                        12.66667,
                        2.01667
                    ],
                    "rotation": 270,
                    "texture": "#0"
                },
                "west": {
                    "uv": [
                        11.16667,
                        0.6,
                        12.66667,
                        2.01667
                    ],
                    "rotation": 270,
                    "texture": "#0"
                },
                "up": {
                    "uv": [
                        11.16667,
                        0.6,
                        12.66667,
                        2.01667
                    ],
                    "rotation": 270,
                    "texture": "#0"
                },
                "down": {
                    "uv": [
                        11.16667,
                        0.6,
                        12.66667,
                        2.01667
                    ],
                    "rotation": 270,
                    "texture": "#0"
                }
            }
        },
        {
            "from": [
                3.5686,
                4.99743,
                10.4241
            ],
            "to": [
                3.8562,
                5.08383,
                12.0241
            ],
            "rotation": {
                "angle": 0,
                "axis": "y",
                "origin": [
                    -1.90615,
                    5.74003,
                    9.5641
                ]
            },
            "faces": {
                "north": {
                    "uv": [
                        11.16667,
                        0.6,
                        12.66667,
                        2.01667
                    ],
                    "rotation": 270,
                    "texture": "#0"
                },
                "east": {
                    "uv": [
                        11.16667,
                        0.6,
                        12.66667,
                        2.01667
                    ],
                    "rotation": 270,
                    "texture": "#0"
                },
                "south": {
                    "uv": [
                        11.16667,
                        0.6,
                        12.66667,
                        2.01667
                    ],
                    "rotation": 270,
                    "texture": "#0"
                },
                "west": {
                    "uv": [
                        11.16667,
                        0.6,
                        12.66667,
                        2.01667
                    ],
                    "rotation": 270,
                    "texture": "#0"
                },
                "up": {
                    "uv": [
                        11.16667,
                        0.6,
                        12.66667,
                        2.01667
                    ],
                    "rotation": 270,
                    "texture": "#0"
                },
                "down": {
                    "uv": [
                        11.16667,
                        0.6,
                        12.66667,
                        2.01667
                    ],
                    "rotation": 270,
                    "texture": "#0"
                }
            }
        },
        {
            "from": [
                6.1438,
                4.99743,
                10.4241
            ],
            "to": [
                6.4314,
                5.08383,
                12.0241
            ],
            "rotation": {
                "angle": 0,
                "axis": "y",
                "origin": [
                    -2.33095,
                    5.64003,
                    9.5641
                ]
            },
            "faces": {
                "north": {
                    "uv": [
                        11.16667,
                        0.6,
                        12.66667,
                        2.01667
                    ],
                    "rotation": 270,
                    "texture": "#0"
                },
                "east": {
                    "uv": [
                        11.16667,
                        0.6,
                        12.66667,
                        2.01667
                    ],
                    "rotation": 270,
                    "texture": "#0"
                },
                "south": {
                    "uv": [
                        11.16667,
                        0.6,
                        12.66667,
                        2.01667
                    ],
                    "rotation": 270,
                    "texture": "#0"
                },
                "west": {
                    "uv": [
                        11.16667,
                        0.6,
                        12.66667,
                        2.01667
                    ],
                    "rotation": 270,
                    "texture": "#0"
                },
                "up": {
                    "uv": [
                        11.16667,
                        0.6,
                        12.66667,
                        2.01667
                    ],
                    "rotation": 270,
                    "texture": "#0"
                },
                "down": {
                    "uv": [
                        11.16667,
                        0.6,
                        12.66667,
                        2.01667
                    ],
                    "rotation": 270,
                    "texture": "#0"
                }
            }
        },
        {
            "from": [
                6.37511,
                6.17333,
                10.4241
            ],
            "to": [
                7.76151,
                6.46093,
                12.0241
            ],
            "rotation": {
                "angle": 45,
                "axis": "z",
                "origin": [
                    7.38344,
                    5.11223,
                    9.5641
                ]
            },
            "faces": {
                "north": {
                    "uv": [
                        11.16667,
                        0.6,
                        12.66667,
                        2.01667
                    ],
                    "rotation": 180,
                    "texture": "#0"
                },
                "east": {
                    "uv": [
                        11.16667,
                        0.6,
                        12.66667,
                        2.01667
                    ],
                    "texture": "#0"
                },
                "south": {
                    "uv": [
                        11.16667,
                        0.6,
                        12.66667,
                        2.01667
                    ],
                    "texture": "#0"
                },
                "west": {
                    "uv": [
                        11.16667,
                        0.6,
                        12.66667,
                        2.01667
                    ],
                    "texture": "#0"
                },
                "up": {
                    "uv": [
                        11.16667,
                        0.6,
                        12.66667,
                        2.01667
                    ],
                    "texture": "#0"
                },
                "down": {
                    "uv": [
                        11.16667,
                        0.6,
                        12.66667,
                        2.01667
                    ],
                    "texture": "#0"
                }
            }
        },
        {
            "from": [
                6.42093,
                5.91915,
                10.4241
            ],
            "to": [
                6.50733,
                6.20675,
                12.0241
            ],
            "rotation": {
                "angle": 45,
                "axis": "z",
                "origin": [
                    7.12926,
                    4.85805,
                    9.5641
                ]
            },
            "faces": {
                "north": {
                    "uv": [
                        11.16667,
                        0.6,
                        12.66667,
                        2.01667
                    ],
                    "rotation": 180,
                    "texture": "#0"
                },
                "east": {
                    "uv": [
                        11.16667,
                        0.6,
                        12.66667,
                        2.01667
                    ],
                    "texture": "#0"
                },
                "south": {
                    "uv": [
                        11.16667,
                        0.6,
                        12.66667,
                        2.01667
                    ],
                    "texture": "#0"
                },
                "west": {
                    "uv": [
                        11.16667,
                        0.6,
                        12.66667,
                        2.01667
                    ],
                    "texture": "#0"
                },
                "up": {
                    "uv": [
                        11.16667,
                        0.6,
                        12.66667,
                        2.01667
                    ],
                    "texture": "#0"
                },
                "down": {
                    "uv": [
                        11.16667,
                        0.6,
                        12.66667,
                        2.01667
                    ],
                    "texture": "#0"
                }
            }
        },
        {
            "from": [
                3.98923,
                6.9727,
                10.4241
            ],
            "to": [
                5.47563,
                7.2603,
                12.0241
            ],
            "rotation": {
                "angle": 45,
                "axis": "z",
                "origin": [
                    5.89757,
                    5.21161,
                    9.5641
                ]
            },
            "faces": {
                "north": {
                    "uv": [
                        11.16667,
                        0.6,
                        12.66667,
                        2.01667
                    ],
                    "rotation": 180,
                    "texture": "#0"
                },
                "east": {
                    "uv": [
                        11.16667,
                        0.6,
                        12.66667,
                        2.01667
                    ],
                    "texture": "#0"
                },
                "south": {
                    "uv": [
                        11.16667,
                        0.6,
                        12.66667,
                        2.01667
                    ],
                    "texture": "#0"
                },
                "west": {
                    "uv": [
                        11.16667,
                        0.6,
                        12.66667,
                        2.01667
                    ],
                    "texture": "#0"
                },
                "up": {
                    "uv": [
                        11.16667,
                        0.6,
                        12.66667,
                        2.01667
                    ],
                    "texture": "#0"
                },
                "down": {
                    "uv": [
                        11.16667,
                        0.6,
                        12.66667,
                        2.01667
                    ],
                    "texture": "#0"
                }
            }
        },
        {
            "from": [
                6.99891,
                5.41038,
                10.4241
            ],
            "to": [
                7.08531,
                5.69798,
                12.0241
            ],
            "rotation": {
                "angle": 22.5,
                "axis": "z",
                "origin": [
                    5.90725,
                    5.44928,
                    9.5641
                ]
            },
            "faces": {
                "north": {
                    "uv": [
                        11.16667,
                        0.6,
                        12.66667,
                        2.01667
                    ],
                    "rotation": 180,
                    "texture": "#0"
                },
                "east": {
                    "uv": [
                        11.16667,
                        0.6,
                        12.66667,
                        2.01667
                    ],
                    "texture": "#0"
                },
                "south": {
                    "uv": [
                        11.16667,
                        0.6,
                        12.66667,
                        2.01667
                    ],
                    "texture": "#0"
                },
                "west": {
                    "uv": [
                        11.16667,
                        0.6,
                        12.66667,
                        2.01667
                    ],
                    "texture": "#0"
                },
                "up": {
                    "uv": [
                        11.16667,
                        0.6,
                        12.66667,
                        2.01667
                    ],
                    "texture": "#0"
                },
                "down": {
                    "uv": [
                        11.16667,
                        0.6,
                        12.66667,
                        2.01667
                    ],
                    "texture": "#0"
                }
            }
        },
        {
            "from": [
                5.66681,
                5.27281,
                10.4241
            ],
            "to": [
                7.05321,
                5.56041,
                12.0241
            ],
            "rotation": {
                "angle": 22.5,
                "axis": "z",
                "origin": [
                    5.57515,
                    5.31172,
                    9.5641
                ]
            },
            "faces": {
                "north": {
                    "uv": [
                        11.16667,
                        0.6,
                        12.66667,
                        2.01667
                    ],
                    "rotation": 180,
                    "texture": "#0"
                },
                "east": {
                    "uv": [
                        11.16667,
                        0.6,
                        12.66667,
                        2.01667
                    ],
                    "texture": "#0"
                },
                "south": {
                    "uv": [
                        11.16667,
                        0.6,
                        12.66667,
                        2.01667
                    ],
                    "texture": "#0"
                },
                "west": {
                    "uv": [
                        11.16667,
                        0.6,
                        12.66667,
                        2.01667
                    ],
                    "texture": "#0"
                },
                "up": {
                    "uv": [
                        11.16667,
                        0.6,
                        12.66667,
                        2.01667
                    ],
                    "texture": "#0"
                },
                "down": {
                    "uv": [
                        11.16667,
                        0.6,
                        12.66667,
                        2.01667
                    ],
                    "texture": "#0"
                }
            }
        },
        {
            "from": [
                2.92415,
                6.11472,
                10.4241
            ],
            "to": [
                4.31055,
                6.40232,
                12.0241
            ],
            "rotation": {
                "angle": 22.5,
                "axis": "z",
                "origin": [
                    5.03248,
                    6.15362,
                    9.5641
                ]
            },
            "faces": {
                "north": {
                    "uv": [
                        11.16667,
                        0.6,
                        12.66667,
                        2.01667
                    ],
                    "rotation": 180,
                    "texture": "#0"
                },
                "east": {
                    "uv": [
                        11.16667,
                        0.6,
                        12.66667,
                        2.01667
                    ],
                    "texture": "#0"
                },
                "south": {
                    "uv": [
                        11.16667,
                        0.6,
                        12.66667,
                        2.01667
                    ],
                    "texture": "#0"
                },
                "west": {
                    "uv": [
                        11.16667,
                        0.6,
                        12.66667,
                        2.01667
                    ],
                    "texture": "#0"
                },
                "up": {
                    "uv": [
                        11.16667,
                        0.6,
                        12.66667,
                        2.01667
                    ],
                    "texture": "#0"
                },
                "down": {
                    "uv": [
                        11.16667,
                        0.6,
                        12.66667,
                        2.01667
                    ],
                    "texture": "#0"
                }
            }
        },
        {
            "from": [
                6.89123,
                8.45624,
                10.4241
            ],
            "to": [
                7.17883,
                9.84264,
                12.0241
            ],
            "rotation": {
                "angle": -22.5,
                "axis": "z",
                "origin": [
                    -1.88352,
                    9.29884,
                    9.5641
                ]
            },
            "faces": {
                "north": {
                    "uv": [
                        11.16667,
                        0.6,
                        12.66667,
                        2.01667
                    ],
                    "rotation": 270,
                    "texture": "#0"
                },
                "east": {
                    "uv": [
                        11.16667,
                        0.6,
                        12.66667,
                        2.01667
                    ],
                    "rotation": 270,
                    "texture": "#0"
                },
                "south": {
                    "uv": [
                        11.16667,
                        0.6,
                        12.66667,
                        2.01667
                    ],
                    "rotation": 270,
                    "texture": "#0"
                },
                "west": {
                    "uv": [
                        11.16667,
                        0.6,
                        12.66667,
                        2.01667
                    ],
                    "rotation": 270,
                    "texture": "#0"
                },
                "up": {
                    "uv": [
                        11.16667,
                        0.6,
                        12.66667,
                        2.01667
                    ],
                    "rotation": 270,
                    "texture": "#0"
                },
                "down": {
                    "uv": [
                        11.16667,
                        0.6,
                        12.66667,
                        2.01667
                    ],
                    "rotation": 270,
                    "texture": "#0"
                }
            }
        },
        {
            "from": [
                6.98328,
                8.37847,
                10.4241
            ],
            "to": [
                7.27088,
                8.46487,
                12.0241
            ],
            "rotation": {
                "angle": -22.5,
                "axis": "z",
                "origin": [
                    -1.79147,
                    9.52106,
                    9.5641
                ]
            },
            "faces": {
                "north": {
                    "uv": [
                        11.16667,
                        0.6,
                        12.66667,
                        2.01667
                    ],
                    "rotation": 270,
                    "texture": "#0"
                },
                "east": {
                    "uv": [
                        11.16667,
                        0.6,
                        12.66667,
                        2.01667
                    ],
                    "rotation": 270,
                    "texture": "#0"
                },
                "south": {
                    "uv": [
                        11.16667,
                        0.6,
                        12.66667,
                        2.01667
                    ],
                    "rotation": 270,
                    "texture": "#0"
                },
                "west": {
                    "uv": [
                        11.16667,
                        0.6,
                        12.66667,
                        2.01667
                    ],
                    "rotation": 270,
                    "texture": "#0"
                },
                "up": {
                    "uv": [
                        11.16667,
                        0.6,
                        12.66667,
                        2.01667
                    ],
                    "rotation": 270,
                    "texture": "#0"
                },
                "down": {
                    "uv": [
                        11.16667,
                        0.6,
                        12.66667,
                        2.01667
                    ],
                    "rotation": 270,
                    "texture": "#0"
                }
            }
        },
        {
            "from": [
                4.2865,
                7.56722,
                10.4241
            ],
            "to": [
                4.5741,
                8.95362,
                12.0241
            ],
            "rotation": {
                "angle": -22.5,
                "axis": "z",
                "origin": [
                    -2.38825,
                    8.80982,
                    9.5641
                ]
            },
            "faces": {
                "north": {
                    "uv": [
                        11.16667,
                        0.6,
                        12.66667,
                        2.01667
                    ],
                    "rotation": 270,
                    "texture": "#0"
                },
                "east": {
                    "uv": [
                        11.16667,
                        0.6,
                        12.66667,
                        2.01667
                    ],
                    "rotation": 270,
                    "texture": "#0"
                },
                "south": {
                    "uv": [
                        11.16667,
                        0.6,
                        12.66667,
                        2.01667
                    ],
                    "rotation": 270,
                    "texture": "#0"
                },
                "west": {
                    "uv": [
                        11.16667,
                        0.6,
                        12.66667,
                        2.01667
                    ],
                    "rotation": 270,
                    "texture": "#0"
                },
                "up": {
                    "uv": [
                        11.16667,
                        0.6,
                        12.66667,
                        2.01667
                    ],
                    "rotation": 270,
                    "texture": "#0"
                },
                "down": {
                    "uv": [
                        11.16667,
                        0.6,
                        12.66667,
                        2.01667
                    ],
                    "rotation": 270,
                    "texture": "#0"
                }
            }
        }
    ],
    "display": {
        "thirdperson_righthand": {
            "translation": [
                3,
                3,
                -4
            ]
        },
        "thirdperson_lefthand": {
            "translation": [
                -3,
                3.25,
                -4
            ]
        },
        "firstperson_righthand": {
            "translation": [
                -1.5,
                7.25,
                1.25
            ]
        },
        "firstperson_lefthand": {
            "translation": [
                -7.75,
                6.75,
                0
            ]
        },
        "ground": {
            "translation": [
                3.75,
                4.5,
                0.5
            ]
        },
        "gui": {
            "rotation": [
                90,
                45,
                -90
            ],
            "translation": [
                1.75,
                1.25,
                0
            ],
            "scale": [
                0.8,
                0.8,
                0.8
            ]
        },
        "fixed": {
            "rotation": [
                90,
                45,
                -90
            ],
            "translation": [
                2.75,
                1,
                -3.5
            ]
        }
    }
}