{
    "textures": {
        "0": "gci:items/common/all_in_one", 
        "2": "gci:items/common/mpz", 
        "particle": "gci:items/common/all_in_one"
    }, 
    "elements": [
        {
            "to": [
                8.38874, 
                8.39918, 
                16.74395
            ], 
            "rotation": {
                "origin": [
                    7.97725, 
                    7.94918, 
                    15.99395
                ], 
                "angle": 45, 
                "axis": "x"
            }, 
            "from": [
                7.56584, 
                7.49918, 
                15.24395
            ], 
            "faces": {
                "north": {
                    "rotation": 270, 
                    "uv": [
                        1, 
                        3, 
                        1.25, 
                        3.075
                    ], 
                    "texture": "#0"
                }, 
                "west": {
                    "rotation": 270, 
                    "uv": [
                        1, 
                        3, 
                        1.25, 
                        3.075
                    ], 
                    "texture": "#0"
                }, 
                "up": {
                    "rotation": 270, 
                    "uv": [
                        1, 
                        3, 
                        1.25, 
                        3.075
                    ], 
                    "texture": "#0"
                }, 
                "down": {
                    "rotation": 270, 
                    "uv": [
                        1, 
                        3, 
                        1.25, 
                        3.075
                    ], 
                    "texture": "#0"
                }, 
                "east": {
                    "rotation": 270, 
                    "uv": [
                        1, 
                        3, 
                        1.25, 
                        3.075
                    ], 
                    "texture": "#0"
                }, 
                "south": {
                    "rotation": 270, 
                    "uv": [
                        1, 
                        3, 
                        1.25, 
                        3.075
                    ], 
                    "texture": "#0"
                }
            }
        }, 
        {
            "to": [
                8.38885, 
                8.10775, 
                16.58972
            ], 
            "rotation": {
                "origin": [
                    7.97725, 
                    7.45775, 
                    16.13972
                ], 
                "angle": -22.5, 
                "axis": "x"
            }, 
            "from": [
                7.56575, 
                6.70775, 
                15.68972
            ], 
            "faces": {
                "north": {
                    "uv": [
                        1, 
                        3, 
                        1.25, 
                        3.075
                    ], 
                    "texture": "#0"
                }, 
                "west": {
                    "uv": [
                        1, 
                        3, 
                        1.25, 
                        3.075
                    ], 
                    "texture": "#0"
                }, 
                "up": {
                    "uv": [
                        1, 
                        3, 
                        1.25, 
                        3.075
                    ], 
                    "texture": "#0"
                }, 
                "down": {
                    "uv": [
                        1, 
                        3, 
                        1.25, 
                        3.075
                    ], 
                    "texture": "#0"
                }, 
                "east": {
                    "rotation": 180, 
                    "uv": [
                        1, 
                        3, 
                        1.25, 
                        3.075
                    ], 
                    "texture": "#0"
                }, 
                "south": {
                    "uv": [
                        1, 
                        3, 
                        1.25, 
                        3.075
                    ], 
                    "texture": "#0"
                }
            }
        }, 
        {
            "to": [
                8.38874, 
                7.73705, 
                16.84248
            ], 
            "rotation": {
                "origin": [
                    7.97725, 
                    7.68705, 
                    16.39248
                ], 
                "angle": 0, 
                "axis": "y"
            }, 
            "from": [
                7.56584, 
                6.93705, 
                15.94248
            ], 
            "faces": {
                "north": {
                    "uv": [
                        1, 
                        3, 
                        1.25, 
                        3.075
                    ], 
                    "texture": "#0"
                }, 
                "west": {
                    "uv": [
                        1, 
                        3, 
                        1.25, 
                        3.075
                    ], 
                    "texture": "#0"
                }, 
                "up": {
                    "uv": [
                        1, 
                        3, 
                        1.25, 
                        3.075
                    ], 
                    "texture": "#0"
                }, 
                "down": {
                    "uv": [
                        1, 
                        3, 
                        1.25, 
                        3.075
                    ], 
                    "texture": "#0"
                }, 
                "east": {
                    "rotation": 180, 
                    "uv": [
                        1, 
                        3, 
                        1.25, 
                        3.075
                    ], 
                    "texture": "#0"
                }, 
                "south": {
                    "uv": [
                        1, 
                        3, 
                        1.25, 
                        3.075
                    ], 
                    "texture": "#0"
                }
            }
        }, 
        {
            "to": [
                8.38875, 
                9.11897, 
                15.6667
            ], 
            "rotation": {
                "origin": [
                    7.97725, 
                    8.66897, 
                    14.9167
                ], 
                "angle": 22.5, 
                "axis": "x"
            }, 
            "from": [
                7.56575, 
                8.21897, 
                14.1667
            ], 
            "faces": {
                "north": {
                    "rotation": 270, 
                    "uv": [
                        1, 
                        3, 
                        1.25, 
                        3.075
                    ], 
                    "texture": "#0"
                }, 
                "west": {
                    "rotation": 270, 
                    "uv": [
                        1, 
                        3, 
                        1.25, 
                        3.075
                    ], 
                    "texture": "#0"
                }, 
                "up": {
                    "rotation": 270, 
                    "uv": [
                        1, 
                        3, 
                        1.25, 
                        3.075
                    ], 
                    "texture": "#0"
                }, 
                "down": {
                    "rotation": 270, 
                    "uv": [
                        1, 
                        3, 
                        1.25, 
                        3.075
                    ], 
                    "texture": "#0"
                }, 
                "east": {
                    "rotation": 270, 
                    "uv": [
                        1, 
                        3, 
                        1.25, 
                        3.075
                    ], 
                    "texture": "#0"
                }, 
                "south": {
                    "rotation": 270, 
                    "uv": [
                        1, 
                        3, 
                        1.25, 
                        3.075
                    ], 
                    "texture": "#0"
                }
            }
        }, 
        {
            "to": [
                8.38874, 
                8.39918, 
                16.74395
            ], 
            "rotation": {
                "origin": [
                    7.97725, 
                    7.94918, 
                    15.99395
                ], 
                "angle": 45, 
                "axis": "x"
            }, 
            "from": [
                7.56584, 
                7.49918, 
                15.24395
            ], 
            "faces": {
                "north": {
                    "rotation": 270, 
                    "uv": [
                        1, 
                        3, 
                        1.25, 
                        3.075
                    ], 
                    "texture": "#0"
                }, 
                "west": {
                    "rotation": 270, 
                    "uv": [
                        1, 
                        3, 
                        1.25, 
                        3.075
                    ], 
                    "texture": "#0"
                }, 
                "up": {
                    "rotation": 270, 
                    "uv": [
                        1, 
                        3, 
                        1.25, 
                        3.075
                    ], 
                    "texture": "#0"
                }, 
                "down": {
                    "rotation": 270, 
                    "uv": [
                        1, 
                        3, 
                        1.25, 
                        3.075
                    ], 
                    "texture": "#0"
                }, 
                "east": {
                    "rotation": 270, 
                    "uv": [
                        1, 
                        3, 
                        1.25, 
                        3.075
                    ], 
                    "texture": "#0"
                }, 
                "south": {
                    "rotation": 270, 
                    "uv": [
                        1, 
                        3, 
                        1.25, 
                        3.075
                    ], 
                    "texture": "#0"
                }
            }
        }, 
        {
            "to": [
                8.38885, 
                8.10775, 
                16.58972
            ], 
            "rotation": {
                "origin": [
                    7.97725, 
                    7.45775, 
                    16.13972
                ], 
                "angle": -22.5, 
                "axis": "x"
            }, 
            "from": [
                7.56575, 
                6.70775, 
                15.68972
            ], 
            "faces": {
                "north": {
                    "uv": [
                        1, 
                        3, 
                        1.25, 
                        3.075
                    ], 
                    "texture": "#0"
                }, 
                "west": {
                    "uv": [
                        1, 
                        3, 
                        1.25, 
                        3.075
                    ], 
                    "texture": "#0"
                }, 
                "up": {
                    "uv": [
                        1, 
                        3, 
                        1.25, 
                        3.075
                    ], 
                    "texture": "#0"
                }, 
                "down": {
                    "uv": [
                        1, 
                        3, 
                        1.25, 
                        3.075
                    ], 
                    "texture": "#0"
                }, 
                "east": {
                    "rotation": 180, 
                    "uv": [
                        1, 
                        3, 
                        1.25, 
                        3.075
                    ], 
                    "texture": "#0"
                }, 
                "south": {
                    "uv": [
                        1, 
                        3, 
                        1.25, 
                        3.075
                    ], 
                    "texture": "#0"
                }
            }
        }, 
        {
            "to": [
                8.38874, 
                7.73705, 
                16.84248
            ], 
            "rotation": {
                "origin": [
                    7.97725, 
                    7.68705, 
                    16.39248
                ], 
                "angle": 0, 
                "axis": "y"
            }, 
            "from": [
                7.56584, 
                6.93705, 
                15.94248
            ], 
            "faces": {
                "north": {
                    "uv": [
                        1, 
                        3, 
                        1.25, 
                        3.075
                    ], 
                    "texture": "#0"
                }, 
                "west": {
                    "uv": [
                        1, 
                        3, 
                        1.25, 
                        3.075
                    ], 
                    "texture": "#0"
                }, 
                "up": {
                    "uv": [
                        1, 
                        3, 
                        1.25, 
                        3.075
                    ], 
                    "texture": "#0"
                }, 
                "down": {
                    "uv": [
                        1, 
                        3, 
                        1.25, 
                        3.075
                    ], 
                    "texture": "#0"
                }, 
                "east": {
                    "rotation": 180, 
                    "uv": [
                        1, 
                        3, 
                        1.25, 
                        3.075
                    ], 
                    "texture": "#0"
                }, 
                "south": {
                    "uv": [
                        1, 
                        3, 
                        1.25, 
                        3.075
                    ], 
                    "texture": "#0"
                }
            }
        }, 
        {
            "to": [
                8.38875, 
                9.11897, 
                15.6667
            ], 
            "rotation": {
                "origin": [
                    7.97725, 
                    8.66897, 
                    14.9167
                ], 
                "angle": 22.5, 
                "axis": "x"
            }, 
            "from": [
                7.56575, 
                8.21897, 
                14.1667
            ], 
            "faces": {
                "north": {
                    "rotation": 270, 
                    "uv": [
                        1, 
                        3, 
                        1.25, 
                        3.075
                    ], 
                    "texture": "#0"
                }, 
                "west": {
                    "rotation": 270, 
                    "uv": [
                        1, 
                        3, 
                        1.25, 
                        3.075
                    ], 
                    "texture": "#0"
                }, 
                "up": {
                    "rotation": 270, 
                    "uv": [
                        1, 
                        3, 
                        1.25, 
                        3.075
                    ], 
                    "texture": "#0"
                }, 
                "down": {
                    "rotation": 270, 
                    "uv": [
                        1, 
                        3, 
                        1.25, 
                        3.075
                    ], 
                    "texture": "#0"
                }, 
                "east": {
                    "rotation": 270, 
                    "uv": [
                        1, 
                        3, 
                        1.25, 
                        3.075
                    ], 
                    "texture": "#0"
                }, 
                "south": {
                    "rotation": 270, 
                    "uv": [
                        1, 
                        3, 
                        1.25, 
                        3.075
                    ], 
                    "texture": "#0"
                }
            }
        }, 
        {
            "to": [
                8.28864, 
                8.79546, 
                19.87345
            ], 
            "rotation": {
                "origin": [
                    7.97725, 
                    8.04546, 
                    17.02345
                ], 
                "angle": 0, 
                "axis": "y"
            }, 
            "from": [
                7.66564, 
                7.29546, 
                15.77345
            ], 
            "faces": {
                "north": {
                    "uv": [
                        1.125, 
                        3, 
                        1.125, 
                        3
                    ], 
                    "texture": "#0"
                }, 
                "west": {
                    "uv": [
                        1.125, 
                        3, 
                        1.125, 
                        3
                    ], 
                    "texture": "#0"
                }, 
                "up": {
                    "uv": [
                        1.125, 
                        3, 
                        1.125, 
                        3
                    ], 
                    "texture": "#0"
                }, 
                "down": {
                    "uv": [
                        1.125, 
                        3, 
                        1.125, 
                        3
                    ], 
                    "texture": "#0"
                }, 
                "east": {
                    "uv": [
                        1.125, 
                        3, 
                        1.125, 
                        3
                    ], 
                    "texture": "#0"
                }, 
                "south": {
                    "uv": [
                        1.125, 
                        3, 
                        1.125, 
                        3
                    ], 
                    "texture": "#0"
                }
            }
        }, 
        {
            "to": [
                8.28854, 
                8.23705, 
                21.84248
            ], 
            "rotation": {
                "origin": [
                    7.97725, 
                    7.78705, 
                    19.99248
                ], 
                "angle": 0, 
                "axis": "y"
            }, 
            "from": [
                7.66554, 
                5.43705, 
                21.04248
            ], 
            "faces": {
                "north": {
                    "uv": [
                        1, 
                        3, 
                        1.25, 
                        3.075
                    ], 
                    "texture": "#0"
                }, 
                "west": {
                    "uv": [
                        1, 
                        3, 
                        1.25, 
                        3.075
                    ], 
                    "texture": "#0"
                }, 
                "up": {
                    "uv": [
                        1, 
                        3, 
                        1.25, 
                        3.075
                    ], 
                    "texture": "#0"
                }, 
                "down": {
                    "uv": [
                        1, 
                        3, 
                        1.25, 
                        3.075
                    ], 
                    "texture": "#0"
                }, 
                "east": {
                    "uv": [
                        1, 
                        3, 
                        1.25, 
                        3.075
                    ], 
                    "texture": "#0"
                }, 
                "south": {
                    "uv": [
                        1, 
                        3, 
                        1.25, 
                        3.075
                    ], 
                    "texture": "#0"
                }
            }
        }, 
        {
            "to": [
                8.28875, 
                6.106, 
                21.83957
            ], 
            "rotation": {
                "origin": [
                    7.97725, 
                    7.656, 
                    19.98957
                ], 
                "angle": 0, 
                "axis": "y"
            }, 
            "from": [
                7.66575, 
                5.306, 
                21.23957
            ], 
            "faces": {
                "north": {
                    "uv": [
                        1, 
                        3, 
                        1.25, 
                        3.075
                    ], 
                    "texture": "#0"
                }, 
                "west": {
                    "uv": [
                        1, 
                        3, 
                        1.25, 
                        3.075
                    ], 
                    "texture": "#0"
                }, 
                "up": {
                    "uv": [
                        1, 
                        3, 
                        1.25, 
                        3.075
                    ], 
                    "texture": "#0"
                }, 
                "down": {
                    "uv": [
                        1, 
                        3, 
                        1.25, 
                        3.075
                    ], 
                    "texture": "#0"
                }, 
                "east": {
                    "uv": [
                        1, 
                        3, 
                        1.25, 
                        3.075
                    ], 
                    "texture": "#0"
                }, 
                "south": {
                    "uv": [
                        1, 
                        3, 
                        1.25, 
                        3.075
                    ], 
                    "texture": "#0"
                }
            }
        }, 
        {
            "to": [
                8.38875, 
                8.33705, 
                21.94248
            ], 
            "rotation": {
                "origin": [
                    7.97725, 
                    7.78705, 
                    20.29248
                ], 
                "angle": 0, 
                "axis": "y"
            }, 
            "from": [
                7.56575, 
                5.20505, 
                21.54248
            ], 
            "faces": {
                "north": {
                    "uv": [
                        3, 
                        3, 
                        3, 
                        3.075
                    ], 
                    "texture": "#0"
                }, 
                "west": {
                    "uv": [
                        3, 
                        3, 
                        3, 
                        3.075
                    ], 
                    "texture": "#0"
                }, 
                "up": {
                    "uv": [
                        3, 
                        3, 
                        3, 
                        3.075
                    ], 
                    "texture": "#0"
                }, 
                "down": {
                    "uv": [
                        3, 
                        3, 
                        3, 
                        3.075
                    ], 
                    "texture": "#0"
                }, 
                "east": {
                    "uv": [
                        3, 
                        3, 
                        3, 
                        3.075
                    ], 
                    "texture": "#0"
                }, 
                "south": {
                    "uv": [
                        3, 
                        3, 
                        3, 
                        3.075
                    ], 
                    "texture": "#0"
                }
            }
        }, 
        {
            "to": [
                8.28884, 
                8.33705, 
                21.84248
            ], 
            "rotation": {
                "origin": [
                    7.97725, 
                    7.58705, 
                    17.69248
                ], 
                "angle": 22.5, 
                "axis": "x"
            }, 
            "from": [
                7.66584, 
                6.83705, 
                16.74248
            ], 
            "faces": {
                "north": {
                    "uv": [
                        1.125, 
                        3, 
                        1.125, 
                        3
                    ], 
                    "texture": "#0"
                }, 
                "west": {
                    "uv": [
                        1.125, 
                        3, 
                        1.125, 
                        3
                    ], 
                    "texture": "#0"
                }, 
                "up": {
                    "uv": [
                        1.125, 
                        3, 
                        1.125, 
                        3
                    ], 
                    "texture": "#0"
                }, 
                "down": {
                    "uv": [
                        1.125, 
                        3, 
                        1.125, 
                        3
                    ], 
                    "texture": "#0"
                }, 
                "east": {
                    "uv": [
                        1.125, 
                        3, 
                        1.125, 
                        3
                    ], 
                    "texture": "#0"
                }, 
                "south": {
                    "uv": [
                        1.125, 
                        3, 
                        1.125, 
                        3
                    ], 
                    "texture": "#0"
                }
            }
        }, 
        {
            "to": [
                8.28874, 
                9.63705, 
                21.84248
            ], 
            "rotation": {
                "origin": [
                    7.97725, 
                    8.88705, 
                    17.69248
                ], 
                "angle": 22.5, 
                "axis": "x"
            }, 
            "from": [
                7.66574, 
                8.13705, 
                19.74248
            ], 
            "faces": {
                "north": {
                    "uv": [
                        1.125, 
                        3, 
                        1.125, 
                        3
                    ], 
                    "texture": "#0"
                }, 
                "west": {
                    "uv": [
                        1.125, 
                        3, 
                        1.125, 
                        3
                    ], 
                    "texture": "#0"
                }, 
                "up": {
                    "uv": [
                        1.125, 
                        3, 
                        1.125, 
                        3
                    ], 
                    "texture": "#0"
                }, 
                "down": {
                    "uv": [
                        1.125, 
                        3, 
                        1.125, 
                        3
                    ], 
                    "texture": "#0"
                }, 
                "east": {
                    "uv": [
                        1.125, 
                        3, 
                        1.125, 
                        3
                    ], 
                    "texture": "#0"
                }, 
                "south": {
                    "uv": [
                        1.125, 
                        3, 
                        1.125, 
                        3
                    ], 
                    "texture": "#0"
                }
            }
        }, 
        {
            "to": [
                8.38874, 
                8.39918, 
                16.74395
            ], 
            "rotation": {
                "origin": [
                    7.97725, 
                    7.94918, 
                    15.99395
                ], 
                "angle": 45, 
                "axis": "x"
            }, 
            "from": [
                7.56584, 
                7.49918, 
                15.24395
            ], 
            "faces": {
                "north": {
                    "rotation": 270, 
                    "uv": [
                        1, 
                        3, 
                        1.25, 
                        3.075
                    ], 
                    "texture": "#0"
                }, 
                "west": {
                    "rotation": 270, 
                    "uv": [
                        1, 
                        3, 
                        1.25, 
                        3.075
                    ], 
                    "texture": "#0"
                }, 
                "up": {
                    "rotation": 270, 
                    "uv": [
                        1, 
                        3, 
                        1.25, 
                        3.075
                    ], 
                    "texture": "#0"
                }, 
                "down": {
                    "rotation": 270, 
                    "uv": [
                        1, 
                        3, 
                        1.25, 
                        3.075
                    ], 
                    "texture": "#0"
                }, 
                "east": {
                    "rotation": 270, 
                    "uv": [
                        1, 
                        3, 
                        1.25, 
                        3.075
                    ], 
                    "texture": "#0"
                }, 
                "south": {
                    "rotation": 270, 
                    "uv": [
                        1, 
                        3, 
                        1.25, 
                        3.075
                    ], 
                    "texture": "#0"
                }
            }
        }, 
        {
            "to": [
                8.38885, 
                8.10775, 
                16.58972
            ], 
            "rotation": {
                "origin": [
                    7.97725, 
                    7.45775, 
                    16.13972
                ], 
                "angle": -22.5, 
                "axis": "x"
            }, 
            "from": [
                7.56575, 
                6.70775, 
                15.68972
            ], 
            "faces": {
                "north": {
                    "uv": [
                        1, 
                        3, 
                        1.25, 
                        3.075
                    ], 
                    "texture": "#0"
                }, 
                "west": {
                    "uv": [
                        1, 
                        3, 
                        1.25, 
                        3.075
                    ], 
                    "texture": "#0"
                }, 
                "up": {
                    "uv": [
                        1, 
                        3, 
                        1.25, 
                        3.075
                    ], 
                    "texture": "#0"
                }, 
                "down": {
                    "uv": [
                        1, 
                        3, 
                        1.25, 
                        3.075
                    ], 
                    "texture": "#0"
                }, 
                "east": {
                    "rotation": 180, 
                    "uv": [
                        1, 
                        3, 
                        1.25, 
                        3.075
                    ], 
                    "texture": "#0"
                }, 
                "south": {
                    "uv": [
                        1, 
                        3, 
                        1.25, 
                        3.075
                    ], 
                    "texture": "#0"
                }
            }
        }, 
        {
            "to": [
                8.38874, 
                7.73705, 
                16.84248
            ], 
            "rotation": {
                "origin": [
                    7.97725, 
                    7.68705, 
                    16.39248
                ], 
                "angle": 0, 
                "axis": "y"
            }, 
            "from": [
                7.56584, 
                6.93705, 
                15.94248
            ], 
            "faces": {
                "north": {
                    "uv": [
                        1, 
                        3, 
                        1.25, 
                        3.075
                    ], 
                    "texture": "#0"
                }, 
                "west": {
                    "uv": [
                        1, 
                        3, 
                        1.25, 
                        3.075
                    ], 
                    "texture": "#0"
                }, 
                "up": {
                    "uv": [
                        1, 
                        3, 
                        1.25, 
                        3.075
                    ], 
                    "texture": "#0"
                }, 
                "down": {
                    "uv": [
                        1, 
                        3, 
                        1.25, 
                        3.075
                    ], 
                    "texture": "#0"
                }, 
                "east": {
                    "rotation": 180, 
                    "uv": [
                        1, 
                        3, 
                        1.25, 
                        3.075
                    ], 
                    "texture": "#0"
                }, 
                "south": {
                    "uv": [
                        1, 
                        3, 
                        1.25, 
                        3.075
                    ], 
                    "texture": "#0"
                }
            }
        }, 
        {
            "to": [
                8.38875, 
                9.11897, 
                15.6667
            ], 
            "rotation": {
                "origin": [
                    7.97725, 
                    8.66897, 
                    14.9167
                ], 
                "angle": 22.5, 
                "axis": "x"
            }, 
            "from": [
                7.56575, 
                8.21897, 
                14.1667
            ], 
            "faces": {
                "north": {
                    "rotation": 270, 
                    "uv": [
                        1, 
                        3, 
                        1.25, 
                        3.075
                    ], 
                    "texture": "#0"
                }, 
                "west": {
                    "rotation": 270, 
                    "uv": [
                        1, 
                        3, 
                        1.25, 
                        3.075
                    ], 
                    "texture": "#0"
                }, 
                "up": {
                    "rotation": 270, 
                    "uv": [
                        1, 
                        3, 
                        1.25, 
                        3.075
                    ], 
                    "texture": "#0"
                }, 
                "down": {
                    "rotation": 270, 
                    "uv": [
                        1, 
                        3, 
                        1.25, 
                        3.075
                    ], 
                    "texture": "#0"
                }, 
                "east": {
                    "rotation": 270, 
                    "uv": [
                        1, 
                        3, 
                        1.25, 
                        3.075
                    ], 
                    "texture": "#0"
                }, 
                "south": {
                    "rotation": 270, 
                    "uv": [
                        1, 
                        3, 
                        1.25, 
                        3.075
                    ], 
                    "texture": "#0"
                }
            }
        }, 
        {
            "to": [
                8.28875, 
                8.53705, 
                19.84248
            ], 
            "rotation": {
                "origin": [
                    7.97725, 
                    7.78705, 
                    16.99248
                ], 
                "angle": 0, 
                "axis": "y"
            }, 
            "from": [
                7.66575, 
                7.03705, 
                16.04248
            ], 
            "faces": {
                "north": {
                    "uv": [
                        1.125, 
                        3, 
                        1.125, 
                        3
                    ], 
                    "texture": "#0"
                }, 
                "west": {
                    "uv": [
                        1.125, 
                        3, 
                        1.125, 
                        3
                    ], 
                    "texture": "#0"
                }, 
                "up": {
                    "uv": [
                        1.125, 
                        3, 
                        1.125, 
                        3
                    ], 
                    "texture": "#0"
                }, 
                "down": {
                    "uv": [
                        1.125, 
                        3, 
                        1.125, 
                        3
                    ], 
                    "texture": "#0"
                }, 
                "east": {
                    "uv": [
                        1.125, 
                        3, 
                        1.125, 
                        3
                    ], 
                    "texture": "#0"
                }, 
                "south": {
                    "uv": [
                        1.125, 
                        3, 
                        1.125, 
                        3
                    ], 
                    "texture": "#0"
                }
            }
        }, 
        {
            "to": [
                8.28864, 
                8.79546, 
                19.87345
            ], 
            "rotation": {
                "origin": [
                    7.97725, 
                    8.04546, 
                    17.02345
                ], 
                "angle": 0, 
                "axis": "y"
            }, 
            "from": [
                7.66564, 
                7.29546, 
                15.77345
            ], 
            "faces": {
                "north": {
                    "uv": [
                        1.125, 
                        3, 
                        1.125, 
                        3
                    ], 
                    "texture": "#0"
                }, 
                "west": {
                    "uv": [
                        1.125, 
                        3, 
                        1.125, 
                        3
                    ], 
                    "texture": "#0"
                }, 
                "up": {
                    "uv": [
                        1.125, 
                        3, 
                        1.125, 
                        3
                    ], 
                    "texture": "#0"
                }, 
                "down": {
                    "uv": [
                        1.125, 
                        3, 
                        1.125, 
                        3
                    ], 
                    "texture": "#0"
                }, 
                "east": {
                    "uv": [
                        1.125, 
                        3, 
                        1.125, 
                        3
                    ], 
                    "texture": "#0"
                }, 
                "south": {
                    "uv": [
                        1.125, 
                        3, 
                        1.125, 
                        3
                    ], 
                    "texture": "#0"
                }
            }
        }, 
        {
            "to": [
                8.28854, 
                8.23705, 
                21.84248
            ], 
            "rotation": {
                "origin": [
                    7.97725, 
                    7.78705, 
                    19.99248
                ], 
                "angle": 0, 
                "axis": "y"
            }, 
            "from": [
                7.66554, 
                5.43705, 
                21.04248
            ], 
            "faces": {
                "north": {
                    "uv": [
                        1, 
                        3, 
                        1.25, 
                        3.075
                    ], 
                    "texture": "#0"
                }, 
                "west": {
                    "uv": [
                        1, 
                        3, 
                        1.25, 
                        3.075
                    ], 
                    "texture": "#0"
                }, 
                "up": {
                    "uv": [
                        1, 
                        3, 
                        1.25, 
                        3.075
                    ], 
                    "texture": "#0"
                }, 
                "down": {
                    "uv": [
                        1, 
                        3, 
                        1.25, 
                        3.075
                    ], 
                    "texture": "#0"
                }, 
                "east": {
                    "uv": [
                        1, 
                        3, 
                        1.25, 
                        3.075
                    ], 
                    "texture": "#0"
                }, 
                "south": {
                    "uv": [
                        1, 
                        3, 
                        1.25, 
                        3.075
                    ], 
                    "texture": "#0"
                }
            }
        }, 
        {
            "to": [
                8.28875, 
                6.106, 
                21.83957
            ], 
            "rotation": {
                "origin": [
                    7.97725, 
                    7.656, 
                    19.98957
                ], 
                "angle": 0, 
                "axis": "y"
            }, 
            "from": [
                7.66575, 
                5.306, 
                21.23957
            ], 
            "faces": {
                "north": {
                    "uv": [
                        1, 
                        3, 
                        1.25, 
                        3.075
                    ], 
                    "texture": "#0"
                }, 
                "west": {
                    "uv": [
                        1, 
                        3, 
                        1.25, 
                        3.075
                    ], 
                    "texture": "#0"
                }, 
                "up": {
                    "uv": [
                        1, 
                        3, 
                        1.25, 
                        3.075
                    ], 
                    "texture": "#0"
                }, 
                "down": {
                    "uv": [
                        1, 
                        3, 
                        1.25, 
                        3.075
                    ], 
                    "texture": "#0"
                }, 
                "east": {
                    "uv": [
                        1, 
                        3, 
                        1.25, 
                        3.075
                    ], 
                    "texture": "#0"
                }, 
                "south": {
                    "uv": [
                        1, 
                        3, 
                        1.25, 
                        3.075
                    ], 
                    "texture": "#0"
                }
            }
        }, 
        {
            "to": [
                8.38875, 
                8.33705, 
                21.94248
            ], 
            "rotation": {
                "origin": [
                    7.97725, 
                    7.78705, 
                    20.29248
                ], 
                "angle": 0, 
                "axis": "y"
            }, 
            "from": [
                7.56575, 
                5.20505, 
                21.54248
            ], 
            "faces": {
                "north": {
                    "uv": [
                        3, 
                        3, 
                        3, 
                        3.075
                    ], 
                    "texture": "#0"
                }, 
                "west": {
                    "uv": [
                        3, 
                        3, 
                        3, 
                        3.075
                    ], 
                    "texture": "#0"
                }, 
                "up": {
                    "uv": [
                        3, 
                        3, 
                        3, 
                        3.075
                    ], 
                    "texture": "#0"
                }, 
                "down": {
                    "uv": [
                        3, 
                        3, 
                        3, 
                        3.075
                    ], 
                    "texture": "#0"
                }, 
                "east": {
                    "uv": [
                        3, 
                        3, 
                        3, 
                        3.075
                    ], 
                    "texture": "#0"
                }, 
                "south": {
                    "uv": [
                        3, 
                        3, 
                        3, 
                        3.075
                    ], 
                    "texture": "#0"
                }
            }
        }, 
        {
            "to": [
                8.28884, 
                8.33705, 
                21.84248
            ], 
            "rotation": {
                "origin": [
                    7.97725, 
                    7.58705, 
                    17.69248
                ], 
                "angle": 22.5, 
                "axis": "x"
            }, 
            "from": [
                7.66584, 
                6.83705, 
                16.74248
            ], 
            "faces": {
                "north": {
                    "uv": [
                        1.125, 
                        3, 
                        1.125, 
                        3
                    ], 
                    "texture": "#0"
                }, 
                "west": {
                    "uv": [
                        1.125, 
                        3, 
                        1.125, 
                        3
                    ], 
                    "texture": "#0"
                }, 
                "up": {
                    "uv": [
                        1.125, 
                        3, 
                        1.125, 
                        3
                    ], 
                    "texture": "#0"
                }, 
                "down": {
                    "uv": [
                        1.125, 
                        3, 
                        1.125, 
                        3
                    ], 
                    "texture": "#0"
                }, 
                "east": {
                    "uv": [
                        1.125, 
                        3, 
                        1.125, 
                        3
                    ], 
                    "texture": "#0"
                }, 
                "south": {
                    "uv": [
                        1.125, 
                        3, 
                        1.125, 
                        3
                    ], 
                    "texture": "#0"
                }
            }
        }, 
        {
            "to": [
                8.28874, 
                9.63705, 
                21.84248
            ], 
            "rotation": {
                "origin": [
                    7.97725, 
                    8.88705, 
                    17.69248
                ], 
                "angle": 22.5, 
                "axis": "x"
            }, 
            "from": [
                7.66574, 
                8.13705, 
                19.74248
            ], 
            "faces": {
                "north": {
                    "uv": [
                        1.125, 
                        3, 
                        1.125, 
                        3
                    ], 
                    "texture": "#0"
                }, 
                "west": {
                    "uv": [
                        1.125, 
                        3, 
                        1.125, 
                        3
                    ], 
                    "texture": "#0"
                }, 
                "up": {
                    "uv": [
                        1.125, 
                        3, 
                        1.125, 
                        3
                    ], 
                    "texture": "#0"
                }, 
                "down": {
                    "uv": [
                        1.125, 
                        3, 
                        1.125, 
                        3
                    ], 
                    "texture": "#0"
                }, 
                "east": {
                    "uv": [
                        1.125, 
                        3, 
                        1.125, 
                        3
                    ], 
                    "texture": "#0"
                }, 
                "south": {
                    "uv": [
                        1.125, 
                        3, 
                        1.125, 
                        3
                    ], 
                    "texture": "#0"
                }
            }
        }
    ], 
    "display": {
        "thirdperson_righthand": {
            "rotation": [
                -6, 
                -1, 
                16
            ], 
            "scale": [
                0.93, 
                0.93, 
                0.93
            ], 
            "translation": [
                -1, 
                -1, 
                -3
            ]
        }, 
        "head": {
            "rotation": [
                0, 
                44, 
                90
            ], 
            "scale": [
                1.42, 
                1.53, 
                1.36
            ], 
            "translation": [
                -3.5, 
                7.25, 
                -5.75
            ]
        }, 
        "thirdperson_lefthand": {
            "rotation": [
                -6, 
                -1, 
                16
            ], 
            "scale": [
                0.93, 
                0.93, 
                0.93
            ], 
            "translation": [
                -1.75, 
                -0.5, 
                -4
            ]
        }, 
        "gui": {
            "rotation": [
                16, 
                24, 
                0
            ], 
            "scale": [
                1.5, 
                1.58, 
                1.22
            ], 
            "translation": [
                1.25, 
                -0.25, 
                1
            ]
        }, 
        "firstperson_righthand": {
            "translation": [
                -3.5, 
                4.25, 
                -1.5
            ], 
            "scale": [
                0.98, 
                1.17, 
                1.03
            ]
        }, 
        "firstperson_lefthand": {
            "translation": [
                -4.5, 
                4.25, 
                0
            ], 
            "scale": [
                0.98, 
                1.17, 
                1.03
            ]
        }, 
        "fixed": {
            "rotation": [
                0, 
                91, 
                0
            ], 
            "scale": [
                1.67, 
                1.53, 
                1.33
            ], 
            "translation": [
                0, 
                0, 
                -1.25
            ]
        }
    }
}