{
    "textures": {
        "0": "gci:items/common/all_in_one",
        "1": "gci:items/common/mpz",
        "particle": "MIGHTY_ALL_IN_ONE"
    },
    "elements": [
        {
            "name": "hexadecagon",
            "from": [
                7.89704,
                0.87488,
                7.48238
            ],
            "to": [
                8.10296,
                6.62512,
                8.51763
            ],
            "rotation": {
                "angle": -45,
                "axis": "y",
                "origin": [
                    8,
                    0.89025,
                    8
                ]
            },
            "faces": {
                "north": {
                    "uv": [
                        5.97917,
                        3.23333,
                        6.60417,
                        3.98333
                    ],
                    "texture": "#0"
                },
                "east": {
                    "uv": [
                        5.97917,
                        3.23333,
                        6.60417,
                        3.98333
                    ],
                    "texture": "#0"
                },
                "south": {
                    "uv": [
                        5.97917,
                        3.23333,
                        6.60417,
                        3.98333
                    ],
                    "texture": "#0"
                },
                "west": {
                    "uv": [
                        5.97917,
                        3.23333,
                        6.60417,
                        3.98333
                    ],
                    "texture": "#0"
                },
                "up": {
                    "uv": [
                        5.97917,
                        3.23333,
                        6.60417,
                        3.98333
                    ],
                    "texture": "#0"
                },
                "down": {
                    "uv": [
                        5.97917,
                        3.23333,
                        6.60417,
                        3.98333
                    ],
                    "texture": "#0"
                }
            }
        },
        {
            "name": "hexadecagon",
            "from": [
                7.89704,
                0.87488,
                7.48238
            ],
            "to": [
                8.10296,
                6.62512,
                8.51763
            ],
            "rotation": {
                "angle": -22.5,
                "axis": "y",
                "origin": [
                    8,
                    0.89025,
                    8
                ]
            },
            "faces": {
                "north": {
                    "uv": [
                        5.97917,
                        3.23333,
                        6.60417,
                        3.98333
                    ],
                    "texture": "#0"
                },
                "east": {
                    "uv": [
                        5.97917,
                        3.23333,
                        6.60417,
                        3.98333
                    ],
                    "texture": "#0"
                },
                "south": {
                    "uv": [
                        5.97917,
                        3.23333,
                        6.60417,
                        3.98333
                    ],
                    "texture": "#0"
                },
                "west": {
                    "uv": [
                        5.97917,
                        3.23333,
                        6.60417,
                        3.98333
                    ],
                    "texture": "#0"
                },
                "up": {
                    "uv": [
                        5.97917,
                        3.23333,
                        6.60417,
                        3.98333
                    ],
                    "texture": "#0"
                },
                "down": {
                    "uv": [
                        5.97917,
                        3.23333,
                        6.60417,
                        3.98333
                    ],
                    "texture": "#0"
                }
            }
        },
        {
            "name": "hexadecagon",
            "from": [
                7.89704,
                0.87488,
                7.48238
            ],
            "to": [
                8.10296,
                6.62512,
                8.51763
            ],
            "rotation": {
                "angle": 0,
                "axis": "y",
                "origin": [
                    8,
                    0.89025,
                    8
                ]
            },
            "faces": {
                "north": {
                    "uv": [
                        5.97917,
                        3.23333,
                        6.60417,
                        3.98333
                    ],
                    "texture": "#0"
                },
                "east": {
                    "uv": [
                        5.97917,
                        3.23333,
                        6.60417,
                        3.98333
                    ],
                    "texture": "#0"
                },
                "south": {
                    "uv": [
                        5.97917,
                        3.23333,
                        6.60417,
                        3.98333
                    ],
                    "texture": "#0"
                },
                "west": {
                    "uv": [
                        5.97917,
                        3.23333,
                        6.60417,
                        3.98333
                    ],
                    "texture": "#0"
                },
                "up": {
                    "uv": [
                        5.97917,
                        3.23333,
                        6.60417,
                        3.98333
                    ],
                    "texture": "#0"
                },
                "down": {
                    "uv": [
                        5.97917,
                        3.23333,
                        6.60417,
                        3.98333
                    ],
                    "texture": "#0"
                }
            }
        },
        {
            "name": "hexadecagon",
            "from": [
                7.89704,
                0.87488,
                7.48238
            ],
            "to": [
                8.10296,
                6.62512,
                8.51763
            ],
            "rotation": {
                "angle": 22.5,
                "axis": "y",
                "origin": [
                    8,
                    0.89025,
                    8
                ]
            },
            "faces": {
                "north": {
                    "uv": [
                        5.97917,
                        3.23333,
                        6.60417,
                        3.98333
                    ],
                    "texture": "#0"
                },
                "east": {
                    "uv": [
                        5.97917,
                        3.23333,
                        6.60417,
                        3.98333
                    ],
                    "texture": "#0"
                },
                "south": {
                    "uv": [
                        5.97917,
                        3.23333,
                        6.60417,
                        3.98333
                    ],
                    "texture": "#0"
                },
                "west": {
                    "uv": [
                        5.97917,
                        3.23333,
                        6.60417,
                        3.98333
                    ],
                    "texture": "#0"
                },
                "up": {
                    "uv": [
                        5.97917,
                        3.23333,
                        6.60417,
                        3.98333
                    ],
                    "texture": "#0"
                },
                "down": {
                    "uv": [
                        5.97917,
                        3.23333,
                        6.60417,
                        3.98333
                    ],
                    "texture": "#0"
                }
            }
        },
        {
            "name": "hexadecagon",
            "from": [
                7.89704,
                0.87488,
                7.48238
            ],
            "to": [
                8.10296,
                6.62512,
                8.51763
            ],
            "rotation": {
                "angle": 45,
                "axis": "y",
                "origin": [
                    8,
                    0.89025,
                    8
                ]
            },
            "faces": {
                "north": {
                    "uv": [
                        5.97917,
                        3.23333,
                        6.60417,
                        3.98333
                    ],
                    "texture": "#0"
                },
                "east": {
                    "uv": [
                        5.97917,
                        3.23333,
                        6.60417,
                        3.98333
                    ],
                    "texture": "#0"
                },
                "south": {
                    "uv": [
                        5.97917,
                        3.23333,
                        6.60417,
                        3.98333
                    ],
                    "texture": "#0"
                },
                "west": {
                    "uv": [
                        5.97917,
                        3.23333,
                        6.60417,
                        3.98333
                    ],
                    "texture": "#0"
                },
                "up": {
                    "uv": [
                        5.97917,
                        3.23333,
                        6.60417,
                        3.98333
                    ],
                    "texture": "#0"
                },
                "down": {
                    "uv": [
                        5.97917,
                        3.23333,
                        6.60417,
                        3.98333
                    ],
                    "texture": "#0"
                }
            }
        },
        {
            "name": "hexadecagon",
            "from": [
                7.48238,
                0.87488,
                7.89704
            ],
            "to": [
                8.51763,
                6.62512,
                8.10296
            ],
            "rotation": {
                "angle": -22.5,
                "axis": "y",
                "origin": [
                    8,
                    0.89025,
                    8
                ]
            },
            "faces": {
                "north": {
                    "uv": [
                        5.97917,
                        3.23333,
                        6.60417,
                        3.98333
                    ],
                    "texture": "#0"
                },
                "east": {
                    "uv": [
                        5.97917,
                        3.23333,
                        6.60417,
                        3.98333
                    ],
                    "texture": "#0"
                },
                "south": {
                    "uv": [
                        5.97917,
                        3.23333,
                        6.60417,
                        3.98333
                    ],
                    "texture": "#0"
                },
                "west": {
                    "uv": [
                        5.97917,
                        3.23333,
                        6.60417,
                        3.98333
                    ],
                    "texture": "#0"
                },
                "up": {
                    "uv": [
                        5.97917,
                        3.23333,
                        6.60417,
                        3.98333
                    ],
                    "texture": "#0"
                },
                "down": {
                    "uv": [
                        5.97917,
                        3.23333,
                        6.60417,
                        3.98333
                    ],
                    "texture": "#0"
                }
            }
        },
        {
            "name": "hexadecagon",
            "from": [
                7.48238,
                0.87488,
                7.89704
            ],
            "to": [
                8.51763,
                6.62512,
                8.10296
            ],
            "rotation": {
                "angle": 0,
                "axis": "y",
                "origin": [
                    8,
                    0.89025,
                    8
                ]
            },
            "faces": {
                "north": {
                    "uv": [
                        5.97917,
                        3.23333,
                        6.60417,
                        3.98333
                    ],
                    "texture": "#0"
                },
                "east": {
                    "uv": [
                        5.97917,
                        3.23333,
                        6.60417,
                        3.98333
                    ],
                    "texture": "#0"
                },
                "south": {
                    "uv": [
                        5.97917,
                        3.23333,
                        6.60417,
                        3.98333
                    ],
                    "texture": "#0"
                },
                "west": {
                    "uv": [
                        5.97917,
                        3.23333,
                        6.60417,
                        3.98333
                    ],
                    "texture": "#0"
                },
                "up": {
                    "uv": [
                        5.97917,
                        3.23333,
                        6.60417,
                        3.98333
                    ],
                    "texture": "#0"
                },
                "down": {
                    "uv": [
                        5.97917,
                        3.23333,
                        6.60417,
                        3.98333
                    ],
                    "texture": "#0"
                }
            }
        },
        {
            "name": "hexadecagon",
            "from": [
                7.48238,
                0.87488,
                7.89704
            ],
            "to": [
                8.51763,
                6.62512,
                8.10296
            ],
            "rotation": {
                "angle": 22.5,
                "axis": "y",
                "origin": [
                    8,
                    0.89025,
                    8
                ]
            },
            "faces": {
                "north": {
                    "uv": [
                        5.97917,
                        3.23333,
                        6.60417,
                        3.98333
                    ],
                    "texture": "#0"
                },
                "east": {
                    "uv": [
                        5.97917,
                        3.23333,
                        6.60417,
                        3.98333
                    ],
                    "texture": "#0"
                },
                "south": {
                    "uv": [
                        5.97917,
                        3.23333,
                        6.60417,
                        3.98333
                    ],
                    "texture": "#0"
                },
                "west": {
                    "uv": [
                        5.97917,
                        3.23333,
                        6.60417,
                        3.98333
                    ],
                    "texture": "#0"
                },
                "up": {
                    "uv": [
                        5.97917,
                        3.23333,
                        6.60417,
                        3.98333
                    ],
                    "texture": "#0"
                },
                "down": {
                    "uv": [
                        5.97917,
                        3.23333,
                        6.60417,
                        3.98333
                    ],
                    "texture": "#0"
                }
            }
        }
    ],
    "display": {
        "thirdperson_righthand": {
            "translation": [
                0,
                5.75,
                1
            ]
        },
        "thirdperson_lefthand": {
            "translation": [
                0,
                4.25,
                1
            ]
        },
        "firstperson_righthand": {
            "translation": [
                -1.25,
                5.75,
                2.25
            ]
        },
        "firstperson_lefthand": {
            "translation": [
                -1.25,
                5.75,
                2.25
            ]
        },
        "ground": {
            "rotation": [
                45,
                0,
                0
            ],
            "translation": [
                0,
                2.75,
                2.75
            ]
        },
        "fixed": {
            "rotation": [
                90,
                -45,
                90
            ],
            "translation": [
                -2.5,
                2.25,
                0
            ]
        }
    }
}