{
    "textures": {
        "0": "gci:items/common/mpz",
        "1": "gci:items/common/all_in_one",
        "particle": "gci:items/common/mpz"
    },
    "elements": [
        {
            "from": [
                7.97216,
                9.25092,
                2.664
            ],
            "to": [
                8.66016,
                9.63492,
                4.324
            ],
            "rotation": {
                "angle": 0,
                "axis": "y",
                "origin": [
                    8.30316,
                    9.56159,
                    4.166
                ]
            },
            "faces": {
                "north": {
                    "uv": [
                        2.875,
                        3,
                        2.875,
                        3.25
                    ],
                    "rotation": 270,
                    "texture": "#1"
                },
                "east": {
                    "uv": [
                        2.875,
                        3,
                        2.875,
                        3.25
                    ],
                    "rotation": 270,
                    "texture": "#1"
                },
                "south": {
                    "uv": [
                        2.875,
                        3,
                        2.875,
                        3.25
                    ],
                    "rotation": 270,
                    "texture": "#1"
                },
                "west": {
                    "uv": [
                        2.875,
                        3,
                        2.875,
                        3.25
                    ],
                    "rotation": 270,
                    "texture": "#1"
                },
                "up": {
                    "uv": [
                        2.875,
                        3,
                        2.875,
                        3.25
                    ],
                    "rotation": 270,
                    "texture": "#1"
                },
                "down": {
                    "uv": [
                        2.875,
                        3,
                        2.875,
                        3.25
                    ],
                    "rotation": 270,
                    "texture": "#1"
                }
            }
        },
        {
            "from": [
                7.94016,
                9.31692,
                2.79
            ],
            "to": [
                8.69216,
                9.44092,
                2.918
            ],
            "rotation": {
                "angle": -45,
                "axis": "x",
                "origin": [
                    8.31616,
                    9.37892,
                    2.854
                ]
            },
            "faces": {
                "north": {
                    "uv": [
                        14.25,
                        6.625,
                        14.25,
                        6.625
                    ],
                    "texture": "#1"
                },
                "east": {
                    "uv": [
                        14.25,
                        6.625,
                        14.25,
                        6.625
                    ],
                    "texture": "#1"
                },
                "south": {
                    "uv": [
                        14.25,
                        6.625,
                        14.25,
                        6.625
                    ],
                    "texture": "#1"
                },
                "west": {
                    "uv": [
                        14.25,
                        6.625,
                        14.25,
                        6.625
                    ],
                    "texture": "#1"
                },
                "up": {
                    "uv": [
                        14.25,
                        6.625,
                        14.25,
                        6.625
                    ],
                    "texture": "#1"
                },
                "down": {
                    "uv": [
                        14.25,
                        6.625,
                        14.25,
                        6.625
                    ],
                    "texture": "#1"
                }
            }
        },
        {
            "from": [
                7.94016,
                9.31692,
                4.102
            ],
            "to": [
                8.69216,
                9.44092,
                4.23
            ],
            "rotation": {
                "angle": -45,
                "axis": "x",
                "origin": [
                    8.31616,
                    9.37892,
                    4.166
                ]
            },
            "faces": {
                "north": {
                    "uv": [
                        14.25,
                        6.625,
                        14.25,
                        6.625
                    ],
                    "texture": "#1"
                },
                "east": {
                    "uv": [
                        14.25,
                        6.625,
                        14.25,
                        6.625
                    ],
                    "texture": "#1"
                },
                "south": {
                    "uv": [
                        14.25,
                        6.625,
                        14.25,
                        6.625
                    ],
                    "texture": "#1"
                },
                "west": {
                    "uv": [
                        14.25,
                        6.625,
                        14.25,
                        6.625
                    ],
                    "texture": "#1"
                },
                "up": {
                    "uv": [
                        14.25,
                        6.625,
                        14.25,
                        6.625
                    ],
                    "texture": "#1"
                },
                "down": {
                    "uv": [
                        14.25,
                        6.625,
                        14.25,
                        6.625
                    ],
                    "texture": "#1"
                }
            }
        },
        {
            "from": [
                7.94016,
                9.76492,
                4.198
            ],
            "to": [
                8.69216,
                9.88892,
                4.326
            ],
            "rotation": {
                "angle": -45,
                "axis": "x",
                "origin": [
                    8.31616,
                    9.82692,
                    4.262
                ]
            },
            "faces": {
                "north": {
                    "uv": [
                        2.875,
                        1,
                        2.875,
                        1.25
                    ],
                    "texture": "#1"
                },
                "east": {
                    "uv": [
                        2.875,
                        1,
                        2.875,
                        1.25
                    ],
                    "texture": "#1"
                },
                "south": {
                    "uv": [
                        2.875,
                        1,
                        2.875,
                        1.25
                    ],
                    "texture": "#1"
                },
                "west": {
                    "uv": [
                        2.875,
                        1,
                        2.875,
                        1.25
                    ],
                    "texture": "#1"
                },
                "up": {
                    "uv": [
                        2.875,
                        1,
                        2.875,
                        1.25
                    ],
                    "texture": "#1"
                },
                "down": {
                    "uv": [
                        2.875,
                        1,
                        2.875,
                        1.25
                    ],
                    "texture": "#1"
                }
            }
        },
        {
            "from": [
                7.97216,
                9.69892,
                2.664
            ],
            "to": [
                8.66016,
                9.85892,
                4.74
            ],
            "rotation": {
                "angle": 0,
                "axis": "y",
                "origin": [
                    8.30316,
                    10.00959,
                    4.166
                ]
            },
            "faces": {
                "north": {
                    "uv": [
                        2.875,
                        3,
                        2.875,
                        3.25
                    ],
                    "rotation": 270,
                    "texture": "#1"
                },
                "east": {
                    "uv": [
                        2.875,
                        3,
                        2.875,
                        3.25
                    ],
                    "rotation": 270,
                    "texture": "#1"
                },
                "south": {
                    "uv": [
                        2.875,
                        3,
                        2.875,
                        3.25
                    ],
                    "rotation": 270,
                    "texture": "#1"
                },
                "west": {
                    "uv": [
                        2.875,
                        3,
                        2.875,
                        3.25
                    ],
                    "rotation": 270,
                    "texture": "#1"
                },
                "up": {
                    "uv": [
                        2.875,
                        3,
                        2.875,
                        3.25
                    ],
                    "rotation": 270,
                    "texture": "#1"
                },
                "down": {
                    "uv": [
                        2.875,
                        3,
                        2.875,
                        3.25
                    ],
                    "rotation": 270,
                    "texture": "#1"
                }
            }
        },
        {
            "from": [
                8.26016,
                9.85892,
                3.4
            ],
            "to": [
                8.37216,
                9.95892,
                3.512
            ],
            "rotation": {
                "angle": -45,
                "axis": "y",
                "origin": [
                    8.31616,
                    9.92292,
                    3.456
                ]
            },
            "faces": {
                "north": {
                    "uv": [
                        4.25,
                        3.125,
                        4.25,
                        3.375
                    ],
                    "rotation": 270,
                    "texture": "#1"
                },
                "east": {
                    "uv": [
                        4.25,
                        3.125,
                        4.25,
                        3.375
                    ],
                    "rotation": 270,
                    "texture": "#1"
                },
                "south": {
                    "uv": [
                        4.25,
                        3.125,
                        4.25,
                        3.375
                    ],
                    "rotation": 270,
                    "texture": "#1"
                },
                "west": {
                    "uv": [
                        4.25,
                        3.125,
                        4.25,
                        3.375
                    ],
                    "rotation": 270,
                    "texture": "#1"
                },
                "up": {
                    "uv": [
                        4.25,
                        3.125,
                        4.25,
                        3.375
                    ],
                    "rotation": 270,
                    "texture": "#1"
                },
                "down": {
                    "uv": [
                        4.25,
                        3.125,
                        4.25,
                        3.375
                    ],
                    "rotation": 270,
                    "texture": "#1"
                }
            }
        },
        {
            "from": [
                8.0663,
                9.85892,
                3.32753
            ],
            "to": [
                8.7983,
                9.95492,
                3.63153
            ],
            "rotation": {
                "angle": 45,
                "axis": "y",
                "origin": [
                    8.3463,
                    9.89092,
                    3.60753
                ]
            },
            "faces": {
                "north": {
                    "uv": [
                        14.25,
                        6.625,
                        14.25,
                        6.625
                    ],
                    "rotation": 270,
                    "texture": "#1"
                },
                "east": {
                    "uv": [
                        14.25,
                        6.625,
                        14.25,
                        6.625
                    ],
                    "rotation": 270,
                    "texture": "#1"
                },
                "south": {
                    "uv": [
                        14.25,
                        6.625,
                        14.25,
                        6.625
                    ],
                    "rotation": 270,
                    "texture": "#1"
                },
                "west": {
                    "uv": [
                        14.25,
                        6.625,
                        14.25,
                        6.625
                    ],
                    "rotation": 270,
                    "texture": "#1"
                },
                "up": {
                    "uv": [
                        14.25,
                        6.625,
                        14.25,
                        6.625
                    ],
                    "rotation": 270,
                    "texture": "#1"
                },
                "down": {
                    "uv": [
                        14.25,
                        6.625,
                        14.25,
                        6.625
                    ],
                    "rotation": 270,
                    "texture": "#1"
                }
            }
        },
        {
            "from": [
                7.9506,
                9.85892,
                3.30421
            ],
            "to": [
                8.6826,
                9.95492,
                3.60821
            ],
            "rotation": {
                "angle": 0,
                "axis": "y",
                "origin": [
                    8.3166,
                    9.90692,
                    3.45621
                ]
            },
            "faces": {
                "north": {
                    "uv": [
                        14.25,
                        6.625,
                        14.25,
                        6.625
                    ],
                    "rotation": 270,
                    "texture": "#1"
                },
                "east": {
                    "uv": [
                        14.25,
                        6.625,
                        14.25,
                        6.625
                    ],
                    "rotation": 270,
                    "texture": "#1"
                },
                "south": {
                    "uv": [
                        14.25,
                        6.625,
                        14.25,
                        6.625
                    ],
                    "rotation": 270,
                    "texture": "#1"
                },
                "west": {
                    "uv": [
                        14.25,
                        6.625,
                        14.25,
                        6.625
                    ],
                    "rotation": 270,
                    "texture": "#1"
                },
                "up": {
                    "uv": [
                        14.25,
                        6.625,
                        14.25,
                        6.625
                    ],
                    "rotation": 270,
                    "texture": "#1"
                },
                "down": {
                    "uv": [
                        14.25,
                        6.625,
                        14.25,
                        6.625
                    ],
                    "rotation": 270,
                    "texture": "#1"
                }
            }
        },
        {
            "from": [
                8.1646,
                9.85892,
                3.09021
            ],
            "to": [
                8.4686,
                9.95492,
                3.82221
            ],
            "rotation": {
                "angle": 45,
                "axis": "y",
                "origin": [
                    8.3166,
                    9.90692,
                    3.45621
                ]
            },
            "faces": {
                "north": {
                    "uv": [
                        14.25,
                        6.625,
                        14.25,
                        6.625
                    ],
                    "texture": "#1"
                },
                "east": {
                    "uv": [
                        14.25,
                        6.625,
                        14.25,
                        6.625
                    ],
                    "texture": "#1"
                },
                "south": {
                    "uv": [
                        14.25,
                        6.625,
                        14.25,
                        6.625
                    ],
                    "texture": "#1"
                },
                "west": {
                    "uv": [
                        14.25,
                        6.625,
                        14.25,
                        6.625
                    ],
                    "texture": "#1"
                },
                "up": {
                    "uv": [
                        14.25,
                        6.625,
                        14.25,
                        6.625
                    ],
                    "texture": "#1"
                },
                "down": {
                    "uv": [
                        14.25,
                        6.625,
                        14.25,
                        6.625
                    ],
                    "texture": "#1"
                }
            }
        },
        {
            "from": [
                8.1646,
                9.85892,
                3.09021
            ],
            "to": [
                8.4686,
                9.95492,
                3.82221
            ],
            "rotation": {
                "angle": 0,
                "axis": "y",
                "origin": [
                    8.3166,
                    9.90692,
                    3.45621
                ]
            },
            "faces": {
                "north": {
                    "uv": [
                        14.25,
                        6.625,
                        14.25,
                        6.625
                    ],
                    "texture": "#1"
                },
                "east": {
                    "uv": [
                        14.25,
                        6.625,
                        14.25,
                        6.625
                    ],
                    "texture": "#1"
                },
                "south": {
                    "uv": [
                        14.25,
                        6.625,
                        14.25,
                        6.625
                    ],
                    "texture": "#1"
                },
                "west": {
                    "uv": [
                        14.25,
                        6.625,
                        14.25,
                        6.625
                    ],
                    "texture": "#1"
                },
                "up": {
                    "uv": [
                        14.25,
                        6.625,
                        14.25,
                        6.625
                    ],
                    "texture": "#1"
                },
                "down": {
                    "uv": [
                        14.25,
                        6.625,
                        14.25,
                        6.625
                    ],
                    "texture": "#1"
                }
            }
        },
        {
            "from": [
                8.28572,
                9.87289,
                2.76
            ],
            "to": [
                8.52572,
                9.92089,
                3.044
            ],
            "rotation": {
                "angle": 22.5,
                "axis": "z",
                "origin": [
                    8.62276,
                    10.20258,
                    2.902
                ]
            },
            "faces": {
                "north": {
                    "uv": [
                        2.875,
                        3,
                        2.875,
                        3.25
                    ],
                    "rotation": 90,
                    "texture": "#1"
                },
                "east": {
                    "uv": [
                        2.875,
                        3,
                        2.875,
                        3.25
                    ],
                    "rotation": 90,
                    "texture": "#1"
                },
                "south": {
                    "uv": [
                        2.875,
                        3,
                        2.875,
                        3.25
                    ],
                    "rotation": 90,
                    "texture": "#1"
                },
                "west": {
                    "uv": [
                        2.875,
                        3,
                        2.875,
                        3.25
                    ],
                    "rotation": 90,
                    "texture": "#1"
                },
                "up": {
                    "uv": [
                        2.875,
                        3,
                        2.875,
                        3.25
                    ],
                    "rotation": 90,
                    "texture": "#1"
                },
                "down": {
                    "uv": [
                        2.875,
                        3,
                        2.875,
                        3.25
                    ],
                    "rotation": 90,
                    "texture": "#1"
                }
            }
        },
        {
            "from": [
                7.97581,
                10.52832,
                2.76
            ],
            "to": [
                8.66381,
                10.57632,
                3.044
            ],
            "rotation": {
                "angle": 0,
                "axis": "y",
                "origin": [
                    8.30681,
                    10.16699,
                    4.23
                ]
            },
            "faces": {
                "north": {
                    "uv": [
                        2.875,
                        3,
                        2.875,
                        3.25
                    ],
                    "rotation": 270,
                    "texture": "#1"
                },
                "east": {
                    "uv": [
                        2.875,
                        3,
                        2.875,
                        3.25
                    ],
                    "rotation": 270,
                    "texture": "#1"
                },
                "south": {
                    "uv": [
                        2.875,
                        3,
                        2.875,
                        3.25
                    ],
                    "rotation": 270,
                    "texture": "#1"
                },
                "west": {
                    "uv": [
                        2.875,
                        3,
                        2.875,
                        3.25
                    ],
                    "rotation": 270,
                    "texture": "#1"
                },
                "up": {
                    "uv": [
                        2.875,
                        3,
                        2.875,
                        3.25
                    ],
                    "rotation": 270,
                    "texture": "#1"
                },
                "down": {
                    "uv": [
                        2.875,
                        3,
                        2.875,
                        3.25
                    ],
                    "rotation": 270,
                    "texture": "#1"
                }
            }
        },
        {
            "from": [
                8.27786,
                10.17632,
                2.888
            ],
            "to": [
                8.35786,
                10.25632,
                2.888
            ],
            "rotation": {
                "angle": 0,
                "axis": "y",
                "origin": [
                    8.65881,
                    10.45499,
                    4.23
                ]
            },
            "faces": {
                "north": {
                    "uv": [
                        8.75,
                        7,
                        8.75,
                        7.125
                    ],
                    "texture": "#1"
                },
                "east": {
                    "uv": [
                        8.75,
                        7,
                        8.75,
                        7.125
                    ],
                    "texture": "#1"
                },
                "south": {
                    "uv": [
                        8.75,
                        7,
                        8.75,
                        7.125
                    ],
                    "texture": "#1"
                },
                "west": {
                    "uv": [
                        8.75,
                        7,
                        8.75,
                        7.125
                    ],
                    "texture": "#1"
                },
                "up": {
                    "uv": [
                        8.75,
                        7,
                        8.75,
                        7.125
                    ],
                    "texture": "#1"
                },
                "down": {
                    "uv": [
                        8.75,
                        7,
                        8.75,
                        7.125
                    ],
                    "texture": "#1"
                }
            }
        },
        {
            "from": [
                7.82459,
                9.75925,
                2.76
            ],
            "to": [
                8.06459,
                9.80725,
                3.044
            ],
            "rotation": {
                "angle": -22.5,
                "axis": "z",
                "origin": [
                    8.15559,
                    9.42992,
                    4.23
                ]
            },
            "faces": {
                "north": {
                    "uv": [
                        2.875,
                        3,
                        2.875,
                        3.25
                    ],
                    "rotation": 270,
                    "texture": "#1"
                },
                "east": {
                    "uv": [
                        2.875,
                        3,
                        2.875,
                        3.25
                    ],
                    "rotation": 270,
                    "texture": "#1"
                },
                "south": {
                    "uv": [
                        2.875,
                        3,
                        2.875,
                        3.25
                    ],
                    "rotation": 270,
                    "texture": "#1"
                },
                "west": {
                    "uv": [
                        2.875,
                        3,
                        2.875,
                        3.25
                    ],
                    "rotation": 270,
                    "texture": "#1"
                },
                "up": {
                    "uv": [
                        2.875,
                        3,
                        2.875,
                        3.25
                    ],
                    "rotation": 270,
                    "texture": "#1"
                },
                "down": {
                    "uv": [
                        2.875,
                        3,
                        2.875,
                        3.25
                    ],
                    "rotation": 270,
                    "texture": "#1"
                }
            }
        },
        {
            "from": [
                7.88397,
                10.11458,
                2.76
            ],
            "to": [
                7.93197,
                10.35458,
                3.044
            ],
            "rotation": {
                "angle": 0,
                "axis": "y",
                "origin": [
                    7.96054,
                    10.1463,
                    2.902
                ]
            },
            "faces": {
                "north": {
                    "uv": [
                        2.875,
                        3,
                        2.875,
                        3.25
                    ],
                    "texture": "#1"
                },
                "east": {
                    "uv": [
                        2.875,
                        3,
                        2.875,
                        3.25
                    ],
                    "rotation": 180,
                    "texture": "#1"
                },
                "south": {
                    "uv": [
                        2.875,
                        3,
                        2.875,
                        3.25
                    ],
                    "rotation": 180,
                    "texture": "#1"
                },
                "west": {
                    "uv": [
                        2.875,
                        3,
                        2.875,
                        3.25
                    ],
                    "rotation": 180,
                    "texture": "#1"
                },
                "up": {
                    "uv": [
                        2.875,
                        3,
                        2.875,
                        3.25
                    ],
                    "rotation": 180,
                    "texture": "#1"
                },
                "down": {
                    "uv": [
                        2.875,
                        3,
                        2.875,
                        3.25
                    ],
                    "rotation": 180,
                    "texture": "#1"
                }
            }
        },
        {
            "from": [
                8.70312,
                10.11458,
                2.76
            ],
            "to": [
                8.75112,
                10.35458,
                3.044
            ],
            "rotation": {
                "angle": 0,
                "axis": "y",
                "origin": [
                    8.62276,
                    10.23458,
                    2.902
                ]
            },
            "faces": {
                "north": {
                    "uv": [
                        2.875,
                        3,
                        2.875,
                        3.25
                    ],
                    "rotation": 180,
                    "texture": "#1"
                },
                "east": {
                    "uv": [
                        2.875,
                        3,
                        2.875,
                        3.25
                    ],
                    "texture": "#1"
                },
                "south": {
                    "uv": [
                        2.875,
                        3,
                        2.875,
                        3.25
                    ],
                    "texture": "#1"
                },
                "west": {
                    "uv": [
                        2.875,
                        3,
                        2.875,
                        3.25
                    ],
                    "texture": "#1"
                },
                "up": {
                    "uv": [
                        2.875,
                        3,
                        2.875,
                        3.25
                    ],
                    "texture": "#1"
                },
                "down": {
                    "uv": [
                        2.875,
                        3,
                        2.875,
                        3.25
                    ],
                    "texture": "#1"
                }
            }
        },
        {
            "from": [
                7.97216,
                9.79492,
                2.76
            ],
            "to": [
                8.66016,
                9.90692,
                3.044
            ],
            "rotation": {
                "angle": 0,
                "axis": "y",
                "origin": [
                    8.30316,
                    9.46559,
                    4.23
                ]
            },
            "faces": {
                "north": {
                    "uv": [
                        2.875,
                        3,
                        2.875,
                        3.25
                    ],
                    "rotation": 270,
                    "texture": "#1"
                },
                "east": {
                    "uv": [
                        2.875,
                        3,
                        2.875,
                        3.25
                    ],
                    "rotation": 270,
                    "texture": "#1"
                },
                "south": {
                    "uv": [
                        2.875,
                        3,
                        2.875,
                        3.25
                    ],
                    "rotation": 270,
                    "texture": "#1"
                },
                "west": {
                    "uv": [
                        2.875,
                        3,
                        2.875,
                        3.25
                    ],
                    "rotation": 270,
                    "texture": "#1"
                },
                "up": {
                    "uv": [
                        2.875,
                        3,
                        2.875,
                        3.25
                    ],
                    "rotation": 270,
                    "texture": "#1"
                },
                "down": {
                    "uv": [
                        2.875,
                        3,
                        2.875,
                        3.25
                    ],
                    "rotation": 270,
                    "texture": "#1"
                }
            }
        },
        {
            "from": [
                7.97216,
                9.85892,
                4.296
            ],
            "to": [
                8.66016,
                10.00292,
                4.74
            ],
            "rotation": {
                "angle": 0,
                "axis": "y",
                "origin": [
                    8.30316,
                    9.52959,
                    5.926
                ]
            },
            "faces": {
                "north": {
                    "uv": [
                        2.875,
                        3,
                        2.875,
                        3.25
                    ],
                    "rotation": 270,
                    "texture": "#1"
                },
                "east": {
                    "uv": [
                        2.875,
                        3,
                        2.875,
                        3.25
                    ],
                    "rotation": 270,
                    "texture": "#1"
                },
                "south": {
                    "uv": [
                        2.875,
                        3,
                        2.875,
                        3.25
                    ],
                    "rotation": 270,
                    "texture": "#1"
                },
                "west": {
                    "uv": [
                        2.875,
                        3,
                        2.875,
                        3.25
                    ],
                    "rotation": 270,
                    "texture": "#1"
                },
                "up": {
                    "uv": [
                        2.875,
                        3,
                        2.875,
                        3.25
                    ],
                    "rotation": 270,
                    "texture": "#1"
                },
                "down": {
                    "uv": [
                        2.875,
                        3,
                        2.875,
                        3.25
                    ],
                    "rotation": 270,
                    "texture": "#1"
                }
            }
        },
        {
            "from": [
                7.97216,
                9.76248,
                3.84318
            ],
            "to": [
                8.66016,
                9.90648,
                4.41518
            ],
            "rotation": {
                "angle": 0,
                "axis": "y",
                "origin": [
                    8.30316,
                    9.43315,
                    5.24918
                ]
            },
            "faces": {
                "north": {
                    "uv": [
                        2.875,
                        3,
                        2.875,
                        3.25
                    ],
                    "rotation": 270,
                    "texture": "#1"
                },
                "east": {
                    "uv": [
                        2.875,
                        3,
                        2.875,
                        3.25
                    ],
                    "rotation": 270,
                    "texture": "#1"
                },
                "south": {
                    "uv": [
                        2.875,
                        3,
                        2.875,
                        3.25
                    ],
                    "rotation": 270,
                    "texture": "#1"
                },
                "west": {
                    "uv": [
                        2.875,
                        3,
                        2.875,
                        3.25
                    ],
                    "rotation": 270,
                    "texture": "#1"
                },
                "up": {
                    "uv": [
                        2.875,
                        3,
                        2.875,
                        3.25
                    ],
                    "rotation": 270,
                    "texture": "#1"
                },
                "down": {
                    "uv": [
                        2.875,
                        3,
                        2.875,
                        3.25
                    ],
                    "rotation": 270,
                    "texture": "#1"
                }
            }
        },
        {
            "from": [
                7.97216,
                10.34881,
                4.13486
            ],
            "to": [
                8.66016,
                10.49281,
                4.38686
            ],
            "rotation": {
                "angle": -22.5,
                "axis": "x",
                "origin": [
                    8.30316,
                    10.01948,
                    5.57286
                ]
            },
            "faces": {
                "north": {
                    "uv": [
                        2.875,
                        3,
                        2.875,
                        3.25
                    ],
                    "rotation": 270,
                    "texture": "#1"
                },
                "east": {
                    "uv": [
                        2.875,
                        3,
                        2.875,
                        3.25
                    ],
                    "rotation": 270,
                    "texture": "#1"
                },
                "south": {
                    "uv": [
                        2.875,
                        3,
                        2.875,
                        3.25
                    ],
                    "rotation": 270,
                    "texture": "#1"
                },
                "west": {
                    "uv": [
                        2.875,
                        3,
                        2.875,
                        3.25
                    ],
                    "rotation": 270,
                    "texture": "#1"
                },
                "up": {
                    "uv": [
                        2.875,
                        3,
                        2.875,
                        3.25
                    ],
                    "rotation": 270,
                    "texture": "#1"
                },
                "down": {
                    "uv": [
                        2.875,
                        3,
                        2.875,
                        3.25
                    ],
                    "rotation": 270,
                    "texture": "#1"
                }
            }
        },
        {
            "from": [
                8.03706,
                10.30822,
                2.76
            ],
            "to": [
                8.08506,
                10.54822,
                3.044
            ],
            "rotation": {
                "angle": -22.5,
                "axis": "z",
                "origin": [
                    8.07706,
                    10.71622,
                    2.902
                ]
            },
            "faces": {
                "north": {
                    "uv": [
                        2.875,
                        3,
                        2.875,
                        3.25
                    ],
                    "rotation": 180,
                    "texture": "#1"
                },
                "east": {
                    "uv": [
                        2.875,
                        3,
                        2.875,
                        3.25
                    ],
                    "texture": "#1"
                },
                "south": {
                    "uv": [
                        2.875,
                        3,
                        2.875,
                        3.25
                    ],
                    "texture": "#1"
                },
                "west": {
                    "uv": [
                        2.875,
                        3,
                        2.875,
                        3.25
                    ],
                    "texture": "#1"
                },
                "up": {
                    "uv": [
                        2.875,
                        3,
                        2.875,
                        3.25
                    ],
                    "texture": "#1"
                },
                "down": {
                    "uv": [
                        2.875,
                        3,
                        2.875,
                        3.25
                    ],
                    "texture": "#1"
                }
            }
        },
        {
            "from": [
                8.73927,
                9.93284,
                2.76
            ],
            "to": [
                8.78727,
                10.17284,
                3.044
            ],
            "rotation": {
                "angle": -22.5,
                "axis": "z",
                "origin": [
                    8.62276,
                    10.23458,
                    2.902
                ]
            },
            "faces": {
                "north": {
                    "uv": [
                        2.875,
                        3,
                        2.875,
                        3.25
                    ],
                    "texture": "#1"
                },
                "east": {
                    "uv": [
                        2.875,
                        3,
                        2.875,
                        3.25
                    ],
                    "rotation": 180,
                    "texture": "#1"
                },
                "south": {
                    "uv": [
                        2.875,
                        3,
                        2.875,
                        3.25
                    ],
                    "rotation": 180,
                    "texture": "#1"
                },
                "west": {
                    "uv": [
                        2.875,
                        3,
                        2.875,
                        3.25
                    ],
                    "rotation": 180,
                    "texture": "#1"
                },
                "up": {
                    "uv": [
                        2.875,
                        3,
                        2.875,
                        3.25
                    ],
                    "rotation": 180,
                    "texture": "#1"
                },
                "down": {
                    "uv": [
                        2.875,
                        3,
                        2.875,
                        3.25
                    ],
                    "rotation": 180,
                    "texture": "#1"
                }
            }
        },
        {
            "from": [
                7.89028,
                9.9063,
                2.76
            ],
            "to": [
                7.93828,
                10.1463,
                3.044
            ],
            "rotation": {
                "angle": 22.5,
                "axis": "z",
                "origin": [
                    7.96685,
                    10.11458,
                    2.902
                ]
            },
            "faces": {
                "north": {
                    "uv": [
                        2.875,
                        3,
                        2.875,
                        3.25
                    ],
                    "rotation": 180,
                    "texture": "#1"
                },
                "east": {
                    "uv": [
                        2.875,
                        3,
                        2.875,
                        3.25
                    ],
                    "texture": "#1"
                },
                "south": {
                    "uv": [
                        2.875,
                        3,
                        2.875,
                        3.25
                    ],
                    "texture": "#1"
                },
                "west": {
                    "uv": [
                        2.875,
                        3,
                        2.875,
                        3.25
                    ],
                    "texture": "#1"
                },
                "up": {
                    "uv": [
                        2.875,
                        3,
                        2.875,
                        3.25
                    ],
                    "texture": "#1"
                },
                "down": {
                    "uv": [
                        2.875,
                        3,
                        2.875,
                        3.25
                    ],
                    "texture": "#1"
                }
            }
        },
        {
            "from": [
                8.73927,
                10.29633,
                2.76
            ],
            "to": [
                8.78727,
                10.53633,
                3.044
            ],
            "rotation": {
                "angle": 22.5,
                "axis": "z",
                "origin": [
                    8.62276,
                    10.23458,
                    2.902
                ]
            },
            "faces": {
                "north": {
                    "uv": [
                        2.875,
                        3,
                        2.875,
                        3.25
                    ],
                    "texture": "#1"
                },
                "east": {
                    "uv": [
                        2.875,
                        3,
                        2.875,
                        3.25
                    ],
                    "rotation": 180,
                    "texture": "#1"
                },
                "south": {
                    "uv": [
                        2.875,
                        3,
                        2.875,
                        3.25
                    ],
                    "rotation": 180,
                    "texture": "#1"
                },
                "west": {
                    "uv": [
                        2.875,
                        3,
                        2.875,
                        3.25
                    ],
                    "rotation": 180,
                    "texture": "#1"
                },
                "up": {
                    "uv": [
                        2.875,
                        3,
                        2.875,
                        3.25
                    ],
                    "rotation": 180,
                    "texture": "#1"
                },
                "down": {
                    "uv": [
                        2.875,
                        3,
                        2.875,
                        3.25
                    ],
                    "rotation": 180,
                    "texture": "#1"
                }
            }
        },
        {
            "from": [
                8.00416,
                9.60292,
                2.696
            ],
            "to": [
                8.62816,
                9.79492,
                4.708
            ],
            "rotation": {
                "angle": 0,
                "axis": "y",
                "origin": [
                    8.30316,
                    9.94559,
                    4.166
                ]
            },
            "faces": {
                "north": {
                    "uv": [
                        1.625,
                        0.875,
                        1.625,
                        0.875
                    ],
                    "rotation": 270,
                    "texture": "#1"
                },
                "east": {
                    "uv": [
                        1.625,
                        0.875,
                        1.625,
                        0.875
                    ],
                    "rotation": 270,
                    "texture": "#1"
                },
                "south": {
                    "uv": [
                        1.625,
                        0.875,
                        1.625,
                        0.875
                    ],
                    "rotation": 270,
                    "texture": "#1"
                },
                "west": {
                    "uv": [
                        1.625,
                        0.875,
                        1.625,
                        0.875
                    ],
                    "rotation": 270,
                    "texture": "#1"
                },
                "up": {
                    "uv": [
                        1.625,
                        0.875,
                        1.625,
                        0.875
                    ],
                    "rotation": 270,
                    "texture": "#1"
                },
                "down": {
                    "uv": [
                        1.625,
                        0.875,
                        1.625,
                        0.875
                    ],
                    "rotation": 270,
                    "texture": "#1"
                }
            }
        }
    ],
    "display": {
        "thirdperson_righthand": {
            "translation": [
                -0.25,
                1,
                6.25
            ]
        },
        "thirdperson_lefthand": {
            "translation": [
                0,
                1,
                6.25
            ]
        },
        "firstperson_righthand": {
            "translation": [
                -2.25,
                3,
                5.75
            ]
        },
        "firstperson_lefthand": {
            "translation": [
                -1.75,
                3.5,
                6.25
            ]
        },
        "ground": {
            "translation": [
                0,
                0,
                8.5
            ]
        },
        "gui": {
            "rotation": [
                31,
                33,
                -21
            ],
            "translation": [
                4,
                -1.25,
                0
            ],
            "scale": [
                0.86,
                0.86,
                0.86
            ]
        },
        "fixed": {
            "rotation": [
                90,
                45,
                -90
            ],
            "translation": [
                5.75,
                -4.25,
                -1.75
            ]
        }
    }
}