{
    "textures": {
        "0": "gci:items/common/mpz",
        "particle": "gci:items/common/all_in_one"
    },
    "elements": [
        {
            "from": [
                1.69882,
                5.3751,
                -12.44485
            ],
            "to": [
                2.20506,
                5.7501,
                -4.94485
            ],
            "rotation": {
                "angle": 0,
                "axis": "y",
                "origin": [
                    1.95194,
                    5.139,
                    -8.69485
                ]
            },
            "faces": {
                "north": {
                    "uv": [
                        9,
                        0.5,
                        9.88,
                        1.714
                    ],
                    "rotation": 180,
                    "texture": "#0"
                },
                "east": {
                    "uv": [
                        9,
                        0.5,
                        9.88,
                        1.714
                    ],
                    "rotation": 180,
                    "texture": "#0"
                },
                "south": {
                    "uv": [
                        9,
                        0.5,
                        9.88,
                        1.714
                    ],
                    "rotation": 180,
                    "texture": "#0"
                },
                "west": {
                    "uv": [
                        9,
                        0.5,
                        9.88,
                        1.714
                    ],
                    "rotation": 180,
                    "texture": "#0"
                },
                "up": {
                    "uv": [
                        9,
                        0.5,
                        9.88,
                        1.714
                    ],
                    "rotation": 180,
                    "texture": "#0"
                },
                "down": {
                    "uv": [
                        9,
                        0.5,
                        9.88,
                        1.714
                    ],
                    "rotation": 180,
                    "texture": "#0"
                }
            }
        },
        {
            "from": [
                1.69882,
                4.52791,
                -12.44485
            ],
            "to": [
                2.20506,
                4.90291,
                -4.94485
            ],
            "rotation": {
                "angle": 0,
                "axis": "y",
                "origin": [
                    1.95194,
                    5.139,
                    -8.69485
                ]
            },
            "faces": {
                "north": {
                    "uv": [
                        9,
                        0.5,
                        9.88,
                        1.714
                    ],
                    "rotation": 180,
                    "texture": "#0"
                },
                "east": {
                    "uv": [
                        9,
                        0.5,
                        9.88,
                        1.714
                    ],
                    "rotation": 180,
                    "texture": "#0"
                },
                "south": {
                    "uv": [
                        9,
                        0.5,
                        9.88,
                        1.714
                    ],
                    "rotation": 180,
                    "texture": "#0"
                },
                "west": {
                    "uv": [
                        9,
                        0.5,
                        9.88,
                        1.714
                    ],
                    "rotation": 180,
                    "texture": "#0"
                },
                "up": {
                    "uv": [
                        9,
                        0.5,
                        9.88,
                        1.714
                    ],
                    "rotation": 180,
                    "texture": "#0"
                },
                "down": {
                    "uv": [
                        9,
                        0.5,
                        9.88,
                        1.714
                    ],
                    "rotation": 180,
                    "texture": "#0"
                }
            }
        },
        {
            "from": [
                1.34084,
                4.88587,
                -12.44485
            ],
            "to": [
                1.71584,
                5.39212,
                -4.94485
            ],
            "rotation": {
                "angle": 0,
                "axis": "y",
                "origin": [
                    1.95194,
                    5.139,
                    -8.69485
                ]
            },
            "faces": {
                "north": {
                    "uv": [
                        9,
                        0.5,
                        9.88,
                        1.714
                    ],
                    "rotation": 270,
                    "texture": "#0"
                },
                "east": {
                    "uv": [
                        9,
                        0.5,
                        9.88,
                        1.714
                    ],
                    "rotation": 270,
                    "texture": "#0"
                },
                "south": {
                    "uv": [
                        9,
                        0.5,
                        9.88,
                        1.714
                    ],
                    "rotation": 270,
                    "texture": "#0"
                },
                "west": {
                    "uv": [
                        9,
                        0.5,
                        9.88,
                        1.714
                    ],
                    "rotation": 270,
                    "texture": "#0"
                },
                "up": {
                    "uv": [
                        9,
                        0.5,
                        9.88,
                        1.714
                    ],
                    "rotation": 270,
                    "texture": "#0"
                },
                "down": {
                    "uv": [
                        9,
                        0.5,
                        9.88,
                        1.714
                    ],
                    "rotation": 270,
                    "texture": "#0"
                }
            }
        },
        {
            "from": [
                2.18804,
                4.88587,
                -12.44485
            ],
            "to": [
                2.56304,
                5.39212,
                -4.94485
            ],
            "rotation": {
                "angle": 0,
                "axis": "y",
                "origin": [
                    1.95194,
                    5.139,
                    -8.69485
                ]
            },
            "faces": {
                "north": {
                    "uv": [
                        9,
                        0.5,
                        9.88,
                        1.714
                    ],
                    "rotation": 270,
                    "texture": "#0"
                },
                "east": {
                    "uv": [
                        9,
                        0.5,
                        9.88,
                        1.714
                    ],
                    "rotation": 270,
                    "texture": "#0"
                },
                "south": {
                    "uv": [
                        9,
                        0.5,
                        9.88,
                        1.714
                    ],
                    "rotation": 270,
                    "texture": "#0"
                },
                "west": {
                    "uv": [
                        9,
                        0.5,
                        9.88,
                        1.714
                    ],
                    "rotation": 270,
                    "texture": "#0"
                },
                "up": {
                    "uv": [
                        9,
                        0.5,
                        9.88,
                        1.714
                    ],
                    "rotation": 270,
                    "texture": "#0"
                },
                "down": {
                    "uv": [
                        9,
                        0.5,
                        9.88,
                        1.714
                    ],
                    "rotation": 270,
                    "texture": "#0"
                }
            }
        },
        {
            "from": [
                1.69882,
                5.37511,
                -12.44485
            ],
            "to": [
                2.20506,
                5.75011,
                -4.94485
            ],
            "rotation": {
                "angle": 45,
                "axis": "z",
                "origin": [
                    1.95194,
                    5.139,
                    -8.69485
                ]
            },
            "faces": {
                "north": {
                    "uv": [
                        9,
                        0.5,
                        9.88,
                        1.714
                    ],
                    "rotation": 180,
                    "texture": "#0"
                },
                "east": {
                    "uv": [
                        9,
                        0.5,
                        9.88,
                        1.714
                    ],
                    "rotation": 180,
                    "texture": "#0"
                },
                "south": {
                    "uv": [
                        9,
                        0.5,
                        9.88,
                        1.714
                    ],
                    "rotation": 180,
                    "texture": "#0"
                },
                "west": {
                    "uv": [
                        9,
                        0.5,
                        9.88,
                        1.714
                    ],
                    "rotation": 180,
                    "texture": "#0"
                },
                "up": {
                    "uv": [
                        9,
                        0.5,
                        9.88,
                        1.714
                    ],
                    "rotation": 180,
                    "texture": "#0"
                },
                "down": {
                    "uv": [
                        9,
                        0.5,
                        9.88,
                        1.714
                    ],
                    "rotation": 180,
                    "texture": "#0"
                }
            }
        },
        {
            "from": [
                1.69882,
                4.52791,
                -12.44485
            ],
            "to": [
                2.20506,
                4.90291,
                -4.94485
            ],
            "rotation": {
                "angle": 45,
                "axis": "z",
                "origin": [
                    1.95194,
                    5.139,
                    -8.69485
                ]
            },
            "faces": {
                "north": {
                    "uv": [
                        9,
                        0.5,
                        9.88,
                        1.714
                    ],
                    "rotation": 180,
                    "texture": "#0"
                },
                "east": {
                    "uv": [
                        9,
                        0.5,
                        9.88,
                        1.714
                    ],
                    "rotation": 180,
                    "texture": "#0"
                },
                "south": {
                    "uv": [
                        9,
                        0.5,
                        9.88,
                        1.714
                    ],
                    "rotation": 180,
                    "texture": "#0"
                },
                "west": {
                    "uv": [
                        9,
                        0.5,
                        9.88,
                        1.714
                    ],
                    "rotation": 180,
                    "texture": "#0"
                },
                "up": {
                    "uv": [
                        9,
                        0.5,
                        9.88,
                        1.714
                    ],
                    "rotation": 180,
                    "texture": "#0"
                },
                "down": {
                    "uv": [
                        9,
                        0.5,
                        9.88,
                        1.714
                    ],
                    "rotation": 180,
                    "texture": "#0"
                }
            }
        },
        {
            "from": [
                1.69882,
                5.3751,
                -12.44485
            ],
            "to": [
                2.20506,
                5.7501,
                -4.94485
            ],
            "rotation": {
                "angle": -45,
                "axis": "z",
                "origin": [
                    1.95194,
                    5.139,
                    -8.69485
                ]
            },
            "faces": {
                "north": {
                    "uv": [
                        9,
                        0.5,
                        9.88,
                        1.714
                    ],
                    "rotation": 180,
                    "texture": "#0"
                },
                "east": {
                    "uv": [
                        9,
                        0.5,
                        9.88,
                        1.714
                    ],
                    "rotation": 180,
                    "texture": "#0"
                },
                "south": {
                    "uv": [
                        9,
                        0.5,
                        9.88,
                        1.714
                    ],
                    "rotation": 180,
                    "texture": "#0"
                },
                "west": {
                    "uv": [
                        9,
                        0.5,
                        9.88,
                        1.714
                    ],
                    "rotation": 180,
                    "texture": "#0"
                },
                "up": {
                    "uv": [
                        9,
                        0.5,
                        9.88,
                        1.714
                    ],
                    "rotation": 180,
                    "texture": "#0"
                },
                "down": {
                    "uv": [
                        9,
                        0.5,
                        9.88,
                        1.714
                    ],
                    "rotation": 180,
                    "texture": "#0"
                }
            }
        },
        {
            "from": [
                1.69883,
                4.52791,
                -12.44485
            ],
            "to": [
                2.20508,
                4.90291,
                -4.94485
            ],
            "rotation": {
                "angle": -45,
                "axis": "z",
                "origin": [
                    1.95194,
                    5.139,
                    -8.69485
                ]
            },
            "faces": {
                "north": {
                    "uv": [
                        9,
                        0.5,
                        9.88,
                        1.714
                    ],
                    "rotation": 180,
                    "texture": "#0"
                },
                "east": {
                    "uv": [
                        9,
                        0.5,
                        9.88,
                        1.714
                    ],
                    "rotation": 180,
                    "texture": "#0"
                },
                "south": {
                    "uv": [
                        9,
                        0.5,
                        9.88,
                        1.714
                    ],
                    "rotation": 180,
                    "texture": "#0"
                },
                "west": {
                    "uv": [
                        9,
                        0.5,
                        9.88,
                        1.714
                    ],
                    "rotation": 180,
                    "texture": "#0"
                },
                "up": {
                    "uv": [
                        9,
                        0.5,
                        9.88,
                        1.714
                    ],
                    "rotation": 180,
                    "texture": "#0"
                },
                "down": {
                    "uv": [
                        9,
                        0.5,
                        9.88,
                        1.714
                    ],
                    "rotation": 180,
                    "texture": "#0"
                }
            }
        }
    ],
    "display": {
        "thirdperson_righthand": {
            "rotation": [
                0,
                0,
                1
            ],
            "translation": [
                -1,
                0,
                -0.5
            ],
            "scale": [
                1.14,
                1,
                1
            ]
        },
        "thirdperson_lefthand": {
            "rotation": [
                0,
                0,
                1
            ],
            "translation": [
                -0.75,
                0,
                -0.75
            ],
            "scale": [
                1.14,
                1,
                1
            ]
        },
        "firstperson_righthand": {
            "translation": [
                -5.25,
                4.75,
                2.75
            ]
        },
        "firstperson_lefthand": {
            "translation": [
                -5.25,
                4.75,
                2.75
            ]
        },
        "ground": {
            "translation": [
                7,
                4.75,
                9.5
            ],
            "scale": [
                1.25,
                1.12,
                1.12
            ]
        },
        "gui": {
            "rotation": [
                23,
                30,
                -16
            ],
            "translation": [
                -0.5,
                0,
                0
            ],
            "scale": [
                1.25,
                1.39,
                1.22
            ]
        },
        "head": {
            "rotation": [
                0,
                125,
                90
            ],
            "translation": [
                0,
                6.5,
                0
            ],
            "scale": [
                1.64,
                1.58,
                1.61
            ]
        },
        "fixed": {
            "rotation": [
                0,
                90,
                0
            ],
            "translation": [
                -0.5,
                0,
                -0.75
            ],
            "scale": [
                1.22,
                1.22,
                1.19
            ]
        }
    }
}