{
	"credit": "Made with Blockbench",
	"textures": {
		"0": "gci:items/common/mpz",
		"particle": "gci:items/common/mpz"
	},
	"elements": [
		{
			"from": [6.15, 4.60761, 7.87696],
			"to": [6.35, 4.70761, 8.07696],
			"rotation": {"angle": 0, "axis": "x", "origin": [6.25, 4.65761, 7.97696]},
			"faces": {
				"north": {"uv": [6.66667, 3.66667, 7.33333, 4.33333], "rotation": 180, "texture": "#0"},
				"east": {"uv": [6.66667, 3.66667, 7.33333, 4.33333], "rotation": 180, "texture": "#0"},
				"south": {"uv": [6.66667, 3.66667, 7.33333, 4.33333], "rotation": 180, "texture": "#0"},
				"west": {"uv": [6.66667, 3.66667, 7.33333, 4.33333], "rotation": 180, "texture": "#0"},
				"up": {"uv": [6.66667, 3.66667, 7.33333, 4.33333], "rotation": 180, "texture": "#0"},
				"down": {"uv": [6.66667, 3.66667, 7.33333, 4.33333], "rotation": 180, "texture": "#0"}
			}
		},
		{
			"from": [6.15, 4.68467, 7.89228],
			"to": [6.35, 4.78467, 8.09228],
			"rotation": {"angle": 22.5, "axis": "x", "origin": [6.25, 4.73467, 7.94228]},
			"faces": {
				"north": {"uv": [6.66667, 3.66667, 7.33333, 4.33333], "rotation": 180, "texture": "#0"},
				"east": {"uv": [6.66667, 3.66667, 7.33333, 4.33333], "rotation": 180, "texture": "#0"},
				"south": {"uv": [6.66667, 3.66667, 7.33333, 4.33333], "rotation": 180, "texture": "#0"},
				"west": {"uv": [6.66667, 3.66667, 7.33333, 4.33333], "rotation": 180, "texture": "#0"},
				"up": {"uv": [6.66667, 3.66667, 7.33333, 4.33333], "rotation": 180, "texture": "#0"},
				"down": {"uv": [6.66667, 3.66667, 7.33333, 4.33333], "rotation": 180, "texture": "#0"}
			}
		},
		{
			"from": [6.15, 4.6743, 7.86533],
			"to": [6.35, 4.8743, 8.06533],
			"rotation": {"angle": -22.5, "axis": "x", "origin": [6.25, 4.8743, 7.51533]},
			"faces": {
				"north": {"uv": [6.66667, 3.66667, 7.33333, 4.33333], "rotation": 180, "texture": "#0"},
				"east": {"uv": [6.66667, 3.66667, 7.33333, 4.33333], "rotation": 180, "texture": "#0"},
				"south": {"uv": [6.66667, 3.66667, 7.33333, 4.33333], "rotation": 180, "texture": "#0"},
				"west": {"uv": [6.66667, 3.66667, 7.33333, 4.33333], "rotation": 180, "texture": "#0"},
				"up": {"uv": [6.66667, 3.66667, 7.33333, 4.33333], "rotation": 180, "texture": "#0"},
				"down": {"uv": [6.66667, 3.66667, 7.33333, 4.33333], "rotation": 180, "texture": "#0"}
			}
		},
		{
			"from": [6.15, 4.76173, 7.90761],
			"to": [6.35, 4.86173, 8.00761],
			"rotation": {"angle": 0, "axis": "x", "origin": [6.25, 4.96173, 7.55761]},
			"faces": {
				"north": {"uv": [6.66667, 3.66667, 7.33333, 4.33333], "rotation": 180, "texture": "#0"},
				"east": {"uv": [6.66667, 3.66667, 7.33333, 4.33333], "rotation": 180, "texture": "#0"},
				"south": {"uv": [6.66667, 3.66667, 7.33333, 4.33333], "rotation": 180, "texture": "#0"},
				"west": {"uv": [6.66667, 3.66667, 7.33333, 4.33333], "rotation": 180, "texture": "#0"},
				"up": {"uv": [6.66667, 3.66667, 7.33333, 4.33333], "rotation": 180, "texture": "#0"},
				"down": {"uv": [6.66667, 3.66667, 7.33333, 4.33333], "rotation": 180, "texture": "#0"}
			}
		},
		{
			"from": [6, 4.46173, 8.00761],
			"to": [6.5, 4.96173, 8.60761],
			"rotation": {"angle": 0, "axis": "x", "origin": [6.25, 4.46173, 8.20761]},
			"faces": {
				"north": {"uv": [3.66667, 4, 4, 4.66667], "texture": "#0"},
				"east": {"uv": [3.66667, 4, 4, 4.66667], "texture": "#0"},
				"south": {"uv": [3.66667, 4, 4, 4.66667], "texture": "#0"},
				"west": {"uv": [3.66667, 4, 4, 4.66667], "texture": "#0"},
				"up": {"uv": [3.66667, 4, 4, 4.66667], "texture": "#0"},
				"down": {"uv": [3.66667, 4, 4, 4.66667], "texture": "#0"}
			}
		},
		{
			"from": [6, 4.95552, 7.1893],
			"to": [6.5, 5.15552, 8.6893],
			"rotation": {"angle": 0, "axis": "x", "origin": [6.25, 4.95552, 8.1893]},
			"faces": {
				"north": {"uv": [3.66667, 4, 4, 4.66667], "texture": "#0"},
				"east": {"uv": [3.66667, 4, 4, 4.66667], "texture": "#0"},
				"south": {"uv": [3.66667, 4, 4, 4.66667], "texture": "#0"},
				"west": {"uv": [3.66667, 4, 4, 4.66667], "texture": "#0"},
				"up": {"uv": [3.66667, 4, 4, 4.66667], "texture": "#0"},
				"down": {"uv": [3.66667, 4, 4, 4.66667], "texture": "#0"}
			}
		},
		{
			"from": [6, 3.8573, 8.08806],
			"to": [6.5, 4.5573, 8.48806],
			"rotation": {"angle": -22.5, "axis": "x", "origin": [6.25, 4.3073, 8.28806]},
			"faces": {
				"north": {"uv": [3.66667, 4, 4, 4.66667], "texture": "#0"},
				"east": {"uv": [3.66667, 4, 4, 4.66667], "texture": "#0"},
				"south": {"uv": [3.66667, 4, 4, 4.66667], "texture": "#0"},
				"west": {"uv": [3.66667, 4, 4, 4.66667], "texture": "#0"},
				"up": {"uv": [3.66667, 4, 4, 4.66667], "texture": "#0"},
				"down": {"uv": [3.66667, 4, 4, 4.66667], "texture": "#0"}
			}
		},
		{
			"from": [6, 3.75392, 7.96942],
			"to": [6.5, 3.85392, 8.26942],
			"rotation": {"angle": -45, "axis": "x", "origin": [6.25, 4.20392, 8.16942]},
			"faces": {
				"north": {"uv": [3.66667, 4, 4, 4.66667], "texture": "#0"},
				"east": {"uv": [3.66667, 4, 4, 4.66667], "texture": "#0"},
				"south": {"uv": [3.66667, 4, 4, 4.66667], "texture": "#0"},
				"west": {"uv": [3.66667, 4, 4, 4.66667], "texture": "#0"},
				"up": {"uv": [3.66667, 4, 4, 4.66667], "texture": "#0"},
				"down": {"uv": [3.66667, 4, 4, 4.66667], "texture": "#0"}
			}
		},
		{
			"from": [6, 3.907, 8.43898],
			"to": [6.5, 4.007, 8.53898],
			"rotation": {"angle": -45, "axis": "x", "origin": [6.25, 4.357, 8.63898]},
			"faces": {
				"north": {"uv": [3.66667, 4, 4, 4.66667], "texture": "#0"},
				"east": {"uv": [3.66667, 4, 4, 4.66667], "texture": "#0"},
				"south": {"uv": [3.66667, 4, 4, 4.66667], "texture": "#0"},
				"west": {"uv": [3.66667, 4, 4, 4.66667], "texture": "#0"},
				"up": {"uv": [3.66667, 4, 4, 4.66667], "texture": "#0"},
				"down": {"uv": [3.66667, 4, 4, 4.66667], "texture": "#0"}
			}
		},
		{
			"from": [6, 4.61481, 8.51859],
			"to": [6.5, 4.81481, 8.61859],
			"rotation": {"angle": 0, "axis": "x", "origin": [6.25, 4.91481, 8.16859]},
			"faces": {
				"north": {"uv": [3.66667, 4, 4, 4.66667], "rotation": 180, "texture": "#0"},
				"east": {"uv": [3.66667, 4, 4, 4.66667], "rotation": 180, "texture": "#0"},
				"south": {"uv": [3.66667, 4, 4, 4.66667], "rotation": 180, "texture": "#0"},
				"west": {"uv": [3.66667, 4, 4, 4.66667], "rotation": 180, "texture": "#0"},
				"up": {"uv": [3.66667, 4, 4, 4.66667], "rotation": 180, "texture": "#0"},
				"down": {"uv": [3.66667, 4, 4, 4.66667], "rotation": 180, "texture": "#0"}
			}
		},
		{
			"from": [6, 4.88552, 8.5893],
			"to": [6.5, 4.95552, 8.6893],
			"rotation": {"angle": 0, "axis": "x", "origin": [6.25, 5.18552, 8.2393]},
			"faces": {
				"north": {"uv": [3.66667, 4, 4, 4.66667], "rotation": 180, "texture": "#0"},
				"east": {"uv": [3.66667, 4, 4, 4.66667], "rotation": 180, "texture": "#0"},
				"south": {"uv": [3.66667, 4, 4, 4.66667], "rotation": 180, "texture": "#0"},
				"west": {"uv": [3.66667, 4, 4, 4.66667], "rotation": 180, "texture": "#0"},
				"up": {"uv": [3.66667, 4, 4, 4.66667], "rotation": 180, "texture": "#0"},
				"down": {"uv": [3.66667, 4, 4, 4.66667], "rotation": 180, "texture": "#0"}
			}
		},
		{
			"from": [6, 4.77442, 8.69181],
			"to": [6.5, 5.17442, 8.89181],
			"rotation": {"angle": 45, "axis": "x", "origin": [6.25, 5.27442, 8.44181]},
			"faces": {
				"north": {"uv": [3.66667, 4, 4, 4.66667], "rotation": 180, "texture": "#0"},
				"east": {"uv": [3.66667, 4, 4, 4.66667], "rotation": 180, "texture": "#0"},
				"south": {"uv": [3.66667, 4, 4, 4.66667], "rotation": 180, "texture": "#0"},
				"west": {"uv": [3.66667, 4, 4, 4.66667], "rotation": 180, "texture": "#0"},
				"up": {"uv": [3.66667, 4, 4, 4.66667], "rotation": 180, "texture": "#0"},
				"down": {"uv": [3.66667, 4, 4, 4.66667], "rotation": 180, "texture": "#0"}
			}
		},
		{
			"from": [6, 3.96809, 8.58646],
			"to": [6.5, 4.06809, 8.88646],
			"rotation": {"angle": 0, "axis": "x", "origin": [6.25, 4.16809, 8.43646]},
			"faces": {
				"north": {"uv": [3.66667, 4, 4, 4.66667], "rotation": 180, "texture": "#0"},
				"east": {"uv": [3.66667, 4, 4, 4.66667], "rotation": 180, "texture": "#0"},
				"south": {"uv": [3.66667, 4, 4, 4.66667], "rotation": 180, "texture": "#0"},
				"west": {"uv": [3.66667, 4, 4, 4.66667], "rotation": 180, "texture": "#0"},
				"up": {"uv": [3.66667, 4, 4, 4.66667], "rotation": 180, "texture": "#0"},
				"down": {"uv": [3.66667, 4, 4, 4.66667], "rotation": 180, "texture": "#0"}
			}
		},
		{
			"from": [6, 3.88066, 8.54418],
			"to": [6.5, 4.58066, 8.84418],
			"rotation": {"angle": -22.5, "axis": "x", "origin": [6.25, 4.08066, 8.39418]},
			"faces": {
				"north": {"uv": [3.66667, 4, 4, 4.66667], "rotation": 180, "texture": "#0"},
				"east": {"uv": [3.66667, 4, 4, 4.66667], "rotation": 180, "texture": "#0"},
				"south": {"uv": [3.66667, 4, 4, 4.66667], "rotation": 180, "texture": "#0"},
				"west": {"uv": [3.66667, 4, 4, 4.66667], "rotation": 180, "texture": "#0"},
				"up": {"uv": [3.66667, 4, 4, 4.66667], "rotation": 180, "texture": "#0"},
				"down": {"uv": [3.66667, 4, 4, 4.66667], "rotation": 180, "texture": "#0"}
			}
		},
		{
			"from": [6, 4.6, 8.34142],
			"to": [6.5, 4.8, 8.54142],
			"rotation": {"angle": 0, "axis": "x", "origin": [6.25, 4.95, 8.49142]},
			"faces": {
				"north": {"uv": [3.66667, 4, 4, 4.66667], "rotation": 180, "texture": "#0"},
				"east": {"uv": [3.66667, 4, 4, 4.66667], "rotation": 180, "texture": "#0"},
				"south": {"uv": [3.66667, 4, 4, 4.66667], "rotation": 180, "texture": "#0"},
				"west": {"uv": [3.66667, 4, 4, 4.66667], "rotation": 180, "texture": "#0"},
				"up": {"uv": [3.66667, 4, 4, 4.66667], "rotation": 180, "texture": "#0"},
				"down": {"uv": [3.66667, 4, 4, 4.66667], "rotation": 180, "texture": "#0"}
			}
		},
		{
			"from": [6, 3.74431, 8.3462],
			"to": [6.5, 3.84431, 8.4462],
			"rotation": {"angle": 0, "axis": "x", "origin": [6.25, 3.94431, 7.9962]},
			"faces": {
				"north": {"uv": [3.66667, 4, 4, 4.66667], "rotation": 180, "texture": "#0"},
				"east": {"uv": [3.66667, 4, 4, 4.66667], "rotation": 180, "texture": "#0"},
				"south": {"uv": [3.66667, 4, 4, 4.66667], "rotation": 180, "texture": "#0"},
				"west": {"uv": [3.66667, 4, 4, 4.66667], "rotation": 180, "texture": "#0"},
				"up": {"uv": [3.66667, 4, 4, 4.66667], "rotation": 180, "texture": "#0"},
				"down": {"uv": [3.66667, 4, 4, 4.66667], "rotation": 180, "texture": "#0"}
			}
		},
		{
			"from": [6, 3.59514, 8.39631],
			"to": [6.5, 3.89514, 8.79631],
			"rotation": {"angle": -22.5, "axis": "x", "origin": [6.25, 3.79514, 8.04631]},
			"faces": {
				"north": {"uv": [3.66667, 4, 4, 4.66667], "rotation": 180, "texture": "#0"},
				"east": {"uv": [3.66667, 4, 4, 4.66667], "rotation": 180, "texture": "#0"},
				"south": {"uv": [3.66667, 4, 4, 4.66667], "rotation": 180, "texture": "#0"},
				"west": {"uv": [3.66667, 4, 4, 4.66667], "rotation": 180, "texture": "#0"},
				"up": {"uv": [3.66667, 4, 4, 4.66667], "rotation": 180, "texture": "#0"},
				"down": {"uv": [3.66667, 4, 4, 4.66667], "rotation": 180, "texture": "#0"}
			}
		},
		{
			"from": [6.1, 4.46173, 7.50761],
			"to": [6.4, 4.51173, 8.00761],
			"rotation": {"angle": 0, "axis": "x", "origin": [6.25, 4.51173, 7.90761]},
			"faces": {
				"north": {"uv": [3.66667, 4, 4, 4.66667], "rotation": 180, "texture": "#0"},
				"east": {"uv": [3.66667, 4, 4, 4.66667], "rotation": 180, "texture": "#0"},
				"south": {"uv": [3.66667, 4, 4, 4.66667], "rotation": 180, "texture": "#0"},
				"west": {"uv": [3.66667, 4, 4, 4.66667], "rotation": 180, "texture": "#0"},
				"up": {"uv": [3.66667, 4, 4, 4.66667], "rotation": 180, "texture": "#0"},
				"down": {"uv": [3.66667, 4, 4, 4.66667], "rotation": 180, "texture": "#0"}
			}
		},
		{
			"from": [6.1, 4.47896, 7.42099],
			"to": [6.4, 4.52896, 7.52099],
			"rotation": {"angle": 22.5, "axis": "x", "origin": [6.25, 4.50396, 7.47099]},
			"faces": {
				"north": {"uv": [3.66667, 4, 4, 4.66667], "rotation": 180, "texture": "#0"},
				"east": {"uv": [3.66667, 4, 4, 4.66667], "rotation": 180, "texture": "#0"},
				"south": {"uv": [3.66667, 4, 4, 4.66667], "rotation": 180, "texture": "#0"},
				"west": {"uv": [3.66667, 4, 4, 4.66667], "rotation": 180, "texture": "#0"},
				"up": {"uv": [3.66667, 4, 4, 4.66667], "rotation": 180, "texture": "#0"},
				"down": {"uv": [3.66667, 4, 4, 4.66667], "rotation": 180, "texture": "#0"}
			}
		},
		{
			"from": [6.1, 4.50303, 7.37255],
			"to": [6.4, 4.60303, 7.42255],
			"rotation": {"angle": -45, "axis": "x", "origin": [6.25, 4.55303, 7.39755]},
			"faces": {
				"north": {"uv": [3.66667, 4, 4, 4.66667], "texture": "#0"},
				"east": {"uv": [3.66667, 4, 4, 4.66667], "texture": "#0"},
				"south": {"uv": [3.66667, 4, 4, 4.66667], "texture": "#0"},
				"west": {"uv": [3.66667, 4, 4, 4.66667], "texture": "#0"},
				"up": {"uv": [3.66667, 4, 4, 4.66667], "texture": "#0"},
				"down": {"uv": [3.66667, 4, 4, 4.66667], "texture": "#0"}
			}
		},
		{
			"from": [6.1, 4.57647, 7.32348],
			"to": [6.4, 4.67647, 7.37348],
			"rotation": {"angle": -22.5, "axis": "x", "origin": [6.25, 4.62647, 7.34848]},
			"faces": {
				"north": {"uv": [3.66667, 4, 4, 4.66667], "texture": "#0"},
				"east": {"uv": [3.66667, 4, 4, 4.66667], "texture": "#0"},
				"south": {"uv": [3.66667, 4, 4, 4.66667], "texture": "#0"},
				"west": {"uv": [3.66667, 4, 4, 4.66667], "texture": "#0"},
				"up": {"uv": [3.66667, 4, 4, 4.66667], "texture": "#0"},
				"down": {"uv": [3.66667, 4, 4, 4.66667], "texture": "#0"}
			}
		},
		{
			"from": [6.1, 4.6631, 7.30625],
			"to": [6.4, 5.0631, 7.35625],
			"rotation": {"angle": 0, "axis": "x", "origin": [6.25, 4.7131, 7.33125]},
			"faces": {
				"north": {"uv": [3.66667, 4, 4, 4.66667], "texture": "#0"},
				"east": {"uv": [3.66667, 4, 4, 4.66667], "texture": "#0"},
				"south": {"uv": [3.66667, 4, 4, 4.66667], "texture": "#0"},
				"west": {"uv": [3.66667, 4, 4, 4.66667], "texture": "#0"},
				"up": {"uv": [3.66667, 4, 4, 4.66667], "texture": "#0"},
				"down": {"uv": [3.66667, 4, 4, 4.66667], "texture": "#0"}
			}
		},
		{
			"from": [6, 5.15552, 6.1393],
			"to": [6.5, 5.45552, 8.6893],
			"rotation": {"angle": 0, "axis": "x", "origin": [6.25, 5.15552, 8.23929]},
			"faces": {
				"north": {"uv": [3.33333, 3.33333, 4.66667, 4.66667], "texture": "#0"},
				"east": {"uv": [3.33333, 3.33333, 4.66667, 4.66667], "texture": "#0"},
				"south": {"uv": [3.33333, 3.33333, 4.66667, 4.66667], "texture": "#0"},
				"west": {"uv": [3.33333, 3.33333, 4.66667, 4.66667], "texture": "#0"},
				"up": {"uv": [3.33333, 3.33333, 4.66667, 4.66667], "texture": "#0"},
				"down": {"uv": [3.33333, 3.33333, 4.66667, 4.66667], "texture": "#0"}
			}
		},
		{
			"from": [6.25858, 5.35552, 6.1393],
			"to": [6.45858, 5.55552, 8.6893],
			"rotation": {"angle": 45, "axis": "z", "origin": [6.35858, 5.45552, 7.18929]},
			"faces": {
				"north": {"uv": [3.33333, 3.33333, 4.66667, 4.66667], "texture": "#0"},
				"east": {"uv": [3.33333, 3.33333, 4.66667, 4.66667], "texture": "#0"},
				"south": {"uv": [3.33333, 3.33333, 4.66667, 4.66667], "texture": "#0"},
				"west": {"uv": [3.33333, 3.33333, 4.66667, 4.66667], "texture": "#0"},
				"up": {"uv": [3.33333, 3.33333, 4.66667, 4.66667], "texture": "#0"},
				"down": {"uv": [3.33333, 3.33333, 4.66667, 4.66667], "texture": "#0"}
			}
		},
		{
			"from": [6.14142, 5.39694, 6.1393],
			"to": [6.35842, 5.59694, 8.6893],
			"rotation": {"angle": 0, "axis": "z", "origin": [6.24142, 5.49694, 7.18929]},
			"faces": {
				"north": {"uv": [3.33333, 3.33333, 4.66667, 4.66667], "rotation": 270, "texture": "#0"},
				"east": {"uv": [3.33333, 3.33333, 4.66667, 4.66667], "rotation": 270, "texture": "#0"},
				"south": {"uv": [3.33333, 3.33333, 4.66667, 4.66667], "rotation": 270, "texture": "#0"},
				"west": {"uv": [3.33333, 3.33333, 4.66667, 4.66667], "rotation": 270, "texture": "#0"},
				"up": {"uv": [3.33333, 3.33333, 4.66667, 4.66667], "rotation": 270, "texture": "#0"},
				"down": {"uv": [3.33333, 3.33333, 4.66667, 4.66667], "rotation": 270, "texture": "#0"}
			}
		},
		{
			"from": [6.04142, 5.35552, 6.1393],
			"to": [6.24142, 5.55552, 8.6893],
			"rotation": {"angle": 45, "axis": "z", "origin": [6.14142, 5.45552, 7.18929]},
			"faces": {
				"north": {"uv": [3.33333, 3.33333, 4.66667, 4.66667], "texture": "#0"},
				"east": {"uv": [3.33333, 3.33333, 4.66667, 4.66667], "texture": "#0"},
				"south": {"uv": [3.33333, 3.33333, 4.66667, 4.66667], "texture": "#0"},
				"west": {"uv": [3.33333, 3.33333, 4.66667, 4.66667], "texture": "#0"},
				"up": {"uv": [3.33333, 3.33333, 4.66667, 4.66667], "texture": "#0"},
				"down": {"uv": [3.33333, 3.33333, 4.66667, 4.66667], "texture": "#0"}
			}
		},
		{
			"from": [6.25858, 5.35552, 6.0393],
			"to": [6.45858, 5.55552, 6.1393],
			"rotation": {"angle": 45, "axis": "z", "origin": [6.35858, 5.45552, 7.08929]},
			"faces": {
				"north": {"uv": [11.33333, 0.66667, 12.66667, 2], "texture": "#0"},
				"east": {"uv": [11.33333, 0.66667, 12.66667, 2], "texture": "#0"},
				"south": {"uv": [11.33333, 0.66667, 12.66667, 2], "texture": "#0"},
				"west": {"uv": [11.33333, 0.66667, 12.66667, 2], "texture": "#0"},
				"up": {"uv": [11.33333, 0.66667, 12.66667, 2], "texture": "#0"},
				"down": {"uv": [11.33333, 0.66667, 12.66667, 2], "texture": "#0"}
			}
		},
		{
			"from": [6.14142, 5.39694, 6.0393],
			"to": [6.35842, 5.59694, 6.1393],
			"rotation": {"angle": 0, "axis": "z", "origin": [6.24142, 5.49694, 7.08929]},
			"faces": {
				"north": {"uv": [11.33333, 0.66667, 12.66667, 2], "rotation": 270, "texture": "#0"},
				"east": {"uv": [11.33333, 0.66667, 12.66667, 2], "rotation": 270, "texture": "#0"},
				"south": {"uv": [11.33333, 0.66667, 12.66667, 2], "rotation": 270, "texture": "#0"},
				"west": {"uv": [11.33333, 0.66667, 12.66667, 2], "rotation": 270, "texture": "#0"},
				"up": {"uv": [11.33333, 0.66667, 12.66667, 2], "rotation": 270, "texture": "#0"},
				"down": {"uv": [11.33333, 0.66667, 12.66667, 2], "rotation": 270, "texture": "#0"}
			}
		},
		{
			"from": [6, 5.15552, 6.0393],
			"to": [6.5, 5.45552, 6.1393],
			"rotation": {"angle": 0, "axis": "x", "origin": [6.25, 5.15552, 8.13929]},
			"faces": {
				"north": {"uv": [11.33333, 0.66667, 12.66667, 2], "texture": "#0"},
				"east": {"uv": [11.33333, 0.66667, 12.66667, 2], "texture": "#0"},
				"south": {"uv": [11.33333, 0.66667, 12.66667, 2], "texture": "#0"},
				"west": {"uv": [11.33333, 0.66667, 12.66667, 2], "texture": "#0"},
				"up": {"uv": [11.33333, 0.66667, 12.66667, 2], "texture": "#0"},
				"down": {"uv": [11.33333, 0.66667, 12.66667, 2], "texture": "#0"}
			}
		},
		{
			"from": [6.04142, 5.35552, 6.0393],
			"to": [6.24142, 5.55552, 6.1393],
			"rotation": {"angle": 45, "axis": "z", "origin": [6.14142, 5.45552, 7.08929]},
			"faces": {
				"north": {"uv": [11.33333, 0.66667, 12.66667, 2], "texture": "#0"},
				"east": {"uv": [11.33333, 0.66667, 12.66667, 2], "texture": "#0"},
				"south": {"uv": [11.33333, 0.66667, 12.66667, 2], "texture": "#0"},
				"west": {"uv": [11.33333, 0.66667, 12.66667, 2], "texture": "#0"},
				"up": {"uv": [11.33333, 0.66667, 12.66667, 2], "texture": "#0"},
				"down": {"uv": [11.33333, 0.66667, 12.66667, 2], "texture": "#0"}
			}
		},
		{
			"from": [6.161, 5.45552, 5.8893],
			"to": [6.325, 5.50552, 8.6893],
			"rotation": {"angle": 0, "axis": "y", "origin": [6.245, 5.60552, 7.9393]},
			"faces": {
				"north": {"uv": [6.66667, 1, 7.33333, 1.66667], "rotation": 270, "texture": "#0"},
				"east": {"uv": [6.66667, 1, 7.33333, 1.66667], "rotation": 270, "texture": "#0"},
				"south": {"uv": [6.66667, 1, 7.33333, 1.66667], "rotation": 270, "texture": "#0"},
				"west": {"uv": [6.66667, 1, 7.33333, 1.66667], "rotation": 270, "texture": "#0"},
				"up": {"uv": [6.66667, 1, 7.33333, 1.66667], "rotation": 270, "texture": "#0"},
				"down": {"uv": [6.66667, 1, 7.33333, 1.66667], "rotation": 270, "texture": "#0"}
			}
		},
		{
			"from": [6.03869, 5.40486, 5.8893],
			"to": [6.20269, 5.45486, 8.6893],
			"rotation": {"angle": 45, "axis": "z", "origin": [6.12069, 5.42986, 7.2893]},
			"faces": {
				"north": {"uv": [6.66667, 1, 7.33333, 1.66667], "rotation": 270, "texture": "#0"},
				"east": {"uv": [6.66667, 1, 7.33333, 1.66667], "rotation": 270, "texture": "#0"},
				"south": {"uv": [6.66667, 1, 7.33333, 1.66667], "rotation": 270, "texture": "#0"},
				"west": {"uv": [6.66667, 1, 7.33333, 1.66667], "rotation": 270, "texture": "#0"},
				"up": {"uv": [6.66667, 1, 7.33333, 1.66667], "rotation": 270, "texture": "#0"},
				"down": {"uv": [6.66667, 1, 7.33333, 1.66667], "rotation": 270, "texture": "#0"}
			}
		},
		{
			"from": [6.04503, 5.22555, 5.8893],
			"to": [6.09503, 5.38955, 8.6893],
			"rotation": {"angle": 0, "axis": "z", "origin": [6.07003, 5.30755, 7.2893]},
			"faces": {
				"north": {"uv": [6.66667, 1, 7.33333, 1.66667], "rotation": 180, "texture": "#0"},
				"east": {"uv": [6.66667, 1, 7.33333, 1.66667], "rotation": 180, "texture": "#0"},
				"south": {"uv": [6.66667, 1, 7.33333, 1.66667], "rotation": 180, "texture": "#0"},
				"west": {"uv": [6.66667, 1, 7.33333, 1.66667], "rotation": 180, "texture": "#0"},
				"up": {"uv": [6.66667, 1, 7.33333, 1.66667], "rotation": 180, "texture": "#0"},
				"down": {"uv": [6.66667, 1, 7.33333, 1.66667], "rotation": 180, "texture": "#0"}
			}
		},
		{
			"from": [6.09569, 5.10325, 5.8893],
			"to": [6.14569, 5.26725, 8.6893],
			"rotation": {"angle": 45, "axis": "z", "origin": [6.12069, 5.18525, 7.2893]},
			"faces": {
				"north": {"uv": [6.66667, 1, 7.33333, 1.66667], "rotation": 180, "texture": "#0"},
				"east": {"uv": [6.66667, 1, 7.33333, 1.66667], "rotation": 180, "texture": "#0"},
				"south": {"uv": [6.66667, 1, 7.33333, 1.66667], "rotation": 180, "texture": "#0"},
				"west": {"uv": [6.66667, 1, 7.33333, 1.66667], "rotation": 180, "texture": "#0"},
				"up": {"uv": [6.66667, 1, 7.33333, 1.66667], "rotation": 180, "texture": "#0"},
				"down": {"uv": [6.66667, 1, 7.33333, 1.66667], "rotation": 180, "texture": "#0"}
			}
		},
		{
			"from": [6.161, 5.10958, 5.8893],
			"to": [6.325, 5.15958, 8.6893],
			"rotation": {"angle": 0, "axis": "z", "origin": [6.34739, 5.26431, 7.2893]},
			"faces": {
				"north": {"uv": [6.66667, 1, 7.33333, 1.66667], "rotation": 90, "texture": "#0"},
				"east": {"uv": [6.66667, 1, 7.33333, 1.66667], "rotation": 90, "texture": "#0"},
				"south": {"uv": [6.66667, 1, 7.33333, 1.66667], "rotation": 90, "texture": "#0"},
				"west": {"uv": [6.66667, 1, 7.33333, 1.66667], "rotation": 90, "texture": "#0"},
				"up": {"uv": [6.66667, 1, 7.33333, 1.66667], "rotation": 90, "texture": "#0"},
				"down": {"uv": [6.66667, 1, 7.33333, 1.66667], "rotation": 90, "texture": "#0"}
			}
		},
		{
			"from": [6.22215, 5.17074, 5.8893],
			"to": [6.38615, 5.22074, 8.6893],
			"rotation": {"angle": 45, "axis": "z", "origin": [6.34739, 5.26431, 7.2893]},
			"faces": {
				"north": {"uv": [6.66667, 1, 7.33333, 1.66667], "rotation": 90, "texture": "#0"},
				"east": {"uv": [6.66667, 1, 7.33333, 1.66667], "rotation": 90, "texture": "#0"},
				"south": {"uv": [6.66667, 1, 7.33333, 1.66667], "rotation": 90, "texture": "#0"},
				"west": {"uv": [6.66667, 1, 7.33333, 1.66667], "rotation": 90, "texture": "#0"},
				"up": {"uv": [6.66667, 1, 7.33333, 1.66667], "rotation": 90, "texture": "#0"},
				"down": {"uv": [6.66667, 1, 7.33333, 1.66667], "rotation": 90, "texture": "#0"}
			}
		},
		{
			"from": [6.39097, 5.22555, 5.8893],
			"to": [6.44097, 5.38955, 8.6893],
			"rotation": {"angle": 0, "axis": "z", "origin": [6.34739, 5.26431, 7.2893]},
			"faces": {
				"north": {"uv": [6.66667, 1, 7.33333, 1.66667], "texture": "#0"},
				"east": {"uv": [6.66667, 1, 7.33333, 1.66667], "texture": "#0"},
				"south": {"uv": [6.66667, 1, 7.33333, 1.66667], "texture": "#0"},
				"west": {"uv": [6.66667, 1, 7.33333, 1.66667], "texture": "#0"},
				"up": {"uv": [6.66667, 1, 7.33333, 1.66667], "texture": "#0"},
				"down": {"uv": [6.66667, 1, 7.33333, 1.66667], "texture": "#0"}
			}
		},
		{
			"from": [6.45212, 5.2867, 5.8893],
			"to": [6.50212, 5.4507, 8.6893],
			"rotation": {"angle": 45, "axis": "z", "origin": [6.34739, 5.26431, 7.2893]},
			"faces": {
				"north": {"uv": [6.66667, 1, 7.33333, 1.66667], "texture": "#0"},
				"east": {"uv": [6.66667, 1, 7.33333, 1.66667], "texture": "#0"},
				"south": {"uv": [6.66667, 1, 7.33333, 1.66667], "texture": "#0"},
				"west": {"uv": [6.66667, 1, 7.33333, 1.66667], "texture": "#0"},
				"up": {"uv": [6.66667, 1, 7.33333, 1.66667], "texture": "#0"},
				"down": {"uv": [6.66667, 1, 7.33333, 1.66667], "texture": "#0"}
			}
		},
		{
			"from": [6.161, 5.25552, 8.6893],
			"to": [6.325, 5.50552, 8.7893],
			"rotation": {"angle": 0, "axis": "y", "origin": [6.245, 5.60552, 7.8393]},
			"faces": {
				"north": {"uv": [6.66667, 1, 7.33333, 1.66667], "rotation": 270, "texture": "#0"},
				"east": {"uv": [6.66667, 1, 7.33333, 1.66667], "rotation": 270, "texture": "#0"},
				"south": {"uv": [6.66667, 1, 7.33333, 1.66667], "rotation": 270, "texture": "#0"},
				"west": {"uv": [6.66667, 1, 7.33333, 1.66667], "rotation": 270, "texture": "#0"},
				"up": {"uv": [6.66667, 1, 7.33333, 1.66667], "rotation": 270, "texture": "#0"},
				"down": {"uv": [6.66667, 1, 7.33333, 1.66667], "rotation": 270, "texture": "#0"}
			}
		},
		{
			"from": [6.03869, 5.20486, 8.6893],
			"to": [6.20269, 5.45486, 8.7893],
			"rotation": {"angle": 45, "axis": "z", "origin": [6.12069, 5.42986, 7.1893]},
			"faces": {
				"north": {"uv": [6.66667, 1, 7.33333, 1.66667], "rotation": 270, "texture": "#0"},
				"east": {"uv": [6.66667, 1, 7.33333, 1.66667], "rotation": 270, "texture": "#0"},
				"south": {"uv": [6.66667, 1, 7.33333, 1.66667], "rotation": 270, "texture": "#0"},
				"west": {"uv": [6.66667, 1, 7.33333, 1.66667], "rotation": 270, "texture": "#0"},
				"up": {"uv": [6.66667, 1, 7.33333, 1.66667], "rotation": 270, "texture": "#0"},
				"down": {"uv": [6.66667, 1, 7.33333, 1.66667], "rotation": 270, "texture": "#0"}
			}
		},
		{
			"from": [6.35212, 5.2867, 8.6893],
			"to": [6.50212, 5.4507, 8.7893],
			"rotation": {"angle": 45, "axis": "z", "origin": [6.34739, 5.26431, 7.1893]},
			"faces": {
				"north": {"uv": [6.66667, 1, 7.33333, 1.66667], "texture": "#0"},
				"east": {"uv": [6.66667, 1, 7.33333, 1.66667], "texture": "#0"},
				"south": {"uv": [6.66667, 1, 7.33333, 1.66667], "texture": "#0"},
				"west": {"uv": [6.66667, 1, 7.33333, 1.66667], "texture": "#0"},
				"up": {"uv": [6.66667, 1, 7.33333, 1.66667], "texture": "#0"},
				"down": {"uv": [6.66667, 1, 7.33333, 1.66667], "texture": "#0"}
			}
		},
		{
			"from": [6.29097, 5.22555, 8.6893],
			"to": [6.44097, 5.38955, 8.7893],
			"rotation": {"angle": 0, "axis": "z", "origin": [6.34739, 5.26431, 7.1893]},
			"faces": {
				"north": {"uv": [6.66667, 1, 7.33333, 1.66667], "texture": "#0"},
				"east": {"uv": [6.66667, 1, 7.33333, 1.66667], "texture": "#0"},
				"south": {"uv": [6.66667, 1, 7.33333, 1.66667], "texture": "#0"},
				"west": {"uv": [6.66667, 1, 7.33333, 1.66667], "texture": "#0"},
				"up": {"uv": [6.66667, 1, 7.33333, 1.66667], "texture": "#0"},
				"down": {"uv": [6.66667, 1, 7.33333, 1.66667], "texture": "#0"}
			}
		},
		{
			"from": [6.04503, 5.22555, 8.6893],
			"to": [6.19503, 5.38955, 8.7893],
			"rotation": {"angle": 0, "axis": "z", "origin": [6.07003, 5.30755, 7.1893]},
			"faces": {
				"north": {"uv": [6.66667, 1, 7.33333, 1.66667], "rotation": 180, "texture": "#0"},
				"east": {"uv": [6.66667, 1, 7.33333, 1.66667], "rotation": 180, "texture": "#0"},
				"south": {"uv": [6.66667, 1, 7.33333, 1.66667], "rotation": 180, "texture": "#0"},
				"west": {"uv": [6.66667, 1, 7.33333, 1.66667], "rotation": 180, "texture": "#0"},
				"up": {"uv": [6.66667, 1, 7.33333, 1.66667], "rotation": 180, "texture": "#0"},
				"down": {"uv": [6.66667, 1, 7.33333, 1.66667], "rotation": 180, "texture": "#0"}
			}
		},
		{
			"from": [6.09569, 5.10325, 8.6893],
			"to": [6.24569, 5.26725, 8.7893],
			"rotation": {"angle": 45, "axis": "z", "origin": [6.12069, 5.18525, 7.1893]},
			"faces": {
				"north": {"uv": [6.66667, 1, 7.33333, 1.66667], "rotation": 180, "texture": "#0"},
				"east": {"uv": [6.66667, 1, 7.33333, 1.66667], "rotation": 180, "texture": "#0"},
				"south": {"uv": [6.66667, 1, 7.33333, 1.66667], "rotation": 180, "texture": "#0"},
				"west": {"uv": [6.66667, 1, 7.33333, 1.66667], "rotation": 180, "texture": "#0"},
				"up": {"uv": [6.66667, 1, 7.33333, 1.66667], "rotation": 180, "texture": "#0"},
				"down": {"uv": [6.66667, 1, 7.33333, 1.66667], "rotation": 180, "texture": "#0"}
			}
		},
		{
			"from": [6.161, 5.10958, 8.6893],
			"to": [6.325, 5.35958, 8.7893],
			"rotation": {"angle": 0, "axis": "z", "origin": [6.34739, 5.26431, 7.1893]},
			"faces": {
				"north": {"uv": [6.66667, 1, 7.33333, 1.66667], "rotation": 90, "texture": "#0"},
				"east": {"uv": [6.66667, 1, 7.33333, 1.66667], "rotation": 90, "texture": "#0"},
				"south": {"uv": [6.66667, 1, 7.33333, 1.66667], "rotation": 90, "texture": "#0"},
				"west": {"uv": [6.66667, 1, 7.33333, 1.66667], "rotation": 90, "texture": "#0"},
				"up": {"uv": [6.66667, 1, 7.33333, 1.66667], "rotation": 90, "texture": "#0"},
				"down": {"uv": [6.66667, 1, 7.33333, 1.66667], "rotation": 90, "texture": "#0"}
			}
		},
		{
			"from": [6.22215, 5.17074, 8.6893],
			"to": [6.38615, 5.42074, 8.7893],
			"rotation": {"angle": 45, "axis": "z", "origin": [6.34739, 5.26431, 7.1893]},
			"faces": {
				"north": {"uv": [6.66667, 1, 7.33333, 1.66667], "rotation": 90, "texture": "#0"},
				"east": {"uv": [6.66667, 1, 7.33333, 1.66667], "rotation": 90, "texture": "#0"},
				"south": {"uv": [6.66667, 1, 7.33333, 1.66667], "rotation": 90, "texture": "#0"},
				"west": {"uv": [6.66667, 1, 7.33333, 1.66667], "rotation": 90, "texture": "#0"},
				"up": {"uv": [6.66667, 1, 7.33333, 1.66667], "rotation": 90, "texture": "#0"},
				"down": {"uv": [6.66667, 1, 7.33333, 1.66667], "rotation": 90, "texture": "#0"}
			}
		},
		{
			"from": [6.183, 5.15552, 5.9893],
			"to": [6.307, 5.45552, 6.0893],
			"rotation": {"angle": 0, "axis": "y", "origin": [6.245, 5.30552, 8.4393]},
			"faces": {
				"north": {"uv": [8.66667, 6.33333, 9.66667, 7], "rotation": 90, "texture": "#0"},
				"east": {"uv": [8.66667, 6.33333, 9.66667, 7], "rotation": 90, "texture": "#0"},
				"south": {"uv": [8.66667, 6.33333, 9.66667, 7], "rotation": 90, "texture": "#0"},
				"west": {"uv": [8.66667, 6.33333, 9.66667, 7], "rotation": 90, "texture": "#0"},
				"up": {"uv": [8.66667, 6.33333, 9.66667, 7], "rotation": 90, "texture": "#0"},
				"down": {"uv": [8.66667, 6.33333, 9.66667, 7], "rotation": 90, "texture": "#0"}
			}
		},
		{
			"from": [6.183, 5.15552, 5.9893],
			"to": [6.307, 5.45552, 6.0893],
			"rotation": {"angle": 45, "axis": "z", "origin": [6.245, 5.30552, 8.4393]},
			"faces": {
				"north": {"uv": [8.66667, 6.33333, 9.66667, 7], "rotation": 90, "texture": "#0"},
				"east": {"uv": [8.66667, 6.33333, 9.66667, 7], "rotation": 90, "texture": "#0"},
				"south": {"uv": [8.66667, 6.33333, 9.66667, 7], "rotation": 90, "texture": "#0"},
				"west": {"uv": [8.66667, 6.33333, 9.66667, 7], "rotation": 90, "texture": "#0"},
				"up": {"uv": [8.66667, 6.33333, 9.66667, 7], "rotation": 90, "texture": "#0"},
				"down": {"uv": [8.66667, 6.33333, 9.66667, 7], "rotation": 90, "texture": "#0"}
			}
		},
		{
			"from": [6.095, 5.24352, 5.9893],
			"to": [6.395, 5.36752, 6.0893],
			"rotation": {"angle": 0, "axis": "y", "origin": [6.245, 5.30552, 8.4393]},
			"faces": {
				"north": {"uv": [8.66667, 6.33333, 9.66667, 7], "rotation": 180, "texture": "#0"},
				"east": {"uv": [8.66667, 6.33333, 9.66667, 7], "rotation": 180, "texture": "#0"},
				"south": {"uv": [8.66667, 6.33333, 9.66667, 7], "rotation": 180, "texture": "#0"},
				"west": {"uv": [8.66667, 6.33333, 9.66667, 7], "rotation": 180, "texture": "#0"},
				"up": {"uv": [8.66667, 6.33333, 9.66667, 7], "rotation": 180, "texture": "#0"},
				"down": {"uv": [8.66667, 6.33333, 9.66667, 7], "rotation": 180, "texture": "#0"}
			}
		},
		{
			"from": [6.095, 5.24352, 5.9893],
			"to": [6.395, 5.36752, 6.0893],
			"rotation": {"angle": 45, "axis": "z", "origin": [6.245, 5.30552, 8.4393]},
			"faces": {
				"north": {"uv": [8.66667, 6.33333, 9.66667, 7], "rotation": 180, "texture": "#0"},
				"east": {"uv": [8.66667, 6.33333, 9.66667, 7], "rotation": 180, "texture": "#0"},
				"south": {"uv": [8.66667, 6.33333, 9.66667, 7], "rotation": 180, "texture": "#0"},
				"west": {"uv": [8.66667, 6.33333, 9.66667, 7], "rotation": 180, "texture": "#0"},
				"up": {"uv": [8.66667, 6.33333, 9.66667, 7], "rotation": 180, "texture": "#0"},
				"down": {"uv": [8.66667, 6.33333, 9.66667, 7], "rotation": 180, "texture": "#0"}
			}
		},
		{
			"from": [5.95, 5.15552, 6.0893],
			"to": [6.55, 5.50552, 6.1393],
			"rotation": {"angle": 0, "axis": "y", "origin": [6.55, 5.40552, 6.1143]},
			"faces": {
				"north": {"uv": [11.66667, 1, 12.33333, 1.33333], "texture": "#0"},
				"east": {"uv": [11.66667, 1, 12.33333, 1.33333], "texture": "#0"},
				"south": {"uv": [11.66667, 1, 12.33333, 1.33333], "texture": "#0"},
				"west": {"uv": [11.66667, 1, 12.33333, 1.33333], "texture": "#0"},
				"up": {"uv": [11.66667, 1, 12.33333, 1.33333], "texture": "#0"},
				"down": {"uv": [11.66667, 1, 12.33333, 1.33333], "texture": "#0"}
			}
		},
		{
			"from": [6.41412, 5.24213, 6.0893],
			"to": [6.51412, 5.44213, 6.1393],
			"rotation": {"angle": 45, "axis": "z", "origin": [6.21412, 5.41713, 6.1143]},
			"faces": {
				"north": {"uv": [11.66667, 1, 12.33333, 1.33333], "texture": "#0"},
				"east": {"uv": [11.66667, 1, 12.33333, 1.33333], "texture": "#0"},
				"south": {"uv": [11.66667, 1, 12.33333, 1.33333], "texture": "#0"},
				"west": {"uv": [11.66667, 1, 12.33333, 1.33333], "texture": "#0"},
				"up": {"uv": [11.66667, 1, 12.33333, 1.33333], "texture": "#0"},
				"down": {"uv": [11.66667, 1, 12.33333, 1.33333], "texture": "#0"}
			}
		},
		{
			"from": [5.95607, 5.49087, 6.0893],
			"to": [6.15607, 5.59087, 6.1393],
			"rotation": {"angle": 45, "axis": "z", "origin": [6.05607, 5.54087, 6.1143]},
			"faces": {
				"north": {"uv": [11.66667, 1, 12.33333, 1.33333], "rotation": 270, "texture": "#0"},
				"east": {"uv": [11.66667, 1, 12.33333, 1.33333], "rotation": 270, "texture": "#0"},
				"south": {"uv": [11.66667, 1, 12.33333, 1.33333], "rotation": 270, "texture": "#0"},
				"west": {"uv": [11.66667, 1, 12.33333, 1.33333], "rotation": 270, "texture": "#0"},
				"up": {"uv": [11.66667, 1, 12.33333, 1.33333], "rotation": 270, "texture": "#0"},
				"down": {"uv": [11.66667, 1, 12.33333, 1.33333], "rotation": 270, "texture": "#0"}
			}
		},
		{
			"from": [6.09142, 5.54694, 6.0893],
			"to": [6.40842, 5.64694, 6.1393],
			"rotation": {"angle": 0, "axis": "z", "origin": [6.19142, 5.59694, 6.1143]},
			"faces": {
				"north": {"uv": [11.66667, 1, 12.33333, 1.33333], "rotation": 270, "texture": "#0"},
				"east": {"uv": [11.66667, 1, 12.33333, 1.33333], "rotation": 270, "texture": "#0"},
				"south": {"uv": [11.66667, 1, 12.33333, 1.33333], "rotation": 270, "texture": "#0"},
				"west": {"uv": [11.66667, 1, 12.33333, 1.33333], "rotation": 270, "texture": "#0"},
				"up": {"uv": [11.66667, 1, 12.33333, 1.33333], "rotation": 270, "texture": "#0"},
				"down": {"uv": [11.66667, 1, 12.33333, 1.33333], "rotation": 270, "texture": "#0"}
			}
		},
		{
			"from": [5.95, 5.15552, 6.2893],
			"to": [6.55, 5.50552, 6.3393],
			"rotation": {"angle": 0, "axis": "y", "origin": [6.55, 5.40552, 6.3143]},
			"faces": {
				"north": {"uv": [11.66667, 1, 12.33333, 1.33333], "texture": "#0"},
				"east": {"uv": [11.66667, 1, 12.33333, 1.33333], "texture": "#0"},
				"south": {"uv": [11.66667, 1, 12.33333, 1.33333], "texture": "#0"},
				"west": {"uv": [11.66667, 1, 12.33333, 1.33333], "texture": "#0"},
				"up": {"uv": [11.66667, 1, 12.33333, 1.33333], "texture": "#0"},
				"down": {"uv": [11.66667, 1, 12.33333, 1.33333], "texture": "#0"}
			}
		},
		{
			"from": [5.95607, 5.49087, 6.2893],
			"to": [6.15607, 5.59087, 6.3393],
			"rotation": {"angle": 45, "axis": "z", "origin": [6.05607, 5.54087, 6.3143]},
			"faces": {
				"north": {"uv": [11.66667, 1, 12.33333, 1.33333], "rotation": 270, "texture": "#0"},
				"east": {"uv": [11.66667, 1, 12.33333, 1.33333], "rotation": 270, "texture": "#0"},
				"south": {"uv": [11.66667, 1, 12.33333, 1.33333], "rotation": 270, "texture": "#0"},
				"west": {"uv": [11.66667, 1, 12.33333, 1.33333], "rotation": 270, "texture": "#0"},
				"up": {"uv": [11.66667, 1, 12.33333, 1.33333], "rotation": 270, "texture": "#0"},
				"down": {"uv": [11.66667, 1, 12.33333, 1.33333], "rotation": 270, "texture": "#0"}
			}
		},
		{
			"from": [6.41412, 5.24213, 6.2893],
			"to": [6.51412, 5.44213, 6.3393],
			"rotation": {"angle": 45, "axis": "z", "origin": [6.21412, 5.41713, 6.3143]},
			"faces": {
				"north": {"uv": [11.66667, 1, 12.33333, 1.33333], "texture": "#0"},
				"east": {"uv": [11.66667, 1, 12.33333, 1.33333], "texture": "#0"},
				"south": {"uv": [11.66667, 1, 12.33333, 1.33333], "texture": "#0"},
				"west": {"uv": [11.66667, 1, 12.33333, 1.33333], "texture": "#0"},
				"up": {"uv": [11.66667, 1, 12.33333, 1.33333], "texture": "#0"},
				"down": {"uv": [11.66667, 1, 12.33333, 1.33333], "texture": "#0"}
			}
		},
		{
			"from": [6.09142, 5.54694, 6.2893],
			"to": [6.40842, 5.64694, 6.3393],
			"rotation": {"angle": 0, "axis": "z", "origin": [6.19142, 5.59694, 6.3143]},
			"faces": {
				"north": {"uv": [11.66667, 1, 12.33333, 1.33333], "rotation": 270, "texture": "#0"},
				"east": {"uv": [11.66667, 1, 12.33333, 1.33333], "rotation": 270, "texture": "#0"},
				"south": {"uv": [11.66667, 1, 12.33333, 1.33333], "rotation": 270, "texture": "#0"},
				"west": {"uv": [11.66667, 1, 12.33333, 1.33333], "rotation": 270, "texture": "#0"},
				"up": {"uv": [11.66667, 1, 12.33333, 1.33333], "rotation": 270, "texture": "#0"},
				"down": {"uv": [11.66667, 1, 12.33333, 1.33333], "rotation": 270, "texture": "#0"}
			}
		},
		{
			"from": [5.95, 5.15552, 6.4893],
			"to": [6.55, 5.50552, 6.5393],
			"rotation": {"angle": 0, "axis": "y", "origin": [6.55, 5.40552, 6.5143]},
			"faces": {
				"north": {"uv": [11.66667, 1, 12.33333, 1.33333], "texture": "#0"},
				"east": {"uv": [11.66667, 1, 12.33333, 1.33333], "texture": "#0"},
				"south": {"uv": [11.66667, 1, 12.33333, 1.33333], "texture": "#0"},
				"west": {"uv": [11.66667, 1, 12.33333, 1.33333], "texture": "#0"},
				"up": {"uv": [11.66667, 1, 12.33333, 1.33333], "texture": "#0"},
				"down": {"uv": [11.66667, 1, 12.33333, 1.33333], "texture": "#0"}
			}
		},
		{
			"from": [5.95607, 5.49087, 6.4893],
			"to": [6.15607, 5.59087, 6.5393],
			"rotation": {"angle": 45, "axis": "z", "origin": [6.05607, 5.54087, 6.5143]},
			"faces": {
				"north": {"uv": [11.66667, 1, 12.33333, 1.33333], "rotation": 270, "texture": "#0"},
				"east": {"uv": [11.66667, 1, 12.33333, 1.33333], "rotation": 270, "texture": "#0"},
				"south": {"uv": [11.66667, 1, 12.33333, 1.33333], "rotation": 270, "texture": "#0"},
				"west": {"uv": [11.66667, 1, 12.33333, 1.33333], "rotation": 270, "texture": "#0"},
				"up": {"uv": [11.66667, 1, 12.33333, 1.33333], "rotation": 270, "texture": "#0"},
				"down": {"uv": [11.66667, 1, 12.33333, 1.33333], "rotation": 270, "texture": "#0"}
			}
		},
		{
			"from": [6.41412, 5.24213, 6.4893],
			"to": [6.51412, 5.44213, 6.5393],
			"rotation": {"angle": 45, "axis": "z", "origin": [6.21412, 5.41713, 6.5143]},
			"faces": {
				"north": {"uv": [11.66667, 1, 12.33333, 1.33333], "texture": "#0"},
				"east": {"uv": [11.66667, 1, 12.33333, 1.33333], "texture": "#0"},
				"south": {"uv": [11.66667, 1, 12.33333, 1.33333], "texture": "#0"},
				"west": {"uv": [11.66667, 1, 12.33333, 1.33333], "texture": "#0"},
				"up": {"uv": [11.66667, 1, 12.33333, 1.33333], "texture": "#0"},
				"down": {"uv": [11.66667, 1, 12.33333, 1.33333], "texture": "#0"}
			}
		},
		{
			"from": [6.09142, 5.54694, 6.4893],
			"to": [6.40842, 5.64694, 6.5393],
			"rotation": {"angle": 0, "axis": "z", "origin": [6.19142, 5.59694, 6.5143]},
			"faces": {
				"north": {"uv": [11.66667, 1, 12.33333, 1.33333], "rotation": 270, "texture": "#0"},
				"east": {"uv": [11.66667, 1, 12.33333, 1.33333], "rotation": 270, "texture": "#0"},
				"south": {"uv": [11.66667, 1, 12.33333, 1.33333], "rotation": 270, "texture": "#0"},
				"west": {"uv": [11.66667, 1, 12.33333, 1.33333], "rotation": 270, "texture": "#0"},
				"up": {"uv": [11.66667, 1, 12.33333, 1.33333], "rotation": 270, "texture": "#0"},
				"down": {"uv": [11.66667, 1, 12.33333, 1.33333], "rotation": 270, "texture": "#0"}
			}
		},
		{
			"from": [5.95, 5.15552, 6.6893],
			"to": [6.55, 5.50552, 6.7393],
			"rotation": {"angle": 0, "axis": "y", "origin": [6.55, 5.40552, 6.7143]},
			"faces": {
				"north": {"uv": [11.66667, 1, 12.33333, 1.33333], "texture": "#0"},
				"east": {"uv": [11.66667, 1, 12.33333, 1.33333], "texture": "#0"},
				"south": {"uv": [11.66667, 1, 12.33333, 1.33333], "texture": "#0"},
				"west": {"uv": [11.66667, 1, 12.33333, 1.33333], "texture": "#0"},
				"up": {"uv": [11.66667, 1, 12.33333, 1.33333], "texture": "#0"},
				"down": {"uv": [11.66667, 1, 12.33333, 1.33333], "texture": "#0"}
			}
		},
		{
			"from": [5.95607, 5.49087, 6.6893],
			"to": [6.15607, 5.59087, 6.7393],
			"rotation": {"angle": 45, "axis": "z", "origin": [6.05607, 5.54087, 6.7143]},
			"faces": {
				"north": {"uv": [11.66667, 1, 12.33333, 1.33333], "rotation": 270, "texture": "#0"},
				"east": {"uv": [11.66667, 1, 12.33333, 1.33333], "rotation": 270, "texture": "#0"},
				"south": {"uv": [11.66667, 1, 12.33333, 1.33333], "rotation": 270, "texture": "#0"},
				"west": {"uv": [11.66667, 1, 12.33333, 1.33333], "rotation": 270, "texture": "#0"},
				"up": {"uv": [11.66667, 1, 12.33333, 1.33333], "rotation": 270, "texture": "#0"},
				"down": {"uv": [11.66667, 1, 12.33333, 1.33333], "rotation": 270, "texture": "#0"}
			}
		},
		{
			"from": [6.41412, 5.24213, 6.6893],
			"to": [6.51412, 5.44213, 6.7393],
			"rotation": {"angle": 45, "axis": "z", "origin": [6.21412, 5.41713, 6.7143]},
			"faces": {
				"north": {"uv": [11.66667, 1, 12.33333, 1.33333], "texture": "#0"},
				"east": {"uv": [11.66667, 1, 12.33333, 1.33333], "texture": "#0"},
				"south": {"uv": [11.66667, 1, 12.33333, 1.33333], "texture": "#0"},
				"west": {"uv": [11.66667, 1, 12.33333, 1.33333], "texture": "#0"},
				"up": {"uv": [11.66667, 1, 12.33333, 1.33333], "texture": "#0"},
				"down": {"uv": [11.66667, 1, 12.33333, 1.33333], "texture": "#0"}
			}
		},
		{
			"from": [6.09142, 5.54694, 6.6893],
			"to": [6.40842, 5.64694, 6.7393],
			"rotation": {"angle": 0, "axis": "z", "origin": [6.19142, 5.59694, 6.7143]},
			"faces": {
				"north": {"uv": [11.66667, 1, 12.33333, 1.33333], "rotation": 270, "texture": "#0"},
				"east": {"uv": [11.66667, 1, 12.33333, 1.33333], "rotation": 270, "texture": "#0"},
				"south": {"uv": [11.66667, 1, 12.33333, 1.33333], "rotation": 270, "texture": "#0"},
				"west": {"uv": [11.66667, 1, 12.33333, 1.33333], "rotation": 270, "texture": "#0"},
				"up": {"uv": [11.66667, 1, 12.33333, 1.33333], "rotation": 270, "texture": "#0"},
				"down": {"uv": [11.66667, 1, 12.33333, 1.33333], "rotation": 270, "texture": "#0"}
			}
		},
		{
			"from": [5.95, 5.15552, 6.8893],
			"to": [6.55, 5.50552, 6.9393],
			"rotation": {"angle": 0, "axis": "y", "origin": [6.55, 5.40552, 6.9143]},
			"faces": {
				"north": {"uv": [11.66667, 1, 12.33333, 1.33333], "texture": "#0"},
				"east": {"uv": [11.66667, 1, 12.33333, 1.33333], "texture": "#0"},
				"south": {"uv": [11.66667, 1, 12.33333, 1.33333], "texture": "#0"},
				"west": {"uv": [11.66667, 1, 12.33333, 1.33333], "texture": "#0"},
				"up": {"uv": [11.66667, 1, 12.33333, 1.33333], "texture": "#0"},
				"down": {"uv": [11.66667, 1, 12.33333, 1.33333], "texture": "#0"}
			}
		},
		{
			"from": [5.95607, 5.49087, 6.8893],
			"to": [6.15607, 5.59087, 6.9393],
			"rotation": {"angle": 45, "axis": "z", "origin": [6.05607, 5.54087, 6.9143]},
			"faces": {
				"north": {"uv": [11.66667, 1, 12.33333, 1.33333], "rotation": 270, "texture": "#0"},
				"east": {"uv": [11.66667, 1, 12.33333, 1.33333], "rotation": 270, "texture": "#0"},
				"south": {"uv": [11.66667, 1, 12.33333, 1.33333], "rotation": 270, "texture": "#0"},
				"west": {"uv": [11.66667, 1, 12.33333, 1.33333], "rotation": 270, "texture": "#0"},
				"up": {"uv": [11.66667, 1, 12.33333, 1.33333], "rotation": 270, "texture": "#0"},
				"down": {"uv": [11.66667, 1, 12.33333, 1.33333], "rotation": 270, "texture": "#0"}
			}
		},
		{
			"from": [6.41412, 5.24213, 6.8893],
			"to": [6.51412, 5.44213, 6.9393],
			"rotation": {"angle": 45, "axis": "z", "origin": [6.21412, 5.41713, 6.9143]},
			"faces": {
				"north": {"uv": [11.66667, 1, 12.33333, 1.33333], "texture": "#0"},
				"east": {"uv": [11.66667, 1, 12.33333, 1.33333], "texture": "#0"},
				"south": {"uv": [11.66667, 1, 12.33333, 1.33333], "texture": "#0"},
				"west": {"uv": [11.66667, 1, 12.33333, 1.33333], "texture": "#0"},
				"up": {"uv": [11.66667, 1, 12.33333, 1.33333], "texture": "#0"},
				"down": {"uv": [11.66667, 1, 12.33333, 1.33333], "texture": "#0"}
			}
		},
		{
			"from": [6.09142, 5.54694, 6.8893],
			"to": [6.40842, 5.64694, 6.9393],
			"rotation": {"angle": 0, "axis": "z", "origin": [6.19142, 5.59694, 6.9143]},
			"faces": {
				"north": {"uv": [11.66667, 1, 12.33333, 1.33333], "rotation": 270, "texture": "#0"},
				"east": {"uv": [11.66667, 1, 12.33333, 1.33333], "rotation": 270, "texture": "#0"},
				"south": {"uv": [11.66667, 1, 12.33333, 1.33333], "rotation": 270, "texture": "#0"},
				"west": {"uv": [11.66667, 1, 12.33333, 1.33333], "rotation": 270, "texture": "#0"},
				"up": {"uv": [11.66667, 1, 12.33333, 1.33333], "rotation": 270, "texture": "#0"},
				"down": {"uv": [11.66667, 1, 12.33333, 1.33333], "rotation": 270, "texture": "#0"}
			}
		},
		{
			"from": [5.95, 5.15552, 7.0893],
			"to": [6.55, 5.50552, 7.1393],
			"rotation": {"angle": 0, "axis": "y", "origin": [6.55, 5.40552, 7.1143]},
			"faces": {
				"north": {"uv": [11.66667, 1, 12.33333, 1.33333], "texture": "#0"},
				"east": {"uv": [11.66667, 1, 12.33333, 1.33333], "texture": "#0"},
				"south": {"uv": [11.66667, 1, 12.33333, 1.33333], "texture": "#0"},
				"west": {"uv": [11.66667, 1, 12.33333, 1.33333], "texture": "#0"},
				"up": {"uv": [11.66667, 1, 12.33333, 1.33333], "texture": "#0"},
				"down": {"uv": [11.66667, 1, 12.33333, 1.33333], "texture": "#0"}
			}
		},
		{
			"from": [5.95607, 5.49087, 7.0893],
			"to": [6.15607, 5.59087, 7.1393],
			"rotation": {"angle": 45, "axis": "z", "origin": [6.05607, 5.54087, 7.1143]},
			"faces": {
				"north": {"uv": [11.66667, 1, 12.33333, 1.33333], "rotation": 270, "texture": "#0"},
				"east": {"uv": [11.66667, 1, 12.33333, 1.33333], "rotation": 270, "texture": "#0"},
				"south": {"uv": [11.66667, 1, 12.33333, 1.33333], "rotation": 270, "texture": "#0"},
				"west": {"uv": [11.66667, 1, 12.33333, 1.33333], "rotation": 270, "texture": "#0"},
				"up": {"uv": [11.66667, 1, 12.33333, 1.33333], "rotation": 270, "texture": "#0"},
				"down": {"uv": [11.66667, 1, 12.33333, 1.33333], "rotation": 270, "texture": "#0"}
			}
		},
		{
			"from": [6.41412, 5.24213, 7.0893],
			"to": [6.51412, 5.44213, 7.1393],
			"rotation": {"angle": 45, "axis": "z", "origin": [6.21412, 5.41713, 7.1143]},
			"faces": {
				"north": {"uv": [11.66667, 1, 12.33333, 1.33333], "texture": "#0"},
				"east": {"uv": [11.66667, 1, 12.33333, 1.33333], "texture": "#0"},
				"south": {"uv": [11.66667, 1, 12.33333, 1.33333], "texture": "#0"},
				"west": {"uv": [11.66667, 1, 12.33333, 1.33333], "texture": "#0"},
				"up": {"uv": [11.66667, 1, 12.33333, 1.33333], "texture": "#0"},
				"down": {"uv": [11.66667, 1, 12.33333, 1.33333], "texture": "#0"}
			}
		},
		{
			"from": [6.09142, 5.54694, 7.0893],
			"to": [6.40842, 5.64694, 7.1393],
			"rotation": {"angle": 0, "axis": "z", "origin": [6.19142, 5.59694, 7.1143]},
			"faces": {
				"north": {"uv": [11.66667, 1, 12.33333, 1.33333], "rotation": 270, "texture": "#0"},
				"east": {"uv": [11.66667, 1, 12.33333, 1.33333], "rotation": 270, "texture": "#0"},
				"south": {"uv": [11.66667, 1, 12.33333, 1.33333], "rotation": 270, "texture": "#0"},
				"west": {"uv": [11.66667, 1, 12.33333, 1.33333], "rotation": 270, "texture": "#0"},
				"up": {"uv": [11.66667, 1, 12.33333, 1.33333], "rotation": 270, "texture": "#0"},
				"down": {"uv": [11.66667, 1, 12.33333, 1.33333], "rotation": 270, "texture": "#0"}
			}
		},
		{
			"from": [5.95, 5.15552, 7.2893],
			"to": [6.55, 5.50552, 7.3393],
			"rotation": {"angle": 0, "axis": "y", "origin": [6.55, 5.40552, 7.3143]},
			"faces": {
				"north": {"uv": [11.66667, 1, 12.33333, 1.33333], "texture": "#0"},
				"east": {"uv": [11.66667, 1, 12.33333, 1.33333], "texture": "#0"},
				"south": {"uv": [11.66667, 1, 12.33333, 1.33333], "texture": "#0"},
				"west": {"uv": [11.66667, 1, 12.33333, 1.33333], "texture": "#0"},
				"up": {"uv": [11.66667, 1, 12.33333, 1.33333], "texture": "#0"},
				"down": {"uv": [11.66667, 1, 12.33333, 1.33333], "texture": "#0"}
			}
		},
		{
			"from": [5.95607, 5.49087, 7.2893],
			"to": [6.15607, 5.59087, 7.3393],
			"rotation": {"angle": 45, "axis": "z", "origin": [6.05607, 5.54087, 7.3143]},
			"faces": {
				"north": {"uv": [11.66667, 1, 12.33333, 1.33333], "rotation": 270, "texture": "#0"},
				"east": {"uv": [11.66667, 1, 12.33333, 1.33333], "rotation": 270, "texture": "#0"},
				"south": {"uv": [11.66667, 1, 12.33333, 1.33333], "rotation": 270, "texture": "#0"},
				"west": {"uv": [11.66667, 1, 12.33333, 1.33333], "rotation": 270, "texture": "#0"},
				"up": {"uv": [11.66667, 1, 12.33333, 1.33333], "rotation": 270, "texture": "#0"},
				"down": {"uv": [11.66667, 1, 12.33333, 1.33333], "rotation": 270, "texture": "#0"}
			}
		},
		{
			"from": [6.41412, 5.24213, 7.2893],
			"to": [6.51412, 5.44213, 7.3393],
			"rotation": {"angle": 45, "axis": "z", "origin": [6.21412, 5.41713, 7.3143]},
			"faces": {
				"north": {"uv": [11.66667, 1, 12.33333, 1.33333], "texture": "#0"},
				"east": {"uv": [11.66667, 1, 12.33333, 1.33333], "texture": "#0"},
				"south": {"uv": [11.66667, 1, 12.33333, 1.33333], "texture": "#0"},
				"west": {"uv": [11.66667, 1, 12.33333, 1.33333], "texture": "#0"},
				"up": {"uv": [11.66667, 1, 12.33333, 1.33333], "texture": "#0"},
				"down": {"uv": [11.66667, 1, 12.33333, 1.33333], "texture": "#0"}
			}
		},
		{
			"from": [6.09142, 5.54694, 7.2893],
			"to": [6.40842, 5.64694, 7.3393],
			"rotation": {"angle": 0, "axis": "z", "origin": [6.19142, 5.59694, 7.3143]},
			"faces": {
				"north": {"uv": [11.66667, 1, 12.33333, 1.33333], "rotation": 270, "texture": "#0"},
				"east": {"uv": [11.66667, 1, 12.33333, 1.33333], "rotation": 270, "texture": "#0"},
				"south": {"uv": [11.66667, 1, 12.33333, 1.33333], "rotation": 270, "texture": "#0"},
				"west": {"uv": [11.66667, 1, 12.33333, 1.33333], "rotation": 270, "texture": "#0"},
				"up": {"uv": [11.66667, 1, 12.33333, 1.33333], "rotation": 270, "texture": "#0"},
				"down": {"uv": [11.66667, 1, 12.33333, 1.33333], "rotation": 270, "texture": "#0"}
			}
		},
		{
			"from": [6.41412, 5.24213, 7.4893],
			"to": [6.51412, 5.44213, 7.5393],
			"rotation": {"angle": 45, "axis": "z", "origin": [6.21412, 5.41713, 7.5143]},
			"faces": {
				"north": {"uv": [11.66667, 1, 12.33333, 1.33333], "texture": "#0"},
				"east": {"uv": [11.66667, 1, 12.33333, 1.33333], "texture": "#0"},
				"south": {"uv": [11.66667, 1, 12.33333, 1.33333], "texture": "#0"},
				"west": {"uv": [11.66667, 1, 12.33333, 1.33333], "texture": "#0"},
				"up": {"uv": [11.66667, 1, 12.33333, 1.33333], "texture": "#0"},
				"down": {"uv": [11.66667, 1, 12.33333, 1.33333], "texture": "#0"}
			}
		},
		{
			"from": [6.41412, 5.24213, 7.6893],
			"to": [6.51412, 5.44213, 7.7393],
			"rotation": {"angle": 45, "axis": "z", "origin": [6.21412, 5.41713, 7.7143]},
			"faces": {
				"north": {"uv": [11.66667, 1, 12.33333, 1.33333], "texture": "#0"},
				"east": {"uv": [11.66667, 1, 12.33333, 1.33333], "texture": "#0"},
				"south": {"uv": [11.66667, 1, 12.33333, 1.33333], "texture": "#0"},
				"west": {"uv": [11.66667, 1, 12.33333, 1.33333], "texture": "#0"},
				"up": {"uv": [11.66667, 1, 12.33333, 1.33333], "texture": "#0"},
				"down": {"uv": [11.66667, 1, 12.33333, 1.33333], "texture": "#0"}
			}
		},
		{
			"from": [6.41412, 5.24213, 7.8893],
			"to": [6.51412, 5.44213, 7.9393],
			"rotation": {"angle": 45, "axis": "z", "origin": [6.21412, 5.41713, 7.9143]},
			"faces": {
				"north": {"uv": [11.66667, 1, 12.33333, 1.33333], "texture": "#0"},
				"east": {"uv": [11.66667, 1, 12.33333, 1.33333], "texture": "#0"},
				"south": {"uv": [11.66667, 1, 12.33333, 1.33333], "texture": "#0"},
				"west": {"uv": [11.66667, 1, 12.33333, 1.33333], "texture": "#0"},
				"up": {"uv": [11.66667, 1, 12.33333, 1.33333], "texture": "#0"},
				"down": {"uv": [11.66667, 1, 12.33333, 1.33333], "texture": "#0"}
			}
		},
		{
			"from": [6.41412, 5.24213, 8.0893],
			"to": [6.51412, 5.44213, 8.1393],
			"rotation": {"angle": 45, "axis": "z", "origin": [6.21412, 5.41713, 8.1143]},
			"faces": {
				"north": {"uv": [11.66667, 1, 12.33333, 1.33333], "texture": "#0"},
				"east": {"uv": [11.66667, 1, 12.33333, 1.33333], "texture": "#0"},
				"south": {"uv": [11.66667, 1, 12.33333, 1.33333], "texture": "#0"},
				"west": {"uv": [11.66667, 1, 12.33333, 1.33333], "texture": "#0"},
				"up": {"uv": [11.66667, 1, 12.33333, 1.33333], "texture": "#0"},
				"down": {"uv": [11.66667, 1, 12.33333, 1.33333], "texture": "#0"}
			}
		},
		{
			"from": [6.09142, 5.54694, 8.0893],
			"to": [6.40842, 5.64694, 8.1393],
			"rotation": {"angle": 0, "axis": "z", "origin": [6.19142, 5.59694, 8.1143]},
			"faces": {
				"north": {"uv": [11.66667, 1, 12.33333, 1.33333], "rotation": 270, "texture": "#0"},
				"east": {"uv": [11.66667, 1, 12.33333, 1.33333], "rotation": 270, "texture": "#0"},
				"south": {"uv": [11.66667, 1, 12.33333, 1.33333], "rotation": 270, "texture": "#0"},
				"west": {"uv": [11.66667, 1, 12.33333, 1.33333], "rotation": 270, "texture": "#0"},
				"up": {"uv": [11.66667, 1, 12.33333, 1.33333], "rotation": 270, "texture": "#0"},
				"down": {"uv": [11.66667, 1, 12.33333, 1.33333], "rotation": 270, "texture": "#0"}
			}
		},
		{
			"from": [6.09142, 5.54694, 7.8893],
			"to": [6.40842, 5.64694, 7.9393],
			"rotation": {"angle": 0, "axis": "z", "origin": [6.19142, 5.59694, 7.9143]},
			"faces": {
				"north": {"uv": [11.66667, 1, 12.33333, 1.33333], "rotation": 270, "texture": "#0"},
				"east": {"uv": [11.66667, 1, 12.33333, 1.33333], "rotation": 270, "texture": "#0"},
				"south": {"uv": [11.66667, 1, 12.33333, 1.33333], "rotation": 270, "texture": "#0"},
				"west": {"uv": [11.66667, 1, 12.33333, 1.33333], "rotation": 270, "texture": "#0"},
				"up": {"uv": [11.66667, 1, 12.33333, 1.33333], "rotation": 270, "texture": "#0"},
				"down": {"uv": [11.66667, 1, 12.33333, 1.33333], "rotation": 270, "texture": "#0"}
			}
		},
		{
			"from": [6.09142, 5.54694, 7.6893],
			"to": [6.40842, 5.64694, 7.7393],
			"rotation": {"angle": 0, "axis": "z", "origin": [6.19142, 5.59694, 7.7143]},
			"faces": {
				"north": {"uv": [11.66667, 1, 12.33333, 1.33333], "rotation": 270, "texture": "#0"},
				"east": {"uv": [11.66667, 1, 12.33333, 1.33333], "rotation": 270, "texture": "#0"},
				"south": {"uv": [11.66667, 1, 12.33333, 1.33333], "rotation": 270, "texture": "#0"},
				"west": {"uv": [11.66667, 1, 12.33333, 1.33333], "rotation": 270, "texture": "#0"},
				"up": {"uv": [11.66667, 1, 12.33333, 1.33333], "rotation": 270, "texture": "#0"},
				"down": {"uv": [11.66667, 1, 12.33333, 1.33333], "rotation": 270, "texture": "#0"}
			}
		},
		{
			"from": [6.09142, 5.54694, 7.4893],
			"to": [6.40842, 5.64694, 7.5393],
			"rotation": {"angle": 0, "axis": "z", "origin": [6.19142, 5.59694, 7.5143]},
			"faces": {
				"north": {"uv": [11.66667, 1, 12.33333, 1.33333], "rotation": 270, "texture": "#0"},
				"east": {"uv": [11.66667, 1, 12.33333, 1.33333], "rotation": 270, "texture": "#0"},
				"south": {"uv": [11.66667, 1, 12.33333, 1.33333], "rotation": 270, "texture": "#0"},
				"west": {"uv": [11.66667, 1, 12.33333, 1.33333], "rotation": 270, "texture": "#0"},
				"up": {"uv": [11.66667, 1, 12.33333, 1.33333], "rotation": 270, "texture": "#0"},
				"down": {"uv": [11.66667, 1, 12.33333, 1.33333], "rotation": 270, "texture": "#0"}
			}
		},
		{
			"from": [5.95607, 5.49087, 7.4893],
			"to": [6.15607, 5.59087, 7.5393],
			"rotation": {"angle": 45, "axis": "z", "origin": [6.05607, 5.54087, 7.5143]},
			"faces": {
				"north": {"uv": [11.66667, 1, 12.33333, 1.33333], "rotation": 270, "texture": "#0"},
				"east": {"uv": [11.66667, 1, 12.33333, 1.33333], "rotation": 270, "texture": "#0"},
				"south": {"uv": [11.66667, 1, 12.33333, 1.33333], "rotation": 270, "texture": "#0"},
				"west": {"uv": [11.66667, 1, 12.33333, 1.33333], "rotation": 270, "texture": "#0"},
				"up": {"uv": [11.66667, 1, 12.33333, 1.33333], "rotation": 270, "texture": "#0"},
				"down": {"uv": [11.66667, 1, 12.33333, 1.33333], "rotation": 270, "texture": "#0"}
			}
		},
		{
			"from": [5.95607, 5.49087, 7.6893],
			"to": [6.15607, 5.59087, 7.7393],
			"rotation": {"angle": 45, "axis": "z", "origin": [6.05607, 5.54087, 7.7143]},
			"faces": {
				"north": {"uv": [11.66667, 1, 12.33333, 1.33333], "rotation": 270, "texture": "#0"},
				"east": {"uv": [11.66667, 1, 12.33333, 1.33333], "rotation": 270, "texture": "#0"},
				"south": {"uv": [11.66667, 1, 12.33333, 1.33333], "rotation": 270, "texture": "#0"},
				"west": {"uv": [11.66667, 1, 12.33333, 1.33333], "rotation": 270, "texture": "#0"},
				"up": {"uv": [11.66667, 1, 12.33333, 1.33333], "rotation": 270, "texture": "#0"},
				"down": {"uv": [11.66667, 1, 12.33333, 1.33333], "rotation": 270, "texture": "#0"}
			}
		},
		{
			"from": [5.95607, 5.49087, 7.8893],
			"to": [6.15607, 5.59087, 7.9393],
			"rotation": {"angle": 45, "axis": "z", "origin": [6.05607, 5.54087, 7.9143]},
			"faces": {
				"north": {"uv": [11.66667, 1, 12.33333, 1.33333], "rotation": 270, "texture": "#0"},
				"east": {"uv": [11.66667, 1, 12.33333, 1.33333], "rotation": 270, "texture": "#0"},
				"south": {"uv": [11.66667, 1, 12.33333, 1.33333], "rotation": 270, "texture": "#0"},
				"west": {"uv": [11.66667, 1, 12.33333, 1.33333], "rotation": 270, "texture": "#0"},
				"up": {"uv": [11.66667, 1, 12.33333, 1.33333], "rotation": 270, "texture": "#0"},
				"down": {"uv": [11.66667, 1, 12.33333, 1.33333], "rotation": 270, "texture": "#0"}
			}
		},
		{
			"from": [5.95607, 5.49087, 8.0893],
			"to": [6.15607, 5.59087, 8.1393],
			"rotation": {"angle": 45, "axis": "z", "origin": [6.05607, 5.54087, 8.1143]},
			"faces": {
				"north": {"uv": [11.66667, 1, 12.33333, 1.33333], "rotation": 270, "texture": "#0"},
				"east": {"uv": [11.66667, 1, 12.33333, 1.33333], "rotation": 270, "texture": "#0"},
				"south": {"uv": [11.66667, 1, 12.33333, 1.33333], "rotation": 270, "texture": "#0"},
				"west": {"uv": [11.66667, 1, 12.33333, 1.33333], "rotation": 270, "texture": "#0"},
				"up": {"uv": [11.66667, 1, 12.33333, 1.33333], "rotation": 270, "texture": "#0"},
				"down": {"uv": [11.66667, 1, 12.33333, 1.33333], "rotation": 270, "texture": "#0"}
			}
		},
		{
			"from": [6.41412, 5.24213, 8.2893],
			"to": [6.51412, 5.44213, 8.3393],
			"rotation": {"angle": 45, "axis": "z", "origin": [6.21412, 5.41713, 8.3143]},
			"faces": {
				"north": {"uv": [11.66667, 1, 12.33333, 1.33333], "texture": "#0"},
				"east": {"uv": [11.66667, 1, 12.33333, 1.33333], "texture": "#0"},
				"south": {"uv": [11.66667, 1, 12.33333, 1.33333], "texture": "#0"},
				"west": {"uv": [11.66667, 1, 12.33333, 1.33333], "texture": "#0"},
				"up": {"uv": [11.66667, 1, 12.33333, 1.33333], "texture": "#0"},
				"down": {"uv": [11.66667, 1, 12.33333, 1.33333], "texture": "#0"}
			}
		},
		{
			"from": [6.09142, 5.54694, 8.2893],
			"to": [6.40842, 5.64694, 8.3393],
			"rotation": {"angle": 0, "axis": "z", "origin": [6.19142, 5.59694, 8.3143]},
			"faces": {
				"north": {"uv": [11.66667, 1, 12.33333, 1.33333], "rotation": 270, "texture": "#0"},
				"east": {"uv": [11.66667, 1, 12.33333, 1.33333], "rotation": 270, "texture": "#0"},
				"south": {"uv": [11.66667, 1, 12.33333, 1.33333], "rotation": 270, "texture": "#0"},
				"west": {"uv": [11.66667, 1, 12.33333, 1.33333], "rotation": 270, "texture": "#0"},
				"up": {"uv": [11.66667, 1, 12.33333, 1.33333], "rotation": 270, "texture": "#0"},
				"down": {"uv": [11.66667, 1, 12.33333, 1.33333], "rotation": 270, "texture": "#0"}
			}
		},
		{
			"from": [5.95607, 5.49087, 8.2893],
			"to": [6.15607, 5.59087, 8.3393],
			"rotation": {"angle": 45, "axis": "z", "origin": [6.05607, 5.54087, 8.3143]},
			"faces": {
				"north": {"uv": [11.66667, 1, 12.33333, 1.33333], "rotation": 270, "texture": "#0"},
				"east": {"uv": [11.66667, 1, 12.33333, 1.33333], "rotation": 270, "texture": "#0"},
				"south": {"uv": [11.66667, 1, 12.33333, 1.33333], "rotation": 270, "texture": "#0"},
				"west": {"uv": [11.66667, 1, 12.33333, 1.33333], "rotation": 270, "texture": "#0"},
				"up": {"uv": [11.66667, 1, 12.33333, 1.33333], "rotation": 270, "texture": "#0"},
				"down": {"uv": [11.66667, 1, 12.33333, 1.33333], "rotation": 270, "texture": "#0"}
			}
		},
		{
			"from": [5.95, 5.15552, 8.2893],
			"to": [6.55, 5.50552, 8.3393],
			"rotation": {"angle": 0, "axis": "y", "origin": [6.55, 5.40552, 8.3143]},
			"faces": {
				"north": {"uv": [11.66667, 1, 12.33333, 1.33333], "texture": "#0"},
				"east": {"uv": [11.66667, 1, 12.33333, 1.33333], "texture": "#0"},
				"south": {"uv": [11.66667, 1, 12.33333, 1.33333], "texture": "#0"},
				"west": {"uv": [11.66667, 1, 12.33333, 1.33333], "texture": "#0"},
				"up": {"uv": [11.66667, 1, 12.33333, 1.33333], "texture": "#0"},
				"down": {"uv": [11.66667, 1, 12.33333, 1.33333], "texture": "#0"}
			}
		},
		{
			"from": [6.41412, 5.24213, 8.4893],
			"to": [6.51412, 5.44213, 8.5393],
			"rotation": {"angle": 45, "axis": "z", "origin": [6.21412, 5.41713, 8.5143]},
			"faces": {
				"north": {"uv": [11.66667, 1, 12.33333, 1.33333], "texture": "#0"},
				"east": {"uv": [11.66667, 1, 12.33333, 1.33333], "texture": "#0"},
				"south": {"uv": [11.66667, 1, 12.33333, 1.33333], "texture": "#0"},
				"west": {"uv": [11.66667, 1, 12.33333, 1.33333], "texture": "#0"},
				"up": {"uv": [11.66667, 1, 12.33333, 1.33333], "texture": "#0"},
				"down": {"uv": [11.66667, 1, 12.33333, 1.33333], "texture": "#0"}
			}
		},
		{
			"from": [6.09142, 5.54694, 8.4893],
			"to": [6.40842, 5.64694, 8.5393],
			"rotation": {"angle": 0, "axis": "z", "origin": [6.19142, 5.59694, 8.5143]},
			"faces": {
				"north": {"uv": [11.66667, 1, 12.33333, 1.33333], "rotation": 270, "texture": "#0"},
				"east": {"uv": [11.66667, 1, 12.33333, 1.33333], "rotation": 270, "texture": "#0"},
				"south": {"uv": [11.66667, 1, 12.33333, 1.33333], "rotation": 270, "texture": "#0"},
				"west": {"uv": [11.66667, 1, 12.33333, 1.33333], "rotation": 270, "texture": "#0"},
				"up": {"uv": [11.66667, 1, 12.33333, 1.33333], "rotation": 270, "texture": "#0"},
				"down": {"uv": [11.66667, 1, 12.33333, 1.33333], "rotation": 270, "texture": "#0"}
			}
		},
		{
			"from": [5.95607, 5.49087, 8.4893],
			"to": [6.15607, 5.59087, 8.5393],
			"rotation": {"angle": 45, "axis": "z", "origin": [6.05607, 5.54087, 8.5143]},
			"faces": {
				"north": {"uv": [11.66667, 1, 12.33333, 1.33333], "rotation": 270, "texture": "#0"},
				"east": {"uv": [11.66667, 1, 12.33333, 1.33333], "rotation": 270, "texture": "#0"},
				"south": {"uv": [11.66667, 1, 12.33333, 1.33333], "rotation": 270, "texture": "#0"},
				"west": {"uv": [11.66667, 1, 12.33333, 1.33333], "rotation": 270, "texture": "#0"},
				"up": {"uv": [11.66667, 1, 12.33333, 1.33333], "rotation": 270, "texture": "#0"},
				"down": {"uv": [11.66667, 1, 12.33333, 1.33333], "rotation": 270, "texture": "#0"}
			}
		},
		{
			"from": [5.95, 5.15552, 8.4893],
			"to": [6.55, 5.50552, 8.5393],
			"rotation": {"angle": 0, "axis": "y", "origin": [6.55, 5.40552, 8.5143]},
			"faces": {
				"north": {"uv": [11.66667, 1, 12.33333, 1.33333], "texture": "#0"},
				"east": {"uv": [11.66667, 1, 12.33333, 1.33333], "texture": "#0"},
				"south": {"uv": [11.66667, 1, 12.33333, 1.33333], "texture": "#0"},
				"west": {"uv": [11.66667, 1, 12.33333, 1.33333], "texture": "#0"},
				"up": {"uv": [11.66667, 1, 12.33333, 1.33333], "texture": "#0"},
				"down": {"uv": [11.66667, 1, 12.33333, 1.33333], "texture": "#0"}
			}
		},
		{
			"from": [6.41412, 5.24213, 8.6893],
			"to": [6.51412, 5.44213, 8.7393],
			"rotation": {"angle": 45, "axis": "z", "origin": [6.21412, 5.41713, 8.7143]},
			"faces": {
				"north": {"uv": [11.66667, 1, 12.33333, 1.33333], "texture": "#0"},
				"east": {"uv": [11.66667, 1, 12.33333, 1.33333], "texture": "#0"},
				"south": {"uv": [11.66667, 1, 12.33333, 1.33333], "texture": "#0"},
				"west": {"uv": [11.66667, 1, 12.33333, 1.33333], "texture": "#0"},
				"up": {"uv": [11.66667, 1, 12.33333, 1.33333], "texture": "#0"},
				"down": {"uv": [11.66667, 1, 12.33333, 1.33333], "texture": "#0"}
			}
		},
		{
			"from": [6.09142, 5.44694, 8.6893],
			"to": [6.40842, 5.64694, 8.7393],
			"rotation": {"angle": 0, "axis": "z", "origin": [6.19142, 5.59694, 8.7143]},
			"faces": {
				"north": {"uv": [11.66667, 1, 12.33333, 1.33333], "rotation": 270, "texture": "#0"},
				"east": {"uv": [11.66667, 1, 12.33333, 1.33333], "rotation": 270, "texture": "#0"},
				"south": {"uv": [11.66667, 1, 12.33333, 1.33333], "rotation": 270, "texture": "#0"},
				"west": {"uv": [11.66667, 1, 12.33333, 1.33333], "rotation": 270, "texture": "#0"},
				"up": {"uv": [11.66667, 1, 12.33333, 1.33333], "rotation": 270, "texture": "#0"},
				"down": {"uv": [11.66667, 1, 12.33333, 1.33333], "rotation": 270, "texture": "#0"}
			}
		},
		{
			"from": [5.95607, 5.49087, 8.6893],
			"to": [6.15607, 5.59087, 8.7393],
			"rotation": {"angle": 45, "axis": "z", "origin": [6.05607, 5.54087, 8.7143]},
			"faces": {
				"north": {"uv": [11.66667, 1, 12.33333, 1.33333], "rotation": 270, "texture": "#0"},
				"east": {"uv": [11.66667, 1, 12.33333, 1.33333], "rotation": 270, "texture": "#0"},
				"south": {"uv": [11.66667, 1, 12.33333, 1.33333], "rotation": 270, "texture": "#0"},
				"west": {"uv": [11.66667, 1, 12.33333, 1.33333], "rotation": 270, "texture": "#0"},
				"up": {"uv": [11.66667, 1, 12.33333, 1.33333], "rotation": 270, "texture": "#0"},
				"down": {"uv": [11.66667, 1, 12.33333, 1.33333], "rotation": 270, "texture": "#0"}
			}
		},
		{
			"from": [5.95, 5.15552, 8.6893],
			"to": [6.55, 5.50552, 8.7393],
			"rotation": {"angle": 0, "axis": "y", "origin": [6.55, 5.40552, 8.7143]},
			"faces": {
				"north": {"uv": [11.66667, 1, 12.33333, 1.33333], "texture": "#0"},
				"east": {"uv": [11.66667, 1, 12.33333, 1.33333], "texture": "#0"},
				"south": {"uv": [11.66667, 1, 12.33333, 1.33333], "texture": "#0"},
				"west": {"uv": [11.66667, 1, 12.33333, 1.33333], "texture": "#0"},
				"up": {"uv": [11.66667, 1, 12.33333, 1.33333], "texture": "#0"},
				"down": {"uv": [11.66667, 1, 12.33333, 1.33333], "texture": "#0"}
			}
		},
		{
			"from": [5.95, 5.15552, 8.0893],
			"to": [6.55, 5.50552, 8.1393],
			"rotation": {"angle": 0, "axis": "y", "origin": [6.55, 5.40552, 8.1143]},
			"faces": {
				"north": {"uv": [11.66667, 1, 12.33333, 1.33333], "texture": "#0"},
				"east": {"uv": [11.66667, 1, 12.33333, 1.33333], "texture": "#0"},
				"south": {"uv": [11.66667, 1, 12.33333, 1.33333], "texture": "#0"},
				"west": {"uv": [11.66667, 1, 12.33333, 1.33333], "texture": "#0"},
				"up": {"uv": [11.66667, 1, 12.33333, 1.33333], "texture": "#0"},
				"down": {"uv": [11.66667, 1, 12.33333, 1.33333], "texture": "#0"}
			}
		},
		{
			"from": [5.95, 5.15552, 7.8893],
			"to": [6.55, 5.50552, 7.9393],
			"rotation": {"angle": 0, "axis": "y", "origin": [6.55, 5.40552, 7.9143]},
			"faces": {
				"north": {"uv": [11.66667, 1, 12.33333, 1.33333], "texture": "#0"},
				"east": {"uv": [11.66667, 1, 12.33333, 1.33333], "texture": "#0"},
				"south": {"uv": [11.66667, 1, 12.33333, 1.33333], "texture": "#0"},
				"west": {"uv": [11.66667, 1, 12.33333, 1.33333], "texture": "#0"},
				"up": {"uv": [11.66667, 1, 12.33333, 1.33333], "texture": "#0"},
				"down": {"uv": [11.66667, 1, 12.33333, 1.33333], "texture": "#0"}
			}
		},
		{
			"from": [5.95, 5.15552, 7.6893],
			"to": [6.55, 5.50552, 7.7393],
			"rotation": {"angle": 0, "axis": "y", "origin": [6.55, 5.40552, 7.7143]},
			"faces": {
				"north": {"uv": [11.66667, 1, 12.33333, 1.33333], "texture": "#0"},
				"east": {"uv": [11.66667, 1, 12.33333, 1.33333], "texture": "#0"},
				"south": {"uv": [11.66667, 1, 12.33333, 1.33333], "texture": "#0"},
				"west": {"uv": [11.66667, 1, 12.33333, 1.33333], "texture": "#0"},
				"up": {"uv": [11.66667, 1, 12.33333, 1.33333], "texture": "#0"},
				"down": {"uv": [11.66667, 1, 12.33333, 1.33333], "texture": "#0"}
			}
		},
		{
			"from": [5.95, 5.15552, 7.4893],
			"to": [6.55, 5.50552, 7.5393],
			"rotation": {"angle": 0, "axis": "y", "origin": [6.55, 5.40552, 7.5143]},
			"faces": {
				"north": {"uv": [11.66667, 1, 12.33333, 1.33333], "texture": "#0"},
				"east": {"uv": [11.66667, 1, 12.33333, 1.33333], "texture": "#0"},
				"south": {"uv": [11.66667, 1, 12.33333, 1.33333], "texture": "#0"},
				"west": {"uv": [11.66667, 1, 12.33333, 1.33333], "texture": "#0"},
				"up": {"uv": [11.66667, 1, 12.33333, 1.33333], "texture": "#0"},
				"down": {"uv": [11.66667, 1, 12.33333, 1.33333], "texture": "#0"}
			}
		},
		{
			"from": [6.09142, 5.64694, 8.2893],
			"to": [6.19142, 5.70694, 8.3393],
			"rotation": {"angle": 0, "axis": "y", "origin": [6.19142, 5.59694, 8.3143]},
			"faces": {
				"north": {"uv": [11.66667, 1, 12.33333, 1.33333], "rotation": 270, "texture": "#0"},
				"east": {"uv": [11.66667, 1, 12.33333, 1.33333], "rotation": 270, "texture": "#0"},
				"south": {"uv": [11.66667, 1, 12.33333, 1.33333], "rotation": 270, "texture": "#0"},
				"west": {"uv": [11.66667, 1, 12.33333, 1.33333], "rotation": 270, "texture": "#0"},
				"up": {"uv": [11.66667, 1, 12.33333, 1.33333], "rotation": 270, "texture": "#0"},
				"down": {"uv": [11.66667, 1, 12.33333, 1.33333], "rotation": 270, "texture": "#0"}
			}
		},
		{
			"from": [6.2862, 5.67916, 8.2893],
			"to": [6.3862, 5.73916, 8.3393],
			"rotation": {"angle": 45, "axis": "z", "origin": [6.3862, 5.62916, 8.3143]},
			"faces": {
				"north": {"uv": [11.66667, 1, 12.33333, 1.33333], "rotation": 270, "texture": "#0"},
				"east": {"uv": [11.66667, 1, 12.33333, 1.33333], "rotation": 270, "texture": "#0"},
				"south": {"uv": [11.66667, 1, 12.33333, 1.33333], "rotation": 270, "texture": "#0"},
				"west": {"uv": [11.66667, 1, 12.33333, 1.33333], "rotation": 270, "texture": "#0"},
				"up": {"uv": [11.66667, 1, 12.33333, 1.33333], "rotation": 270, "texture": "#0"},
				"down": {"uv": [11.66667, 1, 12.33333, 1.33333], "rotation": 270, "texture": "#0"}
			}
		},
		{
			"from": [6.224, 5.64694, 6.2893],
			"to": [6.284, 5.70694, 6.3393],
			"rotation": {"angle": 0, "axis": "z", "origin": [6.14756, 5.67694, 6.3143]},
			"faces": {
				"north": {"uv": [11.66667, 1, 12.33333, 1.33333], "rotation": 180, "texture": "#0"},
				"east": {"uv": [11.66667, 1, 12.33333, 1.33333], "rotation": 180, "texture": "#0"},
				"south": {"uv": [11.66667, 1, 12.33333, 1.33333], "rotation": 180, "texture": "#0"},
				"west": {"uv": [11.66667, 1, 12.33333, 1.33333], "rotation": 180, "texture": "#0"},
				"up": {"uv": [11.66667, 1, 12.33333, 1.33333], "rotation": 180, "texture": "#0"},
				"down": {"uv": [11.66667, 1, 12.33333, 1.33333], "rotation": 180, "texture": "#0"}
			}
		},
		{
			"from": [6.094, 5.63451, 6.2893],
			"to": [6.254, 5.69451, 6.3393],
			"rotation": {"angle": 45, "axis": "z", "origin": [6.224, 5.66451, 6.3143]},
			"faces": {
				"north": {"uv": [11.66667, 1, 12.33333, 1.33333], "rotation": 180, "texture": "#0"},
				"east": {"uv": [11.66667, 1, 12.33333, 1.33333], "rotation": 180, "texture": "#0"},
				"south": {"uv": [11.66667, 1, 12.33333, 1.33333], "rotation": 180, "texture": "#0"},
				"west": {"uv": [11.66667, 1, 12.33333, 1.33333], "rotation": 180, "texture": "#0"},
				"up": {"uv": [11.66667, 1, 12.33333, 1.33333], "rotation": 180, "texture": "#0"},
				"down": {"uv": [11.66667, 1, 12.33333, 1.33333], "rotation": 180, "texture": "#0"}
			}
		},
		{
			"from": [6.254, 5.53451, 6.2893],
			"to": [6.314, 5.69451, 6.3393],
			"rotation": {"angle": 45, "axis": "z", "origin": [6.284, 5.66451, 6.3143]},
			"faces": {
				"north": {"uv": [11.66667, 1, 12.33333, 1.33333], "rotation": 180, "texture": "#0"},
				"east": {"uv": [11.66667, 1, 12.33333, 1.33333], "rotation": 180, "texture": "#0"},
				"south": {"uv": [11.66667, 1, 12.33333, 1.33333], "rotation": 180, "texture": "#0"},
				"west": {"uv": [11.66667, 1, 12.33333, 1.33333], "rotation": 180, "texture": "#0"},
				"up": {"uv": [11.66667, 1, 12.33333, 1.33333], "rotation": 180, "texture": "#0"},
				"down": {"uv": [11.66667, 1, 12.33333, 1.33333], "rotation": 180, "texture": "#0"}
			}
		},
		{
			"from": [6.08435, 5.60844, 8.2893],
			"to": [6.18435, 5.66844, 8.3393],
			"rotation": {"angle": -45, "axis": "z", "origin": [6.18435, 5.55844, 8.3143]},
			"faces": {
				"north": {"uv": [11.66667, 1, 12.33333, 1.33333], "rotation": 270, "texture": "#0"},
				"east": {"uv": [11.66667, 1, 12.33333, 1.33333], "rotation": 270, "texture": "#0"},
				"south": {"uv": [11.66667, 1, 12.33333, 1.33333], "rotation": 270, "texture": "#0"},
				"west": {"uv": [11.66667, 1, 12.33333, 1.33333], "rotation": 270, "texture": "#0"},
				"up": {"uv": [11.66667, 1, 12.33333, 1.33333], "rotation": 270, "texture": "#0"},
				"down": {"uv": [11.66667, 1, 12.33333, 1.33333], "rotation": 270, "texture": "#0"}
			}
		},
		{
			"from": [6.30842, 5.64694, 8.2893],
			"to": [6.40842, 5.70694, 8.3393],
			"rotation": {"angle": 0, "axis": "y", "origin": [6.40842, 5.59694, 8.3143]},
			"faces": {
				"north": {"uv": [11.66667, 1, 12.33333, 1.33333], "rotation": 270, "texture": "#0"},
				"east": {"uv": [11.66667, 1, 12.33333, 1.33333], "rotation": 270, "texture": "#0"},
				"south": {"uv": [11.66667, 1, 12.33333, 1.33333], "rotation": 270, "texture": "#0"},
				"west": {"uv": [11.66667, 1, 12.33333, 1.33333], "rotation": 270, "texture": "#0"},
				"up": {"uv": [11.66667, 1, 12.33333, 1.33333], "rotation": 270, "texture": "#0"},
				"down": {"uv": [11.66667, 1, 12.33333, 1.33333], "rotation": 270, "texture": "#0"}
			}
		},
		{
			"from": [6, 4.85552, 6.0893],
			"to": [6.5, 5.15552, 7.2893],
			"rotation": {"angle": 0, "axis": "x", "origin": [6.25, 4.85552, 8.2893]},
			"faces": {
				"north": {"uv": [11.66667, 1, 12.33333, 1.33333], "texture": "#0"},
				"east": {"uv": [11.66667, 1, 12.33333, 1.33333], "texture": "#0"},
				"south": {"uv": [11.66667, 1, 12.33333, 1.33333], "texture": "#0"},
				"west": {"uv": [11.66667, 1, 12.33333, 1.33333], "texture": "#0"},
				"up": {"uv": [11.66667, 1, 12.33333, 1.33333], "texture": "#0"},
				"down": {"uv": [11.66667, 1, 12.33333, 1.33333], "texture": "#0"}
			}
		},
		{
			"from": [5.95, 4.75552, 6.0393],
			"to": [6.55, 5.15552, 6.0893],
			"rotation": {"angle": 0, "axis": "y", "origin": [6.55, 5.00552, 6.0643]},
			"faces": {
				"north": {"uv": [11.66667, 1, 12.33333, 1.33333], "texture": "#0"},
				"east": {"uv": [11.66667, 1, 12.33333, 1.33333], "texture": "#0"},
				"south": {"uv": [11.66667, 1, 12.33333, 1.33333], "texture": "#0"},
				"west": {"uv": [11.66667, 1, 12.33333, 1.33333], "texture": "#0"},
				"up": {"uv": [11.66667, 1, 12.33333, 1.33333], "texture": "#0"},
				"down": {"uv": [11.66667, 1, 12.33333, 1.33333], "texture": "#0"}
			}
		},
		{
			"from": [5.95, 4.75552, 7.2893],
			"to": [6.55, 5.15552, 7.3393],
			"rotation": {"angle": 0, "axis": "y", "origin": [6.55, 5.00552, 7.3143]},
			"faces": {
				"north": {"uv": [11.66667, 1, 12.33333, 1.33333], "texture": "#0"},
				"east": {"uv": [11.66667, 1, 12.33333, 1.33333], "texture": "#0"},
				"south": {"uv": [11.66667, 1, 12.33333, 1.33333], "texture": "#0"},
				"west": {"uv": [11.66667, 1, 12.33333, 1.33333], "texture": "#0"},
				"up": {"uv": [11.66667, 1, 12.33333, 1.33333], "texture": "#0"},
				"down": {"uv": [11.66667, 1, 12.33333, 1.33333], "texture": "#0"}
			}
		},
		{
			"from": [5.95, 4.95552, 8.6893],
			"to": [6.55, 5.15552, 8.7393],
			"rotation": {"angle": 0, "axis": "y", "origin": [6.55, 5.00552, 8.7143]},
			"faces": {
				"north": {"uv": [11.66667, 1, 12.33333, 1.33333], "texture": "#0"},
				"east": {"uv": [11.66667, 1, 12.33333, 1.33333], "texture": "#0"},
				"south": {"uv": [11.66667, 1, 12.33333, 1.33333], "texture": "#0"},
				"west": {"uv": [11.66667, 1, 12.33333, 1.33333], "texture": "#0"},
				"up": {"uv": [11.66667, 1, 12.33333, 1.33333], "texture": "#0"},
				"down": {"uv": [11.66667, 1, 12.33333, 1.33333], "texture": "#0"}
			}
		},
		{
			"from": [5.95, 4.75552, 6.0893],
			"to": [6, 5.15552, 7.2893],
			"rotation": {"angle": 0, "axis": "x", "origin": [6.2, 4.85552, 8.2893]},
			"faces": {
				"north": {"uv": [11.66667, 1, 12.33333, 1.33333], "texture": "#0"},
				"east": {"uv": [11.66667, 1, 12.33333, 1.33333], "texture": "#0"},
				"south": {"uv": [11.66667, 1, 12.33333, 1.33333], "texture": "#0"},
				"west": {"uv": [11.66667, 1, 12.33333, 1.33333], "texture": "#0"},
				"up": {"uv": [11.66667, 1, 12.33333, 1.33333], "texture": "#0"},
				"down": {"uv": [11.66667, 1, 12.33333, 1.33333], "texture": "#0"}
			}
		},
		{
			"from": [6.5, 4.75552, 6.0893],
			"to": [6.55, 5.15552, 7.2893],
			"rotation": {"angle": 0, "axis": "x", "origin": [6.75, 4.85552, 8.2893]},
			"faces": {
				"north": {"uv": [11.66667, 1, 12.33333, 1.33333], "texture": "#0"},
				"east": {"uv": [11.66667, 1, 12.33333, 1.33333], "texture": "#0"},
				"south": {"uv": [11.66667, 1, 12.33333, 1.33333], "texture": "#0"},
				"west": {"uv": [11.66667, 1, 12.33333, 1.33333], "texture": "#0"},
				"up": {"uv": [11.66667, 1, 12.33333, 1.33333], "texture": "#0"},
				"down": {"uv": [11.66667, 1, 12.33333, 1.33333], "texture": "#0"}
			}
		},
		{
			"from": [5.95, 4.95552, 7.3393],
			"to": [6, 5.15552, 8.7393],
			"rotation": {"angle": 0, "axis": "x", "origin": [6.2, 4.85552, 9.5393]},
			"faces": {
				"north": {"uv": [11.66667, 1, 12.33333, 1.33333], "texture": "#0"},
				"east": {"uv": [11.66667, 1, 12.33333, 1.33333], "texture": "#0"},
				"south": {"uv": [11.66667, 1, 12.33333, 1.33333], "texture": "#0"},
				"west": {"uv": [11.66667, 1, 12.33333, 1.33333], "texture": "#0"},
				"up": {"uv": [11.66667, 1, 12.33333, 1.33333], "texture": "#0"},
				"down": {"uv": [11.66667, 1, 12.33333, 1.33333], "texture": "#0"}
			}
		},
		{
			"from": [6.5, 4.95552, 7.3393],
			"to": [6.55, 5.15552, 8.7393],
			"rotation": {"angle": 0, "axis": "x", "origin": [6.75, 4.85552, 9.5393]},
			"faces": {
				"north": {"uv": [11.66667, 1, 12.33333, 1.33333], "texture": "#0"},
				"east": {"uv": [11.66667, 1, 12.33333, 1.33333], "texture": "#0"},
				"south": {"uv": [11.66667, 1, 12.33333, 1.33333], "texture": "#0"},
				"west": {"uv": [11.66667, 1, 12.33333, 1.33333], "texture": "#0"},
				"up": {"uv": [11.66667, 1, 12.33333, 1.33333], "texture": "#0"},
				"down": {"uv": [11.66667, 1, 12.33333, 1.33333], "texture": "#0"}
			}
		}
	],
	"display": {
		"thirdperson_righthand": {
			"translation": [3, 6.1, 1],
			"scale": [2, 2, 2]
		},
		"thirdperson_lefthand": {
			"translation": [-4, 6.1, 1],
			"scale": [2, 2, 2]
		},
		"firstperson_righthand": {
			"translation": [0, 9.25, 3],
			"scale": [2, 2, 2]
		},
		"firstperson_lefthand": {
			"translation": [-6.25, 8.25, 1.75],
			"scale": [2, 2, 2]
		},
		"ground": {
			"translation": [4.25, 6.25, 0],
			"scale": [2, 2, 2]
		},
		"gui": {
			"rotation": [33, -38, 19],
			"translation": [0, 11.75, 0],
			"scale": [4, 4, 4]
		},
		"head": {
			"translation": [1.75, 1.5, -7.5]
		},
		"fixed": {
			"rotation": [90, 45, -90],
			"translation": [5, 4, -5],
			"scale": [2, 2, 2]
		}
	},
	"groups": [
		{
			"name": "base",
			"origin": [8, 8, 8],
			"children": [
				{
					"name": "trigger",
					"origin": [6.25, 4.96173, 7.55761],
					"children": [0, 1, 2, 3]
				},
				{
					"name": "grip",
					"origin": [6.25, 3.79514, 8.04631],
					"children": [4, 5, 6, 7, 8, 9, 10, 11, 12, 13, 14, 15, 16, 17, 18, 19, 20, 21]
				},
				{
					"name": "chassis",
					"origin": [6.14142, 5.45552, 7.18929],
					"children": [22, 23, 24, 25, 26, 27, 28, 29,
						{
							"name": "barrel",
							"origin": [8, 8, 8],
							"children": [
								{
									"name": "overbarrel",
									"origin": [8, 8, 8],
									"children": [30, 31, 32, 33, 34, 35, 36, 37,
										{
											"name": "cup",
											"origin": [6.34739, 5.26431, 7.3893],
											"children": [38, 39, 40, 41, 42, 43, 44, 45]
										}
									]
								},
								{
									"name": "lens",
									"origin": [8, 8, 8],
									"children": [46, 47, 48, 49]
								}
							]
						},
						{
							"name": "ribs",
							"origin": [8, 8, 8],
							"children": [50, 51, 52, 53, 54, 55, 56, 57, 58, 59, 60, 61, 62, 63, 64, 65, 66, 67, 68, 69, 70, 71, 72, 73, 74, 75, 76, 77, 78, 79, 80, 81, 82, 83, 84, 85, 86, 87, 88, 89, 90, 91, 92, 93, 94, 95, 96, 97, 98, 99, 100, 101, 102, 103, 104, 105,
								{
									"name": "sight",
									"origin": [8, 8, 8],
									"children": [106, 107, 108, 109, 110, 111, 112]
								}
							]
						}
					]
				},
				{
					"name": "mag_slot",
					"origin": [6.25, 5.15552, 8.1893],
					"children": [113, 114, 115, 116, 117, 118, 119, 120]
				}
			]
		}
	]
}