{
    "textures": {
        "0": "gci:items/common/mpz",
        "particle": "gci:items/common/mpz"
    },
    "elements": [
        {
            "name": "hexadecagon",
            "from": [
                6.1875,
                2.76297,
                10.82969
            ],
            "to": [
                7.38125,
                3.18729,
                12.23281
            ],
            "rotation": {
                "angle": 0,
                "axis": "y",
                "origin": [
                    5.6,
                    3.12513,
                    4.58125
                ]
            },
            "faces": {
                "north": {
                    "uv": [
                        9,
                        11.33333,
                        10,
                        12.33333
                    ],
                    "texture": "#0"
                },
                "east": {
                    "uv": [
                        9,
                        11.33333,
                        10,
                        12.33333
                    ],
                    "texture": "#0"
                },
                "south": {
                    "uv": [
                        9,
                        11.33333,
                        10,
                        12.33333
                    ],
                    "texture": "#0"
                },
                "west": {
                    "uv": [
                        9,
                        11.33333,
                        10,
                        12.33333
                    ],
                    "texture": "#0"
                },
                "up": {
                    "uv": [
                        9,
                        11.33333,
                        10,
                        12.33333
                    ],
                    "rotation": 90,
                    "texture": "#0"
                },
                "down": {
                    "uv": [
                        9,
                        11.33333,
                        10,
                        12.33333
                    ],
                    "rotation": 270,
                    "texture": "#0"
                }
            }
        },
        {
            "name": "hexadecagon",
            "from": [
                6.1875,
                2.71297,
                11.92969
            ],
            "to": [
                6.88125,
                3.23729,
                12.13281
            ],
            "rotation": {
                "angle": 0,
                "axis": "y",
                "origin": [
                    5.6,
                    3.12513,
                    5.58125
                ]
            },
            "faces": {
                "north": {
                    "uv": [
                        9,
                        11.33333,
                        10,
                        12.33333
                    ],
                    "texture": "#0"
                },
                "east": {
                    "uv": [
                        9,
                        11.33333,
                        10,
                        12.33333
                    ],
                    "texture": "#0"
                },
                "south": {
                    "uv": [
                        9,
                        11.33333,
                        10,
                        12.33333
                    ],
                    "texture": "#0"
                },
                "west": {
                    "uv": [
                        9,
                        11.33333,
                        10,
                        12.33333
                    ],
                    "texture": "#0"
                },
                "up": {
                    "uv": [
                        9,
                        11.33333,
                        10,
                        12.33333
                    ],
                    "rotation": 90,
                    "texture": "#0"
                },
                "down": {
                    "uv": [
                        9,
                        11.33333,
                        10,
                        12.33333
                    ],
                    "rotation": 270,
                    "texture": "#0"
                }
            }
        },
        {
            "name": "hexadecagon",
            "from": [
                6.1875,
                2.71297,
                10.92969
            ],
            "to": [
                6.88125,
                3.23729,
                11.13281
            ],
            "rotation": {
                "angle": 0,
                "axis": "y",
                "origin": [
                    5.6,
                    3.12513,
                    4.58125
                ]
            },
            "faces": {
                "north": {
                    "uv": [
                        9,
                        11.33333,
                        10,
                        12.33333
                    ],
                    "texture": "#0"
                },
                "east": {
                    "uv": [
                        9,
                        11.33333,
                        10,
                        12.33333
                    ],
                    "texture": "#0"
                },
                "south": {
                    "uv": [
                        9,
                        11.33333,
                        10,
                        12.33333
                    ],
                    "texture": "#0"
                },
                "west": {
                    "uv": [
                        9,
                        11.33333,
                        10,
                        12.33333
                    ],
                    "texture": "#0"
                },
                "up": {
                    "uv": [
                        9,
                        11.33333,
                        10,
                        12.33333
                    ],
                    "rotation": 90,
                    "texture": "#0"
                },
                "down": {
                    "uv": [
                        9,
                        11.33333,
                        10,
                        12.33333
                    ],
                    "rotation": 270,
                    "texture": "#0"
                }
            }
        },
        {
            "name": "hexadecagon",
            "from": [
                6.1875,
                2.71297,
                11.42969
            ],
            "to": [
                6.88125,
                3.23729,
                11.63281
            ],
            "rotation": {
                "angle": 0,
                "axis": "y",
                "origin": [
                    5.6,
                    3.12513,
                    5.08125
                ]
            },
            "faces": {
                "north": {
                    "uv": [
                        9,
                        11.33333,
                        10,
                        12.33333
                    ],
                    "texture": "#0"
                },
                "east": {
                    "uv": [
                        9,
                        11.33333,
                        10,
                        12.33333
                    ],
                    "texture": "#0"
                },
                "south": {
                    "uv": [
                        9,
                        11.33333,
                        10,
                        12.33333
                    ],
                    "texture": "#0"
                },
                "west": {
                    "uv": [
                        9,
                        11.33333,
                        10,
                        12.33333
                    ],
                    "texture": "#0"
                },
                "up": {
                    "uv": [
                        9,
                        11.33333,
                        10,
                        12.33333
                    ],
                    "rotation": 90,
                    "texture": "#0"
                },
                "down": {
                    "uv": [
                        9,
                        11.33333,
                        10,
                        12.33333
                    ],
                    "rotation": 270,
                    "texture": "#0"
                }
            }
        },
        {
            "name": "hexadecagon",
            "from": [
                6.0875,
                2.71297,
                10.77969
            ],
            "to": [
                6.18125,
                3.23729,
                12.28281
            ],
            "rotation": {
                "angle": 0,
                "axis": "y",
                "origin": [
                    4.6,
                    3.12513,
                    4.58125
                ]
            },
            "faces": {
                "north": {
                    "uv": [
                        9,
                        11.33333,
                        10,
                        12.33333
                    ],
                    "texture": "#0"
                },
                "east": {
                    "uv": [
                        9,
                        11.33333,
                        10,
                        12.33333
                    ],
                    "texture": "#0"
                },
                "south": {
                    "uv": [
                        9,
                        11.33333,
                        10,
                        12.33333
                    ],
                    "texture": "#0"
                },
                "west": {
                    "uv": [
                        9,
                        11.33333,
                        10,
                        12.33333
                    ],
                    "texture": "#0"
                },
                "up": {
                    "uv": [
                        9,
                        11.33333,
                        10,
                        12.33333
                    ],
                    "rotation": 90,
                    "texture": "#0"
                },
                "down": {
                    "uv": [
                        9,
                        11.33333,
                        10,
                        12.33333
                    ],
                    "rotation": 270,
                    "texture": "#0"
                }
            }
        }
    ],
    "display": {
        "thirdperson_righthand": {
            "translation": [
                0,
                6,
                -2
            ]
        },
        "thirdperson_lefthand": {
            "translation": [
                0,
                6.25,
                -2
            ]
        },
        "firstperson_righthand": {
            "translation": [
                -1.75,
                7.75,
                0
            ]
        },
        "firstperson_lefthand": {
            "translation": [
                -4.25,
                7.75,
                0
            ]
        },
        "ground": {
            "translation": [
                0,
                2.25,
                0
            ]
        },
        "gui": {
            "rotation": [
                90,
                45,
                -90
            ],
            "translation": [
                3.5,
                3.25,
                0
            ]
        },
        "fixed": {
            "rotation": [
                90,
                45,
                -90
            ],
            "translation": [
                3.5,
                3.75,
                -0.75
            ]
        }
    }
}