{
    "textures": {
        "0": "gci:items/common/all_in_one",
        "particle": "gci:items/common/all_in_one"
    },
    "elements": [
        {
            "from": [
                7.77317,
                3.50978,
                18.73593
            ],
            "to": [
                8.73573,
                4.84034,
                19.43006
            ],
            "rotation": {
                "angle": 0,
                "axis": "y",
                "origin": [
                    8.67014,
                    4.57443,
                    -17.76335
                ]
            },
            "faces": {
                "north": {
                    "uv": [
                        1.25,
                        1.125,
                        1.375,
                        1.125
                    ],
                    "rotation": 270,
                    "texture": "#0"
                },
                "east": {
                    "uv": [
                        1.25,
                        1.125,
                        1.375,
                        1.125
                    ],
                    "rotation": 270,
                    "texture": "#0"
                },
                "south": {
                    "uv": [
                        1.25,
                        1.125,
                        1.375,
                        1.125
                    ],
                    "rotation": 270,
                    "texture": "#0"
                },
                "west": {
                    "uv": [
                        1.25,
                        1.125,
                        1.375,
                        1.125
                    ],
                    "rotation": 270,
                    "texture": "#0"
                },
                "up": {
                    "uv": [
                        1.25,
                        1.125,
                        1.375,
                        1.125
                    ],
                    "rotation": 270,
                    "texture": "#0"
                },
                "down": {
                    "uv": [
                        1.25,
                        1.125,
                        1.375,
                        1.125
                    ],
                    "rotation": 270,
                    "texture": "#0"
                }
            }
        },
        {
            "from": [
                8.72933,
                3.4381,
                18.54526
            ],
            "to": [
                9.34757,
                4.91202,
                19.15194
            ],
            "rotation": {
                "angle": 0,
                "axis": "y",
                "origin": [
                    9.34598,
                    4.57443,
                    56.26337
                ]
            },
            "faces": {
                "north": {
                    "uv": [
                        4.375,
                        3.625,
                        4.375,
                        3.625
                    ],
                    "rotation": 270,
                    "texture": "#0"
                },
                "east": {
                    "uv": [
                        4.375,
                        3.625,
                        4.375,
                        3.625
                    ],
                    "rotation": 270,
                    "texture": "#0"
                },
                "south": {
                    "uv": [
                        4.375,
                        3.625,
                        4.375,
                        3.625
                    ],
                    "rotation": 270,
                    "texture": "#0"
                },
                "west": {
                    "uv": [
                        4.375,
                        3.625,
                        4.375,
                        3.625
                    ],
                    "rotation": 270,
                    "texture": "#0"
                },
                "up": {
                    "uv": [
                        4.375,
                        3.625,
                        4.375,
                        3.625
                    ],
                    "rotation": 270,
                    "texture": "#0"
                },
                "down": {
                    "uv": [
                        4.375,
                        3.625,
                        4.375,
                        3.625
                    ],
                    "rotation": 270,
                    "texture": "#0"
                }
            }
        },
        {
            "from": [
                8.90853,
                3.36642,
                18.54526
            ],
            "to": [
                9.16837,
                4.9837,
                19.15194
            ],
            "rotation": {
                "angle": 0,
                "axis": "y",
                "origin": [
                    9.34598,
                    4.57443,
                    56.26337
                ]
            },
            "faces": {
                "north": {
                    "uv": [
                        4.375,
                        3.625,
                        4.375,
                        3.625
                    ],
                    "rotation": 270,
                    "texture": "#0"
                },
                "east": {
                    "uv": [
                        4.375,
                        3.625,
                        4.375,
                        3.625
                    ],
                    "rotation": 270,
                    "texture": "#0"
                },
                "south": {
                    "uv": [
                        4.375,
                        3.625,
                        4.375,
                        3.625
                    ],
                    "rotation": 270,
                    "texture": "#0"
                },
                "west": {
                    "uv": [
                        4.375,
                        3.625,
                        4.375,
                        3.625
                    ],
                    "rotation": 270,
                    "texture": "#0"
                },
                "up": {
                    "uv": [
                        4.375,
                        3.625,
                        4.375,
                        3.625
                    ],
                    "rotation": 270,
                    "texture": "#0"
                },
                "down": {
                    "uv": [
                        4.375,
                        3.625,
                        4.375,
                        3.625
                    ],
                    "rotation": 270,
                    "texture": "#0"
                }
            }
        },
        {
            "from": [
                8.93854,
                3.59601,
                11.43547
            ],
            "to": [
                9.1379,
                5.21329,
                12.21705
            ],
            "rotation": {
                "angle": 0,
                "axis": "y",
                "origin": [
                    9.3155,
                    4.80402,
                    49.32848
                ]
            },
            "faces": {
                "north": {
                    "uv": [
                        4.25,
                        2.125,
                        4.25,
                        2.125
                    ],
                    "rotation": 270,
                    "texture": "#0"
                },
                "east": {
                    "uv": [
                        4.25,
                        2.125,
                        4.25,
                        2.125
                    ],
                    "rotation": 270,
                    "texture": "#0"
                },
                "south": {
                    "uv": [
                        4.25,
                        2.125,
                        4.25,
                        2.125
                    ],
                    "rotation": 270,
                    "texture": "#0"
                },
                "west": {
                    "uv": [
                        4.25,
                        2.125,
                        4.25,
                        2.125
                    ],
                    "rotation": 270,
                    "texture": "#0"
                },
                "up": {
                    "uv": [
                        4.25,
                        2.125,
                        4.25,
                        2.125
                    ],
                    "rotation": 270,
                    "texture": "#0"
                },
                "down": {
                    "uv": [
                        4.25,
                        2.125,
                        4.25,
                        2.125
                    ],
                    "rotation": 270,
                    "texture": "#0"
                }
            }
        },
        {
            "from": [
                8.93854,
                4.74289,
                11.17312
            ],
            "to": [
                9.1379,
                4.94225,
                11.91098
            ],
            "rotation": {
                "angle": 45,
                "axis": "z",
                "origin": [
                    9.03822,
                    4.84257,
                    11.52019
                ]
            },
            "faces": {
                "north": {
                    "uv": [
                        13.875,
                        4.75,
                        13.875,
                        5
                    ],
                    "rotation": 270,
                    "texture": "#0"
                },
                "east": {
                    "uv": [
                        13.875,
                        4.75,
                        13.875,
                        5
                    ],
                    "rotation": 270,
                    "texture": "#0"
                },
                "south": {
                    "uv": [
                        13.875,
                        4.75,
                        13.875,
                        5
                    ],
                    "rotation": 270,
                    "texture": "#0"
                },
                "west": {
                    "uv": [
                        13.875,
                        4.75,
                        13.875,
                        5
                    ],
                    "rotation": 270,
                    "texture": "#0"
                },
                "up": {
                    "uv": [
                        13.875,
                        5,
                        13.875,
                        4.75
                    ],
                    "rotation": 270,
                    "texture": "#0"
                },
                "down": {
                    "uv": [
                        13.875,
                        5,
                        13.875,
                        4.75
                    ],
                    "rotation": 270,
                    "texture": "#0"
                }
            }
        },
        {
            "from": [
                8.93854,
                2.09073,
                11.17312
            ],
            "to": [
                9.1379,
                2.29009,
                11.7798
            ],
            "rotation": {
                "angle": 45,
                "axis": "z",
                "origin": [
                    9.03822,
                    2.19041,
                    11.52019
                ]
            },
            "faces": {
                "north": {
                    "uv": [
                        13.875,
                        4.75,
                        13.875,
                        5
                    ],
                    "rotation": 270,
                    "texture": "#0"
                },
                "east": {
                    "uv": [
                        13.875,
                        4.75,
                        13.875,
                        5
                    ],
                    "rotation": 270,
                    "texture": "#0"
                },
                "south": {
                    "uv": [
                        13.875,
                        4.75,
                        13.875,
                        5
                    ],
                    "rotation": 270,
                    "texture": "#0"
                },
                "west": {
                    "uv": [
                        13.875,
                        4.75,
                        13.875,
                        5
                    ],
                    "rotation": 270,
                    "texture": "#0"
                },
                "up": {
                    "uv": [
                        13.875,
                        5,
                        13.875,
                        4.75
                    ],
                    "rotation": 270,
                    "texture": "#0"
                },
                "down": {
                    "uv": [
                        13.875,
                        5,
                        13.875,
                        4.75
                    ],
                    "rotation": 270,
                    "texture": "#0"
                }
            }
        },
        {
            "from": [
                9.03971,
                3.98754,
                18.54526
            ],
            "to": [
                9.22787,
                4.99554,
                19.15194
            ],
            "rotation": {
                "angle": 22.5,
                "axis": "z",
                "origin": [
                    9.09795,
                    4.1869,
                    18.8486
                ]
            },
            "faces": {
                "north": {
                    "uv": [
                        4.375,
                        3.625,
                        4.375,
                        3.625
                    ],
                    "rotation": 270,
                    "texture": "#0"
                },
                "east": {
                    "uv": [
                        4.375,
                        3.625,
                        4.375,
                        3.625
                    ],
                    "rotation": 270,
                    "texture": "#0"
                },
                "south": {
                    "uv": [
                        4.375,
                        3.625,
                        4.375,
                        3.625
                    ],
                    "rotation": 270,
                    "texture": "#0"
                },
                "west": {
                    "uv": [
                        4.375,
                        3.625,
                        4.375,
                        3.625
                    ],
                    "rotation": 270,
                    "texture": "#0"
                },
                "up": {
                    "uv": [
                        4.375,
                        3.625,
                        4.375,
                        3.625
                    ],
                    "rotation": 270,
                    "texture": "#0"
                },
                "down": {
                    "uv": [
                        4.375,
                        3.625,
                        4.375,
                        3.625
                    ],
                    "rotation": 270,
                    "texture": "#0"
                }
            }
        },
        {
            "from": [
                9.07019,
                4.36049,
                11.43547
            ],
            "to": [
                9.25835,
                5.22513,
                12.21705
            ],
            "rotation": {
                "angle": 22.5,
                "axis": "z",
                "origin": [
                    9.12843,
                    4.41649,
                    11.91371
                ]
            },
            "faces": {
                "north": {
                    "uv": [
                        4.25,
                        2.125,
                        4.25,
                        2.125
                    ],
                    "rotation": 270,
                    "texture": "#0"
                },
                "east": {
                    "uv": [
                        4.25,
                        2.125,
                        4.25,
                        2.125
                    ],
                    "rotation": 270,
                    "texture": "#0"
                },
                "south": {
                    "uv": [
                        4.25,
                        2.125,
                        4.25,
                        2.125
                    ],
                    "rotation": 270,
                    "texture": "#0"
                },
                "west": {
                    "uv": [
                        4.25,
                        2.125,
                        4.25,
                        2.125
                    ],
                    "rotation": 270,
                    "texture": "#0"
                },
                "up": {
                    "uv": [
                        4.25,
                        2.125,
                        4.25,
                        2.125
                    ],
                    "rotation": 270,
                    "texture": "#0"
                },
                "down": {
                    "uv": [
                        4.25,
                        2.125,
                        4.25,
                        2.125
                    ],
                    "rotation": 270,
                    "texture": "#0"
                }
            }
        },
        {
            "from": [
                8.97187,
                3.35456,
                18.54526
            ],
            "to": [
                9.16003,
                4.36256,
                19.15194
            ],
            "rotation": {
                "angle": 22.5,
                "axis": "z",
                "origin": [
                    9.04381,
                    3.86773,
                    18.8486
                ]
            },
            "faces": {
                "north": {
                    "uv": [
                        4.375,
                        3.625,
                        4.375,
                        3.625
                    ],
                    "rotation": 90,
                    "texture": "#0"
                },
                "east": {
                    "uv": [
                        4.375,
                        3.625,
                        4.375,
                        3.625
                    ],
                    "rotation": 90,
                    "texture": "#0"
                },
                "south": {
                    "uv": [
                        4.375,
                        3.625,
                        4.375,
                        3.625
                    ],
                    "rotation": 90,
                    "texture": "#0"
                },
                "west": {
                    "uv": [
                        4.375,
                        3.625,
                        4.375,
                        3.625
                    ],
                    "rotation": 90,
                    "texture": "#0"
                },
                "up": {
                    "uv": [
                        4.375,
                        3.625,
                        4.375,
                        3.625
                    ],
                    "rotation": 90,
                    "texture": "#0"
                },
                "down": {
                    "uv": [
                        4.375,
                        3.625,
                        4.375,
                        3.625
                    ],
                    "rotation": 90,
                    "texture": "#0"
                }
            }
        },
        {
            "from": [
                8.85447,
                4.01497,
                18.54526
            ],
            "to": [
                9.04263,
                5.02297,
                19.15194
            ],
            "rotation": {
                "angle": -22.5,
                "axis": "z",
                "origin": [
                    8.91271,
                    4.21433,
                    18.8486
                ]
            },
            "faces": {
                "north": {
                    "uv": [
                        4.375,
                        3.625,
                        4.375,
                        3.625
                    ],
                    "rotation": 270,
                    "texture": "#0"
                },
                "east": {
                    "uv": [
                        4.375,
                        3.625,
                        4.375,
                        3.625
                    ],
                    "rotation": 270,
                    "texture": "#0"
                },
                "south": {
                    "uv": [
                        4.375,
                        3.625,
                        4.375,
                        3.625
                    ],
                    "rotation": 270,
                    "texture": "#0"
                },
                "west": {
                    "uv": [
                        4.375,
                        3.625,
                        4.375,
                        3.625
                    ],
                    "rotation": 270,
                    "texture": "#0"
                },
                "up": {
                    "uv": [
                        4.375,
                        3.625,
                        4.375,
                        3.625
                    ],
                    "rotation": 270,
                    "texture": "#0"
                },
                "down": {
                    "uv": [
                        4.375,
                        3.625,
                        4.375,
                        3.625
                    ],
                    "rotation": 270,
                    "texture": "#0"
                }
            }
        },
        {
            "from": [
                8.824,
                4.35208,
                11.43547
            ],
            "to": [
                9.01216,
                5.25256,
                12.21705
            ],
            "rotation": {
                "angle": -22.5,
                "axis": "z",
                "origin": [
                    8.88224,
                    4.44392,
                    11.91371
                ]
            },
            "faces": {
                "north": {
                    "uv": [
                        4.25,
                        2.125,
                        4.25,
                        2.125
                    ],
                    "rotation": 270,
                    "texture": "#0"
                },
                "east": {
                    "uv": [
                        4.25,
                        2.125,
                        4.25,
                        2.125
                    ],
                    "rotation": 270,
                    "texture": "#0"
                },
                "south": {
                    "uv": [
                        4.25,
                        2.125,
                        4.25,
                        2.125
                    ],
                    "rotation": 270,
                    "texture": "#0"
                },
                "west": {
                    "uv": [
                        4.25,
                        2.125,
                        4.25,
                        2.125
                    ],
                    "rotation": 270,
                    "texture": "#0"
                },
                "up": {
                    "uv": [
                        4.25,
                        2.125,
                        4.25,
                        2.125
                    ],
                    "rotation": 270,
                    "texture": "#0"
                },
                "down": {
                    "uv": [
                        4.25,
                        2.125,
                        4.25,
                        2.125
                    ],
                    "rotation": 270,
                    "texture": "#0"
                }
            }
        },
        {
            "from": [
                8.92759,
                3.35456,
                18.54526
            ],
            "to": [
                9.11575,
                4.36256,
                19.15194
            ],
            "rotation": {
                "angle": -22.5,
                "axis": "z",
                "origin": [
                    9.04381,
                    3.86773,
                    18.8486
                ]
            },
            "faces": {
                "north": {
                    "uv": [
                        4.375,
                        3.625,
                        4.375,
                        3.625
                    ],
                    "rotation": 90,
                    "texture": "#0"
                },
                "east": {
                    "uv": [
                        4.375,
                        3.625,
                        4.375,
                        3.625
                    ],
                    "rotation": 90,
                    "texture": "#0"
                },
                "south": {
                    "uv": [
                        4.375,
                        3.625,
                        4.375,
                        3.625
                    ],
                    "rotation": 90,
                    "texture": "#0"
                },
                "west": {
                    "uv": [
                        4.375,
                        3.625,
                        4.375,
                        3.625
                    ],
                    "rotation": 90,
                    "texture": "#0"
                },
                "up": {
                    "uv": [
                        4.375,
                        3.625,
                        4.375,
                        3.625
                    ],
                    "rotation": 90,
                    "texture": "#0"
                },
                "down": {
                    "uv": [
                        4.375,
                        3.625,
                        4.375,
                        3.625
                    ],
                    "rotation": 90,
                    "texture": "#0"
                }
            }
        },
        {
            "from": [
                8.83685,
                4.5133,
                11.50557
            ],
            "to": [
                9.24005,
                4.84034,
                18.53979
            ],
            "rotation": {
                "angle": 0,
                "axis": "y",
                "origin": [
                    9.34598,
                    4.57443,
                    54.95162
                ]
            },
            "faces": {
                "north": {
                    "uv": [
                        4.25,
                        3.5,
                        4.25,
                        3.5
                    ],
                    "rotation": 270,
                    "texture": "#0"
                },
                "east": {
                    "uv": [
                        4.25,
                        3.5,
                        4.25,
                        3.5
                    ],
                    "rotation": 270,
                    "texture": "#0"
                },
                "south": {
                    "uv": [
                        4.25,
                        3.5,
                        4.25,
                        3.5
                    ],
                    "rotation": 270,
                    "texture": "#0"
                },
                "west": {
                    "uv": [
                        4.25,
                        3.5,
                        4.25,
                        3.5
                    ],
                    "rotation": 270,
                    "texture": "#0"
                },
                "up": {
                    "uv": [
                        4.25,
                        3.5,
                        4.25,
                        3.5
                    ],
                    "rotation": 270,
                    "texture": "#0"
                },
                "down": {
                    "uv": [
                        4.25,
                        3.5,
                        4.25,
                        3.5
                    ],
                    "rotation": 270,
                    "texture": "#0"
                }
            }
        },
        {
            "from": [
                8.76517,
                2.48464,
                11.39175
            ],
            "to": [
                9.31173,
                5.14128,
                12.21705
            ],
            "rotation": {
                "angle": 0,
                "axis": "y",
                "origin": [
                    9.34598,
                    4.58865,
                    54.96898
                ]
            },
            "faces": {
                "north": {
                    "uv": [
                        4.25,
                        2.125,
                        4.25,
                        2.125
                    ],
                    "rotation": 270,
                    "texture": "#0"
                },
                "east": {
                    "uv": [
                        4.25,
                        2.125,
                        4.25,
                        2.125
                    ],
                    "rotation": 270,
                    "texture": "#0"
                },
                "south": {
                    "uv": [
                        4.25,
                        2.125,
                        4.25,
                        2.125
                    ],
                    "rotation": 270,
                    "texture": "#0"
                },
                "west": {
                    "uv": [
                        4.25,
                        2.125,
                        4.25,
                        2.125
                    ],
                    "rotation": 270,
                    "texture": "#0"
                },
                "up": {
                    "uv": [
                        4.25,
                        2.125,
                        4.25,
                        2.125
                    ],
                    "rotation": 270,
                    "texture": "#0"
                },
                "down": {
                    "uv": [
                        4.25,
                        2.125,
                        4.25,
                        2.125
                    ],
                    "rotation": 270,
                    "texture": "#0"
                }
            }
        },
        {
            "from": [
                8.90853,
                2.4488,
                11.39175
            ],
            "to": [
                9.13253,
                4.85456,
                12.52313
            ],
            "rotation": {
                "angle": 0,
                "axis": "y",
                "origin": [
                    9.34598,
                    4.58865,
                    54.96898
                ]
            },
            "faces": {
                "north": {
                    "uv": [
                        4.25,
                        2.125,
                        4.25,
                        2.125
                    ],
                    "rotation": 270,
                    "texture": "#0"
                },
                "east": {
                    "uv": [
                        4.25,
                        2.125,
                        4.25,
                        2.125
                    ],
                    "rotation": 270,
                    "texture": "#0"
                },
                "south": {
                    "uv": [
                        4.25,
                        2.125,
                        4.25,
                        2.125
                    ],
                    "rotation": 270,
                    "texture": "#0"
                },
                "west": {
                    "uv": [
                        4.25,
                        2.125,
                        4.25,
                        2.125
                    ],
                    "rotation": 270,
                    "texture": "#0"
                },
                "up": {
                    "uv": [
                        4.25,
                        2.125,
                        4.25,
                        2.125
                    ],
                    "rotation": 270,
                    "texture": "#0"
                },
                "down": {
                    "uv": [
                        4.25,
                        2.125,
                        4.25,
                        2.125
                    ],
                    "rotation": 270,
                    "texture": "#0"
                }
            }
        },
        {
            "from": [
                8.90853,
                4.91358,
                12.11024
            ],
            "to": [
                9.13253,
                5.84094,
                12.55295
            ],
            "rotation": {
                "angle": 45,
                "axis": "x",
                "origin": [
                    9.02053,
                    5.37726,
                    11.08544
                ]
            },
            "faces": {
                "north": {
                    "uv": [
                        4.25,
                        2.125,
                        4.25,
                        2.125
                    ],
                    "texture": "#0"
                },
                "east": {
                    "uv": [
                        4.25,
                        2.125,
                        4.25,
                        2.125
                    ],
                    "texture": "#0"
                },
                "south": {
                    "uv": [
                        4.25,
                        2.125,
                        4.25,
                        2.125
                    ],
                    "texture": "#0"
                },
                "west": {
                    "uv": [
                        4.25,
                        2.125,
                        4.25,
                        2.125
                    ],
                    "texture": "#0"
                },
                "up": {
                    "uv": [
                        4.25,
                        2.125,
                        4.25,
                        2.125
                    ],
                    "texture": "#0"
                },
                "down": {
                    "uv": [
                        4.25,
                        2.125,
                        4.25,
                        2.125
                    ],
                    "texture": "#0"
                }
            }
        },
        {
            "from": [
                8.76517,
                1.89698,
                11.37439
            ],
            "to": [
                9.31173,
                5.09122,
                11.8499
            ],
            "rotation": {
                "angle": 0,
                "axis": "y",
                "origin": [
                    9.34598,
                    4.57443,
                    54.95162
                ]
            },
            "faces": {
                "north": {
                    "uv": [
                        4.25,
                        2.125,
                        4.25,
                        2.125
                    ],
                    "rotation": 270,
                    "texture": "#0"
                },
                "east": {
                    "uv": [
                        4.25,
                        2.125,
                        4.25,
                        2.125
                    ],
                    "rotation": 270,
                    "texture": "#0"
                },
                "south": {
                    "uv": [
                        4.25,
                        2.125,
                        4.25,
                        2.125
                    ],
                    "rotation": 270,
                    "texture": "#0"
                },
                "west": {
                    "uv": [
                        4.25,
                        2.125,
                        4.25,
                        2.125
                    ],
                    "rotation": 270,
                    "texture": "#0"
                },
                "up": {
                    "uv": [
                        4.25,
                        2.125,
                        4.25,
                        2.125
                    ],
                    "rotation": 270,
                    "texture": "#0"
                },
                "down": {
                    "uv": [
                        4.25,
                        2.125,
                        4.25,
                        2.125
                    ],
                    "rotation": 270,
                    "texture": "#0"
                }
            }
        },
        {
            "from": [
                8.72933,
                1.8253,
                11.19949
            ],
            "to": [
                9.34757,
                5.23458,
                11.5001
            ],
            "rotation": {
                "angle": 0,
                "axis": "y",
                "origin": [
                    9.34598,
                    4.57443,
                    54.77672
                ]
            },
            "faces": {
                "north": {
                    "uv": [
                        3,
                        2.875,
                        3,
                        3.125
                    ],
                    "rotation": 270,
                    "texture": "#0"
                },
                "east": {
                    "uv": [
                        3,
                        2.875,
                        3,
                        3.125
                    ],
                    "rotation": 270,
                    "texture": "#0"
                },
                "south": {
                    "uv": [
                        3,
                        2.875,
                        3,
                        3.125
                    ],
                    "rotation": 270,
                    "texture": "#0"
                },
                "west": {
                    "uv": [
                        3,
                        2.875,
                        3,
                        3.125
                    ],
                    "rotation": 270,
                    "texture": "#0"
                },
                "up": {
                    "uv": [
                        3,
                        3.125,
                        3,
                        2.875
                    ],
                    "rotation": 270,
                    "texture": "#0"
                },
                "down": {
                    "uv": [
                        3,
                        3.125,
                        3,
                        2.875
                    ],
                    "rotation": 270,
                    "texture": "#0"
                }
            }
        },
        {
            "from": [
                8.76517,
                2.2736,
                11.6392
            ],
            "to": [
                9.31173,
                2.60064,
                12.15843
            ],
            "rotation": {
                "angle": -45,
                "axis": "x",
                "origin": [
                    9.03845,
                    2.43712,
                    11.87695
                ]
            },
            "faces": {
                "north": {
                    "uv": [
                        4.25,
                        2.125,
                        4.25,
                        2.125
                    ],
                    "rotation": 270,
                    "texture": "#0"
                },
                "east": {
                    "uv": [
                        4.25,
                        2.125,
                        4.25,
                        2.125
                    ],
                    "rotation": 270,
                    "texture": "#0"
                },
                "south": {
                    "uv": [
                        4.25,
                        2.125,
                        4.25,
                        2.125
                    ],
                    "rotation": 270,
                    "texture": "#0"
                },
                "west": {
                    "uv": [
                        4.25,
                        2.125,
                        4.25,
                        2.125
                    ],
                    "rotation": 270,
                    "texture": "#0"
                },
                "up": {
                    "uv": [
                        4.25,
                        2.125,
                        4.25,
                        2.125
                    ],
                    "rotation": 270,
                    "texture": "#0"
                },
                "down": {
                    "uv": [
                        4.25,
                        2.125,
                        4.25,
                        2.125
                    ],
                    "rotation": 270,
                    "texture": "#0"
                }
            }
        },
        {
            "from": [
                8.90853,
                2.23776,
                11.50803
            ],
            "to": [
                9.13253,
                2.5648,
                12.46451
            ],
            "rotation": {
                "angle": -45,
                "axis": "x",
                "origin": [
                    8.85925,
                    2.40128,
                    12.18303
                ]
            },
            "faces": {
                "north": {
                    "uv": [
                        4.25,
                        2.125,
                        4.25,
                        2.125
                    ],
                    "rotation": 270,
                    "texture": "#0"
                },
                "east": {
                    "uv": [
                        4.25,
                        2.125,
                        4.25,
                        2.125
                    ],
                    "rotation": 270,
                    "texture": "#0"
                },
                "south": {
                    "uv": [
                        4.25,
                        2.125,
                        4.25,
                        2.125
                    ],
                    "rotation": 270,
                    "texture": "#0"
                },
                "west": {
                    "uv": [
                        4.25,
                        2.125,
                        4.25,
                        2.125
                    ],
                    "rotation": 270,
                    "texture": "#0"
                },
                "up": {
                    "uv": [
                        4.25,
                        2.125,
                        4.25,
                        2.125
                    ],
                    "rotation": 270,
                    "texture": "#0"
                },
                "down": {
                    "uv": [
                        4.25,
                        2.125,
                        4.25,
                        2.125
                    ],
                    "rotation": 270,
                    "texture": "#0"
                }
            }
        },
        {
            "from": [
                8.83685,
                3.54783,
                15.32672
            ],
            "to": [
                9.24005,
                3.87487,
                18.73179
            ],
            "rotation": {
                "angle": 0,
                "axis": "y",
                "origin": [
                    9.34598,
                    3.60896,
                    56.58653
                ]
            },
            "faces": {
                "north": {
                    "uv": [
                        4.25,
                        3.5,
                        4.25,
                        3.5
                    ],
                    "rotation": 270,
                    "texture": "#0"
                },
                "east": {
                    "uv": [
                        4.25,
                        3.5,
                        4.25,
                        3.5
                    ],
                    "rotation": 270,
                    "texture": "#0"
                },
                "south": {
                    "uv": [
                        4.25,
                        3.5,
                        4.25,
                        3.5
                    ],
                    "rotation": 270,
                    "texture": "#0"
                },
                "west": {
                    "uv": [
                        4.25,
                        3.5,
                        4.25,
                        3.5
                    ],
                    "rotation": 270,
                    "texture": "#0"
                },
                "up": {
                    "uv": [
                        4.25,
                        3.5,
                        4.25,
                        3.5
                    ],
                    "rotation": 270,
                    "texture": "#0"
                },
                "down": {
                    "uv": [
                        4.25,
                        3.5,
                        4.25,
                        3.5
                    ],
                    "rotation": 270,
                    "texture": "#0"
                }
            }
        },
        {
            "from": [
                8.83685,
                3.28137,
                11.41875
            ],
            "to": [
                9.24005,
                3.60841,
                15.43596
            ],
            "rotation": {
                "angle": -22.5,
                "axis": "x",
                "origin": [
                    9.05637,
                    3.51657,
                    14.5642
                ]
            },
            "faces": {
                "north": {
                    "uv": [
                        4.25,
                        3.5,
                        4.25,
                        3.5
                    ],
                    "rotation": 270,
                    "texture": "#0"
                },
                "east": {
                    "uv": [
                        4.25,
                        3.5,
                        4.25,
                        3.5
                    ],
                    "rotation": 270,
                    "texture": "#0"
                },
                "south": {
                    "uv": [
                        4.25,
                        3.5,
                        4.25,
                        3.5
                    ],
                    "rotation": 270,
                    "texture": "#0"
                },
                "west": {
                    "uv": [
                        4.25,
                        3.5,
                        4.25,
                        3.5
                    ],
                    "rotation": 270,
                    "texture": "#0"
                },
                "up": {
                    "uv": [
                        4.25,
                        3.5,
                        4.25,
                        3.5
                    ],
                    "rotation": 270,
                    "texture": "#0"
                },
                "down": {
                    "uv": [
                        4.25,
                        3.5,
                        4.25,
                        3.5
                    ],
                    "rotation": 270,
                    "texture": "#0"
                }
            }
        }
    ],
    "display": {
        "thirdperson_righthand": {
            "translation": [
                -1.5,
                3.5,
                -3.5
            ],
            "scale": [
                0.8,
                0.8,
                0.8
            ]
        },
        "thirdperson_lefthand": {
            "translation": [
                -0.75,
                3.5,
                -3.5
            ],
            "scale": [
                0.8,
                0.8,
                0.8
            ]
        },
        "firstperson_righthand": {
            "translation": [
                -5.75,
                6,
                0
            ],
            "scale": [
                1,
                1,
                0.9
            ]
        },
        "firstperson_lefthand": {
            "translation": [
                -5.5,
                4.75,
                0
            ],
            "scale": [
                1,
                1,
                0.9
            ]
        },
        "ground": {
            "rotation": [
                0,
                0,
                45
            ],
            "scale": [
                0.88,
                0.88,
                0.88
            ]
        },
        "gui": {
            "rotation": [
                20,
                27,
                -14
            ],
            "translation": [
                -1,
                2,
                0
            ]
        },
        "head": {
            "rotation": [
                0,
                122,
                90
            ],
            "translation": [
                -3.25,
                7.25,
                1.75
            ]
        },
        "fixed": {
            "rotation": [
                90,
                45,
                -90
            ],
            "translation": [
                2,
                3.25,
                -1.25
            ]
        }
    }
}