{
	"credit": "Made with Blockbench",
	"textures": {
		"0": "gci:items/common/all_in_one",
		"1": "gci:items/common/mpz",
		"particle": "gci:items/common/all_in_one"
	},
	"elements": [
		{
			"from": [7.6953, 4.51492, 6.056],
			"to": [8.3033, 4.63092, 9.956],
			"rotation": {"angle": 0, "axis": "y", "origin": [7.98633, 4.82559, 9.958]},
			"faces": {
				"north": {"uv": [3.875, 3, 4, 3.125], "rotation": 270, "texture": "#0"},
				"east": {"uv": [3.875, 3, 4, 3.125], "rotation": 270, "texture": "#0"},
				"south": {"uv": [3.875, 3, 4, 3.125], "rotation": 270, "texture": "#0"},
				"west": {"uv": [3.875, 3, 4, 3.125], "rotation": 270, "texture": "#0"},
				"up": {"uv": [3.875, 3, 4, 3.125], "rotation": 270, "texture": "#0"},
				"down": {"uv": [3.875, 3, 4, 3.125], "rotation": 270, "texture": "#0"}
			}
		},
		{
			"from": [7.76601, 4.44421, 6.056],
			"to": [8.23401, 4.56021, 9.956],
			"rotation": {"angle": 0, "axis": "y", "origin": [8.05704, 4.75488, 9.958]},
			"faces": {
				"north": {"uv": [3.875, 3, 4, 3.125], "rotation": 270, "texture": "#0"},
				"east": {"uv": [3.875, 3, 4, 3.125], "rotation": 270, "texture": "#0"},
				"south": {"uv": [3.875, 3, 4, 3.125], "rotation": 270, "texture": "#0"},
				"west": {"uv": [3.875, 3, 4, 3.125], "rotation": 270, "texture": "#0"},
				"up": {"uv": [3.875, 3, 4, 3.125], "rotation": 270, "texture": "#0"},
				"down": {"uv": [3.875, 3, 4, 3.125], "rotation": 270, "texture": "#0"}
			}
		},
		{
			"from": [7.6953, 4.61492, 6.156],
			"to": [8.3033, 4.73092, 6.256],
			"rotation": {"angle": 0, "axis": "y", "origin": [7.98633, 4.92559, 9.958]},
			"faces": {
				"north": {"uv": [3.875, 3, 4, 3.125], "rotation": 270, "texture": "#0"},
				"east": {"uv": [3.875, 3, 4, 3.125], "rotation": 270, "texture": "#0"},
				"south": {"uv": [3.875, 3, 4, 3.125], "rotation": 270, "texture": "#0"},
				"west": {"uv": [3.875, 3, 4, 3.125], "rotation": 270, "texture": "#0"},
				"up": {"uv": [3.875, 3, 4, 3.125], "rotation": 270, "texture": "#0"},
				"down": {"uv": [3.875, 3, 4, 3.125], "rotation": 270, "texture": "#0"}
			}
		},
		{
			"from": [7.6953, 4.61492, 6.356],
			"to": [8.3033, 4.73092, 6.456],
			"rotation": {"angle": 0, "axis": "y", "origin": [7.98633, 4.92559, 10.158]},
			"faces": {
				"north": {"uv": [3.875, 3, 4, 3.125], "rotation": 270, "texture": "#0"},
				"east": {"uv": [3.875, 3, 4, 3.125], "rotation": 270, "texture": "#0"},
				"south": {"uv": [3.875, 3, 4, 3.125], "rotation": 270, "texture": "#0"},
				"west": {"uv": [3.875, 3, 4, 3.125], "rotation": 270, "texture": "#0"},
				"up": {"uv": [3.875, 3, 4, 3.125], "rotation": 270, "texture": "#0"},
				"down": {"uv": [3.875, 3, 4, 3.125], "rotation": 270, "texture": "#0"}
			}
		},
		{
			"from": [7.6953, 4.61492, 6.556],
			"to": [8.3033, 4.73092, 6.656],
			"rotation": {"angle": 0, "axis": "y", "origin": [7.98633, 4.92559, 10.358]},
			"faces": {
				"north": {"uv": [3.875, 3, 4, 3.125], "rotation": 270, "texture": "#0"},
				"east": {"uv": [3.875, 3, 4, 3.125], "rotation": 270, "texture": "#0"},
				"south": {"uv": [3.875, 3, 4, 3.125], "rotation": 270, "texture": "#0"},
				"west": {"uv": [3.875, 3, 4, 3.125], "rotation": 270, "texture": "#0"},
				"up": {"uv": [3.875, 3, 4, 3.125], "rotation": 270, "texture": "#0"},
				"down": {"uv": [3.875, 3, 4, 3.125], "rotation": 270, "texture": "#0"}
			}
		},
		{
			"from": [7.6953, 4.61492, 6.756],
			"to": [8.3033, 4.73092, 6.856],
			"rotation": {"angle": 0, "axis": "y", "origin": [7.98633, 4.92559, 10.558]},
			"faces": {
				"north": {"uv": [3.875, 3, 4, 3.125], "rotation": 270, "texture": "#0"},
				"east": {"uv": [3.875, 3, 4, 3.125], "rotation": 270, "texture": "#0"},
				"south": {"uv": [3.875, 3, 4, 3.125], "rotation": 270, "texture": "#0"},
				"west": {"uv": [3.875, 3, 4, 3.125], "rotation": 270, "texture": "#0"},
				"up": {"uv": [3.875, 3, 4, 3.125], "rotation": 270, "texture": "#0"},
				"down": {"uv": [3.875, 3, 4, 3.125], "rotation": 270, "texture": "#0"}
			}
		},
		{
			"from": [7.6953, 4.61492, 6.956],
			"to": [8.3033, 4.73092, 7.056],
			"rotation": {"angle": 0, "axis": "y", "origin": [7.98633, 4.92559, 10.758]},
			"faces": {
				"north": {"uv": [3.875, 3, 4, 3.125], "rotation": 270, "texture": "#0"},
				"east": {"uv": [3.875, 3, 4, 3.125], "rotation": 270, "texture": "#0"},
				"south": {"uv": [3.875, 3, 4, 3.125], "rotation": 270, "texture": "#0"},
				"west": {"uv": [3.875, 3, 4, 3.125], "rotation": 270, "texture": "#0"},
				"up": {"uv": [3.875, 3, 4, 3.125], "rotation": 270, "texture": "#0"},
				"down": {"uv": [3.875, 3, 4, 3.125], "rotation": 270, "texture": "#0"}
			}
		},
		{
			"from": [7.6953, 4.61492, 7.956],
			"to": [8.3033, 4.73092, 8.056],
			"rotation": {"angle": 0, "axis": "y", "origin": [7.98633, 4.92559, 11.758]},
			"faces": {
				"north": {"uv": [3.875, 3, 4, 3.125], "rotation": 270, "texture": "#0"},
				"east": {"uv": [3.875, 3, 4, 3.125], "rotation": 270, "texture": "#0"},
				"south": {"uv": [3.875, 3, 4, 3.125], "rotation": 270, "texture": "#0"},
				"west": {"uv": [3.875, 3, 4, 3.125], "rotation": 270, "texture": "#0"},
				"up": {"uv": [3.875, 3, 4, 3.125], "rotation": 270, "texture": "#0"},
				"down": {"uv": [3.875, 3, 4, 3.125], "rotation": 270, "texture": "#0"}
			}
		},
		{
			"from": [7.6953, 4.61492, 7.756],
			"to": [8.3033, 4.73092, 7.856],
			"rotation": {"angle": 0, "axis": "y", "origin": [7.98633, 4.92559, 11.558]},
			"faces": {
				"north": {"uv": [3.875, 3, 4, 3.125], "rotation": 270, "texture": "#0"},
				"east": {"uv": [3.875, 3, 4, 3.125], "rotation": 270, "texture": "#0"},
				"south": {"uv": [3.875, 3, 4, 3.125], "rotation": 270, "texture": "#0"},
				"west": {"uv": [3.875, 3, 4, 3.125], "rotation": 270, "texture": "#0"},
				"up": {"uv": [3.875, 3, 4, 3.125], "rotation": 270, "texture": "#0"},
				"down": {"uv": [3.875, 3, 4, 3.125], "rotation": 270, "texture": "#0"}
			}
		},
		{
			"from": [7.6953, 4.61492, 7.556],
			"to": [8.3033, 4.73092, 7.656],
			"rotation": {"angle": 0, "axis": "y", "origin": [7.98633, 4.92559, 11.358]},
			"faces": {
				"north": {"uv": [3.875, 3, 4, 3.125], "rotation": 270, "texture": "#0"},
				"east": {"uv": [3.875, 3, 4, 3.125], "rotation": 270, "texture": "#0"},
				"south": {"uv": [3.875, 3, 4, 3.125], "rotation": 270, "texture": "#0"},
				"west": {"uv": [3.875, 3, 4, 3.125], "rotation": 270, "texture": "#0"},
				"up": {"uv": [3.875, 3, 4, 3.125], "rotation": 270, "texture": "#0"},
				"down": {"uv": [3.875, 3, 4, 3.125], "rotation": 270, "texture": "#0"}
			}
		},
		{
			"from": [7.6953, 4.61492, 7.356],
			"to": [8.3033, 4.73092, 7.456],
			"rotation": {"angle": 0, "axis": "y", "origin": [7.98633, 4.92559, 11.158]},
			"faces": {
				"north": {"uv": [3.875, 3, 4, 3.125], "rotation": 270, "texture": "#0"},
				"east": {"uv": [3.875, 3, 4, 3.125], "rotation": 270, "texture": "#0"},
				"south": {"uv": [3.875, 3, 4, 3.125], "rotation": 270, "texture": "#0"},
				"west": {"uv": [3.875, 3, 4, 3.125], "rotation": 270, "texture": "#0"},
				"up": {"uv": [3.875, 3, 4, 3.125], "rotation": 270, "texture": "#0"},
				"down": {"uv": [3.875, 3, 4, 3.125], "rotation": 270, "texture": "#0"}
			}
		},
		{
			"from": [7.6953, 4.61492, 7.156],
			"to": [8.3033, 4.73092, 7.256],
			"rotation": {"angle": 0, "axis": "y", "origin": [7.98633, 4.92559, 10.958]},
			"faces": {
				"north": {"uv": [3.875, 3, 4, 3.125], "rotation": 270, "texture": "#0"},
				"east": {"uv": [3.875, 3, 4, 3.125], "rotation": 270, "texture": "#0"},
				"south": {"uv": [3.875, 3, 4, 3.125], "rotation": 270, "texture": "#0"},
				"west": {"uv": [3.875, 3, 4, 3.125], "rotation": 270, "texture": "#0"},
				"up": {"uv": [3.875, 3, 4, 3.125], "rotation": 270, "texture": "#0"},
				"down": {"uv": [3.875, 3, 4, 3.125], "rotation": 270, "texture": "#0"}
			}
		},
		{
			"from": [7.6953, 4.61492, 8.956],
			"to": [8.3033, 4.73092, 9.056],
			"rotation": {"angle": 0, "axis": "y", "origin": [7.98633, 4.92559, 12.758]},
			"faces": {
				"north": {"uv": [3.875, 3, 4, 3.125], "rotation": 270, "texture": "#0"},
				"east": {"uv": [3.875, 3, 4, 3.125], "rotation": 270, "texture": "#0"},
				"south": {"uv": [3.875, 3, 4, 3.125], "rotation": 270, "texture": "#0"},
				"west": {"uv": [3.875, 3, 4, 3.125], "rotation": 270, "texture": "#0"},
				"up": {"uv": [3.875, 3, 4, 3.125], "rotation": 270, "texture": "#0"},
				"down": {"uv": [3.875, 3, 4, 3.125], "rotation": 270, "texture": "#0"}
			}
		},
		{
			"from": [7.6953, 4.61492, 8.756],
			"to": [8.3033, 4.73092, 8.856],
			"rotation": {"angle": 0, "axis": "y", "origin": [7.98633, 4.92559, 12.558]},
			"faces": {
				"north": {"uv": [3.875, 3, 4, 3.125], "rotation": 270, "texture": "#0"},
				"east": {"uv": [3.875, 3, 4, 3.125], "rotation": 270, "texture": "#0"},
				"south": {"uv": [3.875, 3, 4, 3.125], "rotation": 270, "texture": "#0"},
				"west": {"uv": [3.875, 3, 4, 3.125], "rotation": 270, "texture": "#0"},
				"up": {"uv": [3.875, 3, 4, 3.125], "rotation": 270, "texture": "#0"},
				"down": {"uv": [3.875, 3, 4, 3.125], "rotation": 270, "texture": "#0"}
			}
		},
		{
			"from": [7.6953, 4.61492, 8.556],
			"to": [8.3033, 4.73092, 8.656],
			"rotation": {"angle": 0, "axis": "y", "origin": [7.98633, 4.92559, 12.358]},
			"faces": {
				"north": {"uv": [3.875, 3, 4, 3.125], "rotation": 270, "texture": "#0"},
				"east": {"uv": [3.875, 3, 4, 3.125], "rotation": 270, "texture": "#0"},
				"south": {"uv": [3.875, 3, 4, 3.125], "rotation": 270, "texture": "#0"},
				"west": {"uv": [3.875, 3, 4, 3.125], "rotation": 270, "texture": "#0"},
				"up": {"uv": [3.875, 3, 4, 3.125], "rotation": 270, "texture": "#0"},
				"down": {"uv": [3.875, 3, 4, 3.125], "rotation": 270, "texture": "#0"}
			}
		},
		{
			"from": [7.6953, 4.61492, 8.356],
			"to": [8.3033, 4.73092, 8.456],
			"rotation": {"angle": 0, "axis": "y", "origin": [7.98633, 4.92559, 12.158]},
			"faces": {
				"north": {"uv": [3.875, 3, 4, 3.125], "rotation": 270, "texture": "#0"},
				"east": {"uv": [3.875, 3, 4, 3.125], "rotation": 270, "texture": "#0"},
				"south": {"uv": [3.875, 3, 4, 3.125], "rotation": 270, "texture": "#0"},
				"west": {"uv": [3.875, 3, 4, 3.125], "rotation": 270, "texture": "#0"},
				"up": {"uv": [3.875, 3, 4, 3.125], "rotation": 270, "texture": "#0"},
				"down": {"uv": [3.875, 3, 4, 3.125], "rotation": 270, "texture": "#0"}
			}
		},
		{
			"from": [7.6953, 4.61492, 8.156],
			"to": [8.3033, 4.73092, 8.256],
			"rotation": {"angle": 0, "axis": "y", "origin": [7.98633, 4.92559, 11.958]},
			"faces": {
				"north": {"uv": [3.875, 3, 4, 3.125], "rotation": 270, "texture": "#0"},
				"east": {"uv": [3.875, 3, 4, 3.125], "rotation": 270, "texture": "#0"},
				"south": {"uv": [3.875, 3, 4, 3.125], "rotation": 270, "texture": "#0"},
				"west": {"uv": [3.875, 3, 4, 3.125], "rotation": 270, "texture": "#0"},
				"up": {"uv": [3.875, 3, 4, 3.125], "rotation": 270, "texture": "#0"},
				"down": {"uv": [3.875, 3, 4, 3.125], "rotation": 270, "texture": "#0"}
			}
		},
		{
			"from": [7.6953, 4.61492, 9.756],
			"to": [8.3033, 4.73092, 9.856],
			"rotation": {"angle": 0, "axis": "y", "origin": [7.98633, 4.92559, 13.558]},
			"faces": {
				"north": {"uv": [3.875, 3, 4, 3.125], "rotation": 270, "texture": "#0"},
				"east": {"uv": [3.875, 3, 4, 3.125], "rotation": 270, "texture": "#0"},
				"south": {"uv": [3.875, 3, 4, 3.125], "rotation": 270, "texture": "#0"},
				"west": {"uv": [3.875, 3, 4, 3.125], "rotation": 270, "texture": "#0"},
				"up": {"uv": [3.875, 3, 4, 3.125], "rotation": 270, "texture": "#0"},
				"down": {"uv": [3.875, 3, 4, 3.125], "rotation": 270, "texture": "#0"}
			}
		},
		{
			"from": [7.6953, 4.00692, 9.756],
			"to": [7.8113, 4.61492, 9.856],
			"rotation": {"angle": 0, "axis": "z", "origin": [7.7533, 4.31092, 9.806]},
			"faces": {
				"north": {"uv": [3.875, 3, 4, 3.125], "texture": "#0"},
				"east": {"uv": [3.875, 3, 4, 3.125], "rotation": 180, "texture": "#0"},
				"south": {"uv": [3.875, 3, 4, 3.125], "rotation": 180, "texture": "#0"},
				"west": {"uv": [3.875, 3, 4, 3.125], "rotation": 180, "texture": "#0"},
				"up": {"uv": [3.875, 3, 4, 3.125], "rotation": 180, "texture": "#0"},
				"down": {"uv": [3.875, 3, 4, 3.125], "rotation": 180, "texture": "#0"}
			}
		},
		{
			"from": [8.1873, 4.00692, 9.756],
			"to": [8.3033, 4.61492, 9.856],
			"rotation": {"angle": 0, "axis": "z", "origin": [8.2453, 4.31092, 9.806]},
			"faces": {
				"north": {"uv": [3.875, 3, 4, 3.125], "texture": "#0"},
				"east": {"uv": [3.875, 3, 4, 3.125], "rotation": 180, "texture": "#0"},
				"south": {"uv": [3.875, 3, 4, 3.125], "rotation": 180, "texture": "#0"},
				"west": {"uv": [3.875, 3, 4, 3.125], "rotation": 180, "texture": "#0"},
				"up": {"uv": [3.875, 3, 4, 3.125], "rotation": 180, "texture": "#0"},
				"down": {"uv": [3.875, 3, 4, 3.125], "rotation": 180, "texture": "#0"}
			}
		},
		{
			"from": [8.1873, 4.00692, 6.356],
			"to": [8.3033, 4.61492, 6.456],
			"rotation": {"angle": 0, "axis": "z", "origin": [8.2453, 4.31092, 6.406]},
			"faces": {
				"north": {"uv": [3.875, 3, 4, 3.125], "texture": "#0"},
				"east": {"uv": [3.875, 3, 4, 3.125], "rotation": 180, "texture": "#0"},
				"south": {"uv": [3.875, 3, 4, 3.125], "rotation": 180, "texture": "#0"},
				"west": {"uv": [3.875, 3, 4, 3.125], "rotation": 180, "texture": "#0"},
				"up": {"uv": [3.875, 3, 4, 3.125], "rotation": 180, "texture": "#0"},
				"down": {"uv": [3.875, 3, 4, 3.125], "rotation": 180, "texture": "#0"}
			}
		},
		{
			"from": [7.6953, 4.00692, 6.356],
			"to": [7.8113, 4.61492, 6.456],
			"rotation": {"angle": 0, "axis": "z", "origin": [7.7533, 4.31092, 6.406]},
			"faces": {
				"north": {"uv": [3.875, 3, 4, 3.125], "texture": "#0"},
				"east": {"uv": [3.875, 3, 4, 3.125], "rotation": 180, "texture": "#0"},
				"south": {"uv": [3.875, 3, 4, 3.125], "rotation": 180, "texture": "#0"},
				"west": {"uv": [3.875, 3, 4, 3.125], "rotation": 180, "texture": "#0"},
				"up": {"uv": [3.875, 3, 4, 3.125], "rotation": 180, "texture": "#0"},
				"down": {"uv": [3.875, 3, 4, 3.125], "rotation": 180, "texture": "#0"}
			}
		},
		{
			"from": [7.6953, 4.61492, 9.556],
			"to": [8.3033, 4.73092, 9.656],
			"rotation": {"angle": 0, "axis": "y", "origin": [7.98633, 4.92559, 13.358]},
			"faces": {
				"north": {"uv": [3.875, 3, 4, 3.125], "rotation": 270, "texture": "#0"},
				"east": {"uv": [3.875, 3, 4, 3.125], "rotation": 270, "texture": "#0"},
				"south": {"uv": [3.875, 3, 4, 3.125], "rotation": 270, "texture": "#0"},
				"west": {"uv": [3.875, 3, 4, 3.125], "rotation": 270, "texture": "#0"},
				"up": {"uv": [3.875, 3, 4, 3.125], "rotation": 270, "texture": "#0"},
				"down": {"uv": [3.875, 3, 4, 3.125], "rotation": 270, "texture": "#0"}
			}
		},
		{
			"from": [7.6953, 4.61492, 9.356],
			"to": [8.3033, 4.73092, 9.456],
			"rotation": {"angle": 0, "axis": "y", "origin": [7.98633, 4.92559, 13.158]},
			"faces": {
				"north": {"uv": [3.875, 3, 4, 3.125], "rotation": 270, "texture": "#0"},
				"east": {"uv": [3.875, 3, 4, 3.125], "rotation": 270, "texture": "#0"},
				"south": {"uv": [3.875, 3, 4, 3.125], "rotation": 270, "texture": "#0"},
				"west": {"uv": [3.875, 3, 4, 3.125], "rotation": 270, "texture": "#0"},
				"up": {"uv": [3.875, 3, 4, 3.125], "rotation": 270, "texture": "#0"},
				"down": {"uv": [3.875, 3, 4, 3.125], "rotation": 270, "texture": "#0"}
			}
		},
		{
			"from": [7.6953, 4.61492, 9.156],
			"to": [8.3033, 4.73092, 9.256],
			"rotation": {"angle": 0, "axis": "y", "origin": [7.98633, 4.92559, 12.958]},
			"faces": {
				"north": {"uv": [3.875, 3, 4, 3.125], "rotation": 270, "texture": "#0"},
				"east": {"uv": [3.875, 3, 4, 3.125], "rotation": 270, "texture": "#0"},
				"south": {"uv": [3.875, 3, 4, 3.125], "rotation": 270, "texture": "#0"},
				"west": {"uv": [3.875, 3, 4, 3.125], "rotation": 270, "texture": "#0"},
				"up": {"uv": [3.875, 3, 4, 3.125], "rotation": 270, "texture": "#0"},
				"down": {"uv": [3.875, 3, 4, 3.125], "rotation": 270, "texture": "#0"}
			}
		},
		{
			"from": [7.71601, 4.46492, 6.056],
			"to": [7.81601, 4.56492, 9.956],
			"rotation": {"angle": 45, "axis": "z", "origin": [7.76601, 4.51492, 8.006]},
			"faces": {
				"north": {"uv": [3.875, 3, 4, 3.125], "rotation": 270, "texture": "#0"},
				"east": {"uv": [3.875, 3, 4, 3.125], "rotation": 270, "texture": "#0"},
				"south": {"uv": [3.875, 3, 4, 3.125], "rotation": 270, "texture": "#0"},
				"west": {"uv": [3.875, 3, 4, 3.125], "rotation": 270, "texture": "#0"},
				"up": {"uv": [3.875, 3, 4, 3.125], "rotation": 270, "texture": "#0"},
				"down": {"uv": [3.875, 3, 4, 3.125], "rotation": 270, "texture": "#0"}
			}
		},
		{
			"from": [8.18259, 4.46492, 6.056],
			"to": [8.28259, 4.56492, 9.956],
			"rotation": {"angle": 45, "axis": "z", "origin": [8.23259, 4.51492, 8.006]},
			"faces": {
				"north": {"uv": [3.875, 3, 4, 3.125], "rotation": 270, "texture": "#0"},
				"east": {"uv": [3.875, 3, 4, 3.125], "rotation": 270, "texture": "#0"},
				"south": {"uv": [3.875, 3, 4, 3.125], "rotation": 270, "texture": "#0"},
				"west": {"uv": [3.875, 3, 4, 3.125], "rotation": 270, "texture": "#0"},
				"up": {"uv": [3.875, 3, 4, 3.125], "rotation": 270, "texture": "#0"},
				"down": {"uv": [3.875, 3, 4, 3.125], "rotation": 270, "texture": "#0"}
			}
		},
		{
			"from": [7.9135, 4.11091, -3.956],
			"to": [8.1358, 4.23491, 9.044],
			"rotation": {"angle": 0, "axis": "y", "origin": [7.66683, 4.05955, -22.28]},
			"faces": {
				"north": {"uv": [1.33333, 4, 1.66667, 4.33333], "rotation": 270, "texture": "#1"},
				"east": {"uv": [1.33333, 4, 1.66667, 4.33333], "rotation": 270, "texture": "#1"},
				"south": {"uv": [1.33333, 4, 1.66667, 4.33333], "rotation": 270, "texture": "#1"},
				"west": {"uv": [1.33333, 4, 1.66667, 4.33333], "rotation": 270, "texture": "#1"},
				"up": {"uv": [1.33333, 4, 1.66667, 4.33333], "rotation": 270, "texture": "#1"},
				"down": {"uv": [1.33333, 4, 1.66667, 4.33333], "rotation": 270, "texture": "#1"}
			}
		},
		{
			"from": [7.75295, 4.08582, -3.956],
			"to": [7.97525, 4.20982, 9.044],
			"rotation": {"angle": 45, "axis": "z", "origin": [7.91409, 4.14782, 4.044]},
			"faces": {
				"north": {"uv": [1.33333, 4, 1.66667, 4.33333], "rotation": 270, "texture": "#1"},
				"east": {"uv": [1.33333, 4, 1.66667, 4.33333], "rotation": 270, "texture": "#1"},
				"south": {"uv": [1.33333, 4, 1.66667, 4.33333], "rotation": 270, "texture": "#1"},
				"west": {"uv": [1.33333, 4, 1.66667, 4.33333], "rotation": 270, "texture": "#1"},
				"up": {"uv": [1.33333, 4, 1.66667, 4.33333], "rotation": 270, "texture": "#1"},
				"down": {"uv": [1.33333, 4, 1.66667, 4.33333], "rotation": 270, "texture": "#1"}
			}
		},
		{
			"from": [7.75631, 3.85542, -3.956],
			"to": [7.88031, 4.07772, 9.044],
			"rotation": {"angle": 0, "axis": "z", "origin": [7.81831, 4.01656, 4.044]},
			"faces": {
				"north": {"uv": [1.33333, 4, 1.66667, 4.33333], "rotation": 180, "texture": "#1"},
				"east": {"uv": [1.33333, 4, 1.66667, 4.33333], "rotation": 180, "texture": "#1"},
				"south": {"uv": [1.33333, 4, 1.66667, 4.33333], "rotation": 180, "texture": "#1"},
				"west": {"uv": [1.33333, 4, 1.66667, 4.33333], "rotation": 180, "texture": "#1"},
				"up": {"uv": [1.33333, 4, 1.66667, 4.33333], "rotation": 180, "texture": "#1"},
				"down": {"uv": [1.33333, 4, 1.66667, 4.33333], "rotation": 180, "texture": "#1"}
			}
		},
		{
			"from": [7.7814, 3.69487, -3.956],
			"to": [7.9054, 3.91717, 9.044],
			"rotation": {"angle": 45, "axis": "z", "origin": [7.8434, 3.85601, 4.044]},
			"faces": {
				"north": {"uv": [1.33333, 4, 1.66667, 4.33333], "rotation": 180, "texture": "#1"},
				"east": {"uv": [1.33333, 4, 1.66667, 4.33333], "rotation": 180, "texture": "#1"},
				"south": {"uv": [1.33333, 4, 1.66667, 4.33333], "rotation": 180, "texture": "#1"},
				"west": {"uv": [1.33333, 4, 1.66667, 4.33333], "rotation": 180, "texture": "#1"},
				"up": {"uv": [1.33333, 4, 1.66667, 4.33333], "rotation": 180, "texture": "#1"},
				"down": {"uv": [1.33333, 4, 1.66667, 4.33333], "rotation": 180, "texture": "#1"}
			}
		},
		{
			"from": [7.9135, 3.69823, -3.956],
			"to": [8.1358, 3.82223, 9.044],
			"rotation": {"angle": 0, "axis": "z", "origin": [8.07464, 3.76023, 4.044]},
			"faces": {
				"north": {"uv": [1.33333, 4, 1.66667, 4.33333], "rotation": 90, "texture": "#1"},
				"east": {"uv": [1.33333, 4, 1.66667, 4.33333], "rotation": 90, "texture": "#1"},
				"south": {"uv": [1.33333, 4, 1.66667, 4.33333], "rotation": 90, "texture": "#1"},
				"west": {"uv": [1.33333, 4, 1.66667, 4.33333], "rotation": 90, "texture": "#1"},
				"up": {"uv": [1.33333, 4, 1.66667, 4.33333], "rotation": 90, "texture": "#1"},
				"down": {"uv": [1.33333, 4, 1.66667, 4.33333], "rotation": 90, "texture": "#1"}
			}
		},
		{
			"from": [8.04476, 3.79401, -3.956],
			"to": [8.26706, 3.91801, 9.044],
			"rotation": {"angle": 45, "axis": "z", "origin": [8.2059, 3.85601, 4.044]},
			"faces": {
				"north": {"uv": [1.33333, 4, 1.66667, 4.33333], "rotation": 90, "texture": "#1"},
				"east": {"uv": [1.33333, 4, 1.66667, 4.33333], "rotation": 90, "texture": "#1"},
				"south": {"uv": [1.33333, 4, 1.66667, 4.33333], "rotation": 90, "texture": "#1"},
				"west": {"uv": [1.33333, 4, 1.66667, 4.33333], "rotation": 90, "texture": "#1"},
				"up": {"uv": [1.33333, 4, 1.66667, 4.33333], "rotation": 90, "texture": "#1"},
				"down": {"uv": [1.33333, 4, 1.66667, 4.33333], "rotation": 90, "texture": "#1"}
			}
		},
		{
			"from": [8.16899, 3.85542, -3.956],
			"to": [8.29299, 4.07772, 9.044],
			"rotation": {"angle": 0, "axis": "z", "origin": [8.23099, 4.01656, 4.044]},
			"faces": {
				"north": {"uv": [1.33333, 4, 1.66667, 4.33333], "texture": "#1"},
				"east": {"uv": [1.33333, 4, 1.66667, 4.33333], "texture": "#1"},
				"south": {"uv": [1.33333, 4, 1.66667, 4.33333], "texture": "#1"},
				"west": {"uv": [1.33333, 4, 1.66667, 4.33333], "texture": "#1"},
				"up": {"uv": [1.33333, 4, 1.66667, 4.33333], "texture": "#1"},
				"down": {"uv": [1.33333, 4, 1.66667, 4.33333], "texture": "#1"}
			}
		},
		{
			"from": [8.07321, 3.98668, -3.956],
			"to": [8.19721, 4.20898, 9.044],
			"rotation": {"angle": 45, "axis": "z", "origin": [8.13521, 4.14782, 4.044]},
			"faces": {
				"north": {"uv": [1.33333, 4, 1.66667, 4.33333], "texture": "#1"},
				"east": {"uv": [1.33333, 4, 1.66667, 4.33333], "texture": "#1"},
				"south": {"uv": [1.33333, 4, 1.66667, 4.33333], "texture": "#1"},
				"west": {"uv": [1.33333, 4, 1.66667, 4.33333], "texture": "#1"},
				"up": {"uv": [1.33333, 4, 1.66667, 4.33333], "texture": "#1"},
				"down": {"uv": [1.33333, 4, 1.66667, 4.33333], "texture": "#1"}
			}
		},
		{
			"from": [7.76601, 3.72821, 11.856],
			"to": [8.23401, 4.44421, 11.956],
			"rotation": {"angle": 0, "axis": "y", "origin": [8.05704, 4.63888, 19.258]},
			"faces": {
				"north": {"uv": [3.875, 3, 4, 3.125], "rotation": 270, "texture": "#0"},
				"east": {"uv": [3.875, 3, 4, 3.125], "rotation": 270, "texture": "#0"},
				"south": {"uv": [3.875, 3, 4, 3.125], "rotation": 270, "texture": "#0"},
				"west": {"uv": [3.875, 3, 4, 3.125], "rotation": 270, "texture": "#0"},
				"up": {"uv": [3.875, 3, 4, 3.125], "rotation": 270, "texture": "#0"},
				"down": {"uv": [3.875, 3, 4, 3.125], "rotation": 270, "texture": "#0"}
			}
		},
		{
			"from": [7.41219, 3.94606, 11.856],
			"to": [7.68019, 4.26206, 11.956],
			"rotation": {"angle": 45, "axis": "z", "origin": [7.50322, 4.45673, 19.258]},
			"faces": {
				"north": {"uv": [3.875, 3, 4, 3.125], "rotation": 270, "texture": "#0"},
				"east": {"uv": [3.875, 3, 4, 3.125], "rotation": 270, "texture": "#0"},
				"south": {"uv": [3.875, 3, 4, 3.125], "rotation": 270, "texture": "#0"},
				"west": {"uv": [3.875, 3, 4, 3.125], "rotation": 270, "texture": "#0"},
				"up": {"uv": [3.875, 3, 4, 3.125], "rotation": 270, "texture": "#0"},
				"down": {"uv": [3.875, 3, 4, 3.125], "rotation": 270, "texture": "#0"}
			}
		},
		{
			"from": [8.13414, 4.00837, 11.856],
			"to": [8.45014, 4.27637, 11.956],
			"rotation": {"angle": 45, "axis": "z", "origin": [8.13947, 4.0994, 19.258]},
			"faces": {
				"north": {"uv": [3.875, 3, 4, 3.125], "texture": "#0"},
				"east": {"uv": [3.875, 3, 4, 3.125], "rotation": 180, "texture": "#0"},
				"south": {"uv": [3.875, 3, 4, 3.125], "rotation": 180, "texture": "#0"},
				"west": {"uv": [3.875, 3, 4, 3.125], "rotation": 180, "texture": "#0"},
				"up": {"uv": [3.875, 3, 4, 3.125], "rotation": 180, "texture": "#0"},
				"down": {"uv": [3.875, 3, 4, 3.125], "rotation": 180, "texture": "#0"}
			}
		},
		{
			"from": [8.20752, 3.7867, 11.856],
			"to": [8.42352, 4.2547, 11.956],
			"rotation": {"angle": 0, "axis": "z", "origin": [8.11285, 4.07773, 19.258]},
			"faces": {
				"north": {"uv": [3.875, 3, 4, 3.125], "texture": "#0"},
				"east": {"uv": [3.875, 3, 4, 3.125], "rotation": 180, "texture": "#0"},
				"south": {"uv": [3.875, 3, 4, 3.125], "rotation": 180, "texture": "#0"},
				"west": {"uv": [3.875, 3, 4, 3.125], "rotation": 180, "texture": "#0"},
				"up": {"uv": [3.875, 3, 4, 3.125], "rotation": 180, "texture": "#0"},
				"down": {"uv": [3.875, 3, 4, 3.125], "rotation": 180, "texture": "#0"}
			}
		},
		{
			"from": [7.78767, 3.57057, 11.856],
			"to": [8.25567, 3.78657, 11.956],
			"rotation": {"angle": 45, "axis": "z", "origin": [8.0787, 3.88124, 19.258]},
			"faces": {
				"north": {"uv": [3.875, 3, 4, 3.125], "rotation": 270, "texture": "#0"},
				"east": {"uv": [3.875, 3, 4, 3.125], "rotation": 270, "texture": "#0"},
				"south": {"uv": [3.875, 3, 4, 3.125], "rotation": 270, "texture": "#0"},
				"west": {"uv": [3.875, 3, 4, 3.125], "rotation": 270, "texture": "#0"},
				"up": {"uv": [3.875, 3, 4, 3.125], "rotation": 270, "texture": "#0"},
				"down": {"uv": [3.875, 3, 4, 3.125], "rotation": 270, "texture": "#0"}
			}
		},
		{
			"from": [7.90743, 3.45578, 11.856],
			"to": [8.09343, 3.77178, 11.956],
			"rotation": {"angle": 0, "axis": "z", "origin": [7.89846, 3.76645, 19.258]},
			"faces": {
				"north": {"uv": [3.875, 3, 4, 3.125], "rotation": 270, "texture": "#0"},
				"east": {"uv": [3.875, 3, 4, 3.125], "rotation": 270, "texture": "#0"},
				"south": {"uv": [3.875, 3, 4, 3.125], "rotation": 270, "texture": "#0"},
				"west": {"uv": [3.875, 3, 4, 3.125], "rotation": 270, "texture": "#0"},
				"up": {"uv": [3.875, 3, 4, 3.125], "rotation": 270, "texture": "#0"},
				"down": {"uv": [3.875, 3, 4, 3.125], "rotation": 270, "texture": "#0"}
			}
		},
		{
			"from": [7.75866, 3.23289, 11.856],
			"to": [7.97466, 3.70089, 11.956],
			"rotation": {"angle": 45, "axis": "z", "origin": [7.56399, 3.52392, 19.258]},
			"faces": {
				"north": {"uv": [3.875, 3, 4, 3.125], "texture": "#0"},
				"east": {"uv": [3.875, 3, 4, 3.125], "rotation": 180, "texture": "#0"},
				"south": {"uv": [3.875, 3, 4, 3.125], "rotation": 180, "texture": "#0"},
				"west": {"uv": [3.875, 3, 4, 3.125], "rotation": 180, "texture": "#0"},
				"up": {"uv": [3.875, 3, 4, 3.125], "rotation": 180, "texture": "#0"},
				"down": {"uv": [3.875, 3, 4, 3.125], "rotation": 180, "texture": "#0"}
			}
		},
		{
			"from": [7.57651, 3.7867, 11.856],
			"to": [7.79251, 4.2547, 11.956],
			"rotation": {"angle": 0, "axis": "z", "origin": [7.38184, 4.07773, 19.258]},
			"faces": {
				"north": {"uv": [3.875, 3, 4, 3.125], "texture": "#0"},
				"east": {"uv": [3.875, 3, 4, 3.125], "rotation": 180, "texture": "#0"},
				"south": {"uv": [3.875, 3, 4, 3.125], "rotation": 180, "texture": "#0"},
				"west": {"uv": [3.875, 3, 4, 3.125], "rotation": 180, "texture": "#0"},
				"up": {"uv": [3.875, 3, 4, 3.125], "rotation": 180, "texture": "#0"},
				"down": {"uv": [3.875, 3, 4, 3.125], "rotation": 180, "texture": "#0"}
			}
		},
		{
			"from": [7.90743, 3.45578, 2.456],
			"to": [8.09343, 3.77178, 2.556],
			"rotation": {"angle": 0, "axis": "z", "origin": [7.89846, 3.76645, 9.858]},
			"faces": {
				"north": {"uv": [3.875, 3, 4, 3.125], "rotation": 270, "texture": "#0"},
				"east": {"uv": [3.875, 3, 4, 3.125], "rotation": 270, "texture": "#0"},
				"south": {"uv": [3.875, 3, 4, 3.125], "rotation": 270, "texture": "#0"},
				"west": {"uv": [3.875, 3, 4, 3.125], "rotation": 270, "texture": "#0"},
				"up": {"uv": [3.875, 3, 4, 3.125], "rotation": 270, "texture": "#0"},
				"down": {"uv": [3.875, 3, 4, 3.125], "rotation": 270, "texture": "#0"}
			}
		},
		{
			"from": [7.78767, 3.57057, 2.456],
			"to": [8.25567, 3.78657, 2.556],
			"rotation": {"angle": 45, "axis": "z", "origin": [8.0787, 3.88124, 9.858]},
			"faces": {
				"north": {"uv": [3.875, 3, 4, 3.125], "rotation": 270, "texture": "#0"},
				"east": {"uv": [3.875, 3, 4, 3.125], "rotation": 270, "texture": "#0"},
				"south": {"uv": [3.875, 3, 4, 3.125], "rotation": 270, "texture": "#0"},
				"west": {"uv": [3.875, 3, 4, 3.125], "rotation": 270, "texture": "#0"},
				"up": {"uv": [3.875, 3, 4, 3.125], "rotation": 270, "texture": "#0"},
				"down": {"uv": [3.875, 3, 4, 3.125], "rotation": 270, "texture": "#0"}
			}
		},
		{
			"from": [7.75866, 3.23289, 2.456],
			"to": [7.97466, 3.70089, 2.556],
			"rotation": {"angle": 45, "axis": "z", "origin": [7.56399, 3.52392, 9.858]},
			"faces": {
				"north": {"uv": [3.875, 3, 4, 3.125], "texture": "#0"},
				"east": {"uv": [3.875, 3, 4, 3.125], "rotation": 180, "texture": "#0"},
				"south": {"uv": [3.875, 3, 4, 3.125], "rotation": 180, "texture": "#0"},
				"west": {"uv": [3.875, 3, 4, 3.125], "rotation": 180, "texture": "#0"},
				"up": {"uv": [3.875, 3, 4, 3.125], "rotation": 180, "texture": "#0"},
				"down": {"uv": [3.875, 3, 4, 3.125], "rotation": 180, "texture": "#0"}
			}
		},
		{
			"from": [8.20752, 3.7867, 2.456],
			"to": [8.42352, 4.2547, 2.556],
			"rotation": {"angle": 0, "axis": "z", "origin": [8.11285, 4.07773, 9.858]},
			"faces": {
				"north": {"uv": [3.875, 3, 4, 3.125], "texture": "#0"},
				"east": {"uv": [3.875, 3, 4, 3.125], "rotation": 180, "texture": "#0"},
				"south": {"uv": [3.875, 3, 4, 3.125], "rotation": 180, "texture": "#0"},
				"west": {"uv": [3.875, 3, 4, 3.125], "rotation": 180, "texture": "#0"},
				"up": {"uv": [3.875, 3, 4, 3.125], "rotation": 180, "texture": "#0"},
				"down": {"uv": [3.875, 3, 4, 3.125], "rotation": 180, "texture": "#0"}
			}
		},
		{
			"from": [8.13414, 4.00837, 2.456],
			"to": [8.45014, 4.27637, 2.556],
			"rotation": {"angle": 45, "axis": "z", "origin": [8.13947, 4.0994, 9.858]},
			"faces": {
				"north": {"uv": [3.875, 3, 4, 3.125], "texture": "#0"},
				"east": {"uv": [3.875, 3, 4, 3.125], "rotation": 180, "texture": "#0"},
				"south": {"uv": [3.875, 3, 4, 3.125], "rotation": 180, "texture": "#0"},
				"west": {"uv": [3.875, 3, 4, 3.125], "rotation": 180, "texture": "#0"},
				"up": {"uv": [3.875, 3, 4, 3.125], "rotation": 180, "texture": "#0"},
				"down": {"uv": [3.875, 3, 4, 3.125], "rotation": 180, "texture": "#0"}
			}
		},
		{
			"from": [7.76601, 4.22821, 2.456],
			"to": [8.23401, 4.44421, 2.556],
			"rotation": {"angle": 0, "axis": "y", "origin": [8.05704, 4.63888, 9.858]},
			"faces": {
				"north": {"uv": [3.875, 3, 4, 3.125], "rotation": 270, "texture": "#0"},
				"east": {"uv": [3.875, 3, 4, 3.125], "rotation": 270, "texture": "#0"},
				"south": {"uv": [3.875, 3, 4, 3.125], "rotation": 270, "texture": "#0"},
				"west": {"uv": [3.875, 3, 4, 3.125], "rotation": 270, "texture": "#0"},
				"up": {"uv": [3.875, 3, 4, 3.125], "rotation": 270, "texture": "#0"},
				"down": {"uv": [3.875, 3, 4, 3.125], "rotation": 270, "texture": "#0"}
			}
		},
		{
			"from": [7.41219, 3.94606, 2.456],
			"to": [7.68019, 4.26206, 2.556],
			"rotation": {"angle": 45, "axis": "z", "origin": [7.50322, 4.45673, 9.858]},
			"faces": {
				"north": {"uv": [3.875, 3, 4, 3.125], "rotation": 270, "texture": "#0"},
				"east": {"uv": [3.875, 3, 4, 3.125], "rotation": 270, "texture": "#0"},
				"south": {"uv": [3.875, 3, 4, 3.125], "rotation": 270, "texture": "#0"},
				"west": {"uv": [3.875, 3, 4, 3.125], "rotation": 270, "texture": "#0"},
				"up": {"uv": [3.875, 3, 4, 3.125], "rotation": 270, "texture": "#0"},
				"down": {"uv": [3.875, 3, 4, 3.125], "rotation": 270, "texture": "#0"}
			}
		},
		{
			"from": [7.57651, 3.7867, 2.456],
			"to": [7.79251, 4.2547, 2.556],
			"rotation": {"angle": 0, "axis": "z", "origin": [7.38184, 4.07773, 9.858]},
			"faces": {
				"north": {"uv": [3.875, 3, 4, 3.125], "texture": "#0"},
				"east": {"uv": [3.875, 3, 4, 3.125], "rotation": 180, "texture": "#0"},
				"south": {"uv": [3.875, 3, 4, 3.125], "rotation": 180, "texture": "#0"},
				"west": {"uv": [3.875, 3, 4, 3.125], "rotation": 180, "texture": "#0"},
				"up": {"uv": [3.875, 3, 4, 3.125], "rotation": 180, "texture": "#0"},
				"down": {"uv": [3.875, 3, 4, 3.125], "rotation": 180, "texture": "#0"}
			}
		},
		{
			"from": [7.76601, 4.32821, 2.556],
			"to": [8.23401, 4.44421, 11.956],
			"rotation": {"angle": 0, "axis": "y", "origin": [8.05704, 4.63888, 9.958]},
			"faces": {
				"north": {"uv": [3.875, 3, 4, 3.125], "rotation": 270, "texture": "#0"},
				"east": {"uv": [3.875, 3, 4, 3.125], "rotation": 270, "texture": "#0"},
				"south": {"uv": [3.875, 3, 4, 3.125], "rotation": 270, "texture": "#0"},
				"west": {"uv": [3.875, 3, 4, 3.125], "rotation": 270, "texture": "#0"},
				"up": {"uv": [3.875, 3, 4, 3.125], "rotation": 270, "texture": "#0"},
				"down": {"uv": [3.875, 3, 4, 3.125], "rotation": 270, "texture": "#0"}
			}
		},
		{
			"from": [7.76601, 3.77788, 12.10848],
			"to": [8.23401, 4.17788, 12.32448],
			"rotation": {"angle": -22.5, "axis": "x", "origin": [8.00001, 3.57788, 12.26648]},
			"faces": {
				"north": {"uv": [3.875, 2.875, 4, 3], "texture": "#0"},
				"east": {"uv": [3.875, 2.875, 4, 3], "texture": "#0"},
				"south": {"uv": [3.875, 2.875, 4, 3], "texture": "#0"},
				"west": {"uv": [3.875, 2.875, 4, 3], "texture": "#0"},
				"up": {"uv": [3.875, 2.875, 4, 3], "texture": "#0"},
				"down": {"uv": [3.875, 2.875, 4, 3], "texture": "#0"}
			}
		},
		{
			"from": [7.41219, 4.14606, 2.556],
			"to": [7.68019, 4.26206, 11.956],
			"rotation": {"angle": 45, "axis": "z", "origin": [7.50322, 4.45673, 9.958]},
			"faces": {
				"north": {"uv": [3.875, 3, 4, 3.125], "rotation": 270, "texture": "#0"},
				"east": {"uv": [3.875, 3, 4, 3.125], "rotation": 270, "texture": "#0"},
				"south": {"uv": [3.875, 3, 4, 3.125], "rotation": 270, "texture": "#0"},
				"west": {"uv": [3.875, 3, 4, 3.125], "rotation": 270, "texture": "#0"},
				"up": {"uv": [3.875, 3, 4, 3.125], "rotation": 270, "texture": "#0"},
				"down": {"uv": [3.875, 3, 4, 3.125], "rotation": 270, "texture": "#0"}
			}
		},
		{
			"from": [8.33414, 4.00837, 2.556],
			"to": [8.45014, 4.27637, 11.956],
			"rotation": {"angle": 45, "axis": "z", "origin": [8.13947, 4.0994, 9.958]},
			"faces": {
				"north": {"uv": [3.875, 3, 4, 3.125], "texture": "#0"},
				"east": {"uv": [3.875, 3, 4, 3.125], "rotation": 180, "texture": "#0"},
				"south": {"uv": [3.875, 3, 4, 3.125], "rotation": 180, "texture": "#0"},
				"west": {"uv": [3.875, 3, 4, 3.125], "rotation": 180, "texture": "#0"},
				"up": {"uv": [3.875, 3, 4, 3.125], "rotation": 180, "texture": "#0"},
				"down": {"uv": [3.875, 3, 4, 3.125], "rotation": 180, "texture": "#0"}
			}
		},
		{
			"from": [7.78767, 3.57057, 2.556],
			"to": [8.25567, 3.68657, 11.956],
			"rotation": {"angle": 45, "axis": "z", "origin": [8.0787, 3.88124, 9.958]},
			"faces": {
				"north": {"uv": [3.875, 3, 4, 3.125], "rotation": 270, "texture": "#0"},
				"east": {"uv": [3.875, 3, 4, 3.125], "rotation": 270, "texture": "#0"},
				"south": {"uv": [3.875, 3, 4, 3.125], "rotation": 270, "texture": "#0"},
				"west": {"uv": [3.875, 3, 4, 3.125], "rotation": 270, "texture": "#0"},
				"up": {"uv": [3.875, 3, 4, 3.125], "rotation": 270, "texture": "#0"},
				"down": {"uv": [3.875, 3, 4, 3.125], "rotation": 270, "texture": "#0"}
			}
		},
		{
			"from": [7.90743, 3.45578, 2.556],
			"to": [8.09343, 3.57178, 11.956],
			"rotation": {"angle": 0, "axis": "z", "origin": [7.89846, 3.76645, 9.958]},
			"faces": {
				"north": {"uv": [3.875, 3, 4, 3.125], "rotation": 270, "texture": "#0"},
				"east": {"uv": [3.875, 3, 4, 3.125], "rotation": 270, "texture": "#0"},
				"south": {"uv": [3.875, 3, 4, 3.125], "rotation": 270, "texture": "#0"},
				"west": {"uv": [3.875, 3, 4, 3.125], "rotation": 270, "texture": "#0"},
				"up": {"uv": [3.875, 3, 4, 3.125], "rotation": 270, "texture": "#0"},
				"down": {"uv": [3.875, 3, 4, 3.125], "rotation": 270, "texture": "#0"}
			}
		},
		{
			"from": [7.6974, 2, 16.88171],
			"to": [8.3034, 4.016, 17.48171],
			"rotation": {"angle": 0, "axis": "x", "origin": [8.00043, 3.35878, 17.68171]},
			"faces": {
				"north": {"uv": [6.75, 9.375, 6.875, 9.5], "rotation": 270, "texture": "#0"},
				"east": {"uv": [6.75, 9.375, 6.875, 9.5], "rotation": 270, "texture": "#0"},
				"south": {"uv": [6.75, 9.375, 6.875, 9.5], "rotation": 270, "texture": "#0"},
				"west": {"uv": [6.75, 9.375, 6.875, 9.5], "rotation": 270, "texture": "#0"},
				"up": {"uv": [6.75, 9.375, 6.875, 9.5], "rotation": 270, "texture": "#0"},
				"down": {"uv": [6.75, 9.375, 6.875, 9.5], "rotation": 270, "texture": "#0"}
			}
		},
		{
			"from": [7.9074, 3.40322, 9.9593],
			"to": [8.0934, 3.60322, 10.0093],
			"rotation": {"angle": -22.5, "axis": "x", "origin": [8.00043, 3.30322, 10.0173]},
			"faces": {
				"north": {"uv": [3.875, 3, 4, 3.125], "rotation": 90, "texture": "#0"},
				"east": {"uv": [3.875, 3, 4, 3.125], "rotation": 180, "texture": "#0"},
				"south": {"uv": [3.875, 3, 4, 3.125], "rotation": 270, "texture": "#0"},
				"west": {"uv": [3.875, 3, 4, 3.125], "texture": "#0"},
				"up": {"uv": [3.875, 3, 4, 3.125], "rotation": 90, "texture": "#0"},
				"down": {"uv": [3.875, 3, 4, 3.125], "rotation": 270, "texture": "#0"}
			}
		},
		{
			"from": [7.9074, 3.10229, 10.12059],
			"to": [8.0934, 3.50229, 10.17059],
			"rotation": {"angle": -45, "axis": "x", "origin": [8.00043, 3.20229, 10.17859]},
			"faces": {
				"north": {"uv": [3.875, 3, 4, 3.125], "rotation": 90, "texture": "#0"},
				"east": {"uv": [3.875, 3, 4, 3.125], "rotation": 180, "texture": "#0"},
				"south": {"uv": [3.875, 3, 4, 3.125], "rotation": 270, "texture": "#0"},
				"west": {"uv": [3.875, 3, 4, 3.125], "texture": "#0"},
				"up": {"uv": [3.875, 3, 4, 3.125], "rotation": 90, "texture": "#0"},
				"down": {"uv": [3.875, 3, 4, 3.125], "rotation": 270, "texture": "#0"}
			}
		},
		{
			"from": [7.9074, 2.97135, 10.20765],
			"to": [8.0934, 3.02135, 10.60765],
			"rotation": {"angle": 22.5, "axis": "x", "origin": [8.00043, 3.02935, 10.50765]},
			"faces": {
				"north": {"uv": [3.875, 3, 4, 3.125], "rotation": 270, "texture": "#0"},
				"east": {"uv": [3.875, 3, 4, 3.125], "rotation": 270, "texture": "#0"},
				"south": {"uv": [3.875, 3, 4, 3.125], "rotation": 270, "texture": "#0"},
				"west": {"uv": [3.875, 3, 4, 3.125], "rotation": 270, "texture": "#0"},
				"up": {"uv": [3.875, 3, 4, 3.125], "rotation": 270, "texture": "#0"},
				"down": {"uv": [3.875, 3, 4, 3.125], "rotation": 90, "texture": "#0"}
			}
		},
		{
			"from": [7.9074, 2.93749, 10.57784],
			"to": [8.0934, 2.98749, 11.57784],
			"rotation": {"angle": 0, "axis": "x", "origin": [8.00043, 2.99549, 10.87784]},
			"faces": {
				"north": {"uv": [3.875, 3, 4, 3.125], "rotation": 270, "texture": "#0"},
				"east": {"uv": [3.875, 3, 4, 3.125], "rotation": 270, "texture": "#0"},
				"south": {"uv": [3.875, 3, 4, 3.125], "rotation": 270, "texture": "#0"},
				"west": {"uv": [3.875, 3, 4, 3.125], "rotation": 270, "texture": "#0"},
				"up": {"uv": [3.875, 3, 4, 3.125], "rotation": 270, "texture": "#0"},
				"down": {"uv": [3.875, 3, 4, 3.125], "rotation": 90, "texture": "#0"}
			}
		},
		{
			"from": [7.75866, 3.23289, 2.556],
			"to": [7.87466, 3.70089, 11.956],
			"rotation": {"angle": 45, "axis": "z", "origin": [7.56399, 3.52392, 9.958]},
			"faces": {
				"north": {"uv": [3.875, 3, 4, 3.125], "texture": "#0"},
				"east": {"uv": [3.875, 3, 4, 3.125], "rotation": 180, "texture": "#0"},
				"south": {"uv": [3.875, 3, 4, 3.125], "rotation": 180, "texture": "#0"},
				"west": {"uv": [3.875, 3, 4, 3.125], "rotation": 180, "texture": "#0"},
				"up": {"uv": [3.875, 3, 4, 3.125], "rotation": 180, "texture": "#0"},
				"down": {"uv": [3.875, 3, 4, 3.125], "rotation": 180, "texture": "#0"}
			}
		},
		{
			"from": [8.30752, 3.7867, 2.556],
			"to": [8.42352, 4.2547, 7.156],
			"rotation": {"angle": 0, "axis": "z", "origin": [8.11285, 4.07773, 9.958]},
			"faces": {
				"north": {"uv": [3.875, 3, 4, 3.125], "texture": "#0"},
				"east": {"uv": [3.875, 3, 4, 3.125], "rotation": 180, "texture": "#0"},
				"south": {"uv": [3.875, 3, 4, 3.125], "rotation": 180, "texture": "#0"},
				"west": {"uv": [3.875, 3, 4, 3.125], "rotation": 180, "texture": "#0"},
				"up": {"uv": [3.875, 3, 4, 3.125], "rotation": 180, "texture": "#0"},
				"down": {"uv": [3.875, 3, 4, 3.125], "rotation": 180, "texture": "#0"}
			}
		},
		{
			"from": [8.30752, 3.7867, 9.556],
			"to": [8.42352, 4.2547, 11.956],
			"rotation": {"angle": 0, "axis": "z", "origin": [8.11285, 4.07773, 12.858]},
			"faces": {
				"north": {"uv": [3.875, 3, 4, 3.125], "texture": "#0"},
				"east": {"uv": [3.875, 3, 4, 3.125], "rotation": 180, "texture": "#0"},
				"south": {"uv": [3.875, 3, 4, 3.125], "rotation": 180, "texture": "#0"},
				"west": {"uv": [3.875, 3, 4, 3.125], "rotation": 180, "texture": "#0"},
				"up": {"uv": [3.875, 3, 4, 3.125], "rotation": 180, "texture": "#0"},
				"down": {"uv": [3.875, 3, 4, 3.125], "rotation": 180, "texture": "#0"}
			}
		},
		{
			"from": [7.57651, 3.7867, 2.556],
			"to": [7.69251, 4.2547, 11.956],
			"rotation": {"angle": 0, "axis": "z", "origin": [7.38184, 4.07773, 9.958]},
			"faces": {
				"north": {"uv": [3.875, 3, 4, 3.125], "texture": "#0"},
				"east": {"uv": [3.875, 3, 4, 3.125], "rotation": 180, "texture": "#0"},
				"south": {"uv": [3.875, 3, 4, 3.125], "rotation": 180, "texture": "#0"},
				"west": {"uv": [3.875, 3, 4, 3.125], "rotation": 180, "texture": "#0"},
				"up": {"uv": [3.875, 3, 4, 3.125], "rotation": 180, "texture": "#0"},
				"down": {"uv": [3.875, 3, 4, 3.125], "rotation": 180, "texture": "#0"}
			}
		},
		{
			"from": [7.70743, 2.75578, 6.956],
			"to": [8.29343, 3.67178, 9.756],
			"rotation": {"angle": 0, "axis": "y", "origin": [7.89846, 3.76645, 9.958]},
			"faces": {
				"north": {"uv": [4.5, 3.75, 4.625, 3.875], "rotation": 270, "texture": "#0"},
				"east": {"uv": [4.5, 3.75, 4.625, 3.875], "rotation": 270, "texture": "#0"},
				"south": {"uv": [4.5, 3.75, 4.625, 3.875], "rotation": 270, "texture": "#0"},
				"west": {"uv": [4.5, 3.75, 4.625, 3.875], "rotation": 270, "texture": "#0"},
				"up": {"uv": [4.5, 3.75, 4.625, 3.875], "rotation": 270, "texture": "#0"},
				"down": {"uv": [4.5, 3.75, 4.625, 3.875], "rotation": 270, "texture": "#0"}
			}
		},
		{
			"from": [7.9074, 3.29953, 11.05911],
			"to": [8.0934, 3.49953, 11.30911],
			"rotation": {"angle": 22.5, "axis": "x", "origin": [8.00043, 3.19953, 11.11711]},
			"faces": {
				"north": {"uv": [3.5, 9.25, 3.625, 9.375], "texture": "#0"},
				"east": {"uv": [3.5, 9.25, 3.625, 9.375], "texture": "#0"},
				"south": {"uv": [3.5, 9.25, 3.625, 9.375], "texture": "#0"},
				"west": {"uv": [3.5, 9.25, 3.625, 9.375], "texture": "#0"},
				"up": {"uv": [3.5, 9.25, 3.625, 9.375], "texture": "#0"},
				"down": {"uv": [3.5, 9.25, 3.625, 9.375], "texture": "#0"}
			}
		},
		{
			"from": [7.9074, 3.40322, 11.1593],
			"to": [8.0934, 3.60322, 11.4093],
			"rotation": {"angle": 0, "axis": "x", "origin": [8.00043, 3.30322, 11.2173]},
			"faces": {
				"north": {"uv": [3.5, 9.25, 3.625, 9.375], "texture": "#0"},
				"east": {"uv": [3.5, 9.25, 3.625, 9.375], "texture": "#0"},
				"south": {"uv": [3.5, 9.25, 3.625, 9.375], "texture": "#0"},
				"west": {"uv": [3.5, 9.25, 3.625, 9.375], "texture": "#0"},
				"up": {"uv": [3.5, 9.25, 3.625, 9.375], "texture": "#0"},
				"down": {"uv": [3.5, 9.25, 3.625, 9.375], "texture": "#0"}
			}
		},
		{
			"from": [7.9074, 3.14207, 10.92687],
			"to": [8.0934, 3.44207, 11.02687],
			"rotation": {"angle": 45, "axis": "x", "origin": [8.00043, 3.14207, 10.98487]},
			"faces": {
				"north": {"uv": [3.5, 9.25, 3.625, 9.375], "texture": "#0"},
				"east": {"uv": [3.5, 9.25, 3.625, 9.375], "texture": "#0"},
				"south": {"uv": [3.5, 9.25, 3.625, 9.375], "texture": "#0"},
				"west": {"uv": [3.5, 9.25, 3.625, 9.375], "texture": "#0"},
				"up": {"uv": [3.5, 9.25, 3.625, 9.375], "texture": "#0"},
				"down": {"uv": [3.5, 9.25, 3.625, 9.375], "texture": "#0"}
			}
		},
		{
			"from": [7.9074, 3.14162, 11.07681],
			"to": [8.0934, 3.24162, 11.27681],
			"rotation": {"angle": -22.5, "axis": "x", "origin": [8.00043, 3.18362, 10.97681]},
			"faces": {
				"north": {"uv": [3.5, 9.25, 3.625, 9.375], "rotation": 90, "texture": "#0"},
				"east": {"uv": [3.5, 9.25, 3.625, 9.375], "rotation": 90, "texture": "#0"},
				"south": {"uv": [3.5, 9.25, 3.625, 9.375], "rotation": 90, "texture": "#0"},
				"west": {"uv": [3.5, 9.25, 3.625, 9.375], "rotation": 90, "texture": "#0"},
				"up": {"uv": [3.5, 9.25, 3.625, 9.375], "rotation": 90, "texture": "#0"},
				"down": {"uv": [3.5, 9.25, 3.625, 9.375], "rotation": 90, "texture": "#0"}
			}
		},
		{
			"from": [7.9074, 3.21844, 11.33276],
			"to": [8.0934, 3.41844, 11.58276],
			"rotation": {"angle": 0, "axis": "x", "origin": [8.00043, 3.11844, 11.39076]},
			"faces": {
				"north": {"uv": [3.5, 9.25, 3.625, 9.375], "texture": "#0"},
				"east": {"uv": [3.5, 9.25, 3.625, 9.375], "texture": "#0"},
				"south": {"uv": [3.5, 9.25, 3.625, 9.375], "texture": "#0"},
				"west": {"uv": [3.5, 9.25, 3.625, 9.375], "texture": "#0"},
				"up": {"uv": [3.5, 9.25, 3.625, 9.375], "texture": "#0"},
				"down": {"uv": [3.5, 9.25, 3.625, 9.375], "texture": "#0"}
			}
		},
		{
			"from": [8.30752, 3.7867, 7.156],
			"to": [8.37352, 4.2547, 9.556],
			"rotation": {"angle": 0, "axis": "z", "origin": [8.11285, 4.07773, 14.558]},
			"faces": {
				"north": {"uv": [6.125, 2.5, 6.25, 2.625], "rotation": 180, "texture": "#0"},
				"east": {"uv": [6.125, 2.5, 6.25, 2.625], "rotation": 180, "texture": "#0"},
				"south": {"uv": [6.125, 2.5, 6.25, 2.625], "rotation": 180, "texture": "#0"},
				"west": {"uv": [6.125, 2.5, 6.25, 2.625], "rotation": 180, "texture": "#0"},
				"up": {"uv": [6.125, 2.5, 6.25, 2.625], "rotation": 180, "texture": "#0"},
				"down": {"uv": [6.125, 2.5, 6.25, 2.625], "rotation": 180, "texture": "#0"}
			}
		},
		{
			"from": [8.30752, 3.9657, 7.227],
			"to": [8.47352, 4.0757, 7.495],
			"rotation": {"angle": 0, "axis": "x", "origin": [8.49052, 4.0207, 7.411]},
			"faces": {
				"north": {"uv": [6.125, 2.5, 6.25, 2.625], "texture": "#0"},
				"east": {"uv": [6.125, 2.5, 6.25, 2.625], "rotation": 90, "texture": "#0"},
				"south": {"uv": [6.125, 2.5, 6.25, 2.625], "rotation": 180, "texture": "#0"},
				"west": {"uv": [6.125, 2.5, 6.25, 2.625], "rotation": 270, "texture": "#0"},
				"up": {"uv": [6.125, 2.5, 6.25, 2.625], "texture": "#0"},
				"down": {"uv": [6.125, 2.5, 6.25, 2.625], "rotation": 180, "texture": "#0"}
			}
		},
		{
			"from": [8.30752, 3.9657, 7.227],
			"to": [8.47352, 4.0757, 7.495],
			"rotation": {"angle": 45, "axis": "x", "origin": [8.49052, 4.0207, 7.361]},
			"faces": {
				"north": {"uv": [6.125, 2.5, 6.25, 2.625], "texture": "#0"},
				"east": {"uv": [6.125, 2.5, 6.25, 2.625], "rotation": 90, "texture": "#0"},
				"south": {"uv": [6.125, 2.5, 6.25, 2.625], "rotation": 180, "texture": "#0"},
				"west": {"uv": [6.125, 2.5, 6.25, 2.625], "rotation": 270, "texture": "#0"},
				"up": {"uv": [6.125, 2.5, 6.25, 2.625], "texture": "#0"},
				"down": {"uv": [6.125, 2.5, 6.25, 2.625], "rotation": 180, "texture": "#0"}
			}
		},
		{
			"from": [8.30752, 3.8867, 7.306],
			"to": [8.47352, 4.1547, 7.416],
			"rotation": {"angle": 0, "axis": "x", "origin": [8.49052, 4.0207, 7.361]},
			"faces": {
				"north": {"uv": [6.125, 2.5, 6.25, 2.625], "texture": "#0"},
				"east": {"uv": [6.125, 2.5, 6.25, 2.625], "texture": "#0"},
				"south": {"uv": [6.125, 2.5, 6.25, 2.625], "texture": "#0"},
				"west": {"uv": [6.125, 2.5, 6.25, 2.625], "texture": "#0"},
				"up": {"uv": [6.125, 2.5, 6.25, 2.625], "rotation": 180, "texture": "#0"},
				"down": {"uv": [6.125, 2.5, 6.25, 2.625], "rotation": 180, "texture": "#0"}
			}
		},
		{
			"from": [8.30752, 3.8867, 7.306],
			"to": [8.47352, 4.1547, 7.416],
			"rotation": {"angle": 45, "axis": "x", "origin": [8.49052, 4.0207, 7.361]},
			"faces": {
				"north": {"uv": [6.125, 2.5, 6.25, 2.625], "texture": "#0"},
				"east": {"uv": [6.125, 2.5, 6.25, 2.625], "texture": "#0"},
				"south": {"uv": [6.125, 2.5, 6.25, 2.625], "texture": "#0"},
				"west": {"uv": [6.125, 2.5, 6.25, 2.625], "texture": "#0"},
				"up": {"uv": [6.125, 2.5, 6.25, 2.625], "rotation": 180, "texture": "#0"},
				"down": {"uv": [6.125, 2.5, 6.25, 2.625], "rotation": 180, "texture": "#0"}
			}
		},
		{
			"from": [8.47352, 3.9657, 7.227],
			"to": [8.73952, 4.0757, 7.495],
			"rotation": {"angle": 0, "axis": "x", "origin": [8.65652, 4.0207, 7.411]},
			"faces": {
				"north": {"uv": [4.625, 2.375, 4.75, 2.5], "rotation": 90, "texture": "#0"},
				"east": {"uv": [4.625, 2.375, 4.75, 2.5], "rotation": 90, "texture": "#0"},
				"south": {"uv": [4.625, 2.375, 4.75, 2.5], "rotation": 90, "texture": "#0"},
				"west": {"uv": [4.625, 2.375, 4.75, 2.5], "rotation": 90, "texture": "#0"},
				"up": {"uv": [4.625, 2.375, 4.75, 2.5], "rotation": 90, "texture": "#0"},
				"down": {"uv": [4.625, 2.375, 4.75, 2.5], "rotation": 90, "texture": "#0"}
			}
		},
		{
			"from": [8.47352, 3.9657, 7.227],
			"to": [8.73952, 4.0757, 7.495],
			"rotation": {"angle": 45, "axis": "x", "origin": [8.65652, 4.0207, 7.361]},
			"faces": {
				"north": {"uv": [4.625, 2.375, 4.75, 2.5], "rotation": 90, "texture": "#0"},
				"east": {"uv": [4.625, 2.375, 4.75, 2.5], "rotation": 90, "texture": "#0"},
				"south": {"uv": [4.625, 2.375, 4.75, 2.5], "rotation": 90, "texture": "#0"},
				"west": {"uv": [4.625, 2.375, 4.75, 2.5], "rotation": 90, "texture": "#0"},
				"up": {"uv": [4.625, 2.375, 4.75, 2.5], "rotation": 90, "texture": "#0"},
				"down": {"uv": [4.625, 2.375, 4.75, 2.5], "rotation": 90, "texture": "#0"}
			}
		},
		{
			"from": [8.47352, 3.8867, 7.306],
			"to": [8.73952, 4.1547, 7.416],
			"rotation": {"angle": 45, "axis": "x", "origin": [8.65652, 4.0207, 7.361]},
			"faces": {
				"north": {"uv": [4.625, 2.375, 4.75, 2.5], "texture": "#0"},
				"east": {"uv": [4.625, 2.375, 4.75, 2.5], "texture": "#0"},
				"south": {"uv": [4.625, 2.375, 4.75, 2.5], "texture": "#0"},
				"west": {"uv": [4.625, 2.375, 4.75, 2.5], "texture": "#0"},
				"up": {"uv": [4.625, 2.375, 4.75, 2.5], "texture": "#0"},
				"down": {"uv": [4.625, 2.375, 4.75, 2.5], "texture": "#0"}
			}
		},
		{
			"from": [8.47352, 3.8867, 7.306],
			"to": [8.73952, 4.1547, 7.416],
			"rotation": {"angle": 0, "axis": "x", "origin": [8.65652, 4.0207, 7.361]},
			"faces": {
				"north": {"uv": [4.625, 2.375, 4.75, 2.5], "texture": "#0"},
				"east": {"uv": [4.625, 2.375, 4.75, 2.5], "texture": "#0"},
				"south": {"uv": [4.625, 2.375, 4.75, 2.5], "texture": "#0"},
				"west": {"uv": [4.625, 2.375, 4.75, 2.5], "texture": "#0"},
				"up": {"uv": [4.625, 2.375, 4.75, 2.5], "texture": "#0"},
				"down": {"uv": [4.625, 2.375, 4.75, 2.5], "texture": "#0"}
			}
		},
		{
			"from": [8.36868, 3.72206, 2.856],
			"to": [8.48468, 4.14006, 5.656],
			"rotation": {"angle": 0, "axis": "z", "origin": [8.17401, 4.01309, 10.058]},
			"faces": {
				"north": {"uv": [8, 9.875, 8.125, 10], "rotation": 180, "texture": "#0"},
				"east": {"uv": [8, 9.875, 8.125, 10], "rotation": 180, "texture": "#0"},
				"south": {"uv": [8, 9.875, 8.125, 10], "rotation": 180, "texture": "#0"},
				"west": {"uv": [8, 9.875, 8.125, 10], "rotation": 180, "texture": "#0"},
				"up": {"uv": [8, 9.875, 8.125, 10], "rotation": 180, "texture": "#0"},
				"down": {"uv": [8, 9.875, 8.125, 10], "rotation": 180, "texture": "#0"}
			}
		},
		{
			"from": [7.81348, 3.47057, 2.856],
			"to": [8.33148, 3.58657, 5.656],
			"rotation": {"angle": 45, "axis": "z", "origin": [8.10451, 3.78124, 10.058]},
			"faces": {
				"north": {"uv": [8, 9.875, 8.125, 10], "rotation": 270, "texture": "#0"},
				"east": {"uv": [8, 9.875, 8.125, 10], "rotation": 270, "texture": "#0"},
				"south": {"uv": [8, 9.875, 8.125, 10], "rotation": 270, "texture": "#0"},
				"west": {"uv": [8, 9.875, 8.125, 10], "rotation": 270, "texture": "#0"},
				"up": {"uv": [8, 9.875, 8.125, 10], "rotation": 270, "texture": "#0"},
				"down": {"uv": [8, 9.875, 8.125, 10], "rotation": 270, "texture": "#0"}
			}
		},
		{
			"from": [7.8824, 3.35578, 2.856],
			"to": [8.1184, 3.45578, 5.656],
			"rotation": {"angle": 0, "axis": "z", "origin": [7.89846, 3.66645, 9.958]},
			"faces": {
				"north": {"uv": [8, 9.875, 8.125, 10], "rotation": 270, "texture": "#0"},
				"east": {"uv": [8, 9.875, 8.125, 10], "rotation": 270, "texture": "#0"},
				"south": {"uv": [8, 9.875, 8.125, 10], "rotation": 270, "texture": "#0"},
				"west": {"uv": [8, 9.875, 8.125, 10], "rotation": 270, "texture": "#0"},
				"up": {"uv": [8, 9.875, 8.125, 10], "rotation": 270, "texture": "#0"},
				"down": {"uv": [8, 9.875, 8.125, 10], "rotation": 270, "texture": "#0"}
			}
		},
		{
			"from": [7.73363, 3.13289, 2.856],
			"to": [7.84963, 3.65089, 5.656],
			"rotation": {"angle": 45, "axis": "z", "origin": [7.53896, 3.42392, 10.058]},
			"faces": {
				"north": {"uv": [8, 9.875, 8.125, 10], "rotation": 180, "texture": "#0"},
				"east": {"uv": [8, 9.875, 8.125, 10], "rotation": 180, "texture": "#0"},
				"south": {"uv": [8, 9.875, 8.125, 10], "rotation": 180, "texture": "#0"},
				"west": {"uv": [8, 9.875, 8.125, 10], "rotation": 180, "texture": "#0"},
				"up": {"uv": [8, 9.875, 8.125, 10], "rotation": 180, "texture": "#0"},
				"down": {"uv": [8, 9.875, 8.125, 10], "rotation": 180, "texture": "#0"}
			}
		},
		{
			"from": [7.51612, 3.72206, 2.856],
			"to": [7.63212, 4.14006, 5.656],
			"rotation": {"angle": 0, "axis": "z", "origin": [7.32145, 4.01309, 10.058]},
			"faces": {
				"north": {"uv": [8, 9.875, 8.125, 10], "rotation": 180, "texture": "#0"},
				"east": {"uv": [8, 9.875, 8.125, 10], "rotation": 180, "texture": "#0"},
				"south": {"uv": [8, 9.875, 8.125, 10], "rotation": 180, "texture": "#0"},
				"west": {"uv": [8, 9.875, 8.125, 10], "rotation": 180, "texture": "#0"},
				"up": {"uv": [8, 9.875, 8.125, 10], "rotation": 180, "texture": "#0"},
				"down": {"uv": [8, 9.875, 8.125, 10], "rotation": 180, "texture": "#0"}
			}
		},
		{
			"from": [7.76601, 3.62093, 11.73925],
			"to": [8.23401, 4.03693, 12.03925],
			"rotation": {"angle": 45, "axis": "x", "origin": [8.00001, 3.97893, 12.33925]},
			"faces": {
				"north": {"uv": [3.875, 2.875, 4, 3], "rotation": 270, "texture": "#0"},
				"east": {"uv": [3.875, 2.875, 4, 3], "rotation": 270, "texture": "#0"},
				"south": {"uv": [3.875, 2.875, 4, 3], "rotation": 270, "texture": "#0"},
				"west": {"uv": [3.875, 2.875, 4, 3], "rotation": 270, "texture": "#0"},
				"up": {"uv": [3.875, 2.875, 4, 3], "rotation": 270, "texture": "#0"},
				"down": {"uv": [3.875, 2.875, 4, 3], "rotation": 270, "texture": "#0"}
			}
		},
		{
			"from": [7.76601, 3.68106, 11.9653],
			"to": [8.23401, 4.09706, 13.5653],
			"rotation": {"angle": 22.5, "axis": "x", "origin": [8.00001, 4.03906, 12.5653]},
			"faces": {
				"north": {"uv": [3.875, 2.875, 4, 3], "rotation": 270, "texture": "#0"},
				"east": {"uv": [3.875, 2.875, 4, 3], "rotation": 270, "texture": "#0"},
				"south": {"uv": [3.875, 2.875, 4, 3], "rotation": 270, "texture": "#0"},
				"west": {"uv": [3.875, 2.875, 4, 3], "rotation": 270, "texture": "#0"},
				"up": {"uv": [3.875, 2.875, 4, 3], "rotation": 270, "texture": "#0"},
				"down": {"uv": [3.875, 2.875, 4, 3], "rotation": 270, "texture": "#0"}
			}
		},
		{
			"from": [7.76601, 3.71975, 11.98638],
			"to": [8.23401, 4.11975, 12.50238],
			"rotation": {"angle": -45, "axis": "x", "origin": [8.00001, 3.51975, 12.14438]},
			"faces": {
				"north": {"uv": [3.875, 2.875, 4, 3], "texture": "#0"},
				"east": {"uv": [3.875, 2.875, 4, 3], "texture": "#0"},
				"south": {"uv": [3.875, 2.875, 4, 3], "texture": "#0"},
				"west": {"uv": [3.875, 2.875, 4, 3], "texture": "#0"},
				"up": {"uv": [3.875, 2.875, 4, 3], "texture": "#0"},
				"down": {"uv": [3.875, 2.875, 4, 3], "texture": "#0"}
			}
		},
		{
			"from": [7.76601, 3.19739, 13.15085],
			"to": [8.23401, 3.89739, 13.56685],
			"rotation": {"angle": -22.5, "axis": "x", "origin": [8.00001, 3.29739, 13.50885]},
			"faces": {
				"north": {"uv": [3.875, 2.875, 4, 3], "texture": "#0"},
				"east": {"uv": [3.875, 2.875, 4, 3], "texture": "#0"},
				"south": {"uv": [3.875, 2.875, 4, 3], "texture": "#0"},
				"west": {"uv": [3.875, 2.875, 4, 3], "texture": "#0"},
				"up": {"uv": [3.875, 2.875, 4, 3], "texture": "#0"},
				"down": {"uv": [3.875, 2.875, 4, 3], "texture": "#0"}
			}
		},
		{
			"from": [7.76601, 3.17391, 11.83282],
			"to": [8.23401, 3.87391, 15.24882],
			"rotation": {"angle": 0, "axis": "x", "origin": [8.00001, 3.27391, 13.69082]},
			"faces": {
				"north": {"uv": [3.875, 2.875, 4, 3], "texture": "#0"},
				"east": {"uv": [3.875, 2.875, 4, 3], "texture": "#0"},
				"south": {"uv": [3.875, 2.875, 4, 3], "texture": "#0"},
				"west": {"uv": [3.875, 2.875, 4, 3], "texture": "#0"},
				"up": {"uv": [3.875, 2.875, 4, 3], "texture": "#0"},
				"down": {"uv": [3.875, 2.875, 4, 3], "texture": "#0"}
			}
		},
		{
			"from": [7.70743, 2.95578, 11.54],
			"to": [8.29343, 3.75578, 12.256],
			"rotation": {"angle": -22.5, "axis": "x", "origin": [8.00043, 2.85578, 11.598]},
			"faces": {
				"north": {"uv": [3.875, 3, 4, 3.125], "rotation": 90, "texture": "#0"},
				"east": {"uv": [3.875, 3, 4, 3.125], "rotation": 180, "texture": "#0"},
				"south": {"uv": [3.875, 3, 4, 3.125], "rotation": 270, "texture": "#0"},
				"west": {"uv": [3.875, 3, 4, 3.125], "texture": "#0"},
				"up": {"uv": [3.875, 3, 4, 3.125], "rotation": 90, "texture": "#0"},
				"down": {"uv": [3.875, 3, 4, 3.125], "rotation": 270, "texture": "#0"}
			}
		},
		{
			"from": [7.70743, 2.47399, 11.60887],
			"to": [8.29343, 3.08999, 12.70887],
			"rotation": {"angle": 22.5, "axis": "x", "origin": [8.00043, 2.53199, 12.40887]},
			"faces": {
				"north": {"uv": [3.875, 3, 4, 3.125], "rotation": 270, "texture": "#0"},
				"east": {"uv": [3.875, 3, 4, 3.125], "rotation": 270, "texture": "#0"},
				"south": {"uv": [3.875, 3, 4, 3.125], "rotation": 270, "texture": "#0"},
				"west": {"uv": [3.875, 3, 4, 3.125], "rotation": 270, "texture": "#0"},
				"up": {"uv": [3.875, 3, 4, 3.125], "rotation": 270, "texture": "#0"},
				"down": {"uv": [3.875, 3, 4, 3.125], "rotation": 270, "texture": "#0"}
			}
		},
		{
			"from": [7.70743, 3.0013, 12.05484],
			"to": [8.29343, 3.2013, 12.67084],
			"rotation": {"angle": -45, "axis": "x", "origin": [8.00043, 2.4013, 12.11284]},
			"faces": {
				"north": {"uv": [3.875, 3, 4, 3.125], "rotation": 90, "texture": "#0"},
				"east": {"uv": [3.875, 3, 4, 3.125], "rotation": 180, "texture": "#0"},
				"south": {"uv": [3.875, 3, 4, 3.125], "rotation": 270, "texture": "#0"},
				"west": {"uv": [3.875, 3, 4, 3.125], "texture": "#0"},
				"up": {"uv": [3.875, 3, 4, 3.125], "rotation": 90, "texture": "#0"},
				"down": {"uv": [3.875, 3, 4, 3.125], "rotation": 270, "texture": "#0"}
			}
		},
		{
			"from": [7.70743, 2.99579, 12.22439],
			"to": [8.29343, 3.21179, 12.72439],
			"rotation": {"angle": 0, "axis": "x", "origin": [8.00043, 2.65379, 12.42439]},
			"faces": {
				"north": {"uv": [3.875, 3, 4, 3.125], "rotation": 270, "texture": "#0"},
				"east": {"uv": [3.875, 3, 4, 3.125], "rotation": 270, "texture": "#0"},
				"south": {"uv": [3.875, 3, 4, 3.125], "rotation": 270, "texture": "#0"},
				"west": {"uv": [3.875, 3, 4, 3.125], "rotation": 270, "texture": "#0"},
				"up": {"uv": [3.875, 3, 4, 3.125], "rotation": 270, "texture": "#0"},
				"down": {"uv": [3.875, 3, 4, 3.125], "rotation": 270, "texture": "#0"}
			}
		},
		{
			"from": [7.70743, 2.79134, 12.60748],
			"to": [8.29343, 3.40734, 12.80748],
			"rotation": {"angle": -22.5, "axis": "x", "origin": [8.00043, 2.84934, 13.00748]},
			"faces": {
				"north": {"uv": [3.875, 3, 4, 3.125], "rotation": 270, "texture": "#0"},
				"east": {"uv": [3.875, 3, 4, 3.125], "rotation": 270, "texture": "#0"},
				"south": {"uv": [3.875, 3, 4, 3.125], "rotation": 270, "texture": "#0"},
				"west": {"uv": [3.875, 3, 4, 3.125], "rotation": 270, "texture": "#0"},
				"up": {"uv": [3.875, 3, 4, 3.125], "rotation": 270, "texture": "#0"},
				"down": {"uv": [3.875, 3, 4, 3.125], "rotation": 270, "texture": "#0"}
			}
		},
		{
			"from": [7.70743, 2.68832, 12.60917],
			"to": [8.29343, 3.28832, 13.62517],
			"rotation": {"angle": 0, "axis": "x", "origin": [8.00043, 3.48832, 13.16717]},
			"faces": {
				"north": {"uv": [3.875, 3, 4, 3.125], "rotation": 90, "texture": "#0"},
				"east": {"uv": [3.875, 3, 4, 3.125], "texture": "#0"},
				"south": {"uv": [3.875, 3, 4, 3.125], "rotation": 270, "texture": "#0"},
				"west": {"uv": [3.875, 3, 4, 3.125], "rotation": 180, "texture": "#0"},
				"up": {"uv": [3.875, 3, 4, 3.125], "rotation": 270, "texture": "#0"},
				"down": {"uv": [3.875, 3, 4, 3.125], "rotation": 90, "texture": "#0"}
			}
		},
		{
			"from": [7.70743, 2.9123, 12.38851],
			"to": [8.29343, 3.5283, 12.98851],
			"rotation": {"angle": -45, "axis": "x", "origin": [8.00043, 2.9703, 13.18851]},
			"faces": {
				"north": {"uv": [3.875, 3, 4, 3.125], "rotation": 270, "texture": "#0"},
				"east": {"uv": [3.875, 3, 4, 3.125], "rotation": 270, "texture": "#0"},
				"south": {"uv": [3.875, 3, 4, 3.125], "rotation": 270, "texture": "#0"},
				"west": {"uv": [3.875, 3, 4, 3.125], "rotation": 270, "texture": "#0"},
				"up": {"uv": [3.875, 3, 4, 3.125], "rotation": 270, "texture": "#0"},
				"down": {"uv": [3.875, 3, 4, 3.125], "rotation": 270, "texture": "#0"}
			}
		},
		{
			"from": [7.70743, 2.45956, 13.65923],
			"to": [8.29343, 3.05956, 15.57523],
			"rotation": {"angle": 22.5, "axis": "x", "origin": [8.00043, 3.25956, 14.21723]},
			"faces": {
				"north": {"uv": [3.875, 3, 4, 3.125], "rotation": 90, "texture": "#0"},
				"east": {"uv": [3.875, 3, 4, 3.125], "texture": "#0"},
				"south": {"uv": [3.875, 3, 4, 3.125], "rotation": 270, "texture": "#0"},
				"west": {"uv": [3.875, 3, 4, 3.125], "rotation": 180, "texture": "#0"},
				"up": {"uv": [3.875, 3, 4, 3.125], "rotation": 270, "texture": "#0"},
				"down": {"uv": [3.875, 3, 4, 3.125], "rotation": 90, "texture": "#0"}
			}
		},
		{
			"from": [7.70743, 2.88664, 13.50616],
			"to": [8.29343, 3.48664, 15.32216],
			"rotation": {"angle": -22.5, "axis": "x", "origin": [8.00043, 3.68664, 14.06416]},
			"faces": {
				"north": {"uv": [3.875, 3, 4, 3.125], "rotation": 90, "texture": "#0"},
				"east": {"uv": [3.875, 3, 4, 3.125], "texture": "#0"},
				"south": {"uv": [3.875, 3, 4, 3.125], "rotation": 270, "texture": "#0"},
				"west": {"uv": [3.875, 3, 4, 3.125], "rotation": 180, "texture": "#0"},
				"up": {"uv": [3.875, 3, 4, 3.125], "rotation": 270, "texture": "#0"},
				"down": {"uv": [3.875, 3, 4, 3.125], "rotation": 90, "texture": "#0"}
			}
		},
		{
			"from": [7.70743, 2.42864, 14.46416],
			"to": [8.29343, 3.34464, 15.66416],
			"rotation": {"angle": 0, "axis": "x", "origin": [8.00043, 2.68664, 16.16416]},
			"faces": {
				"north": {"uv": [3.875, 3, 4, 3.125], "rotation": 90, "texture": "#0"},
				"east": {"uv": [3.875, 3, 4, 3.125], "rotation": 90, "texture": "#0"},
				"south": {"uv": [3.875, 3, 4, 3.125], "rotation": 90, "texture": "#0"},
				"west": {"uv": [3.875, 3, 4, 3.125], "rotation": 90, "texture": "#0"},
				"up": {"uv": [3.875, 3, 4, 3.125], "rotation": 270, "texture": "#0"},
				"down": {"uv": [3.875, 3, 4, 3.125], "rotation": 270, "texture": "#0"}
			}
		},
		{
			"from": [7.70743, 2.88664, 14.10616],
			"to": [8.29343, 3.48664, 15.82216],
			"rotation": {"angle": -22.5, "axis": "x", "origin": [8.00043, 3.68664, 14.66416]},
			"faces": {
				"north": {"uv": [3.875, 3, 4, 3.125], "rotation": 90, "texture": "#0"},
				"east": {"uv": [3.875, 3, 4, 3.125], "texture": "#0"},
				"south": {"uv": [3.875, 3, 4, 3.125], "rotation": 270, "texture": "#0"},
				"west": {"uv": [3.875, 3, 4, 3.125], "rotation": 180, "texture": "#0"},
				"up": {"uv": [3.875, 3, 4, 3.125], "rotation": 270, "texture": "#0"},
				"down": {"uv": [3.875, 3, 4, 3.125], "rotation": 90, "texture": "#0"}
			}
		},
		{
			"from": [7.70743, 3.38328, 15.30293],
			"to": [8.29343, 3.98328, 17.01893],
			"rotation": {"angle": 0, "axis": "x", "origin": [8.00043, 4.18328, 15.86093]},
			"faces": {
				"north": {"uv": [3.875, 3, 4, 3.125], "rotation": 90, "texture": "#0"},
				"east": {"uv": [3.875, 3, 4, 3.125], "texture": "#0"},
				"south": {"uv": [3.875, 3, 4, 3.125], "rotation": 270, "texture": "#0"},
				"west": {"uv": [3.875, 3, 4, 3.125], "rotation": 180, "texture": "#0"},
				"up": {"uv": [3.875, 3, 4, 3.125], "rotation": 270, "texture": "#0"},
				"down": {"uv": [3.875, 3, 4, 3.125], "rotation": 90, "texture": "#0"}
			}
		},
		{
			"from": [7.70743, 2.12864, 15.16416],
			"to": [8.29343, 3.84464, 16.96416],
			"rotation": {"angle": 0, "axis": "x", "origin": [8.00043, 2.68664, 16.16416]},
			"faces": {
				"north": {"uv": [3.875, 3, 4, 3.125], "rotation": 90, "texture": "#0"},
				"east": {"uv": [3.875, 3, 4, 3.125], "rotation": 90, "texture": "#0"},
				"south": {"uv": [3.875, 3, 4, 3.125], "rotation": 90, "texture": "#0"},
				"west": {"uv": [3.875, 3, 4, 3.125], "rotation": 90, "texture": "#0"},
				"up": {"uv": [3.875, 3, 4, 3.125], "rotation": 270, "texture": "#0"},
				"down": {"uv": [3.875, 3, 4, 3.125], "rotation": 270, "texture": "#0"}
			}
		},
		{
			"from": [7.70743, 2.00078, 15.16571],
			"to": [8.29343, 2.60078, 17.08171],
			"rotation": {"angle": 0, "axis": "x", "origin": [8.00043, 2.80078, 15.72371]},
			"faces": {
				"north": {"uv": [3.875, 3, 4, 3.125], "rotation": 90, "texture": "#0"},
				"east": {"uv": [3.875, 3, 4, 3.125], "texture": "#0"},
				"south": {"uv": [3.875, 3, 4, 3.125], "rotation": 270, "texture": "#0"},
				"west": {"uv": [3.875, 3, 4, 3.125], "rotation": 180, "texture": "#0"},
				"up": {"uv": [3.875, 3, 4, 3.125], "rotation": 270, "texture": "#0"},
				"down": {"uv": [3.875, 3, 4, 3.125], "rotation": 90, "texture": "#0"}
			}
		}
	],
	"display": {
		"thirdperson_righthand": {
			"translation": [0, 4.5, -2.5]
		},
		"thirdperson_lefthand": {
			"translation": [0, 4.5, -2.5]
		},
		"firstperson_righthand": {
			"translation": [-5, 9, 3.75]
		},
		"firstperson_lefthand": {
			"translation": [-4, 8.5, 2]
		},
		"ground": {
			"translation": [0, 5.75, 0]
		},
		"gui": {
			"rotation": [35, 35, -35],
			"translation": [3.75, 3.5, 0]
		},
		"head": {
			"translation": [0, -22, 0]
		},
		"fixed": {
			"rotation": [90, 45, -90],
			"translation": [3.5, 2.5, -1.5]
		}
	},
	"groups": [
		{
			"name": "base",
			"origin": [8, 8, 8],
			"children": [
				{
					"name": "rail_top",
					"origin": [8, 8, 8],
					"children": [0, 1, 2, 3, 4, 5, 6, 7, 8, 9, 10, 11, 12, 13, 14, 15, 16, 17, 18, 19, 20, 21, 22, 23, 24, 25, 26]
				},
				{
					"name": "barrel",
					"origin": [8, 8, 8],
					"children": [27, 28, 29, 30, 31, 32, 33, 34]
				},
				{
					"name": "chassis",
					"origin": [8, 8, 8],
					"children": [35, 36, 37, 38, 39, 40, 41, 42, 43, 44, 45, 46, 47, 48, 49, 50, 51, 52, 53, 54, 55, 56, 57, 58, 59, 60, 61, 62, 63, 64, 65, 66,
						{
							"name": "trigger",
							"origin": [8.00043, 3.11844, 11.39076],
							"children": [67, 68, 69, 70, 71]
						},
						{
							"name": "bolt",
							"origin": [8.11285, 4.07773, 14.558],
							"children": [72, 73, 74, 75, 76, 77, 78, 79, 80]
						},
						{
							"name": "undergrip",
							"origin": [7.32145, 4.01309, 10.058],
							"children": [81, 82, 83, 84, 85]
						},
						{
							"name": "stock",
							"origin": [8, 8, 8],
							"children": [
								{
									"name": "group",
									"origin": [8.00001, 3.27391, 13.69082],
									"children": [86, 87, 88, 89, 90]
								},
								{
									"name": "group",
									"origin": [8.00043, 2.80078, 15.72371],
									"children": [91, 92, 93, 94, 95, 96, 97, 98, 99, 100, 101, 102, 103, 104]
								}
							]
						}
					]
				}
			]
		}
	]
}