{
    "textures": {
        "0": "gci:items/common/all_in_one",
        "1": "gci:items/common/mpz",
        "particle": "gci:items/common/all_in_one"
    },
    "elements": [
        {
            "from": [
                7.86969,
                3.0424,
                0.544
            ],
            "to": [
                7.99369,
                3.4144,
                1.288
            ],
            "rotation": {
                "angle": 45,
                "axis": "z",
                "origin": [
                    7.21266,
                    3.30812,
                    -8.87151
                ]
            },
            "faces": {
                "north": {
                    "uv": [
                        14.375,
                        6.75,
                        14.625,
                        6.825
                    ],
                    "rotation": 180,
                    "texture": "#0"
                },
                "east": {
                    "uv": [
                        14.375,
                        6.75,
                        14.625,
                        6.825
                    ],
                    "rotation": 180,
                    "texture": "#0"
                },
                "south": {
                    "uv": [
                        14.375,
                        6.75,
                        14.625,
                        6.825
                    ],
                    "rotation": 180,
                    "texture": "#0"
                },
                "west": {
                    "uv": [
                        14.375,
                        6.75,
                        14.625,
                        6.825
                    ],
                    "rotation": 180,
                    "texture": "#0"
                },
                "up": {
                    "uv": [
                        14.375,
                        6.75,
                        14.625,
                        6.825
                    ],
                    "rotation": 180,
                    "texture": "#0"
                },
                "down": {
                    "uv": [
                        14.375,
                        6.75,
                        14.625,
                        6.825
                    ],
                    "rotation": 180,
                    "texture": "#0"
                }
            }
        },
        {
            "from": [
                7.60963,
                4.07771,
                0.544
            ],
            "to": [
                7.98163,
                4.20171,
                1.288
            ],
            "rotation": {
                "angle": 45,
                "axis": "z",
                "origin": [
                    7.73363,
                    4.13971,
                    -14.77
                ]
            },
            "faces": {
                "north": {
                    "uv": [
                        14.375,
                        6.75,
                        14.625,
                        6.825
                    ],
                    "rotation": 90,
                    "texture": "#0"
                },
                "east": {
                    "uv": [
                        14.375,
                        6.75,
                        14.625,
                        6.825
                    ],
                    "rotation": 90,
                    "texture": "#0"
                },
                "south": {
                    "uv": [
                        14.375,
                        6.75,
                        14.625,
                        6.825
                    ],
                    "rotation": 90,
                    "texture": "#0"
                },
                "west": {
                    "uv": [
                        14.375,
                        6.75,
                        14.625,
                        6.825
                    ],
                    "rotation": 90,
                    "texture": "#0"
                },
                "up": {
                    "uv": [
                        14.375,
                        6.75,
                        14.625,
                        6.825
                    ],
                    "rotation": 90,
                    "texture": "#0"
                },
                "down": {
                    "uv": [
                        14.375,
                        6.75,
                        14.625,
                        6.825
                    ],
                    "rotation": 90,
                    "texture": "#0"
                }
            }
        },
        {
            "from": [
                8.10563,
                3.65434,
                0.544
            ],
            "to": [
                8.47763,
                3.77834,
                1.288
            ],
            "rotation": {
                "angle": 45,
                "axis": "z",
                "origin": [
                    8.22963,
                    3.71634,
                    -14.77
                ]
            },
            "faces": {
                "north": {
                    "uv": [
                        14.375,
                        6.75,
                        14.625,
                        6.825
                    ],
                    "rotation": 90,
                    "texture": "#0"
                },
                "east": {
                    "uv": [
                        14.375,
                        6.75,
                        14.625,
                        6.825
                    ],
                    "rotation": 90,
                    "texture": "#0"
                },
                "south": {
                    "uv": [
                        14.375,
                        6.75,
                        14.625,
                        6.825
                    ],
                    "rotation": 90,
                    "texture": "#0"
                },
                "west": {
                    "uv": [
                        14.375,
                        6.75,
                        14.625,
                        6.825
                    ],
                    "rotation": 90,
                    "texture": "#0"
                },
                "up": {
                    "uv": [
                        14.375,
                        6.75,
                        14.625,
                        6.825
                    ],
                    "rotation": 90,
                    "texture": "#0"
                },
                "down": {
                    "uv": [
                        14.375,
                        6.75,
                        14.625,
                        6.825
                    ],
                    "rotation": 90,
                    "texture": "#0"
                }
            }
        },
        {
            "from": [
                7.54021,
                3.76002,
                0.87181
            ],
            "to": [
                7.74021,
                4.16002,
                8.31581
            ],
            "rotation": {
                "angle": 22.5,
                "axis": "x",
                "origin": [
                    8.04409,
                    3.96002,
                    0.6755
                ]
            },
            "faces": {
                "north": {
                    "uv": [
                        14.375,
                        6.75,
                        14.625,
                        6.825
                    ],
                    "rotation": 90,
                    "texture": "#0"
                },
                "east": {
                    "uv": [
                        14.375,
                        6.75,
                        14.625,
                        6.825
                    ],
                    "rotation": 90,
                    "texture": "#0"
                },
                "south": {
                    "uv": [
                        14.375,
                        6.75,
                        14.625,
                        6.825
                    ],
                    "rotation": 90,
                    "texture": "#0"
                },
                "west": {
                    "uv": [
                        14.375,
                        6.75,
                        14.625,
                        6.825
                    ],
                    "rotation": 90,
                    "texture": "#0"
                },
                "up": {
                    "uv": [
                        14.375,
                        6.75,
                        14.625,
                        6.825
                    ],
                    "rotation": 90,
                    "texture": "#0"
                },
                "down": {
                    "uv": [
                        14.375,
                        6.75,
                        14.625,
                        6.825
                    ],
                    "rotation": 90,
                    "texture": "#0"
                }
            }
        },
        {
            "from": [
                8.34021,
                3.76002,
                0.87181
            ],
            "to": [
                8.54021,
                4.16002,
                8.31581
            ],
            "rotation": {
                "angle": 22.5,
                "axis": "x",
                "origin": [
                    8.04409,
                    3.96002,
                    0.6755
                ]
            },
            "faces": {
                "north": {
                    "uv": [
                        14.375,
                        6.75,
                        14.625,
                        6.825
                    ],
                    "rotation": 90,
                    "texture": "#0"
                },
                "east": {
                    "uv": [
                        14.375,
                        6.75,
                        14.625,
                        6.825
                    ],
                    "rotation": 90,
                    "texture": "#0"
                },
                "south": {
                    "uv": [
                        14.375,
                        6.75,
                        14.625,
                        6.825
                    ],
                    "rotation": 90,
                    "texture": "#0"
                },
                "west": {
                    "uv": [
                        14.375,
                        6.75,
                        14.625,
                        6.825
                    ],
                    "rotation": 90,
                    "texture": "#0"
                },
                "up": {
                    "uv": [
                        14.375,
                        6.75,
                        14.625,
                        6.825
                    ],
                    "rotation": 90,
                    "texture": "#0"
                },
                "down": {
                    "uv": [
                        14.375,
                        6.75,
                        14.625,
                        6.825
                    ],
                    "rotation": 90,
                    "texture": "#0"
                }
            }
        },
        {
            "from": [
                7.39996,
                3.36002,
                8.30519
            ],
            "to": [
                7.79996,
                4.56002,
                8.50519
            ],
            "rotation": {
                "angle": 22.5,
                "axis": "x",
                "origin": [
                    8.04409,
                    3.96002,
                    0.6755
                ]
            },
            "faces": {
                "north": {
                    "uv": [
                        14.375,
                        6.75,
                        14.625,
                        6.825
                    ],
                    "rotation": 90,
                    "texture": "#0"
                },
                "east": {
                    "uv": [
                        14.375,
                        6.75,
                        14.625,
                        6.825
                    ],
                    "rotation": 90,
                    "texture": "#0"
                },
                "south": {
                    "uv": [
                        14.375,
                        6.75,
                        14.625,
                        6.825
                    ],
                    "rotation": 90,
                    "texture": "#0"
                },
                "west": {
                    "uv": [
                        14.375,
                        6.75,
                        14.625,
                        6.825
                    ],
                    "rotation": 90,
                    "texture": "#0"
                },
                "up": {
                    "uv": [
                        14.375,
                        6.75,
                        14.625,
                        6.825
                    ],
                    "rotation": 90,
                    "texture": "#0"
                },
                "down": {
                    "uv": [
                        14.375,
                        6.75,
                        14.625,
                        6.825
                    ],
                    "rotation": 90,
                    "texture": "#0"
                }
            }
        },
        {
            "from": [
                8.29596,
                3.36002,
                8.30519
            ],
            "to": [
                8.69596,
                4.56002,
                8.50519
            ],
            "rotation": {
                "angle": 22.5,
                "axis": "x",
                "origin": [
                    8.04409,
                    3.96002,
                    0.6755
                ]
            },
            "faces": {
                "north": {
                    "uv": [
                        14.375,
                        6.75,
                        14.625,
                        6.825
                    ],
                    "rotation": 90,
                    "texture": "#0"
                },
                "east": {
                    "uv": [
                        14.375,
                        6.75,
                        14.625,
                        6.825
                    ],
                    "rotation": 90,
                    "texture": "#0"
                },
                "south": {
                    "uv": [
                        14.375,
                        6.75,
                        14.625,
                        6.825
                    ],
                    "rotation": 90,
                    "texture": "#0"
                },
                "west": {
                    "uv": [
                        14.375,
                        6.75,
                        14.625,
                        6.825
                    ],
                    "rotation": 90,
                    "texture": "#0"
                },
                "up": {
                    "uv": [
                        14.375,
                        6.75,
                        14.625,
                        6.825
                    ],
                    "rotation": 90,
                    "texture": "#0"
                },
                "down": {
                    "uv": [
                        14.375,
                        6.75,
                        14.625,
                        6.825
                    ],
                    "rotation": 90,
                    "texture": "#0"
                }
            }
        },
        {
            "from": [
                8.32483,
                3.84786,
                0.544
            ],
            "to": [
                8.44883,
                4.09586,
                1.288
            ],
            "rotation": {
                "angle": 0,
                "axis": "y",
                "origin": [
                    8.38683,
                    3.97186,
                    -14.77
                ]
            },
            "faces": {
                "north": {
                    "uv": [
                        14.375,
                        6.75,
                        14.625,
                        6.825
                    ],
                    "texture": "#0"
                },
                "east": {
                    "uv": [
                        14.375,
                        6.75,
                        14.625,
                        6.825
                    ],
                    "texture": "#0"
                },
                "south": {
                    "uv": [
                        14.375,
                        6.75,
                        14.625,
                        6.825
                    ],
                    "texture": "#0"
                },
                "west": {
                    "uv": [
                        14.375,
                        6.75,
                        14.625,
                        6.825
                    ],
                    "texture": "#0"
                },
                "up": {
                    "uv": [
                        14.375,
                        6.75,
                        14.625,
                        6.825
                    ],
                    "texture": "#0"
                },
                "down": {
                    "uv": [
                        14.375,
                        6.75,
                        14.625,
                        6.825
                    ],
                    "texture": "#0"
                }
            }
        },
        {
            "from": [
                7.6021,
                3.84786,
                0.544
            ],
            "to": [
                7.7261,
                4.09586,
                1.288
            ],
            "rotation": {
                "angle": 0,
                "axis": "y",
                "origin": [
                    7.6641,
                    3.97186,
                    -14.77
                ]
            },
            "faces": {
                "north": {
                    "uv": [
                        14.375,
                        6.75,
                        14.625,
                        6.825
                    ],
                    "texture": "#0"
                },
                "east": {
                    "uv": [
                        14.375,
                        6.75,
                        14.625,
                        6.825
                    ],
                    "texture": "#0"
                },
                "south": {
                    "uv": [
                        14.375,
                        6.75,
                        14.625,
                        6.825
                    ],
                    "texture": "#0"
                },
                "west": {
                    "uv": [
                        14.375,
                        6.75,
                        14.625,
                        6.825
                    ],
                    "texture": "#0"
                },
                "up": {
                    "uv": [
                        14.375,
                        6.75,
                        14.625,
                        6.825
                    ],
                    "texture": "#0"
                },
                "down": {
                    "uv": [
                        14.375,
                        6.75,
                        14.625,
                        6.825
                    ],
                    "texture": "#0"
                }
            }
        },
        {
            "from": [
                7.86515,
                4.23491,
                0.544
            ],
            "to": [
                8.18743,
                4.35891,
                1.288
            ],
            "rotation": {
                "angle": 0,
                "axis": "y",
                "origin": [
                    7.66851,
                    4.18355,
                    -30.58
                ]
            },
            "faces": {
                "north": {
                    "uv": [
                        14.375,
                        6.75,
                        14.625,
                        6.825
                    ],
                    "rotation": 270,
                    "texture": "#0"
                },
                "east": {
                    "uv": [
                        14.375,
                        6.75,
                        14.625,
                        6.825
                    ],
                    "rotation": 270,
                    "texture": "#0"
                },
                "south": {
                    "uv": [
                        14.375,
                        6.75,
                        14.625,
                        6.825
                    ],
                    "rotation": 270,
                    "texture": "#0"
                },
                "west": {
                    "uv": [
                        14.375,
                        6.75,
                        14.625,
                        6.825
                    ],
                    "rotation": 270,
                    "texture": "#0"
                },
                "up": {
                    "uv": [
                        14.375,
                        6.75,
                        14.625,
                        6.825
                    ],
                    "rotation": 270,
                    "texture": "#0"
                },
                "down": {
                    "uv": [
                        14.375,
                        6.75,
                        14.625,
                        6.825
                    ],
                    "rotation": 270,
                    "texture": "#0"
                }
            }
        },
        {
            "from": [
                7.86515,
                3.58482,
                0.544
            ],
            "to": [
                8.18743,
                3.70882,
                1.288
            ],
            "rotation": {
                "angle": 0,
                "axis": "y",
                "origin": [
                    7.66851,
                    3.53346,
                    -30.58
                ]
            },
            "faces": {
                "north": {
                    "uv": [
                        14.375,
                        6.75,
                        14.625,
                        6.825
                    ],
                    "rotation": 270,
                    "texture": "#0"
                },
                "east": {
                    "uv": [
                        14.375,
                        6.75,
                        14.625,
                        6.825
                    ],
                    "rotation": 270,
                    "texture": "#0"
                },
                "south": {
                    "uv": [
                        14.375,
                        6.75,
                        14.625,
                        6.825
                    ],
                    "rotation": 270,
                    "texture": "#0"
                },
                "west": {
                    "uv": [
                        14.375,
                        6.75,
                        14.625,
                        6.825
                    ],
                    "rotation": 270,
                    "texture": "#0"
                },
                "up": {
                    "uv": [
                        14.375,
                        6.75,
                        14.625,
                        6.825
                    ],
                    "rotation": 270,
                    "texture": "#0"
                },
                "down": {
                    "uv": [
                        14.375,
                        6.75,
                        14.625,
                        6.825
                    ],
                    "rotation": 270,
                    "texture": "#0"
                }
            }
        },
        {
            "from": [
                8.36569,
                3.46577,
                0.544
            ],
            "to": [
                8.48969,
                3.83777,
                1.288
            ],
            "rotation": {
                "angle": 45,
                "axis": "z",
                "origin": [
                    7.70866,
                    3.73149,
                    -14.69951
                ]
            },
            "faces": {
                "north": {
                    "uv": [
                        14.375,
                        6.75,
                        14.625,
                        6.825
                    ],
                    "rotation": 180,
                    "texture": "#0"
                },
                "east": {
                    "uv": [
                        14.375,
                        6.75,
                        14.625,
                        6.825
                    ],
                    "rotation": 180,
                    "texture": "#0"
                },
                "south": {
                    "uv": [
                        14.375,
                        6.75,
                        14.625,
                        6.825
                    ],
                    "rotation": 180,
                    "texture": "#0"
                },
                "west": {
                    "uv": [
                        14.375,
                        6.75,
                        14.625,
                        6.825
                    ],
                    "rotation": 180,
                    "texture": "#0"
                },
                "up": {
                    "uv": [
                        14.375,
                        6.75,
                        14.625,
                        6.825
                    ],
                    "rotation": 180,
                    "texture": "#0"
                },
                "down": {
                    "uv": [
                        14.375,
                        6.75,
                        14.625,
                        6.825
                    ],
                    "rotation": 180,
                    "texture": "#0"
                }
            }
        },
        {
            "from": [
                7.86969,
                3.0424,
                0.544
            ],
            "to": [
                7.99369,
                3.4144,
                1.288
            ],
            "rotation": {
                "angle": 45,
                "axis": "z",
                "origin": [
                    7.21266,
                    3.30812,
                    -8.87151
                ]
            },
            "faces": {
                "north": {
                    "uv": [
                        14.375,
                        6.75,
                        14.625,
                        6.825
                    ],
                    "rotation": 180,
                    "texture": "#0"
                },
                "east": {
                    "uv": [
                        14.375,
                        6.75,
                        14.625,
                        6.825
                    ],
                    "rotation": 180,
                    "texture": "#0"
                },
                "south": {
                    "uv": [
                        14.375,
                        6.75,
                        14.625,
                        6.825
                    ],
                    "rotation": 180,
                    "texture": "#0"
                },
                "west": {
                    "uv": [
                        14.375,
                        6.75,
                        14.625,
                        6.825
                    ],
                    "rotation": 180,
                    "texture": "#0"
                },
                "up": {
                    "uv": [
                        14.375,
                        6.75,
                        14.625,
                        6.825
                    ],
                    "rotation": 180,
                    "texture": "#0"
                },
                "down": {
                    "uv": [
                        14.375,
                        6.75,
                        14.625,
                        6.825
                    ],
                    "rotation": 180,
                    "texture": "#0"
                }
            }
        },
        {
            "from": [
                7.60963,
                4.07771,
                0.544
            ],
            "to": [
                7.98163,
                4.20171,
                1.288
            ],
            "rotation": {
                "angle": 45,
                "axis": "z",
                "origin": [
                    7.73363,
                    4.13971,
                    -14.77
                ]
            },
            "faces": {
                "north": {
                    "uv": [
                        14.375,
                        6.75,
                        14.625,
                        6.825
                    ],
                    "rotation": 90,
                    "texture": "#0"
                },
                "east": {
                    "uv": [
                        14.375,
                        6.75,
                        14.625,
                        6.825
                    ],
                    "rotation": 90,
                    "texture": "#0"
                },
                "south": {
                    "uv": [
                        14.375,
                        6.75,
                        14.625,
                        6.825
                    ],
                    "rotation": 90,
                    "texture": "#0"
                },
                "west": {
                    "uv": [
                        14.375,
                        6.75,
                        14.625,
                        6.825
                    ],
                    "rotation": 90,
                    "texture": "#0"
                },
                "up": {
                    "uv": [
                        14.375,
                        6.75,
                        14.625,
                        6.825
                    ],
                    "rotation": 90,
                    "texture": "#0"
                },
                "down": {
                    "uv": [
                        14.375,
                        6.75,
                        14.625,
                        6.825
                    ],
                    "rotation": 90,
                    "texture": "#0"
                }
            }
        },
        {
            "from": [
                8.10563,
                3.65434,
                0.544
            ],
            "to": [
                8.47763,
                3.77834,
                1.288
            ],
            "rotation": {
                "angle": 45,
                "axis": "z",
                "origin": [
                    8.22963,
                    3.71634,
                    -14.77
                ]
            },
            "faces": {
                "north": {
                    "uv": [
                        14.375,
                        6.75,
                        14.625,
                        6.825
                    ],
                    "rotation": 90,
                    "texture": "#0"
                },
                "east": {
                    "uv": [
                        14.375,
                        6.75,
                        14.625,
                        6.825
                    ],
                    "rotation": 90,
                    "texture": "#0"
                },
                "south": {
                    "uv": [
                        14.375,
                        6.75,
                        14.625,
                        6.825
                    ],
                    "rotation": 90,
                    "texture": "#0"
                },
                "west": {
                    "uv": [
                        14.375,
                        6.75,
                        14.625,
                        6.825
                    ],
                    "rotation": 90,
                    "texture": "#0"
                },
                "up": {
                    "uv": [
                        14.375,
                        6.75,
                        14.625,
                        6.825
                    ],
                    "rotation": 90,
                    "texture": "#0"
                },
                "down": {
                    "uv": [
                        14.375,
                        6.75,
                        14.625,
                        6.825
                    ],
                    "rotation": 90,
                    "texture": "#0"
                }
            }
        },
        {
            "from": [
                7.54021,
                3.76002,
                0.87181
            ],
            "to": [
                7.74021,
                4.16002,
                8.31581
            ],
            "rotation": {
                "angle": 22.5,
                "axis": "x",
                "origin": [
                    8.04409,
                    3.96002,
                    0.6755
                ]
            },
            "faces": {
                "north": {
                    "uv": [
                        14.375,
                        6.75,
                        14.625,
                        6.825
                    ],
                    "rotation": 90,
                    "texture": "#0"
                },
                "east": {
                    "uv": [
                        14.375,
                        6.75,
                        14.625,
                        6.825
                    ],
                    "rotation": 90,
                    "texture": "#0"
                },
                "south": {
                    "uv": [
                        14.375,
                        6.75,
                        14.625,
                        6.825
                    ],
                    "rotation": 90,
                    "texture": "#0"
                },
                "west": {
                    "uv": [
                        14.375,
                        6.75,
                        14.625,
                        6.825
                    ],
                    "rotation": 90,
                    "texture": "#0"
                },
                "up": {
                    "uv": [
                        14.375,
                        6.75,
                        14.625,
                        6.825
                    ],
                    "rotation": 90,
                    "texture": "#0"
                },
                "down": {
                    "uv": [
                        14.375,
                        6.75,
                        14.625,
                        6.825
                    ],
                    "rotation": 90,
                    "texture": "#0"
                }
            }
        },
        {
            "from": [
                8.34021,
                3.76002,
                0.87181
            ],
            "to": [
                8.54021,
                4.16002,
                8.31581
            ],
            "rotation": {
                "angle": 22.5,
                "axis": "x",
                "origin": [
                    8.04409,
                    3.96002,
                    0.6755
                ]
            },
            "faces": {
                "north": {
                    "uv": [
                        14.375,
                        6.75,
                        14.625,
                        6.825
                    ],
                    "rotation": 90,
                    "texture": "#0"
                },
                "east": {
                    "uv": [
                        14.375,
                        6.75,
                        14.625,
                        6.825
                    ],
                    "rotation": 90,
                    "texture": "#0"
                },
                "south": {
                    "uv": [
                        14.375,
                        6.75,
                        14.625,
                        6.825
                    ],
                    "rotation": 90,
                    "texture": "#0"
                },
                "west": {
                    "uv": [
                        14.375,
                        6.75,
                        14.625,
                        6.825
                    ],
                    "rotation": 90,
                    "texture": "#0"
                },
                "up": {
                    "uv": [
                        14.375,
                        6.75,
                        14.625,
                        6.825
                    ],
                    "rotation": 90,
                    "texture": "#0"
                },
                "down": {
                    "uv": [
                        14.375,
                        6.75,
                        14.625,
                        6.825
                    ],
                    "rotation": 90,
                    "texture": "#0"
                }
            }
        },
        {
            "from": [
                7.39996,
                3.36002,
                8.30519
            ],
            "to": [
                7.79996,
                4.56002,
                8.50519
            ],
            "rotation": {
                "angle": 22.5,
                "axis": "x",
                "origin": [
                    8.04409,
                    3.96002,
                    0.6755
                ]
            },
            "faces": {
                "north": {
                    "uv": [
                        14.375,
                        6.75,
                        14.625,
                        6.825
                    ],
                    "rotation": 90,
                    "texture": "#0"
                },
                "east": {
                    "uv": [
                        14.375,
                        6.75,
                        14.625,
                        6.825
                    ],
                    "rotation": 90,
                    "texture": "#0"
                },
                "south": {
                    "uv": [
                        14.375,
                        6.75,
                        14.625,
                        6.825
                    ],
                    "rotation": 90,
                    "texture": "#0"
                },
                "west": {
                    "uv": [
                        14.375,
                        6.75,
                        14.625,
                        6.825
                    ],
                    "rotation": 90,
                    "texture": "#0"
                },
                "up": {
                    "uv": [
                        14.375,
                        6.75,
                        14.625,
                        6.825
                    ],
                    "rotation": 90,
                    "texture": "#0"
                },
                "down": {
                    "uv": [
                        14.375,
                        6.75,
                        14.625,
                        6.825
                    ],
                    "rotation": 90,
                    "texture": "#0"
                }
            }
        },
        {
            "from": [
                8.29596,
                3.36002,
                8.30519
            ],
            "to": [
                8.69596,
                4.56002,
                8.50519
            ],
            "rotation": {
                "angle": 22.5,
                "axis": "x",
                "origin": [
                    8.04409,
                    3.96002,
                    0.6755
                ]
            },
            "faces": {
                "north": {
                    "uv": [
                        14.375,
                        6.75,
                        14.625,
                        6.825
                    ],
                    "rotation": 90,
                    "texture": "#0"
                },
                "east": {
                    "uv": [
                        14.375,
                        6.75,
                        14.625,
                        6.825
                    ],
                    "rotation": 90,
                    "texture": "#0"
                },
                "south": {
                    "uv": [
                        14.375,
                        6.75,
                        14.625,
                        6.825
                    ],
                    "rotation": 90,
                    "texture": "#0"
                },
                "west": {
                    "uv": [
                        14.375,
                        6.75,
                        14.625,
                        6.825
                    ],
                    "rotation": 90,
                    "texture": "#0"
                },
                "up": {
                    "uv": [
                        14.375,
                        6.75,
                        14.625,
                        6.825
                    ],
                    "rotation": 90,
                    "texture": "#0"
                },
                "down": {
                    "uv": [
                        14.375,
                        6.75,
                        14.625,
                        6.825
                    ],
                    "rotation": 90,
                    "texture": "#0"
                }
            }
        },
        {
            "from": [
                8.32483,
                3.84786,
                0.544
            ],
            "to": [
                8.44883,
                4.09586,
                1.288
            ],
            "rotation": {
                "angle": 0,
                "axis": "y",
                "origin": [
                    8.38683,
                    3.97186,
                    -14.77
                ]
            },
            "faces": {
                "north": {
                    "uv": [
                        14.375,
                        6.75,
                        14.625,
                        6.825
                    ],
                    "texture": "#0"
                },
                "east": {
                    "uv": [
                        14.375,
                        6.75,
                        14.625,
                        6.825
                    ],
                    "texture": "#0"
                },
                "south": {
                    "uv": [
                        14.375,
                        6.75,
                        14.625,
                        6.825
                    ],
                    "texture": "#0"
                },
                "west": {
                    "uv": [
                        14.375,
                        6.75,
                        14.625,
                        6.825
                    ],
                    "texture": "#0"
                },
                "up": {
                    "uv": [
                        14.375,
                        6.75,
                        14.625,
                        6.825
                    ],
                    "texture": "#0"
                },
                "down": {
                    "uv": [
                        14.375,
                        6.75,
                        14.625,
                        6.825
                    ],
                    "texture": "#0"
                }
            }
        },
        {
            "from": [
                7.6021,
                3.84786,
                0.544
            ],
            "to": [
                7.7261,
                4.09586,
                1.288
            ],
            "rotation": {
                "angle": 0,
                "axis": "y",
                "origin": [
                    7.6641,
                    3.97186,
                    -14.77
                ]
            },
            "faces": {
                "north": {
                    "uv": [
                        14.375,
                        6.75,
                        14.625,
                        6.825
                    ],
                    "texture": "#0"
                },
                "east": {
                    "uv": [
                        14.375,
                        6.75,
                        14.625,
                        6.825
                    ],
                    "texture": "#0"
                },
                "south": {
                    "uv": [
                        14.375,
                        6.75,
                        14.625,
                        6.825
                    ],
                    "texture": "#0"
                },
                "west": {
                    "uv": [
                        14.375,
                        6.75,
                        14.625,
                        6.825
                    ],
                    "texture": "#0"
                },
                "up": {
                    "uv": [
                        14.375,
                        6.75,
                        14.625,
                        6.825
                    ],
                    "texture": "#0"
                },
                "down": {
                    "uv": [
                        14.375,
                        6.75,
                        14.625,
                        6.825
                    ],
                    "texture": "#0"
                }
            }
        },
        {
            "from": [
                7.86515,
                4.23491,
                0.544
            ],
            "to": [
                8.18743,
                4.35891,
                1.288
            ],
            "rotation": {
                "angle": 0,
                "axis": "y",
                "origin": [
                    7.66851,
                    4.18355,
                    -30.58
                ]
            },
            "faces": {
                "north": {
                    "uv": [
                        14.375,
                        6.75,
                        14.625,
                        6.825
                    ],
                    "rotation": 270,
                    "texture": "#0"
                },
                "east": {
                    "uv": [
                        14.375,
                        6.75,
                        14.625,
                        6.825
                    ],
                    "rotation": 270,
                    "texture": "#0"
                },
                "south": {
                    "uv": [
                        14.375,
                        6.75,
                        14.625,
                        6.825
                    ],
                    "rotation": 270,
                    "texture": "#0"
                },
                "west": {
                    "uv": [
                        14.375,
                        6.75,
                        14.625,
                        6.825
                    ],
                    "rotation": 270,
                    "texture": "#0"
                },
                "up": {
                    "uv": [
                        14.375,
                        6.75,
                        14.625,
                        6.825
                    ],
                    "rotation": 270,
                    "texture": "#0"
                },
                "down": {
                    "uv": [
                        14.375,
                        6.75,
                        14.625,
                        6.825
                    ],
                    "rotation": 270,
                    "texture": "#0"
                }
            }
        },
        {
            "from": [
                7.86515,
                3.58482,
                0.544
            ],
            "to": [
                8.18743,
                3.70882,
                1.288
            ],
            "rotation": {
                "angle": 0,
                "axis": "y",
                "origin": [
                    7.66851,
                    3.53346,
                    -30.58
                ]
            },
            "faces": {
                "north": {
                    "uv": [
                        14.375,
                        6.75,
                        14.625,
                        6.825
                    ],
                    "rotation": 270,
                    "texture": "#0"
                },
                "east": {
                    "uv": [
                        14.375,
                        6.75,
                        14.625,
                        6.825
                    ],
                    "rotation": 270,
                    "texture": "#0"
                },
                "south": {
                    "uv": [
                        14.375,
                        6.75,
                        14.625,
                        6.825
                    ],
                    "rotation": 270,
                    "texture": "#0"
                },
                "west": {
                    "uv": [
                        14.375,
                        6.75,
                        14.625,
                        6.825
                    ],
                    "rotation": 270,
                    "texture": "#0"
                },
                "up": {
                    "uv": [
                        14.375,
                        6.75,
                        14.625,
                        6.825
                    ],
                    "rotation": 270,
                    "texture": "#0"
                },
                "down": {
                    "uv": [
                        14.375,
                        6.75,
                        14.625,
                        6.825
                    ],
                    "rotation": 270,
                    "texture": "#0"
                }
            }
        }
    ],
    "display": {
        "thirdperson_righthand": {
            "translation": [
                0,
                4.5,
                -2.5
            ]
        },
        "thirdperson_lefthand": {
            "translation": [
                0,
                4.5,
                -2.5
            ]
        },
        "firstperson_righthand": {
            "translation": [
                -5,
                9,
                3.75
            ]
        },
        "firstperson_lefthand": {
            "translation": [
                -4,
                8.5,
                2
            ]
        },
        "ground": {
            "translation": [
                0,
                5.75,
                0
            ]
        },
        "gui": {
            "rotation": [
                35,
                35,
                -35
            ],
            "translation": [
                3.75,
                3.5,
                0
            ]
        },
        "head": {
            "translation": [
                0,
                -22,
                0
            ]
        },
        "fixed": {
            "rotation": [
                90,
                45,
                -90
            ],
            "translation": [
                3.5,
                2.5,
                0
            ]
        }
    }
}