{
    "textures": {
        "0": "gci:items/common/all_in_one",
        "1": "gci:items/common/mpz",
        "particle": "gci:items/common/all_in_one"
    },
    "elements": [
        {
            "from": [
                6.49784,
                9.13019,
                10.5782
            ],
            "to": [
                7.39784,
                9.61019,
                10.7782
            ],
            "rotation": {
                "angle": 22.5,
                "axis": "y",
                "origin": [
                    7.80235,
                    9.37019,
                    9.11902
                ]
            },
            "faces": {
                "north": {
                    "uv": [
                        11.16667,
                        0.6,
                        12.66667,
                        2.01667
                    ],
                    "rotation": 180,
                    "texture": "#1"
                },
                "east": {
                    "uv": [
                        11.16667,
                        0.6,
                        12.66667,
                        2.01667
                    ],
                    "rotation": 180,
                    "texture": "#1"
                },
                "south": {
                    "uv": [
                        11.16667,
                        0.6,
                        12.66667,
                        2.01667
                    ],
                    "rotation": 180,
                    "texture": "#1"
                },
                "west": {
                    "uv": [
                        11.16667,
                        0.6,
                        12.66667,
                        2.01667
                    ],
                    "rotation": 180,
                    "texture": "#1"
                },
                "up": {
                    "uv": [
                        11.16667,
                        0.6,
                        12.66667,
                        2.01667
                    ],
                    "rotation": 180,
                    "texture": "#1"
                },
                "down": {
                    "uv": [
                        11.16667,
                        0.6,
                        12.66667,
                        2.01667
                    ],
                    "rotation": 180,
                    "texture": "#1"
                }
            }
        },
        {
            "from": [
                6.87438,
                9.23019,
                10.39342
            ],
            "to": [
                7.47438,
                9.51019,
                10.59342
            ],
            "rotation": {
                "angle": 22.5,
                "axis": "y",
                "origin": [
                    7.80235,
                    9.37019,
                    9.11902
                ]
            },
            "faces": {
                "north": {
                    "uv": [
                        11.16667,
                        0.6,
                        12.66667,
                        2.01667
                    ],
                    "rotation": 180,
                    "texture": "#1"
                },
                "east": {
                    "uv": [
                        11.16667,
                        0.6,
                        12.66667,
                        2.01667
                    ],
                    "rotation": 180,
                    "texture": "#1"
                },
                "south": {
                    "uv": [
                        11.16667,
                        0.6,
                        12.66667,
                        2.01667
                    ],
                    "rotation": 180,
                    "texture": "#1"
                },
                "west": {
                    "uv": [
                        11.16667,
                        0.6,
                        12.66667,
                        2.01667
                    ],
                    "rotation": 180,
                    "texture": "#1"
                },
                "up": {
                    "uv": [
                        11.16667,
                        0.6,
                        12.66667,
                        2.01667
                    ],
                    "rotation": 180,
                    "texture": "#1"
                },
                "down": {
                    "uv": [
                        11.16667,
                        0.6,
                        12.66667,
                        2.01667
                    ],
                    "rotation": 180,
                    "texture": "#1"
                }
            }
        },
        {
            "from": [
                8.04731,
                9.23019,
                10.67633
            ],
            "to": [
                8.24731,
                9.51019,
                10.97633
            ],
            "rotation": {
                "angle": -22.5,
                "axis": "y",
                "origin": [
                    7.80235,
                    9.37019,
                    9.11902
                ]
            },
            "faces": {
                "north": {
                    "uv": [
                        11.16667,
                        0.6,
                        12.66667,
                        2.01667
                    ],
                    "rotation": 90,
                    "texture": "#1"
                },
                "east": {
                    "uv": [
                        11.16667,
                        0.6,
                        12.66667,
                        2.01667
                    ],
                    "rotation": 90,
                    "texture": "#1"
                },
                "south": {
                    "uv": [
                        11.16667,
                        0.6,
                        12.66667,
                        2.01667
                    ],
                    "rotation": 90,
                    "texture": "#1"
                },
                "west": {
                    "uv": [
                        11.16667,
                        0.6,
                        12.66667,
                        2.01667
                    ],
                    "rotation": 90,
                    "texture": "#1"
                },
                "up": {
                    "uv": [
                        11.16667,
                        0.6,
                        12.66667,
                        2.01667
                    ],
                    "rotation": 90,
                    "texture": "#1"
                },
                "down": {
                    "uv": [
                        11.16667,
                        0.6,
                        12.66667,
                        2.01667
                    ],
                    "rotation": 90,
                    "texture": "#1"
                }
            }
        },
        {
            "from": [
                7.96257,
                9.1312,
                4.1067
            ],
            "to": [
                8.06257,
                9.2312,
                10.8067
            ],
            "rotation": {
                "angle": 0,
                "axis": "y",
                "origin": [
                    7.80235,
                    9.37019,
                    9.11902
                ]
            },
            "faces": {
                "north": {
                    "uv": [
                        11.16667,
                        0.6,
                        12.66667,
                        2.01667
                    ],
                    "rotation": 180,
                    "texture": "#1"
                },
                "east": {
                    "uv": [
                        11.16667,
                        0.6,
                        12.66667,
                        2.01667
                    ],
                    "rotation": 180,
                    "texture": "#1"
                },
                "south": {
                    "uv": [
                        11.16667,
                        0.6,
                        12.66667,
                        2.01667
                    ],
                    "rotation": 180,
                    "texture": "#1"
                },
                "west": {
                    "uv": [
                        11.16667,
                        0.6,
                        12.66667,
                        2.01667
                    ],
                    "rotation": 180,
                    "texture": "#1"
                },
                "up": {
                    "uv": [
                        11.16667,
                        0.6,
                        12.66667,
                        2.01667
                    ],
                    "rotation": 180,
                    "texture": "#1"
                },
                "down": {
                    "uv": [
                        11.16667,
                        0.6,
                        12.66667,
                        2.01667
                    ],
                    "rotation": 180,
                    "texture": "#1"
                }
            }
        },
        {
            "from": [
                7.96257,
                9.50919,
                4.1067
            ],
            "to": [
                8.06257,
                9.60919,
                10.8067
            ],
            "rotation": {
                "angle": 0,
                "axis": "y",
                "origin": [
                    7.80235,
                    9.37019,
                    9.11902
                ]
            },
            "faces": {
                "north": {
                    "uv": [
                        11.16667,
                        0.6,
                        12.66667,
                        2.01667
                    ],
                    "texture": "#1"
                },
                "east": {
                    "uv": [
                        11.16667,
                        0.6,
                        12.66667,
                        2.01667
                    ],
                    "texture": "#1"
                },
                "south": {
                    "uv": [
                        11.16667,
                        0.6,
                        12.66667,
                        2.01667
                    ],
                    "texture": "#1"
                },
                "west": {
                    "uv": [
                        11.16667,
                        0.6,
                        12.66667,
                        2.01667
                    ],
                    "texture": "#1"
                },
                "up": {
                    "uv": [
                        11.16667,
                        0.6,
                        12.66667,
                        2.01667
                    ],
                    "texture": "#1"
                },
                "down": {
                    "uv": [
                        11.16667,
                        0.6,
                        12.66667,
                        2.01667
                    ],
                    "texture": "#1"
                }
            }
        },
        {
            "from": [
                6.49784,
                9.13019,
                10.5782
            ],
            "to": [
                7.39784,
                9.61019,
                10.7782
            ],
            "rotation": {
                "angle": 22.5,
                "axis": "y",
                "origin": [
                    7.80235,
                    9.37019,
                    9.11902
                ]
            },
            "faces": {
                "north": {
                    "uv": [
                        11.16667,
                        0.6,
                        12.66667,
                        2.01667
                    ],
                    "rotation": 180,
                    "texture": "#1"
                },
                "east": {
                    "uv": [
                        11.16667,
                        0.6,
                        12.66667,
                        2.01667
                    ],
                    "rotation": 180,
                    "texture": "#1"
                },
                "south": {
                    "uv": [
                        11.16667,
                        0.6,
                        12.66667,
                        2.01667
                    ],
                    "rotation": 180,
                    "texture": "#1"
                },
                "west": {
                    "uv": [
                        11.16667,
                        0.6,
                        12.66667,
                        2.01667
                    ],
                    "rotation": 180,
                    "texture": "#1"
                },
                "up": {
                    "uv": [
                        11.16667,
                        0.6,
                        12.66667,
                        2.01667
                    ],
                    "rotation": 180,
                    "texture": "#1"
                },
                "down": {
                    "uv": [
                        11.16667,
                        0.6,
                        12.66667,
                        2.01667
                    ],
                    "rotation": 180,
                    "texture": "#1"
                }
            }
        },
        {
            "from": [
                6.87438,
                9.23019,
                10.39342
            ],
            "to": [
                7.47438,
                9.51019,
                10.59342
            ],
            "rotation": {
                "angle": 22.5,
                "axis": "y",
                "origin": [
                    7.80235,
                    9.37019,
                    9.11902
                ]
            },
            "faces": {
                "north": {
                    "uv": [
                        11.16667,
                        0.6,
                        12.66667,
                        2.01667
                    ],
                    "rotation": 180,
                    "texture": "#1"
                },
                "east": {
                    "uv": [
                        11.16667,
                        0.6,
                        12.66667,
                        2.01667
                    ],
                    "rotation": 180,
                    "texture": "#1"
                },
                "south": {
                    "uv": [
                        11.16667,
                        0.6,
                        12.66667,
                        2.01667
                    ],
                    "rotation": 180,
                    "texture": "#1"
                },
                "west": {
                    "uv": [
                        11.16667,
                        0.6,
                        12.66667,
                        2.01667
                    ],
                    "rotation": 180,
                    "texture": "#1"
                },
                "up": {
                    "uv": [
                        11.16667,
                        0.6,
                        12.66667,
                        2.01667
                    ],
                    "rotation": 180,
                    "texture": "#1"
                },
                "down": {
                    "uv": [
                        11.16667,
                        0.6,
                        12.66667,
                        2.01667
                    ],
                    "rotation": 180,
                    "texture": "#1"
                }
            }
        },
        {
            "from": [
                8.04731,
                9.23019,
                10.67633
            ],
            "to": [
                8.24731,
                9.51019,
                10.97633
            ],
            "rotation": {
                "angle": -22.5,
                "axis": "y",
                "origin": [
                    7.80235,
                    9.37019,
                    9.11902
                ]
            },
            "faces": {
                "north": {
                    "uv": [
                        11.16667,
                        0.6,
                        12.66667,
                        2.01667
                    ],
                    "rotation": 90,
                    "texture": "#1"
                },
                "east": {
                    "uv": [
                        11.16667,
                        0.6,
                        12.66667,
                        2.01667
                    ],
                    "rotation": 90,
                    "texture": "#1"
                },
                "south": {
                    "uv": [
                        11.16667,
                        0.6,
                        12.66667,
                        2.01667
                    ],
                    "rotation": 90,
                    "texture": "#1"
                },
                "west": {
                    "uv": [
                        11.16667,
                        0.6,
                        12.66667,
                        2.01667
                    ],
                    "rotation": 90,
                    "texture": "#1"
                },
                "up": {
                    "uv": [
                        11.16667,
                        0.6,
                        12.66667,
                        2.01667
                    ],
                    "rotation": 90,
                    "texture": "#1"
                },
                "down": {
                    "uv": [
                        11.16667,
                        0.6,
                        12.66667,
                        2.01667
                    ],
                    "rotation": 90,
                    "texture": "#1"
                }
            }
        },
        {
            "from": [
                7.96257,
                9.1312,
                4.1067
            ],
            "to": [
                8.06257,
                9.2312,
                10.8067
            ],
            "rotation": {
                "angle": 0,
                "axis": "y",
                "origin": [
                    7.80235,
                    9.37019,
                    9.11902
                ]
            },
            "faces": {
                "north": {
                    "uv": [
                        11.16667,
                        0.6,
                        12.66667,
                        2.01667
                    ],
                    "rotation": 180,
                    "texture": "#1"
                },
                "east": {
                    "uv": [
                        11.16667,
                        0.6,
                        12.66667,
                        2.01667
                    ],
                    "rotation": 180,
                    "texture": "#1"
                },
                "south": {
                    "uv": [
                        11.16667,
                        0.6,
                        12.66667,
                        2.01667
                    ],
                    "rotation": 180,
                    "texture": "#1"
                },
                "west": {
                    "uv": [
                        11.16667,
                        0.6,
                        12.66667,
                        2.01667
                    ],
                    "rotation": 180,
                    "texture": "#1"
                },
                "up": {
                    "uv": [
                        11.16667,
                        0.6,
                        12.66667,
                        2.01667
                    ],
                    "rotation": 180,
                    "texture": "#1"
                },
                "down": {
                    "uv": [
                        11.16667,
                        0.6,
                        12.66667,
                        2.01667
                    ],
                    "rotation": 180,
                    "texture": "#1"
                }
            }
        },
        {
            "from": [
                7.96257,
                9.50919,
                4.1067
            ],
            "to": [
                8.06257,
                9.60919,
                10.8067
            ],
            "rotation": {
                "angle": 0,
                "axis": "y",
                "origin": [
                    7.80235,
                    9.37019,
                    9.11902
                ]
            },
            "faces": {
                "north": {
                    "uv": [
                        11.16667,
                        0.6,
                        12.66667,
                        2.01667
                    ],
                    "texture": "#1"
                },
                "east": {
                    "uv": [
                        11.16667,
                        0.6,
                        12.66667,
                        2.01667
                    ],
                    "texture": "#1"
                },
                "south": {
                    "uv": [
                        11.16667,
                        0.6,
                        12.66667,
                        2.01667
                    ],
                    "texture": "#1"
                },
                "west": {
                    "uv": [
                        11.16667,
                        0.6,
                        12.66667,
                        2.01667
                    ],
                    "texture": "#1"
                },
                "up": {
                    "uv": [
                        11.16667,
                        0.6,
                        12.66667,
                        2.01667
                    ],
                    "texture": "#1"
                },
                "down": {
                    "uv": [
                        11.16667,
                        0.6,
                        12.66667,
                        2.01667
                    ],
                    "texture": "#1"
                }
            }
        },
        {
            "from": [
                8.58743,
                9.50919,
                4.1067
            ],
            "to": [
                8.68743,
                9.60919,
                10.8067
            ],
            "rotation": {
                "angle": 0,
                "axis": "y",
                "origin": [
                    8.84765,
                    9.37019,
                    9.11902
                ]
            },
            "faces": {
                "north": {
                    "uv": [
                        11.16667,
                        0.6,
                        12.66667,
                        2.01667
                    ],
                    "texture": "#1"
                },
                "east": {
                    "uv": [
                        11.16667,
                        0.6,
                        12.66667,
                        2.01667
                    ],
                    "texture": "#1"
                },
                "south": {
                    "uv": [
                        11.16667,
                        0.6,
                        12.66667,
                        2.01667
                    ],
                    "texture": "#1"
                },
                "west": {
                    "uv": [
                        11.16667,
                        0.6,
                        12.66667,
                        2.01667
                    ],
                    "texture": "#1"
                },
                "up": {
                    "uv": [
                        11.16667,
                        0.6,
                        12.66667,
                        2.01667
                    ],
                    "texture": "#1"
                },
                "down": {
                    "uv": [
                        11.16667,
                        0.6,
                        12.66667,
                        2.01667
                    ],
                    "texture": "#1"
                }
            }
        },
        {
            "from": [
                8.58743,
                9.1312,
                4.1067
            ],
            "to": [
                8.68743,
                9.2312,
                10.8067
            ],
            "rotation": {
                "angle": 0,
                "axis": "y",
                "origin": [
                    8.84765,
                    9.37019,
                    9.11902
                ]
            },
            "faces": {
                "north": {
                    "uv": [
                        11.16667,
                        0.6,
                        12.66667,
                        2.01667
                    ],
                    "rotation": 180,
                    "texture": "#1"
                },
                "east": {
                    "uv": [
                        11.16667,
                        0.6,
                        12.66667,
                        2.01667
                    ],
                    "rotation": 180,
                    "texture": "#1"
                },
                "south": {
                    "uv": [
                        11.16667,
                        0.6,
                        12.66667,
                        2.01667
                    ],
                    "rotation": 180,
                    "texture": "#1"
                },
                "west": {
                    "uv": [
                        11.16667,
                        0.6,
                        12.66667,
                        2.01667
                    ],
                    "rotation": 180,
                    "texture": "#1"
                },
                "up": {
                    "uv": [
                        11.16667,
                        0.6,
                        12.66667,
                        2.01667
                    ],
                    "rotation": 180,
                    "texture": "#1"
                },
                "down": {
                    "uv": [
                        11.16667,
                        0.6,
                        12.66667,
                        2.01667
                    ],
                    "rotation": 180,
                    "texture": "#1"
                }
            }
        },
        {
            "from": [
                9.25216,
                9.13019,
                10.5782
            ],
            "to": [
                10.15216,
                9.61019,
                10.7782
            ],
            "rotation": {
                "angle": -22.5,
                "axis": "y",
                "origin": [
                    8.84765,
                    9.37019,
                    9.11902
                ]
            },
            "faces": {
                "north": {
                    "uv": [
                        11.16667,
                        0.6,
                        12.66667,
                        2.01667
                    ],
                    "texture": "#1"
                },
                "east": {
                    "uv": [
                        11.16667,
                        0.6,
                        12.66667,
                        2.01667
                    ],
                    "texture": "#1"
                },
                "south": {
                    "uv": [
                        11.16667,
                        0.6,
                        12.66667,
                        2.01667
                    ],
                    "texture": "#1"
                },
                "west": {
                    "uv": [
                        11.16667,
                        0.6,
                        12.66667,
                        2.01667
                    ],
                    "texture": "#1"
                },
                "up": {
                    "uv": [
                        11.16667,
                        0.6,
                        12.66667,
                        2.01667
                    ],
                    "texture": "#1"
                },
                "down": {
                    "uv": [
                        11.16667,
                        0.6,
                        12.66667,
                        2.01667
                    ],
                    "texture": "#1"
                }
            }
        },
        {
            "from": [
                9.17562,
                9.23019,
                10.39342
            ],
            "to": [
                9.77562,
                9.51019,
                10.59342
            ],
            "rotation": {
                "angle": -22.5,
                "axis": "y",
                "origin": [
                    8.84765,
                    9.37019,
                    9.11902
                ]
            },
            "faces": {
                "north": {
                    "uv": [
                        11.16667,
                        0.6,
                        12.66667,
                        2.01667
                    ],
                    "texture": "#1"
                },
                "east": {
                    "uv": [
                        11.16667,
                        0.6,
                        12.66667,
                        2.01667
                    ],
                    "texture": "#1"
                },
                "south": {
                    "uv": [
                        11.16667,
                        0.6,
                        12.66667,
                        2.01667
                    ],
                    "texture": "#1"
                },
                "west": {
                    "uv": [
                        11.16667,
                        0.6,
                        12.66667,
                        2.01667
                    ],
                    "texture": "#1"
                },
                "up": {
                    "uv": [
                        11.16667,
                        0.6,
                        12.66667,
                        2.01667
                    ],
                    "texture": "#1"
                },
                "down": {
                    "uv": [
                        11.16667,
                        0.6,
                        12.66667,
                        2.01667
                    ],
                    "texture": "#1"
                }
            }
        },
        {
            "from": [
                8.40269,
                9.23019,
                10.67633
            ],
            "to": [
                8.60269,
                9.51019,
                10.97633
            ],
            "rotation": {
                "angle": 22.5,
                "axis": "y",
                "origin": [
                    8.84765,
                    9.37019,
                    9.11902
                ]
            },
            "faces": {
                "north": {
                    "uv": [
                        11.16667,
                        0.6,
                        12.66667,
                        2.01667
                    ],
                    "rotation": 90,
                    "texture": "#1"
                },
                "east": {
                    "uv": [
                        11.16667,
                        0.6,
                        12.66667,
                        2.01667
                    ],
                    "rotation": 90,
                    "texture": "#1"
                },
                "south": {
                    "uv": [
                        11.16667,
                        0.6,
                        12.66667,
                        2.01667
                    ],
                    "rotation": 90,
                    "texture": "#1"
                },
                "west": {
                    "uv": [
                        11.16667,
                        0.6,
                        12.66667,
                        2.01667
                    ],
                    "rotation": 90,
                    "texture": "#1"
                },
                "up": {
                    "uv": [
                        11.16667,
                        0.6,
                        12.66667,
                        2.01667
                    ],
                    "rotation": 90,
                    "texture": "#1"
                },
                "down": {
                    "uv": [
                        11.16667,
                        0.6,
                        12.66667,
                        2.01667
                    ],
                    "rotation": 90,
                    "texture": "#1"
                }
            }
        },
        {
            "from": [
                7.86357,
                9.23019,
                4.1067
            ],
            "to": [
                8.06357,
                9.51019,
                10.8067
            ],
            "rotation": {
                "angle": 0,
                "axis": "y",
                "origin": [
                    7.80235,
                    9.37019,
                    9.11902
                ]
            },
            "faces": {
                "north": {
                    "uv": [
                        11.16667,
                        0.6,
                        12.66667,
                        2.01667
                    ],
                    "rotation": 90,
                    "texture": "#1"
                },
                "east": {
                    "uv": [
                        11.16667,
                        0.6,
                        12.66667,
                        2.01667
                    ],
                    "rotation": 90,
                    "texture": "#1"
                },
                "south": {
                    "uv": [
                        11.16667,
                        0.6,
                        12.66667,
                        2.01667
                    ],
                    "rotation": 90,
                    "texture": "#1"
                },
                "west": {
                    "uv": [
                        11.16667,
                        0.6,
                        12.66667,
                        2.01667
                    ],
                    "rotation": 90,
                    "texture": "#1"
                },
                "up": {
                    "uv": [
                        11.16667,
                        0.6,
                        12.66667,
                        2.01667
                    ],
                    "rotation": 90,
                    "texture": "#1"
                },
                "down": {
                    "uv": [
                        11.16667,
                        0.6,
                        12.66667,
                        2.01667
                    ],
                    "rotation": 90,
                    "texture": "#1"
                }
            }
        },
        {
            "from": [
                6.49784,
                9.13019,
                10.5782
            ],
            "to": [
                7.39784,
                9.61019,
                10.7782
            ],
            "rotation": {
                "angle": 22.5,
                "axis": "y",
                "origin": [
                    7.80235,
                    9.37019,
                    9.11902
                ]
            },
            "faces": {
                "north": {
                    "uv": [
                        11.16667,
                        0.6,
                        12.66667,
                        2.01667
                    ],
                    "rotation": 180,
                    "texture": "#1"
                },
                "east": {
                    "uv": [
                        11.16667,
                        0.6,
                        12.66667,
                        2.01667
                    ],
                    "rotation": 180,
                    "texture": "#1"
                },
                "south": {
                    "uv": [
                        11.16667,
                        0.6,
                        12.66667,
                        2.01667
                    ],
                    "rotation": 180,
                    "texture": "#1"
                },
                "west": {
                    "uv": [
                        11.16667,
                        0.6,
                        12.66667,
                        2.01667
                    ],
                    "rotation": 180,
                    "texture": "#1"
                },
                "up": {
                    "uv": [
                        11.16667,
                        0.6,
                        12.66667,
                        2.01667
                    ],
                    "rotation": 180,
                    "texture": "#1"
                },
                "down": {
                    "uv": [
                        11.16667,
                        0.6,
                        12.66667,
                        2.01667
                    ],
                    "rotation": 180,
                    "texture": "#1"
                }
            }
        },
        {
            "from": [
                6.87438,
                9.23019,
                10.39342
            ],
            "to": [
                7.47438,
                9.51019,
                10.59342
            ],
            "rotation": {
                "angle": 22.5,
                "axis": "y",
                "origin": [
                    7.80235,
                    9.37019,
                    9.11902
                ]
            },
            "faces": {
                "north": {
                    "uv": [
                        11.16667,
                        0.6,
                        12.66667,
                        2.01667
                    ],
                    "rotation": 180,
                    "texture": "#1"
                },
                "east": {
                    "uv": [
                        11.16667,
                        0.6,
                        12.66667,
                        2.01667
                    ],
                    "rotation": 180,
                    "texture": "#1"
                },
                "south": {
                    "uv": [
                        11.16667,
                        0.6,
                        12.66667,
                        2.01667
                    ],
                    "rotation": 180,
                    "texture": "#1"
                },
                "west": {
                    "uv": [
                        11.16667,
                        0.6,
                        12.66667,
                        2.01667
                    ],
                    "rotation": 180,
                    "texture": "#1"
                },
                "up": {
                    "uv": [
                        11.16667,
                        0.6,
                        12.66667,
                        2.01667
                    ],
                    "rotation": 180,
                    "texture": "#1"
                },
                "down": {
                    "uv": [
                        11.16667,
                        0.6,
                        12.66667,
                        2.01667
                    ],
                    "rotation": 180,
                    "texture": "#1"
                }
            }
        },
        {
            "from": [
                8.04731,
                9.23019,
                10.67633
            ],
            "to": [
                8.24731,
                9.51019,
                10.97633
            ],
            "rotation": {
                "angle": -22.5,
                "axis": "y",
                "origin": [
                    7.80235,
                    9.37019,
                    9.11902
                ]
            },
            "faces": {
                "north": {
                    "uv": [
                        11.16667,
                        0.6,
                        12.66667,
                        2.01667
                    ],
                    "rotation": 90,
                    "texture": "#1"
                },
                "east": {
                    "uv": [
                        11.16667,
                        0.6,
                        12.66667,
                        2.01667
                    ],
                    "rotation": 90,
                    "texture": "#1"
                },
                "south": {
                    "uv": [
                        11.16667,
                        0.6,
                        12.66667,
                        2.01667
                    ],
                    "rotation": 90,
                    "texture": "#1"
                },
                "west": {
                    "uv": [
                        11.16667,
                        0.6,
                        12.66667,
                        2.01667
                    ],
                    "rotation": 90,
                    "texture": "#1"
                },
                "up": {
                    "uv": [
                        11.16667,
                        0.6,
                        12.66667,
                        2.01667
                    ],
                    "rotation": 90,
                    "texture": "#1"
                },
                "down": {
                    "uv": [
                        11.16667,
                        0.6,
                        12.66667,
                        2.01667
                    ],
                    "rotation": 90,
                    "texture": "#1"
                }
            }
        },
        {
            "from": [
                7.96257,
                9.1312,
                4.1067
            ],
            "to": [
                8.06257,
                9.2312,
                10.8067
            ],
            "rotation": {
                "angle": 0,
                "axis": "y",
                "origin": [
                    7.80235,
                    9.37019,
                    9.11902
                ]
            },
            "faces": {
                "north": {
                    "uv": [
                        11.16667,
                        0.6,
                        12.66667,
                        2.01667
                    ],
                    "rotation": 180,
                    "texture": "#1"
                },
                "east": {
                    "uv": [
                        11.16667,
                        0.6,
                        12.66667,
                        2.01667
                    ],
                    "rotation": 180,
                    "texture": "#1"
                },
                "south": {
                    "uv": [
                        11.16667,
                        0.6,
                        12.66667,
                        2.01667
                    ],
                    "rotation": 180,
                    "texture": "#1"
                },
                "west": {
                    "uv": [
                        11.16667,
                        0.6,
                        12.66667,
                        2.01667
                    ],
                    "rotation": 180,
                    "texture": "#1"
                },
                "up": {
                    "uv": [
                        11.16667,
                        0.6,
                        12.66667,
                        2.01667
                    ],
                    "rotation": 180,
                    "texture": "#1"
                },
                "down": {
                    "uv": [
                        11.16667,
                        0.6,
                        12.66667,
                        2.01667
                    ],
                    "rotation": 180,
                    "texture": "#1"
                }
            }
        },
        {
            "from": [
                7.96257,
                9.50919,
                4.1067
            ],
            "to": [
                8.06257,
                9.60919,
                10.8067
            ],
            "rotation": {
                "angle": 0,
                "axis": "y",
                "origin": [
                    7.80235,
                    9.37019,
                    9.11902
                ]
            },
            "faces": {
                "north": {
                    "uv": [
                        11.16667,
                        0.6,
                        12.66667,
                        2.01667
                    ],
                    "texture": "#1"
                },
                "east": {
                    "uv": [
                        11.16667,
                        0.6,
                        12.66667,
                        2.01667
                    ],
                    "texture": "#1"
                },
                "south": {
                    "uv": [
                        11.16667,
                        0.6,
                        12.66667,
                        2.01667
                    ],
                    "texture": "#1"
                },
                "west": {
                    "uv": [
                        11.16667,
                        0.6,
                        12.66667,
                        2.01667
                    ],
                    "texture": "#1"
                },
                "up": {
                    "uv": [
                        11.16667,
                        0.6,
                        12.66667,
                        2.01667
                    ],
                    "texture": "#1"
                },
                "down": {
                    "uv": [
                        11.16667,
                        0.6,
                        12.66667,
                        2.01667
                    ],
                    "texture": "#1"
                }
            }
        },
        {
            "from": [
                8.58643,
                9.23019,
                4.1067
            ],
            "to": [
                8.78643,
                9.51019,
                10.8067
            ],
            "rotation": {
                "angle": 0,
                "axis": "y",
                "origin": [
                    8.84765,
                    9.37019,
                    9.11902
                ]
            },
            "faces": {
                "north": {
                    "uv": [
                        11.16667,
                        0.6,
                        12.66667,
                        2.01667
                    ],
                    "rotation": 90,
                    "texture": "#1"
                },
                "east": {
                    "uv": [
                        11.16667,
                        0.6,
                        12.66667,
                        2.01667
                    ],
                    "rotation": 90,
                    "texture": "#1"
                },
                "south": {
                    "uv": [
                        11.16667,
                        0.6,
                        12.66667,
                        2.01667
                    ],
                    "rotation": 90,
                    "texture": "#1"
                },
                "west": {
                    "uv": [
                        11.16667,
                        0.6,
                        12.66667,
                        2.01667
                    ],
                    "rotation": 90,
                    "texture": "#1"
                },
                "up": {
                    "uv": [
                        11.16667,
                        0.6,
                        12.66667,
                        2.01667
                    ],
                    "rotation": 90,
                    "texture": "#1"
                },
                "down": {
                    "uv": [
                        11.16667,
                        0.6,
                        12.66667,
                        2.01667
                    ],
                    "rotation": 90,
                    "texture": "#1"
                }
            }
        },
        {
            "from": [
                8.58743,
                9.50919,
                4.1067
            ],
            "to": [
                8.68743,
                9.60919,
                10.8067
            ],
            "rotation": {
                "angle": 0,
                "axis": "y",
                "origin": [
                    8.84765,
                    9.37019,
                    9.11902
                ]
            },
            "faces": {
                "north": {
                    "uv": [
                        11.16667,
                        0.6,
                        12.66667,
                        2.01667
                    ],
                    "texture": "#1"
                },
                "east": {
                    "uv": [
                        11.16667,
                        0.6,
                        12.66667,
                        2.01667
                    ],
                    "texture": "#1"
                },
                "south": {
                    "uv": [
                        11.16667,
                        0.6,
                        12.66667,
                        2.01667
                    ],
                    "texture": "#1"
                },
                "west": {
                    "uv": [
                        11.16667,
                        0.6,
                        12.66667,
                        2.01667
                    ],
                    "texture": "#1"
                },
                "up": {
                    "uv": [
                        11.16667,
                        0.6,
                        12.66667,
                        2.01667
                    ],
                    "texture": "#1"
                },
                "down": {
                    "uv": [
                        11.16667,
                        0.6,
                        12.66667,
                        2.01667
                    ],
                    "texture": "#1"
                }
            }
        },
        {
            "from": [
                8.58743,
                9.1312,
                4.1067
            ],
            "to": [
                8.68743,
                9.2312,
                10.8067
            ],
            "rotation": {
                "angle": 0,
                "axis": "y",
                "origin": [
                    8.84765,
                    9.37019,
                    9.11902
                ]
            },
            "faces": {
                "north": {
                    "uv": [
                        11.16667,
                        0.6,
                        12.66667,
                        2.01667
                    ],
                    "rotation": 180,
                    "texture": "#1"
                },
                "east": {
                    "uv": [
                        11.16667,
                        0.6,
                        12.66667,
                        2.01667
                    ],
                    "rotation": 180,
                    "texture": "#1"
                },
                "south": {
                    "uv": [
                        11.16667,
                        0.6,
                        12.66667,
                        2.01667
                    ],
                    "rotation": 180,
                    "texture": "#1"
                },
                "west": {
                    "uv": [
                        11.16667,
                        0.6,
                        12.66667,
                        2.01667
                    ],
                    "rotation": 180,
                    "texture": "#1"
                },
                "up": {
                    "uv": [
                        11.16667,
                        0.6,
                        12.66667,
                        2.01667
                    ],
                    "rotation": 180,
                    "texture": "#1"
                },
                "down": {
                    "uv": [
                        11.16667,
                        0.6,
                        12.66667,
                        2.01667
                    ],
                    "rotation": 180,
                    "texture": "#1"
                }
            }
        },
        {
            "from": [
                9.25216,
                9.13019,
                10.5782
            ],
            "to": [
                10.15216,
                9.61019,
                10.7782
            ],
            "rotation": {
                "angle": -22.5,
                "axis": "y",
                "origin": [
                    8.84765,
                    9.37019,
                    9.11902
                ]
            },
            "faces": {
                "north": {
                    "uv": [
                        11.16667,
                        0.6,
                        12.66667,
                        2.01667
                    ],
                    "texture": "#1"
                },
                "east": {
                    "uv": [
                        11.16667,
                        0.6,
                        12.66667,
                        2.01667
                    ],
                    "texture": "#1"
                },
                "south": {
                    "uv": [
                        11.16667,
                        0.6,
                        12.66667,
                        2.01667
                    ],
                    "texture": "#1"
                },
                "west": {
                    "uv": [
                        11.16667,
                        0.6,
                        12.66667,
                        2.01667
                    ],
                    "texture": "#1"
                },
                "up": {
                    "uv": [
                        11.16667,
                        0.6,
                        12.66667,
                        2.01667
                    ],
                    "texture": "#1"
                },
                "down": {
                    "uv": [
                        11.16667,
                        0.6,
                        12.66667,
                        2.01667
                    ],
                    "texture": "#1"
                }
            }
        },
        {
            "from": [
                9.17562,
                9.23019,
                10.39342
            ],
            "to": [
                9.77562,
                9.51019,
                10.59342
            ],
            "rotation": {
                "angle": -22.5,
                "axis": "y",
                "origin": [
                    8.84765,
                    9.37019,
                    9.11902
                ]
            },
            "faces": {
                "north": {
                    "uv": [
                        11.16667,
                        0.6,
                        12.66667,
                        2.01667
                    ],
                    "texture": "#1"
                },
                "east": {
                    "uv": [
                        11.16667,
                        0.6,
                        12.66667,
                        2.01667
                    ],
                    "texture": "#1"
                },
                "south": {
                    "uv": [
                        11.16667,
                        0.6,
                        12.66667,
                        2.01667
                    ],
                    "texture": "#1"
                },
                "west": {
                    "uv": [
                        11.16667,
                        0.6,
                        12.66667,
                        2.01667
                    ],
                    "texture": "#1"
                },
                "up": {
                    "uv": [
                        11.16667,
                        0.6,
                        12.66667,
                        2.01667
                    ],
                    "texture": "#1"
                },
                "down": {
                    "uv": [
                        11.16667,
                        0.6,
                        12.66667,
                        2.01667
                    ],
                    "texture": "#1"
                }
            }
        },
        {
            "from": [
                8.40269,
                9.23019,
                10.67633
            ],
            "to": [
                8.60269,
                9.51019,
                10.97633
            ],
            "rotation": {
                "angle": 22.5,
                "axis": "y",
                "origin": [
                    8.84765,
                    9.37019,
                    9.11902
                ]
            },
            "faces": {
                "north": {
                    "uv": [
                        11.16667,
                        0.6,
                        12.66667,
                        2.01667
                    ],
                    "rotation": 90,
                    "texture": "#1"
                },
                "east": {
                    "uv": [
                        11.16667,
                        0.6,
                        12.66667,
                        2.01667
                    ],
                    "rotation": 90,
                    "texture": "#1"
                },
                "south": {
                    "uv": [
                        11.16667,
                        0.6,
                        12.66667,
                        2.01667
                    ],
                    "rotation": 90,
                    "texture": "#1"
                },
                "west": {
                    "uv": [
                        11.16667,
                        0.6,
                        12.66667,
                        2.01667
                    ],
                    "rotation": 90,
                    "texture": "#1"
                },
                "up": {
                    "uv": [
                        11.16667,
                        0.6,
                        12.66667,
                        2.01667
                    ],
                    "rotation": 90,
                    "texture": "#1"
                },
                "down": {
                    "uv": [
                        11.16667,
                        0.6,
                        12.66667,
                        2.01667
                    ],
                    "rotation": 90,
                    "texture": "#1"
                }
            }
        }
    ],
    "display": {
        "thirdperson_righthand": {
            "rotation": [
                3,
                0,
                13
            ],
            "translation": [
                -2,
                -0.5,
                -12.25
            ],
            "scale": [
                1.25,
                1.11,
                1.08
            ]
        },
        "thirdperson_lefthand": {
            "rotation": [
                3,
                0,
                13
            ],
            "translation": [
                -1.5,
                -0.5,
                -12.75
            ],
            "scale": [
                1.25,
                1.11,
                1.08
            ]
        },
        "firstperson_righthand": {
            "rotation": [
                1,
                1,
                0
            ],
            "translation": [
                -4.5,
                4.5,
                -7
            ],
            "scale": [
                1.19,
                1.14,
                0.87
            ]
        },
        "firstperson_lefthand": {
            "rotation": [
                1,
                1,
                0
            ],
            "translation": [
                -4.5,
                4.5,
                -7
            ],
            "scale": [
                1.19,
                1.14,
                0.87
            ]
        },
        "gui": {
            "rotation": [
                11,
                16,
                -16
            ],
            "translation": [
                -5.5,
                2.5,
                0
            ],
            "scale": [
                1.28,
                1.28,
                2.43
            ]
        },
        "head": {
            "rotation": [
                0,
                65,
                90
            ],
            "translation": [
                -4.5,
                6.5,
                -4.5
            ],
            "scale": [
                2.19,
                1.56,
                1.78
            ]
        },
        "fixed": {
            "rotation": [
                90,
                45,
                -90
            ],
            "translation": [
                -6,
                4.5,
                -1.75
            ]
        }
    }
}