{
	"credit": "Made with Blockbench",
	"textures": {
		"0": "gci:items/common/all_in_one",
		"particle": "gci:items/common/all_in_one"
	},
	"elements": [
		{
			"from": [8.82894, 9.1667, 4.072],
			"to": [8.92494, 9.4707, 5.348],
			"rotation": {"angle": 45, "axis": "z", "origin": [9.00339, 9.23896, 4.71]},
			"faces": {
				"north": {"uv": [3, 3.25, 3, 3.25], "texture": "#0"},
				"east": {"uv": [3, 3.25, 3, 3.25], "rotation": 180, "texture": "#0"},
				"south": {"uv": [3, 3.25, 3, 3.25], "rotation": 180, "texture": "#0"},
				"west": {"uv": [3, 3.25, 3, 3.25], "rotation": 180, "texture": "#0"},
				"up": {"uv": [3, 3.25, 3, 3.25], "rotation": 180, "texture": "#0"},
				"down": {"uv": [3, 3.25, 3, 3.25], "rotation": 180, "texture": "#0"}
			}
		},
		{
			"from": [8.71617, 9.27947, 4.072],
			"to": [8.81217, 9.58347, 5.348],
			"rotation": {"angle": 0, "axis": "y", "origin": [9.00339, 9.23896, 4.71]},
			"faces": {
				"north": {"uv": [3, 3.25, 3, 3.25], "texture": "#0"},
				"east": {"uv": [3, 3.25, 3, 3.25], "rotation": 180, "texture": "#0"},
				"south": {"uv": [3, 3.25, 3, 3.25], "rotation": 180, "texture": "#0"},
				"west": {"uv": [3, 3.25, 3, 3.25], "rotation": 180, "texture": "#0"},
				"up": {"uv": [3, 3.25, 3, 3.25], "rotation": 180, "texture": "#0"},
				"down": {"uv": [3, 3.25, 3, 3.25], "rotation": 180, "texture": "#0"}
			}
		},
		{
			"from": [8.80959, 9.50501, 4.072],
			"to": [8.90559, 9.80901, 5.348],
			"rotation": {"angle": -45, "axis": "z", "origin": [8.85759, 9.65701, 4.71]},
			"faces": {
				"north": {"uv": [3, 3.25, 3, 3.25], "rotation": 180, "texture": "#0"},
				"east": {"uv": [3, 3.25, 3, 3.25], "texture": "#0"},
				"south": {"uv": [3, 3.25, 3, 3.25], "texture": "#0"},
				"west": {"uv": [3, 3.25, 3, 3.25], "texture": "#0"},
				"up": {"uv": [3, 3.25, 3, 3.25], "texture": "#0"},
				"down": {"uv": [3, 3.25, 3, 3.25], "texture": "#0"}
			}
		},
		{
			"from": [8.93113, 9.70243, 4.072],
			"to": [9.23513, 9.79843, 5.348],
			"rotation": {"angle": 0, "axis": "y", "origin": [9.08313, 9.75043, 4.71]},
			"faces": {
				"north": {"uv": [3, 3.25, 3, 3.25], "rotation": 270, "texture": "#0"},
				"east": {"uv": [3, 3.25, 3, 3.25], "rotation": 270, "texture": "#0"},
				"south": {"uv": [3, 3.25, 3, 3.25], "rotation": 270, "texture": "#0"},
				"west": {"uv": [3, 3.25, 3, 3.25], "rotation": 270, "texture": "#0"},
				"up": {"uv": [3, 3.25, 3, 3.25], "rotation": 270, "texture": "#0"},
				"down": {"uv": [3, 3.25, 3, 3.25], "rotation": 270, "texture": "#0"}
			}
		},
		{
			"from": [9.15667, 9.60901, 4.072],
			"to": [9.46067, 9.70501, 5.348],
			"rotation": {"angle": -45, "axis": "z", "origin": [9.30867, 9.65701, 4.71]},
			"faces": {
				"north": {"uv": [3, 3.25, 3, 3.25], "rotation": 270, "texture": "#0"},
				"east": {"uv": [3, 3.25, 3, 3.25], "rotation": 270, "texture": "#0"},
				"south": {"uv": [3, 3.25, 3, 3.25], "rotation": 270, "texture": "#0"},
				"west": {"uv": [3, 3.25, 3, 3.25], "rotation": 270, "texture": "#0"},
				"up": {"uv": [3, 3.25, 3, 3.25], "rotation": 270, "texture": "#0"},
				"down": {"uv": [3, 3.25, 3, 3.25], "rotation": 270, "texture": "#0"}
			}
		},
		{
			"from": [9.35409, 9.27947, 4.072],
			"to": [9.45009, 9.58347, 5.348],
			"rotation": {"angle": 0, "axis": "y", "origin": [9.40209, 9.43147, 4.71]},
			"faces": {
				"north": {"uv": [3, 3.25, 3, 3.25], "rotation": 180, "texture": "#0"},
				"east": {"uv": [3, 3.25, 3, 3.25], "texture": "#0"},
				"south": {"uv": [3, 3.25, 3, 3.25], "texture": "#0"},
				"west": {"uv": [3, 3.25, 3, 3.25], "texture": "#0"},
				"up": {"uv": [3, 3.25, 3, 3.25], "texture": "#0"},
				"down": {"uv": [3, 3.25, 3, 3.25], "texture": "#0"}
			}
		},
		{
			"from": [9.0439, 8.95174, 4.072],
			"to": [9.3479, 9.04774, 5.348],
			"rotation": {"angle": 45, "axis": "z", "origin": [9.00339, 9.23896, 4.71]},
			"faces": {
				"north": {"uv": [3, 3.25, 3, 3.25], "rotation": 270, "texture": "#0"},
				"east": {"uv": [3, 3.25, 3, 3.25], "rotation": 270, "texture": "#0"},
				"south": {"uv": [3, 3.25, 3, 3.25], "rotation": 270, "texture": "#0"},
				"west": {"uv": [3, 3.25, 3, 3.25], "rotation": 270, "texture": "#0"},
				"up": {"uv": [3, 3.25, 3, 3.25], "rotation": 270, "texture": "#0"},
				"down": {"uv": [3, 3.25, 3, 3.25], "rotation": 270, "texture": "#0"}
			}
		},
		{
			"from": [8.93113, 9.06451, 4.072],
			"to": [9.23513, 9.16051, 5.348],
			"rotation": {"angle": 0, "axis": "y", "origin": [9.00339, 9.23896, 4.71]},
			"faces": {
				"north": {"uv": [3, 3.25, 3, 3.25], "rotation": 90, "texture": "#0"},
				"east": {"uv": [3, 3.25, 3, 3.25], "rotation": 90, "texture": "#0"},
				"south": {"uv": [3, 3.25, 3, 3.25], "rotation": 90, "texture": "#0"},
				"west": {"uv": [3, 3.25, 3, 3.25], "rotation": 90, "texture": "#0"},
				"up": {"uv": [3, 3.25, 3, 3.25], "rotation": 90, "texture": "#0"},
				"down": {"uv": [3, 3.25, 3, 3.25], "rotation": 90, "texture": "#0"}
			}
		},
		{
			"from": [8.81009, 9.21547, 4.104],
			"to": [9.35409, 9.64747, 4.164],
			"rotation": {"angle": 0, "axis": "y", "origin": [9.30609, 9.43147, 4.71]},
			"faces": {
				"north": {"uv": [7.75, 12.125, 7.75, 12.125], "rotation": 180, "texture": "#0"},
				"east": {"uv": [3, 3.25, 3, 3.25], "texture": "#0"},
				"south": {"uv": [3, 3.25, 3, 3.25], "texture": "#0"},
				"west": {"uv": [3, 3.25, 3, 3.25], "texture": "#0"},
				"up": {"uv": [3, 3.25, 3, 3.25], "texture": "#0"},
				"down": {"uv": [3, 3.25, 3, 3.25], "texture": "#0"}
			}
		},
		{
			"from": [8.86609, 9.15947, 4.104],
			"to": [9.29809, 9.70347, 4.164],
			"rotation": {"angle": 0, "axis": "y", "origin": [9.08209, 9.43147, 4.134]},
			"faces": {
				"north": {"uv": [7.75, 12.125, 7.75, 12.125], "rotation": 270, "texture": "#0"},
				"east": {"uv": [3, 3.25, 3, 3.25], "rotation": 270, "texture": "#0"},
				"south": {"uv": [3, 3.25, 3, 3.25], "rotation": 270, "texture": "#0"},
				"west": {"uv": [3, 3.25, 3, 3.25], "rotation": 270, "texture": "#0"},
				"up": {"uv": [3, 3.25, 3, 3.25], "rotation": 270, "texture": "#0"},
				"down": {"uv": [3, 3.25, 3, 3.25], "rotation": 270, "texture": "#0"}
			}
		},
		{
			"from": [8.81009, 9.21547, 5.256],
			"to": [9.35409, 9.64747, 5.348],
			"rotation": {"angle": 0, "axis": "y", "origin": [9.40209, 9.43147, 4.71]},
			"faces": {
				"north": {"uv": [3, 3.25, 3, 3.25], "rotation": 180, "texture": "#0"},
				"east": {"uv": [3, 3.25, 3, 3.25], "texture": "#0"},
				"south": {"uv": [3, 3.25, 3, 3.25], "texture": "#0"},
				"west": {"uv": [3, 3.25, 3, 3.25], "texture": "#0"},
				"up": {"uv": [3, 3.25, 3, 3.25], "texture": "#0"},
				"down": {"uv": [3, 3.25, 3, 3.25], "texture": "#0"}
			}
		},
		{
			"from": [8.86609, 9.15947, 5.256],
			"to": [9.29809, 9.70347, 5.348],
			"rotation": {"angle": 0, "axis": "y", "origin": [9.08209, 9.43147, 5.302]},
			"faces": {
				"north": {"uv": [3, 3.25, 3, 3.25], "rotation": 90, "texture": "#0"},
				"east": {"uv": [3, 3.25, 3, 3.25], "rotation": 90, "texture": "#0"},
				"south": {"uv": [3, 3.25, 3, 3.25], "rotation": 90, "texture": "#0"},
				"west": {"uv": [3, 3.25, 3, 3.25], "rotation": 90, "texture": "#0"},
				"up": {"uv": [3, 3.25, 3, 3.25], "rotation": 90, "texture": "#0"},
				"down": {"uv": [3, 3.25, 3, 3.25], "rotation": 90, "texture": "#0"}
			}
		},
		{
			"from": [9.35409, 9.05547, 4.584],
			"to": [9.61009, 9.80747, 5.892],
			"rotation": {"angle": 0, "axis": "y", "origin": [9.445, 9.41537, 3.09618]},
			"faces": {
				"north": {"uv": [7.375, 12.375, 7.375, 12.375], "rotation": 180, "texture": "#0"},
				"east": {"uv": [7.375, 12.375, 7.375, 12.375], "texture": "#0"},
				"south": {"uv": [7.375, 12.375, 7.375, 12.375], "texture": "#0"},
				"west": {"uv": [7.375, 12.375, 7.375, 12.375], "texture": "#0"},
				"up": {"uv": [7.375, 12.375, 7.375, 12.375], "texture": "#0"},
				"down": {"uv": [7.375, 12.375, 7.375, 12.375], "texture": "#0"}
			}
		},
		{
			"from": [8.71409, 9.05547, 5.512],
			"to": [9.57809, 9.80747, 5.892],
			"rotation": {"angle": 0, "axis": "y", "origin": [9.445, 9.41537, 3.09618]},
			"faces": {
				"north": {"uv": [7.375, 12.375, 7.375, 12.375], "rotation": 180, "texture": "#0"},
				"east": {"uv": [7.375, 12.375, 7.375, 12.375], "texture": "#0"},
				"south": {"uv": [7.375, 12.375, 7.375, 12.375], "texture": "#0"},
				"west": {"uv": [7.375, 12.375, 7.375, 12.375], "texture": "#0"},
				"up": {"uv": [7.375, 12.375, 7.375, 12.375], "texture": "#0"},
				"down": {"uv": [7.375, 12.375, 7.375, 12.375], "texture": "#0"}
			}
		},
		{
			"from": [9.10132, 9.47994, 4.584],
			"to": [9.58132, 9.81594, 5.892],
			"rotation": {"angle": -22.5, "axis": "z", "origin": [9.56532, 9.74394, 5.222]},
			"faces": {
				"north": {"uv": [7.375, 12.375, 7.375, 12.375], "rotation": 180, "texture": "#0"},
				"east": {"uv": [7.375, 12.375, 7.375, 12.375], "texture": "#0"},
				"south": {"uv": [7.375, 12.375, 7.375, 12.375], "texture": "#0"},
				"west": {"uv": [7.375, 12.375, 7.375, 12.375], "texture": "#0"},
				"up": {"uv": [7.375, 12.375, 7.375, 12.375], "texture": "#0"},
				"down": {"uv": [7.375, 12.375, 7.375, 12.375], "texture": "#0"}
			}
		},
		{
			"from": [8.74819, 9.84403, 4.584],
			"to": [9.16419, 9.98803, 5.892],
			"rotation": {"angle": 0, "axis": "y", "origin": [8.70019, 9.91603, 5.222]},
			"faces": {
				"north": {"uv": [7.375, 12.375, 7.375, 12.375], "rotation": 180, "texture": "#0"},
				"east": {"uv": [7.375, 12.375, 7.375, 12.375], "texture": "#0"},
				"south": {"uv": [7.375, 12.375, 7.375, 12.375], "texture": "#0"},
				"west": {"uv": [7.375, 12.375, 7.375, 12.375], "texture": "#0"},
				"up": {"uv": [7.375, 12.375, 7.375, 12.375], "texture": "#0"},
				"down": {"uv": [7.375, 12.375, 7.375, 12.375], "texture": "#0"}
			}
		},
		{
			"from": [8.81219, 8.85203, 4.68],
			"to": [8.90819, 10.02003, 5.796],
			"rotation": {"angle": 0, "axis": "y", "origin": [8.70019, 9.94803, 5.222]},
			"faces": {
				"north": {"uv": [7.5, 10.75, 7.5, 10.75], "rotation": 180, "texture": "#0"},
				"east": {"uv": [7.5, 10.75, 7.5, 10.75], "texture": "#0"},
				"south": {"uv": [7.5, 10.75, 7.5, 10.75], "texture": "#0"},
				"west": {"uv": [7.5, 10.75, 7.5, 10.75], "texture": "#0"},
				"up": {"uv": [7.5, 10.75, 7.5, 10.75], "texture": "#0"},
				"down": {"uv": [7.5, 10.75, 7.5, 10.75], "texture": "#0"}
			}
		},
		{
			"from": [9.00419, 8.88403, 4.68],
			"to": [9.10019, 9.60403, 5.796],
			"rotation": {"angle": 22.5, "axis": "z", "origin": [9.14819, 9.46803, 5.238]},
			"faces": {
				"north": {"uv": [7.5, 10.75, 7.5, 10.75], "rotation": 180, "texture": "#0"},
				"east": {"uv": [7.5, 10.75, 7.5, 10.75], "texture": "#0"},
				"south": {"uv": [7.5, 10.75, 7.5, 10.75], "texture": "#0"},
				"west": {"uv": [7.5, 10.75, 7.5, 10.75], "texture": "#0"},
				"up": {"uv": [7.5, 10.75, 7.5, 10.75], "texture": "#0"},
				"down": {"uv": [7.5, 10.75, 7.5, 10.75], "texture": "#0"}
			}
		},
		{
			"from": [9.05791, 9.25308, 4.68],
			"to": [9.15391, 9.97308, 5.796],
			"rotation": {"angle": -22.5, "axis": "z", "origin": [9.20191, 9.61308, 5.238]},
			"faces": {
				"north": {"uv": [7.5, 10.75, 7.5, 10.75], "rotation": 180, "texture": "#0"},
				"east": {"uv": [7.5, 10.75, 7.5, 10.75], "texture": "#0"},
				"south": {"uv": [7.5, 10.75, 7.5, 10.75], "texture": "#0"},
				"west": {"uv": [7.5, 10.75, 7.5, 10.75], "texture": "#0"},
				"up": {"uv": [7.5, 10.75, 7.5, 10.75], "texture": "#0"},
				"down": {"uv": [7.5, 10.75, 7.5, 10.75], "texture": "#0"}
			}
		},
		{
			"from": [9.00419, 8.85203, 4.68],
			"to": [9.10019, 10.02003, 5.796],
			"rotation": {"angle": 0, "axis": "y", "origin": [8.89219, 9.94803, 5.222]},
			"faces": {
				"north": {"uv": [7.5, 10.75, 7.5, 10.75], "rotation": 180, "texture": "#0"},
				"east": {"uv": [7.5, 10.75, 7.5, 10.75], "texture": "#0"},
				"south": {"uv": [7.5, 10.75, 7.5, 10.75], "texture": "#0"},
				"west": {"uv": [7.5, 10.75, 7.5, 10.75], "texture": "#0"},
				"up": {"uv": [7.5, 10.75, 7.5, 10.75], "texture": "#0"},
				"down": {"uv": [7.5, 10.75, 7.5, 10.75], "texture": "#0"}
			}
		},
		{
			"from": [9.19619, 8.88403, 4.68],
			"to": [9.29219, 9.60403, 5.796],
			"rotation": {"angle": 22.5, "axis": "z", "origin": [9.14819, 9.46803, 5.238]},
			"faces": {
				"north": {"uv": [7.5, 10.75, 7.5, 10.75], "rotation": 180, "texture": "#0"},
				"east": {"uv": [7.5, 10.75, 7.5, 10.75], "texture": "#0"},
				"south": {"uv": [7.5, 10.75, 7.5, 10.75], "texture": "#0"},
				"west": {"uv": [7.5, 10.75, 7.5, 10.75], "texture": "#0"},
				"up": {"uv": [7.5, 10.75, 7.5, 10.75], "texture": "#0"},
				"down": {"uv": [7.5, 10.75, 7.5, 10.75], "texture": "#0"}
			}
		},
		{
			"from": [9.24991, 9.25308, 4.68],
			"to": [9.34591, 9.97308, 5.796],
			"rotation": {"angle": -22.5, "axis": "z", "origin": [9.20191, 9.61308, 5.238]},
			"faces": {
				"north": {"uv": [7.5, 10.75, 7.5, 10.75], "rotation": 180, "texture": "#0"},
				"east": {"uv": [7.5, 10.75, 7.5, 10.75], "texture": "#0"},
				"south": {"uv": [7.5, 10.75, 7.5, 10.75], "texture": "#0"},
				"west": {"uv": [7.5, 10.75, 7.5, 10.75], "texture": "#0"},
				"up": {"uv": [7.5, 10.75, 7.5, 10.75], "texture": "#0"},
				"down": {"uv": [7.5, 10.75, 7.5, 10.75], "texture": "#0"}
			}
		},
		{
			"from": [8.71896, 9.00782, 4.584],
			"to": [9.16696, 9.85582, 5.892],
			"rotation": {"angle": 0, "axis": "y", "origin": [8.70296, 9.91182, 5.222]},
			"faces": {
				"north": {"uv": [7.375, 12.375, 7.375, 12.375], "rotation": 180, "texture": "#0"},
				"east": {"uv": [7.375, 12.375, 7.375, 12.375], "texture": "#0"},
				"south": {"uv": [7.375, 12.375, 7.375, 12.375], "texture": "#0"},
				"west": {"uv": [7.375, 12.375, 7.375, 12.375], "texture": "#0"},
				"up": {"uv": [7.375, 12.375, 7.375, 12.375], "texture": "#0"},
				"down": {"uv": [7.375, 12.375, 7.375, 12.375], "texture": "#0"}
			}
		},
		{
			"from": [8.74819, 8.88403, 4.584],
			"to": [9.19619, 9.02803, 5.892],
			"rotation": {"angle": 0, "axis": "y", "origin": [8.73219, 8.95603, 5.222]},
			"faces": {
				"north": {"uv": [7.375, 12.375, 7.375, 12.375], "rotation": 180, "texture": "#0"},
				"east": {"uv": [7.375, 12.375, 7.375, 12.375], "texture": "#0"},
				"south": {"uv": [7.375, 12.375, 7.375, 12.375], "texture": "#0"},
				"west": {"uv": [7.375, 12.375, 7.375, 12.375], "texture": "#0"},
				"up": {"uv": [7.375, 12.375, 7.375, 12.375], "texture": "#0"},
				"down": {"uv": [7.375, 12.375, 7.375, 12.375], "texture": "#0"}
			}
		},
		{
			"from": [8.33219, 8.88403, 4.584],
			"to": [8.74819, 9.98803, 5.892],
			"rotation": {"angle": 0, "axis": "y", "origin": [8.73219, 8.95603, 5.222]},
			"faces": {
				"north": {"uv": [7.375, 12.375, 7.375, 12.375], "rotation": 180, "texture": "#0"},
				"east": {"uv": [7.375, 12.375, 7.375, 12.375], "texture": "#0"},
				"south": {"uv": [7.375, 12.375, 7.375, 12.375], "texture": "#0"},
				"west": {"uv": [7.375, 12.375, 7.375, 12.375], "texture": "#0"},
				"up": {"uv": [7.375, 12.375, 7.375, 12.375], "texture": "#0"},
				"down": {"uv": [7.375, 12.375, 7.375, 12.375], "texture": "#0"}
			}
		},
		{
			"from": [8.46019, 8.91603, 5.16],
			"to": [8.65219, 10.02003, 5.348],
			"rotation": {"angle": 45, "axis": "y", "origin": [8.57219, 9.43603, 5.238]},
			"faces": {
				"north": {"uv": [14.5, 6.875, 14.5, 6.875], "rotation": 180, "texture": "#0"},
				"east": {"uv": [14.5, 6.875, 14.5, 6.875], "texture": "#0"},
				"south": {"uv": [14.5, 6.875, 14.5, 6.875], "texture": "#0"},
				"west": {"uv": [14.5, 6.875, 14.5, 6.875], "texture": "#0"},
				"up": {"uv": [14.5, 6.875, 14.5, 6.875], "texture": "#0"},
				"down": {"uv": [14.5, 6.875, 14.5, 6.875], "texture": "#0"}
			}
		},
		{
			"from": [8.39619, 8.85203, 4.904],
			"to": [8.74819, 8.96403, 5.54],
			"rotation": {"angle": 0, "axis": "y", "origin": [8.73219, 8.95603, 5.222]},
			"faces": {
				"north": {"uv": [7.5, 10.25, 7.5, 10.25], "rotation": 180, "texture": "#0"},
				"east": {"uv": [7.5, 10.25, 7.5, 10.25], "texture": "#0"},
				"south": {"uv": [7.5, 10.25, 7.5, 10.25], "texture": "#0"},
				"west": {"uv": [7.375, 10.5, 7.375, 10.5], "texture": "#0"},
				"up": {"uv": [7.5, 10.25, 7.5, 10.25], "texture": "#0"},
				"down": {"uv": [7.75, 10.25, 7.75, 10.25], "texture": "#0"}
			}
		},
		{
			"from": [8.61589, 8.75603, 5.07987],
			"to": [8.71189, 8.86803, 5.36387],
			"rotation": {"angle": 0, "axis": "y", "origin": [8.75989, 8.95603, 5.23787]},
			"faces": {
				"north": {"uv": [6.75, 11.875, 6.75, 11.875], "rotation": 180, "texture": "#0"},
				"east": {"uv": [6.75, 11.875, 6.75, 11.875], "texture": "#0"},
				"south": {"uv": [6.75, 11.875, 6.75, 11.875], "texture": "#0"},
				"west": {"uv": [6.75, 11.875, 6.75, 11.875], "texture": "#0"},
				"up": {"uv": [6.75, 11.875, 6.75, 11.875], "texture": "#0"},
				"down": {"uv": [7.5, 10.5, 7.5, 10.5], "texture": "#0"}
			}
		},
		{
			"from": [8.43249, 8.75603, 5.07987],
			"to": [8.52849, 8.86803, 5.36387],
			"rotation": {"angle": 0, "axis": "y", "origin": [8.70449, 8.95603, 5.23787]},
			"faces": {
				"north": {"uv": [6.75, 11.875, 6.75, 11.875], "rotation": 180, "texture": "#0"},
				"east": {"uv": [6.75, 11.875, 6.75, 11.875], "texture": "#0"},
				"south": {"uv": [6.75, 11.875, 6.75, 11.875], "texture": "#0"},
				"west": {"uv": [6.75, 11.875, 6.75, 11.875], "texture": "#0"},
				"up": {"uv": [6.75, 11.875, 6.75, 11.875], "texture": "#0"},
				"down": {"uv": [7.5, 10.5, 7.5, 10.5], "texture": "#0"}
			}
		},
		{
			"from": [8.49219, 8.75603, 5.288],
			"to": [8.65219, 8.86803, 5.508],
			"rotation": {"angle": 0, "axis": "y", "origin": [8.73219, 8.95603, 5.222]},
			"faces": {
				"north": {"uv": [6.75, 11.875, 6.75, 11.875], "rotation": 180, "texture": "#0"},
				"east": {"uv": [6.75, 11.875, 6.75, 11.875], "texture": "#0"},
				"south": {"uv": [6.75, 11.875, 6.75, 11.875], "texture": "#0"},
				"west": {"uv": [6.75, 11.875, 6.75, 11.875], "texture": "#0"},
				"up": {"uv": [6.75, 11.875, 6.75, 11.875], "texture": "#0"},
				"down": {"uv": [7.5, 10.5, 7.5, 10.5], "texture": "#0"}
			}
		},
		{
			"from": [8.49219, 8.75603, 4.936],
			"to": [8.65219, 8.86803, 5.156],
			"rotation": {"angle": 0, "axis": "y", "origin": [8.73219, 8.95603, 5.222]},
			"faces": {
				"north": {"uv": [6.75, 11.875, 6.75, 11.875], "rotation": 180, "texture": "#0"},
				"east": {"uv": [6.75, 11.875, 6.75, 11.875], "texture": "#0"},
				"south": {"uv": [6.75, 11.875, 6.75, 11.875], "texture": "#0"},
				"west": {"uv": [6.75, 11.875, 6.75, 11.875], "texture": "#0"},
				"up": {"uv": [6.75, 11.875, 6.75, 11.875], "texture": "#0"},
				"down": {"uv": [7.5, 10.5, 7.5, 10.5], "texture": "#0"}
			}
		},
		{
			"from": [8.59555, 8.75603, 5.40439],
			"to": [8.75555, 8.86803, 5.56039],
			"rotation": {"angle": -22.5, "axis": "y", "origin": [8.83555, 8.95603, 5.27439]},
			"faces": {
				"north": {"uv": [6.75, 11.875, 6.75, 11.875], "rotation": 180, "texture": "#0"},
				"east": {"uv": [6.75, 11.875, 6.75, 11.875], "texture": "#0"},
				"south": {"uv": [6.75, 11.875, 6.75, 11.875], "texture": "#0"},
				"west": {"uv": [6.75, 11.875, 6.75, 11.875], "texture": "#0"},
				"up": {"uv": [6.75, 11.875, 6.75, 11.875], "texture": "#0"},
				"down": {"uv": [7.5, 10.5, 7.5, 10.5], "texture": "#0"}
			}
		},
		{
			"from": [8.40457, 8.75603, 5.37872],
			"to": [8.56457, 8.86803, 5.53472],
			"rotation": {"angle": 22.5, "axis": "y", "origin": [8.38121, 8.81203, 5.30111]},
			"faces": {
				"north": {"uv": [6.75, 11.875, 6.75, 11.875], "rotation": 180, "texture": "#0"},
				"east": {"uv": [6.75, 11.875, 6.75, 11.875], "texture": "#0"},
				"south": {"uv": [6.75, 11.875, 6.75, 11.875], "texture": "#0"},
				"west": {"uv": [6.75, 11.875, 6.75, 11.875], "texture": "#0"},
				"up": {"uv": [6.75, 11.875, 6.75, 11.875], "texture": "#0"},
				"down": {"uv": [7.5, 10.5, 7.5, 10.5], "texture": "#0"}
			}
		},
		{
			"from": [8.52367, 8.75603, 5.03774],
			"to": [8.68367, 8.86803, 5.19374],
			"rotation": {"angle": -22.5, "axis": "y", "origin": [8.76367, 8.95603, 4.90774]},
			"faces": {
				"north": {"uv": [6.75, 11.875, 6.75, 11.875], "rotation": 180, "texture": "#0"},
				"east": {"uv": [6.75, 11.875, 6.75, 11.875], "texture": "#0"},
				"south": {"uv": [6.75, 11.875, 6.75, 11.875], "texture": "#0"},
				"west": {"uv": [6.75, 11.875, 6.75, 11.875], "texture": "#0"},
				"up": {"uv": [6.75, 11.875, 6.75, 11.875], "texture": "#0"},
				"down": {"uv": [7.5, 10.5, 7.5, 10.5], "texture": "#0"}
			}
		},
		{
			"from": [8.57981, 8.75603, 4.90928],
			"to": [8.73981, 8.86803, 5.06528],
			"rotation": {"angle": 22.5, "axis": "y", "origin": [8.76317, 8.81203, 5.14289]},
			"faces": {
				"north": {"uv": [6.75, 11.875, 6.75, 11.875], "rotation": 180, "texture": "#0"},
				"east": {"uv": [6.75, 11.875, 6.75, 11.875], "texture": "#0"},
				"south": {"uv": [6.75, 11.875, 6.75, 11.875], "texture": "#0"},
				"west": {"uv": [6.75, 11.875, 6.75, 11.875], "texture": "#0"},
				"up": {"uv": [6.75, 11.875, 6.75, 11.875], "texture": "#0"},
				"down": {"uv": [7.5, 10.5, 7.5, 10.5], "texture": "#0"}
			}
		},
		{
			"from": [9.22332, 9.24385, 4.584],
			"to": [9.67132, 9.57985, 5.892],
			"rotation": {"angle": 22.5, "axis": "z", "origin": [10.11423, 8.99575, 3.09618]},
			"faces": {
				"north": {"uv": [7.375, 12.375, 7.375, 12.375], "rotation": 180, "texture": "#0"},
				"east": {"uv": [7.375, 12.375, 7.375, 12.375], "texture": "#0"},
				"south": {"uv": [7.375, 12.375, 7.375, 12.375], "texture": "#0"},
				"west": {"uv": [7.375, 12.375, 7.375, 12.375], "texture": "#0"},
				"up": {"uv": [7.375, 12.375, 7.375, 12.375], "texture": "#0"},
				"down": {"uv": [7.375, 12.375, 7.375, 12.375], "texture": "#0"}
			}
		},
		{
			"from": [8.20419, 8.94803, 4.584],
			"to": [8.74819, 9.09203, 5.892],
			"rotation": {"angle": 0, "axis": "y", "origin": [8.73219, 8.15603, 5.222]},
			"faces": {
				"north": {"uv": [7.375, 12.375, 7.375, 12.375], "rotation": 180, "texture": "#0"},
				"east": {"uv": [7.375, 12.375, 7.375, 12.375], "texture": "#0"},
				"south": {"uv": [7.375, 12.375, 7.375, 12.375], "texture": "#0"},
				"west": {"uv": [7.375, 12.375, 7.375, 12.375], "texture": "#0"},
				"up": {"uv": [7.375, 12.375, 7.375, 12.375], "texture": "#0"},
				"down": {"uv": [7.375, 12.375, 7.375, 12.375], "texture": "#0"}
			}
		},
		{
			"from": [8.20419, 9.74803, 4.584],
			"to": [8.74819, 9.89203, 5.892],
			"rotation": {"angle": 0, "axis": "y", "origin": [8.73219, 8.95603, 5.222]},
			"faces": {
				"north": {"uv": [7.375, 12.375, 7.375, 12.375], "rotation": 180, "texture": "#0"},
				"east": {"uv": [7.375, 12.375, 7.375, 12.375], "texture": "#0"},
				"south": {"uv": [7.375, 12.375, 7.375, 12.375], "texture": "#0"},
				"west": {"uv": [7.375, 12.375, 7.375, 12.375], "texture": "#0"},
				"up": {"uv": [7.375, 12.375, 7.375, 12.375], "texture": "#0"},
				"down": {"uv": [7.375, 12.375, 7.375, 12.375], "texture": "#0"}
			}
		}
	],
	"display": {
		"thirdperson_righthand": {
			"rotation": [0.5, 0, 1.25],
			"translation": [-1.25, -0.75, -6],
			"scale": [1, 1, 0.83]
		},
		"thirdperson_lefthand": {
			"rotation": [3, 0, 0],
			"translation": [-0.75, -0.75, -5.75],
			"scale": [1, 1, 0.83]
		},
		"firstperson_righthand": {
			"rotation": [1, 1, 0],
			"translation": [-5.25, 3.5, -0.75],
			"scale": [1.19, 1.14, 0.87]
		},
		"firstperson_lefthand": {
			"rotation": [1, 1, 0],
			"translation": [-3.5, 3.25, -4.5],
			"scale": [1.19, 1.14, 0.87]
		},
		"ground": {
			"translation": [0, 0, -3.25]
		},
		"gui": {
			"rotation": [11, 16, -16],
			"translation": [-0.75, -0.25, 0],
			"scale": [1.25, 1.28, 1.60945]
		},
		"head": {
			"rotation": [0, -139, 90],
			"translation": [2.5, 6.5, 4.5],
			"scale": [1.36, 1.36, 1.36]
		},
		"fixed": {
			"rotation": [0, -90, 0],
			"translation": [4, 0, -1.75],
			"scale": [1.58, 1.39, 1.28]
		}
	}
}