{
	"credit": "Made with Blockbench",
	"textures": {
		"0": "gci:items/common/all_in_one",
		"particle": "gci:items/common/all_in_one"
	},
	"elements": [
		{
			"from": [7.71474, 9.10946, 18.30013],
			"to": [8.33874, 10.03586, 18.90973],
			"rotation": {"angle": 0, "axis": "y", "origin": [7.71644, 9.75096, -13.75427]},
			"faces": {
				"north": {"uv": [1.25, 1.125, 1.375, 1.125], "rotation": 270, "texture": "#0"},
				"east": {"uv": [1.25, 1.125, 1.375, 1.125], "rotation": 270, "texture": "#0"},
				"south": {"uv": [1.25, 1.125, 1.375, 1.125], "rotation": 270, "texture": "#0"},
				"west": {"uv": [1.25, 1.125, 1.375, 1.125], "rotation": 270, "texture": "#0"},
				"up": {"uv": [1.25, 1.125, 1.375, 1.125], "rotation": 270, "texture": "#0"},
				"down": {"uv": [1.25, 1.125, 1.375, 1.125], "rotation": 270, "texture": "#0"}
			}
		},
		{
			"from": [7.90674, 9.87608, 18.83773],
			"to": [8.14674, 9.99608, 25.51453],
			"rotation": {"angle": 0, "axis": "y", "origin": [8.02674, 9.93608, 22.17613]},
			"faces": {
				"north": {"uv": [3.75, 3.625, 4.375, 3.625], "rotation": 270, "texture": "#0"},
				"east": {"uv": [3.75, 3.5, 4.375, 3.5], "rotation": 270, "texture": "#0"},
				"south": {"uv": [3.75, 3.5, 4.375, 3.5], "rotation": 270, "texture": "#0"},
				"west": {"uv": [3.75, 3.5, 4.375, 3.5], "rotation": 270, "texture": "#0"},
				"up": {"uv": [3.75, 3.5, 4.375, 3.5], "rotation": 270, "texture": "#0"},
				"down": {"uv": [3.75, 3.5, 4.375, 3.5], "rotation": 270, "texture": "#0"}
			}
		},
		{
			"from": [7.90674, 9.41667, 18.83773],
			"to": [8.14674, 9.53667, 25.51453],
			"rotation": {"angle": 0, "axis": "y", "origin": [8.16537, 9.64894, 22.17613]},
			"faces": {
				"north": {"uv": [3.75, 3.625, 4.375, 3.625], "rotation": 90, "texture": "#0"},
				"east": {"uv": [3.75, 3.5, 4.375, 3.5], "rotation": 90, "texture": "#0"},
				"south": {"uv": [3.75, 3.5, 4.375, 3.5], "rotation": 90, "texture": "#0"},
				"west": {"uv": [3.75, 3.5, 4.375, 3.5], "rotation": 90, "texture": "#0"},
				"up": {"uv": [3.75, 3.5, 4.375, 3.5], "rotation": 90, "texture": "#0"},
				"down": {"uv": [3.75, 3.5, 4.375, 3.5], "rotation": 90, "texture": "#0"}
			}
		},
		{
			"from": [7.73703, 9.58638, 18.83773],
			"to": [7.85703, 9.82638, 25.51453],
			"rotation": {"angle": 0, "axis": "y", "origin": [7.79703, 9.70638, 22.17613]},
			"faces": {
				"north": {"uv": [3.75, 3.625, 4.375, 3.625], "texture": "#0"},
				"east": {"uv": [3.75, 3.5, 4.375, 3.5], "rotation": 180, "texture": "#0"},
				"south": {"uv": [3.75, 3.5, 4.375, 3.5], "rotation": 180, "texture": "#0"},
				"west": {"uv": [3.75, 3.5, 4.375, 3.5], "rotation": 180, "texture": "#0"},
				"up": {"uv": [3.75, 3.5, 4.375, 3.5], "rotation": 180, "texture": "#0"},
				"down": {"uv": [3.75, 3.5, 4.375, 3.5], "rotation": 180, "texture": "#0"}
			}
		},
		{
			"from": [8.19644, 9.58638, 18.83773],
			"to": [8.31644, 9.82638, 25.51453],
			"rotation": {"angle": 0, "axis": "y", "origin": [8.16537, 9.64894, 22.17613]},
			"faces": {
				"north": {"uv": [3.75, 3.625, 4.375, 3.625], "rotation": 180, "texture": "#0"},
				"east": {"uv": [3.75, 3.5, 4.375, 3.5], "texture": "#0"},
				"south": {"uv": [3.75, 3.5, 4.375, 3.5], "texture": "#0"},
				"west": {"uv": [3.75, 3.5, 4.375, 3.5], "texture": "#0"},
				"up": {"uv": [3.75, 3.5, 4.375, 3.5], "texture": "#0"},
				"down": {"uv": [3.75, 3.5, 4.375, 3.5], "texture": "#0"}
			}
		},
		{
			"from": [7.74431, 9.48394, 18.83773],
			"to": [7.98431, 9.60394, 25.51453],
			"rotation": {"angle": -45, "axis": "z", "origin": [7.86431, 9.54394, 22.17613]},
			"faces": {
				"north": {"uv": [3.75, 3.625, 4.375, 3.625], "rotation": 90, "texture": "#0"},
				"east": {"uv": [3.75, 3.5, 4.375, 3.5], "rotation": 90, "texture": "#0"},
				"south": {"uv": [3.75, 3.5, 4.375, 3.5], "rotation": 90, "texture": "#0"},
				"west": {"uv": [3.75, 3.5, 4.375, 3.5], "rotation": 90, "texture": "#0"},
				"up": {"uv": [3.75, 3.5, 4.375, 3.5], "rotation": 90, "texture": "#0"},
				"down": {"uv": [3.75, 3.5, 4.375, 3.5], "rotation": 90, "texture": "#0"}
			}
		},
		{
			"from": [7.90674, 9.76123, 18.83773],
			"to": [8.14674, 9.88123, 25.51453],
			"rotation": {"angle": -45, "axis": "z", "origin": [8.16537, 9.64894, 22.17613]},
			"faces": {
				"north": {"uv": [3.75, 3.625, 4.375, 3.625], "rotation": 270, "texture": "#0"},
				"east": {"uv": [3.75, 3.5, 4.375, 3.5], "rotation": 270, "texture": "#0"},
				"south": {"uv": [3.75, 3.5, 4.375, 3.5], "rotation": 270, "texture": "#0"},
				"west": {"uv": [3.75, 3.5, 4.375, 3.5], "rotation": 270, "texture": "#0"},
				"up": {"uv": [3.75, 3.5, 4.375, 3.5], "rotation": 270, "texture": "#0"},
				"down": {"uv": [3.75, 3.5, 4.375, 3.5], "rotation": 270, "texture": "#0"}
			}
		},
		{
			"from": [7.74431, 9.8088, 18.83773],
			"to": [7.98431, 9.9288, 25.51453],
			"rotation": {"angle": 45, "axis": "z", "origin": [7.86431, 9.8688, 22.17613]},
			"faces": {
				"north": {"uv": [3.75, 3.625, 4.375, 3.625], "rotation": 270, "texture": "#0"},
				"east": {"uv": [3.75, 3.5, 4.375, 3.5], "rotation": 270, "texture": "#0"},
				"south": {"uv": [3.75, 3.5, 4.375, 3.5], "rotation": 270, "texture": "#0"},
				"west": {"uv": [3.75, 3.5, 4.375, 3.5], "rotation": 270, "texture": "#0"},
				"up": {"uv": [3.75, 3.5, 4.375, 3.5], "rotation": 270, "texture": "#0"},
				"down": {"uv": [3.75, 3.5, 4.375, 3.5], "rotation": 270, "texture": "#0"}
			}
		},
		{
			"from": [8.19644, 9.47152, 18.83773],
			"to": [8.31644, 9.71152, 25.51453],
			"rotation": {"angle": -45, "axis": "z", "origin": [8.16537, 9.64894, 22.17613]},
			"faces": {
				"north": {"uv": [3.75, 3.625, 4.375, 3.625], "rotation": 180, "texture": "#0"},
				"east": {"uv": [3.75, 3.5, 4.375, 3.5], "texture": "#0"},
				"south": {"uv": [3.75, 3.5, 4.375, 3.5], "texture": "#0"},
				"west": {"uv": [3.75, 3.5, 4.375, 3.5], "texture": "#0"},
				"up": {"uv": [3.75, 3.5, 4.375, 3.5], "texture": "#0"},
				"down": {"uv": [3.75, 3.5, 4.375, 3.5], "texture": "#0"}
			}
		},
		{
			"from": [7.86834, 9.91448, 20.71933],
			"to": [8.18514, 10.14968, 25.62973],
			"rotation": {"angle": 0, "axis": "y", "origin": [8.02674, 10.01288, 22.17613]},
			"faces": {
				"north": {"uv": [3, 3.25, 3, 3.25], "rotation": 270, "texture": "#0"},
				"east": {"uv": [3, 3.25, 3, 3.25], "rotation": 270, "texture": "#0"},
				"south": {"uv": [3, 3.25, 3, 3.25], "rotation": 270, "texture": "#0"},
				"west": {"uv": [3, 3.25, 3, 3.25], "rotation": 270, "texture": "#0"},
				"up": {"uv": [3, 3.25, 3, 3.25], "rotation": 270, "texture": "#0"},
				"down": {"uv": [3, 3.25, 3, 3.25], "rotation": 270, "texture": "#0"}
			}
		},
		{
			"from": [7.82821, 9.91275, 25.59133],
			"to": [8.21461, 10.14795, 25.74493],
			"rotation": {"angle": 0, "axis": "y", "origin": [7.98665, 10.01115, 22.29133]},
			"faces": {
				"north": {"uv": [7.625, 12, 7.625, 12], "rotation": 270, "texture": "#0"},
				"east": {"uv": [7.625, 12, 7.625, 12], "rotation": 270, "texture": "#0"},
				"south": {"uv": [7.625, 12, 7.625, 12], "rotation": 270, "texture": "#0"},
				"west": {"uv": [7.625, 12, 7.625, 12], "rotation": 270, "texture": "#0"},
				"up": {"uv": [7.625, 12, 7.625, 12], "rotation": 270, "texture": "#0"},
				"down": {"uv": [7.625, 12, 7.625, 12], "rotation": 270, "texture": "#0"}
			}
		},
		{
			"from": [7.59954, 6.84248, 25.02013],
			"to": [8.45394, 9.84248, 25.62973],
			"rotation": {"angle": 0, "axis": "y", "origin": [8.02674, 10.01288, 22.17613]},
			"faces": {
				"north": {"uv": [3, 3.25, 3, 3.25], "rotation": 270, "texture": "#0"},
				"east": {"uv": [3, 3.25, 3, 3.25], "rotation": 270, "texture": "#0"},
				"south": {"uv": [3, 3.25, 3, 3.25], "rotation": 270, "texture": "#0"},
				"west": {"uv": [3, 3.25, 3, 3.25], "rotation": 270, "texture": "#0"},
				"up": {"uv": [3, 3.25, 3, 3.25], "rotation": 270, "texture": "#0"},
				"down": {"uv": [3, 3.25, 3, 3.25], "rotation": 270, "texture": "#0"}
			}
		},
		{
			"from": [7.52274, 6.80408, 25.59133],
			"to": [8.53074, 9.84248, 25.74493],
			"rotation": {"angle": 0, "axis": "y", "origin": [8.02674, 10.01288, 22.29133]},
			"faces": {
				"north": {"uv": [7.625, 12, 7.625, 12], "rotation": 270, "texture": "#0"},
				"east": {"uv": [7.625, 12, 7.625, 12], "rotation": 270, "texture": "#0"},
				"south": {"uv": [7.625, 12, 7.625, 12], "rotation": 270, "texture": "#0"},
				"west": {"uv": [7.625, 12, 7.625, 12], "rotation": 270, "texture": "#0"},
				"up": {"uv": [7.625, 12, 7.625, 12], "rotation": 270, "texture": "#0"},
				"down": {"uv": [7.625, 12, 7.625, 12], "rotation": 270, "texture": "#0"}
			}
		},
		{
			"from": [7.86834, 7.38488, 21.48253],
			"to": [8.18514, 7.84088, 25.48093],
			"rotation": {"angle": 22.5, "axis": "x", "origin": [8.02674, 7.53608, 24.05773]},
			"faces": {
				"north": {"uv": [4.125, 3, 4.125, 3], "rotation": 180, "texture": "#0"},
				"east": {"uv": [4.125, 3, 4.125, 3], "rotation": 180, "texture": "#0"},
				"south": {"uv": [4.125, 3, 4.125, 3], "rotation": 180, "texture": "#0"},
				"west": {"uv": [4.125, 3, 4.125, 3], "rotation": 180, "texture": "#0"},
				"up": {"uv": [4.125, 3, 4.125, 3], "rotation": 180, "texture": "#0"},
				"down": {"uv": [4.125, 3, 4.125, 3], "rotation": 180, "texture": "#0"}
			}
		},
		{
			"from": [7.86834, 8.57986, 22.31363],
			"to": [8.18514, 9.31426, 22.76963],
			"rotation": {"angle": -22.5, "axis": "x", "origin": [8.02674, 6.73906, 22.46483]},
			"faces": {
				"north": {"uv": [4.125, 3, 4.125, 3], "rotation": 270, "texture": "#0"},
				"east": {"uv": [4.125, 3, 4.125, 3], "rotation": 270, "texture": "#0"},
				"south": {"uv": [4.125, 3, 4.125, 3], "rotation": 270, "texture": "#0"},
				"west": {"uv": [4.125, 3, 4.125, 3], "rotation": 270, "texture": "#0"},
				"up": {"uv": [4.125, 3, 4.125, 3], "rotation": 270, "texture": "#0"},
				"down": {"uv": [4.125, 3, 4.125, 3], "rotation": 270, "texture": "#0"}
			}
		},
		{
			"from": [7.75314, 7.65451, 20.60527],
			"to": [8.26194, 7.84171, 22.10767],
			"rotation": {"angle": 45, "axis": "x", "origin": [8.00754, 7.8568, 21.68253]},
			"faces": {
				"north": {"uv": [1.375, 1, 1.375, 1], "rotation": 180, "texture": "#0"},
				"east": {"uv": [1.375, 1, 1.375, 1], "rotation": 180, "texture": "#0"},
				"south": {"uv": [1.375, 1, 1.375, 1], "rotation": 180, "texture": "#0"},
				"west": {"uv": [1.375, 1, 1.375, 1], "rotation": 180, "texture": "#0"},
				"up": {"uv": [1.375, 1, 1.375, 1], "rotation": 180, "texture": "#0"},
				"down": {"uv": [1.375, 1, 1.375, 1], "rotation": 180, "texture": "#0"}
			}
		},
		{
			"from": [7.75314, 7.68651, 20.60666],
			"to": [8.26194, 8.14251, 21.99386],
			"rotation": {"angle": 45, "axis": "x", "origin": [8.00754, 7.8568, 21.68253]},
			"faces": {
				"north": {"uv": [1.375, 1, 1.375, 1], "rotation": 180, "texture": "#0"},
				"east": {"uv": [1.375, 1, 1.375, 1], "rotation": 180, "texture": "#0"},
				"south": {"uv": [1.375, 1, 1.375, 1], "rotation": 180, "texture": "#0"},
				"west": {"uv": [1.375, 1, 1.375, 1], "rotation": 180, "texture": "#0"},
				"up": {"uv": [1.375, 1, 1.375, 1], "rotation": 180, "texture": "#0"},
				"down": {"uv": [1.375, 1, 1.375, 1], "rotation": 180, "texture": "#0"}
			}
		},
		{
			"from": [7.71474, 8.45029, 20.99899],
			"to": [8.30034, 8.64709, 21.19579],
			"rotation": {"angle": 45, "axis": "x", "origin": [8.00754, 8.54869, 21.09739]},
			"faces": {
				"north": {"uv": [14.5, 6.5, 14.5, 6.5], "rotation": 180, "texture": "#0"},
				"east": {"uv": [14.5, 6.5, 14.5, 6.5], "rotation": 180, "texture": "#0"},
				"south": {"uv": [14.5, 6.5, 14.5, 6.5], "rotation": 180, "texture": "#0"},
				"west": {"uv": [14.5, 6.5, 14.5, 6.5], "rotation": 180, "texture": "#0"},
				"up": {"uv": [14.5, 6.5, 14.5, 6.5], "rotation": 180, "texture": "#0"},
				"down": {"uv": [14.5, 6.5, 14.5, 6.5], "rotation": 180, "texture": "#0"}
			}
		},
		{
			"from": [7.79154, 8.41839, 20.81539],
			"to": [8.22354, 9.11439, 21.46339],
			"rotation": {"angle": 0, "axis": "y", "origin": [8.00754, 8.61279, 21.31219]},
			"faces": {
				"north": {"uv": [1.375, 1, 1.375, 1], "texture": "#0"},
				"east": {"uv": [1.375, 1, 1.375, 1], "rotation": 90, "texture": "#0"},
				"south": {"uv": [1.375, 1, 1.375, 1], "rotation": 180, "texture": "#0"},
				"west": {"uv": [1.375, 1, 1.375, 1], "rotation": 270, "texture": "#0"},
				"up": {"uv": [1.375, 1, 1.375, 1], "texture": "#0"},
				"down": {"uv": [1.375, 1, 1.375, 1], "rotation": 180, "texture": "#0"}
			}
		},
		{
			"from": [7.75314, 7.50722, 21.99789],
			"to": [8.26194, 8.00162, 22.07949],
			"rotation": {"angle": 22.5, "axis": "x", "origin": [8.00754, 7.8568, 21.68253]},
			"faces": {
				"north": {"uv": [1.375, 1, 1.375, 1], "rotation": 180, "texture": "#0"},
				"east": {"uv": [1.375, 1, 1.375, 1], "rotation": 180, "texture": "#0"},
				"south": {"uv": [1.375, 1, 1.375, 1], "rotation": 180, "texture": "#0"},
				"west": {"uv": [1.375, 1, 1.375, 1], "rotation": 180, "texture": "#0"},
				"up": {"uv": [1.375, 1, 1.375, 1], "rotation": 180, "texture": "#0"},
				"down": {"uv": [1.375, 1, 1.375, 1], "rotation": 180, "texture": "#0"}
			}
		},
		{
			"from": [7.75314, 7.54562, 21.95949],
			"to": [8.26194, 7.92482, 22.04109],
			"rotation": {"angle": 22.5, "axis": "x", "origin": [8.00754, 7.8568, 21.68253]},
			"faces": {
				"north": {"uv": [1.375, 1, 1.375, 1], "rotation": 180, "texture": "#0"},
				"east": {"uv": [1.375, 1, 1.375, 1], "rotation": 180, "texture": "#0"},
				"south": {"uv": [1.375, 1, 1.375, 1], "rotation": 180, "texture": "#0"},
				"west": {"uv": [1.375, 1, 1.375, 1], "rotation": 180, "texture": "#0"},
				"up": {"uv": [1.375, 1, 1.375, 1], "rotation": 180, "texture": "#0"},
				"down": {"uv": [1.375, 1, 1.375, 1], "rotation": 180, "texture": "#0"}
			}
		},
		{
			"from": [7.64036, 9.04904, 20.71933],
			"to": [7.95716, 9.43784, 25.62973],
			"rotation": {"angle": 45, "axis": "z", "origin": [7.79876, 9.30104, 22.17613]},
			"faces": {
				"north": {"uv": [3, 3.25, 3, 3.25], "rotation": 270, "texture": "#0"},
				"east": {"uv": [3, 3.25, 3, 3.25], "rotation": 270, "texture": "#0"},
				"south": {"uv": [3, 3.25, 3, 3.25], "rotation": 270, "texture": "#0"},
				"west": {"uv": [3, 3.25, 3, 3.25], "rotation": 270, "texture": "#0"},
				"up": {"uv": [3, 3.25, 3, 3.25], "rotation": 270, "texture": "#0"},
				"down": {"uv": [3, 3.25, 3, 3.25], "rotation": 270, "texture": "#0"}
			}
		},
		{
			"from": [7.86494, 9.01084, 20.71933],
			"to": [8.18174, 9.39964, 25.62973],
			"rotation": {"angle": 0, "axis": "y", "origin": [8.02334, 9.26284, 22.17613]},
			"faces": {
				"north": {"uv": [3, 3.25, 3, 3.25], "rotation": 270, "texture": "#0"},
				"east": {"uv": [3, 3.25, 3, 3.25], "rotation": 270, "texture": "#0"},
				"south": {"uv": [3, 3.25, 3, 3.25], "rotation": 270, "texture": "#0"},
				"west": {"uv": [3, 3.25, 3, 3.25], "rotation": 270, "texture": "#0"},
				"up": {"uv": [3, 3.25, 3, 3.25], "rotation": 270, "texture": "#0"},
				"down": {"uv": [3, 3.25, 3, 3.25], "rotation": 270, "texture": "#0"}
			}
		},
		{
			"from": [8.09631, 9.04904, 20.71933],
			"to": [8.41311, 9.43784, 25.62973],
			"rotation": {"angle": -45, "axis": "z", "origin": [8.25471, 9.30104, 22.17613]},
			"faces": {
				"north": {"uv": [3, 3.25, 3, 3.25], "rotation": 270, "texture": "#0"},
				"east": {"uv": [3, 3.25, 3, 3.25], "rotation": 270, "texture": "#0"},
				"south": {"uv": [3, 3.25, 3, 3.25], "rotation": 270, "texture": "#0"},
				"west": {"uv": [3, 3.25, 3, 3.25], "rotation": 270, "texture": "#0"},
				"up": {"uv": [3, 3.25, 3, 3.25], "rotation": 270, "texture": "#0"},
				"down": {"uv": [3, 3.25, 3, 3.25], "rotation": 270, "texture": "#0"}
			}
		},
		{
			"from": [7.74438, 9.77362, 20.71933],
			"to": [8.17158, 10.16722, 25.62973],
			"rotation": {"angle": -45, "axis": "z", "origin": [7.78518, 10.00882, 25.03693]},
			"faces": {
				"north": {"uv": [3, 3.25, 3, 3.25], "rotation": 180, "texture": "#0"},
				"east": {"uv": [3, 3.25, 3, 3.25], "rotation": 180, "texture": "#0"},
				"south": {"uv": [3, 3.25, 3, 3.25], "rotation": 180, "texture": "#0"},
				"west": {"uv": [3, 3.25, 3, 3.25], "rotation": 180, "texture": "#0"},
				"up": {"uv": [3, 3.25, 3, 3.25], "rotation": 180, "texture": "#0"},
				"down": {"uv": [3, 3.25, 3, 3.25], "rotation": 180, "texture": "#0"}
			}
		},
		{
			"from": [7.66585, 9.71758, 25.59133],
			"to": [8.13145, 10.14958, 25.74493],
			"rotation": {"angle": -45, "axis": "z", "origin": [7.74505, 9.95278, 25.15213]},
			"faces": {
				"north": {"uv": [7.625, 12, 7.625, 12], "rotation": 180, "texture": "#0"},
				"east": {"uv": [7.625, 12, 7.625, 12], "rotation": 180, "texture": "#0"},
				"south": {"uv": [7.625, 12, 7.625, 12], "rotation": 180, "texture": "#0"},
				"west": {"uv": [7.625, 12, 7.625, 12], "rotation": 180, "texture": "#0"},
				"up": {"uv": [7.625, 12, 7.625, 12], "rotation": 180, "texture": "#0"},
				"down": {"uv": [7.625, 12, 7.625, 12], "rotation": 180, "texture": "#0"}
			}
		},
		{
			"from": [7.9203, 9.77362, 20.71933],
			"to": [8.3091, 10.16722, 25.62973],
			"rotation": {"angle": 45, "axis": "z", "origin": [8.2683, 10.00882, 25.03693]},
			"faces": {
				"north": {"uv": [3, 3.25, 3, 3.25], "rotation": 180, "texture": "#0"},
				"east": {"uv": [3, 3.25, 3, 3.25], "rotation": 180, "texture": "#0"},
				"south": {"uv": [3, 3.25, 3, 3.25], "rotation": 180, "texture": "#0"},
				"west": {"uv": [3, 3.25, 3, 3.25], "rotation": 180, "texture": "#0"},
				"up": {"uv": [3, 3.25, 3, 3.25], "rotation": 180, "texture": "#0"},
				"down": {"uv": [3, 3.25, 3, 3.25], "rotation": 180, "texture": "#0"}
			}
		},
		{
			"from": [7.96043, 9.71758, 25.59133],
			"to": [8.38763, 10.14958, 25.74493],
			"rotation": {"angle": 45, "axis": "z", "origin": [8.30843, 9.95278, 25.15213]},
			"faces": {
				"north": {"uv": [7.625, 12, 7.625, 12], "rotation": 180, "texture": "#0"},
				"east": {"uv": [7.625, 12, 7.625, 12], "rotation": 180, "texture": "#0"},
				"south": {"uv": [7.625, 12, 7.625, 12], "rotation": 180, "texture": "#0"},
				"west": {"uv": [7.625, 12, 7.625, 12], "rotation": 180, "texture": "#0"},
				"up": {"uv": [7.625, 12, 7.625, 12], "rotation": 180, "texture": "#0"},
				"down": {"uv": [7.625, 12, 7.625, 12], "rotation": 180, "texture": "#0"}
			}
		},
		{
			"from": [8.30505, 9.28576, 20.71933],
			"to": [8.46345, 9.87136, 25.62973],
			"rotation": {"angle": 0, "axis": "y", "origin": [8.42265, 9.71296, 25.03693]},
			"faces": {
				"north": {"uv": [3, 3.25, 3, 3.25], "rotation": 180, "texture": "#0"},
				"east": {"uv": [3, 3.25, 3, 3.25], "rotation": 180, "texture": "#0"},
				"south": {"uv": [3, 3.25, 3, 3.25], "rotation": 180, "texture": "#0"},
				"west": {"uv": [3, 3.25, 3, 3.25], "rotation": 180, "texture": "#0"},
				"up": {"uv": [3, 3.25, 3, 3.25], "rotation": 180, "texture": "#0"},
				"down": {"uv": [3, 3.25, 3, 3.25], "rotation": 180, "texture": "#0"}
			}
		},
		{
			"from": [7.59002, 9.28576, 20.71933],
			"to": [8.32442, 9.87136, 25.62973],
			"rotation": {"angle": 0, "axis": "y", "origin": [7.63082, 9.71296, 25.03693]},
			"faces": {
				"north": {"uv": [3, 3.25, 3, 3.25], "rotation": 180, "texture": "#0"},
				"east": {"uv": [3, 3.25, 3, 3.25], "rotation": 180, "texture": "#0"},
				"south": {"uv": [3, 3.25, 3, 3.25], "rotation": 180, "texture": "#0"},
				"west": {"uv": [3, 3.25, 3, 3.25], "rotation": 180, "texture": "#0"},
				"up": {"uv": [3, 3.25, 3, 3.25], "rotation": 180, "texture": "#0"},
				"down": {"uv": [3, 3.25, 3, 3.25], "rotation": 180, "texture": "#0"}
			}
		}
	],
	"display": {
		"thirdperson_righthand": {
			"rotation": [0.5, 0, 1.25],
			"translation": [-1.25, -0.75, -6],
			"scale": [1, 1, 0.83]
		},
		"thirdperson_lefthand": {
			"rotation": [3, 0, 0],
			"translation": [-0.75, -0.75, -5.75],
			"scale": [1, 1, 0.83]
		},
		"firstperson_righthand": {
			"rotation": [1, 1, 0],
			"translation": [-5.25, 3.5, -0.75],
			"scale": [1.19, 1.14, 0.87]
		},
		"firstperson_lefthand": {
			"rotation": [1, 1, 0],
			"translation": [-3.5, 3.25, -4.5],
			"scale": [1.19, 1.14, 0.87]
		},
		"ground": {
			"translation": [0, 0, -3.25]
		},
		"gui": {
			"rotation": [11, 16, -16],
			"translation": [-0.75, -0.25, 0],
			"scale": [1.25, 1.28, 1.60945]
		},
		"head": {
			"rotation": [0, -139, 90],
			"translation": [2.5, 6.5, 4.5],
			"scale": [1.36, 1.36, 1.36]
		},
		"fixed": {
			"rotation": [0, -90, 0],
			"translation": [4, 0, -1.75],
			"scale": [1.58, 1.39, 1.28]
		}
	}
}