{
	"credit": "Made with Blockbench",
	"textures": {
		"0": "gci:items/common/all_in_one",
		"particle": "gci:items/common/all_in_one"
	},
	"elements": [
		{
			"from": [8.12835, 8.36381, 5.192],
			"to": [8.25635, 8.53981, 7.108],
			"rotation": {"angle": 0, "axis": "y", "origin": [8.22435, 8.45181, 6.502]},
			"faces": {
				"north": {"uv": [3, 3, 3, 3], "texture": "#0"},
				"east": {"uv": [3, 3, 3, 3], "rotation": 180, "texture": "#0"},
				"south": {"uv": [3, 3, 3, 3], "rotation": 180, "texture": "#0"},
				"west": {"uv": [3, 3, 3, 3], "rotation": 180, "texture": "#0"},
				"up": {"uv": [3, 3, 3, 3], "rotation": 180, "texture": "#0"},
				"down": {"uv": [3, 3, 3, 3], "rotation": 180, "texture": "#0"}
			}
		},
		{
			"from": [8.0835, 8.48341, 5.192],
			"to": [8.2595, 8.61141, 7.108],
			"rotation": {"angle": -45, "axis": "z", "origin": [8.1715, 8.57941, 6.502]},
			"faces": {
				"north": {"uv": [3, 3, 3, 3], "rotation": 90, "texture": "#0"},
				"east": {"uv": [3, 3, 3, 3], "rotation": 90, "texture": "#0"},
				"south": {"uv": [3, 3, 3, 3], "rotation": 90, "texture": "#0"},
				"west": {"uv": [3, 3, 3, 3], "rotation": 90, "texture": "#0"},
				"up": {"uv": [3, 3, 3, 3], "rotation": 90, "texture": "#0"},
				"down": {"uv": [3, 3, 3, 3], "rotation": 90, "texture": "#0"}
			}
		},
		{
			"from": [7.9559, 8.53626, 5.192],
			"to": [8.1319, 8.66426, 7.108],
			"rotation": {"angle": 0, "axis": "y", "origin": [8.0278, 8.25335, 5.14418]},
			"faces": {
				"north": {"uv": [3, 3, 3, 3], "rotation": 90, "texture": "#0"},
				"east": {"uv": [3, 3, 3, 3], "rotation": 90, "texture": "#0"},
				"south": {"uv": [3, 3, 3, 3], "rotation": 90, "texture": "#0"},
				"west": {"uv": [3, 3, 3, 3], "rotation": 90, "texture": "#0"},
				"up": {"uv": [3, 3, 3, 3], "rotation": 90, "texture": "#0"},
				"down": {"uv": [3, 3, 3, 3], "rotation": 90, "texture": "#0"}
			}
		},
		{
			"from": [7.76765, 8.42761, 5.192],
			"to": [7.89565, 8.60361, 7.108],
			"rotation": {"angle": -45, "axis": "z", "origin": [7.93499, 8.4067, 6.502]},
			"faces": {
				"north": {"uv": [3, 3, 3, 3], "rotation": 180, "texture": "#0"},
				"east": {"uv": [3, 3, 3, 3], "texture": "#0"},
				"south": {"uv": [3, 3, 3, 3], "texture": "#0"},
				"west": {"uv": [3, 3, 3, 3], "texture": "#0"},
				"up": {"uv": [3, 3, 3, 3], "texture": "#0"},
				"down": {"uv": [3, 3, 3, 3], "texture": "#0"}
			}
		},
		{
			"from": [7.8921, 8.30316, 5.192],
			"to": [8.0681, 8.43116, 7.108],
			"rotation": {"angle": -45, "axis": "z", "origin": [7.93499, 8.4067, 6.502]},
			"faces": {
				"north": {"uv": [3, 3, 3, 3], "rotation": 270, "texture": "#0"},
				"east": {"uv": [3, 3, 3, 3], "rotation": 270, "texture": "#0"},
				"south": {"uv": [3, 3, 3, 3], "rotation": 270, "texture": "#0"},
				"west": {"uv": [3, 3, 3, 3], "rotation": 270, "texture": "#0"},
				"up": {"uv": [3, 3, 3, 3], "rotation": 270, "texture": "#0"},
				"down": {"uv": [3, 3, 3, 3], "rotation": 270, "texture": "#0"}
			}
		},
		{
			"from": [7.8921, 8.30316, 6.856],
			"to": [8.0681, 8.62316, 7.108],
			"rotation": {"angle": -45, "axis": "z", "origin": [7.93499, 8.4067, 6.502]},
			"faces": {
				"north": {"uv": [3, 3, 3, 3], "rotation": 270, "texture": "#0"},
				"east": {"uv": [3, 3, 3, 3], "rotation": 270, "texture": "#0"},
				"south": {"uv": [3, 3, 3, 3], "rotation": 270, "texture": "#0"},
				"west": {"uv": [3, 3, 3, 3], "rotation": 270, "texture": "#0"},
				"up": {"uv": [3, 3, 3, 3], "rotation": 270, "texture": "#0"},
				"down": {"uv": [3, 3, 3, 3], "rotation": 270, "texture": "#0"}
			}
		},
		{
			"from": [7.83145, 8.36381, 5.192],
			"to": [7.95945, 8.53981, 7.108],
			"rotation": {"angle": 0, "axis": "y", "origin": [7.93499, 8.4067, 6.502]},
			"faces": {
				"north": {"uv": [3, 3, 3, 3], "rotation": 180, "texture": "#0"},
				"east": {"uv": [3, 3, 3, 3], "texture": "#0"},
				"south": {"uv": [3, 3, 3, 3], "texture": "#0"},
				"west": {"uv": [3, 3, 3, 3], "texture": "#0"},
				"up": {"uv": [3, 3, 3, 3], "texture": "#0"},
				"down": {"uv": [3, 3, 3, 3], "texture": "#0"}
			}
		},
		{
			"from": [7.9559, 8.23936, 5.192],
			"to": [8.1319, 8.36736, 7.108],
			"rotation": {"angle": 0, "axis": "y", "origin": [7.93499, 8.4067, 6.502]},
			"faces": {
				"north": {"uv": [3, 3, 3, 3], "rotation": 270, "texture": "#0"},
				"east": {"uv": [3, 3, 3, 3], "rotation": 270, "texture": "#0"},
				"south": {"uv": [3, 3, 3, 3], "rotation": 270, "texture": "#0"},
				"west": {"uv": [3, 3, 3, 3], "rotation": 270, "texture": "#0"},
				"up": {"uv": [3, 3, 3, 3], "rotation": 270, "texture": "#0"},
				"down": {"uv": [3, 3, 3, 3], "rotation": 270, "texture": "#0"}
			}
		},
		{
			"from": [7.9559, 8.17536, 7.72],
			"to": [8.1319, 8.65536, 8.356],
			"rotation": {"angle": 0, "axis": "y", "origin": [7.93499, 8.4067, 7.75]},
			"faces": {
				"north": {"uv": [4, 3.125, 4, 3.125], "rotation": 270, "texture": "#0"},
				"east": {"uv": [4, 3.125, 4, 3.125], "rotation": 270, "texture": "#0"},
				"south": {"uv": [4, 3.125, 4, 3.125], "rotation": 270, "texture": "#0"},
				"west": {"uv": [4, 3.125, 4, 3.125], "rotation": 270, "texture": "#0"},
				"up": {"uv": [4, 3.125, 4, 3.125], "rotation": 270, "texture": "#0"},
				"down": {"uv": [4, 3.125, 4, 3.125], "rotation": 270, "texture": "#0"}
			}
		},
		{
			"from": [7.9559, 7.99276, 7.59603],
			"to": [8.1319, 8.05676, 8.23203],
			"rotation": {"angle": 0, "axis": "y", "origin": [7.93499, 8.1921, 7.62603]},
			"faces": {
				"north": {"uv": [4, 3.125, 4, 3.125], "rotation": 270, "texture": "#0"},
				"east": {"uv": [4, 3.125, 4, 3.125], "rotation": 270, "texture": "#0"},
				"south": {"uv": [4, 3.125, 4, 3.125], "rotation": 270, "texture": "#0"},
				"west": {"uv": [4, 3.125, 4, 3.125], "rotation": 270, "texture": "#0"},
				"up": {"uv": [4, 3.125, 4, 3.125], "rotation": 270, "texture": "#0"},
				"down": {"uv": [4, 3.125, 4, 3.125], "rotation": 270, "texture": "#0"}
			}
		},
		{
			"from": [7.9559, 7.99276, 7.85203],
			"to": [8.1319, 8.28076, 8.23203],
			"rotation": {"angle": 0, "axis": "y", "origin": [7.93499, 8.1921, 7.62603]},
			"faces": {
				"north": {"uv": [4, 3.125, 4, 3.125], "rotation": 270, "texture": "#0"},
				"east": {"uv": [4, 3.125, 4, 3.125], "rotation": 270, "texture": "#0"},
				"south": {"uv": [4, 3.125, 4, 3.125], "rotation": 270, "texture": "#0"},
				"west": {"uv": [4, 3.125, 4, 3.125], "rotation": 270, "texture": "#0"},
				"up": {"uv": [4, 3.125, 4, 3.125], "rotation": 270, "texture": "#0"},
				"down": {"uv": [4, 3.125, 4, 3.125], "rotation": 270, "texture": "#0"}
			}
		},
		{
			"from": [7.9559, 8.50278, 7.60395],
			"to": [8.1319, 8.63078, 8.23995],
			"rotation": {"angle": -22.5, "axis": "x", "origin": [8.0439, 8.74278, 7.92195]},
			"faces": {
				"north": {"uv": [4, 3.125, 4, 3.125], "rotation": 270, "texture": "#0"},
				"east": {"uv": [4, 3.125, 4, 3.125], "rotation": 270, "texture": "#0"},
				"south": {"uv": [4, 3.125, 4, 3.125], "rotation": 270, "texture": "#0"},
				"west": {"uv": [4, 3.125, 4, 3.125], "rotation": 270, "texture": "#0"},
				"up": {"uv": [4, 3.125, 4, 3.125], "rotation": 270, "texture": "#0"},
				"down": {"uv": [4, 3.125, 4, 3.125], "rotation": 270, "texture": "#0"}
			}
		},
		{
			"from": [7.9559, 7.79595, 7.63122],
			"to": [8.1319, 7.92395, 7.72322],
			"rotation": {"angle": 45, "axis": "x", "origin": [8.0439, 7.96883, 7.92845]},
			"faces": {
				"north": {"uv": [4, 3.125, 4, 3.125], "rotation": 270, "texture": "#0"},
				"east": {"uv": [4, 3.125, 4, 3.125], "rotation": 270, "texture": "#0"},
				"south": {"uv": [4, 3.125, 4, 3.125], "rotation": 270, "texture": "#0"},
				"west": {"uv": [4, 3.125, 4, 3.125], "rotation": 270, "texture": "#0"},
				"up": {"uv": [4, 3.125, 4, 3.125], "rotation": 270, "texture": "#0"},
				"down": {"uv": [4, 3.125, 4, 3.125], "rotation": 270, "texture": "#0"}
			}
		},
		{
			"from": [7.9559, 8.64992, 7.42515],
			"to": [8.1319, 8.77792, 8.06115],
			"rotation": {"angle": -45, "axis": "x", "origin": [8.0439, 8.88992, 7.74315]},
			"faces": {
				"north": {"uv": [4, 3.125, 4, 3.125], "rotation": 270, "texture": "#0"},
				"east": {"uv": [4, 3.125, 4, 3.125], "rotation": 270, "texture": "#0"},
				"south": {"uv": [4, 3.125, 4, 3.125], "rotation": 270, "texture": "#0"},
				"west": {"uv": [4, 3.125, 4, 3.125], "rotation": 270, "texture": "#0"},
				"up": {"uv": [4, 3.125, 4, 3.125], "rotation": 270, "texture": "#0"},
				"down": {"uv": [4, 3.125, 4, 3.125], "rotation": 270, "texture": "#0"}
			}
		},
		{
			"from": [7.9559, 7.98136, 7.63294],
			"to": [8.1319, 8.14136, 7.85294],
			"rotation": {"angle": 22.5, "axis": "x", "origin": [8.0439, 7.96883, 7.92845]},
			"faces": {
				"north": {"uv": [4, 3.125, 4, 3.125], "rotation": 270, "texture": "#0"},
				"east": {"uv": [4, 3.125, 4, 3.125], "rotation": 270, "texture": "#0"},
				"south": {"uv": [4, 3.125, 4, 3.125], "rotation": 270, "texture": "#0"},
				"west": {"uv": [4, 3.125, 4, 3.125], "rotation": 270, "texture": "#0"},
				"up": {"uv": [4, 3.125, 4, 3.125], "rotation": 270, "texture": "#0"},
				"down": {"uv": [4, 3.125, 4, 3.125], "rotation": 270, "texture": "#0"}
			}
		},
		{
			"from": [7.75419, 8.34506, 6.824],
			"to": [7.88219, 8.58506, 7.076],
			"rotation": {"angle": 0, "axis": "y", "origin": [7.81819, 8.46506, 6.566]},
			"faces": {
				"north": {"uv": [7.5, 11.875, 7.5, 11.875], "rotation": 180, "texture": "#0"},
				"east": {"uv": [7.5, 11.875, 7.5, 11.875], "rotation": 180, "texture": "#0"},
				"south": {"uv": [7.5, 11.875, 7.5, 11.875], "rotation": 180, "texture": "#0"},
				"west": {"uv": [7.5, 11.875, 7.5, 11.875], "rotation": 180, "texture": "#0"},
				"up": {"uv": [7.5, 11.875, 7.5, 11.875], "rotation": 180, "texture": "#0"},
				"down": {"uv": [7.5, 11.875, 7.5, 11.875], "rotation": 180, "texture": "#0"}
			}
		},
		{
			"from": [7.72219, 8.31306, 6.056],
			"to": [7.85019, 8.96906, 6.308],
			"rotation": {"angle": 0, "axis": "y", "origin": [7.78619, 8.43306, 5.798]},
			"faces": {
				"north": {"uv": [2.875, 3.5, 2.875, 3.5], "rotation": 180, "texture": "#0"},
				"east": {"uv": [2.875, 3.5, 2.875, 3.5], "rotation": 180, "texture": "#0"},
				"south": {"uv": [2.875, 3.5, 2.875, 3.5], "rotation": 180, "texture": "#0"},
				"west": {"uv": [2.875, 3.5, 2.875, 3.5], "rotation": 180, "texture": "#0"},
				"up": {"uv": [2.875, 3.5, 2.875, 3.5], "rotation": 180, "texture": "#0"},
				"down": {"uv": [2.875, 3.5, 2.875, 3.5], "rotation": 180, "texture": "#0"}
			}
		},
		{
			"from": [7.72219, 8.31306, 6.824],
			"to": [7.85019, 8.96906, 7.076],
			"rotation": {"angle": 0, "axis": "y", "origin": [7.78619, 8.43306, 6.566]},
			"faces": {
				"north": {"uv": [2.875, 3.5, 2.875, 3.5], "rotation": 180, "texture": "#0"},
				"east": {"uv": [2.875, 3.5, 2.875, 3.5], "rotation": 180, "texture": "#0"},
				"south": {"uv": [2.875, 3.5, 2.875, 3.5], "rotation": 180, "texture": "#0"},
				"west": {"uv": [2.875, 3.5, 2.875, 3.5], "rotation": 180, "texture": "#0"},
				"up": {"uv": [2.875, 3.5, 2.875, 3.5], "rotation": 180, "texture": "#0"},
				"down": {"uv": [2.875, 3.5, 2.875, 3.5], "rotation": 180, "texture": "#0"}
			}
		},
		{
			"from": [8.20561, 8.34506, 6.824],
			"to": [8.33361, 8.58506, 7.076],
			"rotation": {"angle": 0, "axis": "y", "origin": [8.26961, 8.46506, 6.566]},
			"faces": {
				"north": {"uv": [7.5, 11.875, 7.5, 11.875], "texture": "#0"},
				"east": {"uv": [7.5, 11.875, 7.5, 11.875], "texture": "#0"},
				"south": {"uv": [7.5, 11.875, 7.5, 11.875], "texture": "#0"},
				"west": {"uv": [7.5, 11.875, 7.5, 11.875], "texture": "#0"},
				"up": {"uv": [7.5, 11.875, 7.5, 11.875], "texture": "#0"},
				"down": {"uv": [7.5, 11.875, 7.5, 11.875], "texture": "#0"}
			}
		},
		{
			"from": [8.23761, 8.31306, 6.056],
			"to": [8.36561, 8.96906, 6.308],
			"rotation": {"angle": 0, "axis": "y", "origin": [8.30161, 8.43306, 5.798]},
			"faces": {
				"north": {"uv": [2.875, 3.5, 2.875, 3.5], "texture": "#0"},
				"east": {"uv": [2.875, 3.5, 2.875, 3.5], "texture": "#0"},
				"south": {"uv": [2.875, 3.5, 2.875, 3.5], "texture": "#0"},
				"west": {"uv": [2.875, 3.5, 2.875, 3.5], "texture": "#0"},
				"up": {"uv": [2.875, 3.5, 2.875, 3.5], "texture": "#0"},
				"down": {"uv": [2.875, 3.5, 2.875, 3.5], "texture": "#0"}
			}
		},
		{
			"from": [8.23761, 8.31306, 6.824],
			"to": [8.36561, 8.96906, 7.076],
			"rotation": {"angle": 0, "axis": "y", "origin": [8.30161, 8.43306, 6.566]},
			"faces": {
				"north": {"uv": [2.875, 3.5, 2.875, 3.5], "texture": "#0"},
				"east": {"uv": [2.875, 3.5, 2.875, 3.5], "texture": "#0"},
				"south": {"uv": [2.875, 3.5, 2.875, 3.5], "texture": "#0"},
				"west": {"uv": [2.875, 3.5, 2.875, 3.5], "texture": "#0"},
				"up": {"uv": [2.875, 3.5, 2.875, 3.5], "texture": "#0"},
				"down": {"uv": [2.875, 3.5, 2.875, 3.5], "texture": "#0"}
			}
		},
		{
			"from": [7.9239, 8.17536, 6.824],
			"to": [8.1639, 8.30336, 7.076],
			"rotation": {"angle": 0, "axis": "y", "origin": [8.0439, 8.23936, 6.566]},
			"faces": {
				"north": {"uv": [7.5, 11.875, 7.5, 11.875], "rotation": 270, "texture": "#0"},
				"east": {"uv": [7.5, 11.875, 7.5, 11.875], "rotation": 270, "texture": "#0"},
				"south": {"uv": [7.5, 11.875, 7.5, 11.875], "rotation": 270, "texture": "#0"},
				"west": {"uv": [7.5, 11.875, 7.5, 11.875], "rotation": 270, "texture": "#0"},
				"up": {"uv": [7.5, 11.875, 7.5, 11.875], "rotation": 270, "texture": "#0"},
				"down": {"uv": [7.5, 11.875, 7.5, 11.875], "rotation": 270, "texture": "#0"}
			}
		},
		{
			"from": [7.8919, 8.14336, 6.056],
			"to": [8.1959, 8.27136, 6.308],
			"rotation": {"angle": 0, "axis": "y", "origin": [8.0759, 8.20736, 5.798]},
			"faces": {
				"north": {"uv": [2.875, 3.5, 2.875, 3.5], "rotation": 270, "texture": "#0"},
				"east": {"uv": [2.875, 3.5, 2.875, 3.5], "rotation": 270, "texture": "#0"},
				"south": {"uv": [2.875, 3.5, 2.875, 3.5], "rotation": 270, "texture": "#0"},
				"west": {"uv": [2.875, 3.5, 2.875, 3.5], "rotation": 270, "texture": "#0"},
				"up": {"uv": [2.875, 3.5, 2.875, 3.5], "rotation": 270, "texture": "#0"},
				"down": {"uv": [2.875, 3.5, 2.875, 3.5], "rotation": 270, "texture": "#0"}
			}
		},
		{
			"from": [7.8919, 8.14336, 6.824],
			"to": [8.1959, 8.27136, 7.076],
			"rotation": {"angle": 0, "axis": "y", "origin": [8.0759, 8.20736, 6.566]},
			"faces": {
				"north": {"uv": [2.875, 3.5, 2.875, 3.5], "rotation": 270, "texture": "#0"},
				"east": {"uv": [2.875, 3.5, 2.875, 3.5], "rotation": 270, "texture": "#0"},
				"south": {"uv": [2.875, 3.5, 2.875, 3.5], "rotation": 270, "texture": "#0"},
				"west": {"uv": [2.875, 3.5, 2.875, 3.5], "rotation": 270, "texture": "#0"},
				"up": {"uv": [2.875, 3.5, 2.875, 3.5], "rotation": 270, "texture": "#0"},
				"down": {"uv": [2.875, 3.5, 2.875, 3.5], "rotation": 270, "texture": "#0"}
			}
		},
		{
			"from": [7.7643, 8.24147, 6.824],
			"to": [8.0043, 8.36947, 7.076],
			"rotation": {"angle": -45, "axis": "z", "origin": [7.8843, 8.30547, 6.566]},
			"faces": {
				"north": {"uv": [7.5, 11.875, 7.5, 11.875], "rotation": 270, "texture": "#0"},
				"east": {"uv": [7.5, 11.875, 7.5, 11.875], "rotation": 270, "texture": "#0"},
				"south": {"uv": [7.5, 11.875, 7.5, 11.875], "rotation": 270, "texture": "#0"},
				"west": {"uv": [7.5, 11.875, 7.5, 11.875], "rotation": 270, "texture": "#0"},
				"up": {"uv": [7.5, 11.875, 7.5, 11.875], "rotation": 270, "texture": "#0"},
				"down": {"uv": [7.5, 11.875, 7.5, 11.875], "rotation": 270, "texture": "#0"}
			}
		},
		{
			"from": [7.7323, 8.20947, 6.056],
			"to": [7.9723, 8.33747, 6.308],
			"rotation": {"angle": -45, "axis": "z", "origin": [7.8523, 8.27347, 5.798]},
			"faces": {
				"north": {"uv": [2.875, 3.5, 2.875, 3.5], "rotation": 270, "texture": "#0"},
				"east": {"uv": [2.875, 3.5, 2.875, 3.5], "rotation": 270, "texture": "#0"},
				"south": {"uv": [2.875, 3.5, 2.875, 3.5], "rotation": 270, "texture": "#0"},
				"west": {"uv": [2.875, 3.5, 2.875, 3.5], "rotation": 270, "texture": "#0"},
				"up": {"uv": [2.875, 3.5, 2.875, 3.5], "rotation": 270, "texture": "#0"},
				"down": {"uv": [2.875, 3.5, 2.875, 3.5], "rotation": 270, "texture": "#0"}
			}
		},
		{
			"from": [7.7323, 8.20947, 6.824],
			"to": [7.9723, 8.33747, 7.076],
			"rotation": {"angle": -45, "axis": "z", "origin": [7.8523, 8.27347, 6.566]},
			"faces": {
				"north": {"uv": [2.875, 3.5, 2.875, 3.5], "rotation": 270, "texture": "#0"},
				"east": {"uv": [2.875, 3.5, 2.875, 3.5], "rotation": 270, "texture": "#0"},
				"south": {"uv": [2.875, 3.5, 2.875, 3.5], "rotation": 270, "texture": "#0"},
				"west": {"uv": [2.875, 3.5, 2.875, 3.5], "rotation": 270, "texture": "#0"},
				"up": {"uv": [2.875, 3.5, 2.875, 3.5], "rotation": 270, "texture": "#0"},
				"down": {"uv": [2.875, 3.5, 2.875, 3.5], "rotation": 270, "texture": "#0"}
			}
		},
		{
			"from": [8.0835, 8.24147, 6.824],
			"to": [8.3235, 8.36947, 7.076],
			"rotation": {"angle": 45, "axis": "z", "origin": [8.2035, 8.30547, 6.566]},
			"faces": {
				"north": {"uv": [7.5, 11.875, 7.5, 11.875], "rotation": 270, "texture": "#0"},
				"east": {"uv": [7.5, 11.875, 7.5, 11.875], "rotation": 270, "texture": "#0"},
				"south": {"uv": [7.5, 11.875, 7.5, 11.875], "rotation": 270, "texture": "#0"},
				"west": {"uv": [7.5, 11.875, 7.5, 11.875], "rotation": 270, "texture": "#0"},
				"up": {"uv": [7.5, 11.875, 7.5, 11.875], "rotation": 270, "texture": "#0"},
				"down": {"uv": [7.5, 11.875, 7.5, 11.875], "rotation": 270, "texture": "#0"}
			}
		},
		{
			"from": [8.1155, 8.20947, 6.056],
			"to": [8.3555, 8.33747, 6.308],
			"rotation": {"angle": 45, "axis": "z", "origin": [8.2355, 8.27347, 5.798]},
			"faces": {
				"north": {"uv": [2.875, 3.5, 2.875, 3.5], "rotation": 270, "texture": "#0"},
				"east": {"uv": [2.875, 3.5, 2.875, 3.5], "rotation": 270, "texture": "#0"},
				"south": {"uv": [2.875, 3.5, 2.875, 3.5], "rotation": 270, "texture": "#0"},
				"west": {"uv": [2.875, 3.5, 2.875, 3.5], "rotation": 270, "texture": "#0"},
				"up": {"uv": [2.875, 3.5, 2.875, 3.5], "rotation": 270, "texture": "#0"},
				"down": {"uv": [2.875, 3.5, 2.875, 3.5], "rotation": 270, "texture": "#0"}
			}
		},
		{
			"from": [8.1155, 8.20947, 6.824],
			"to": [8.3555, 8.33747, 7.076],
			"rotation": {"angle": 45, "axis": "z", "origin": [8.2355, 8.27347, 6.566]},
			"faces": {
				"north": {"uv": [2.875, 3.5, 2.875, 3.5], "rotation": 270, "texture": "#0"},
				"east": {"uv": [2.875, 3.5, 2.875, 3.5], "rotation": 270, "texture": "#0"},
				"south": {"uv": [2.875, 3.5, 2.875, 3.5], "rotation": 270, "texture": "#0"},
				"west": {"uv": [2.875, 3.5, 2.875, 3.5], "rotation": 270, "texture": "#0"},
				"up": {"uv": [2.875, 3.5, 2.875, 3.5], "rotation": 270, "texture": "#0"},
				"down": {"uv": [2.875, 3.5, 2.875, 3.5], "rotation": 270, "texture": "#0"}
			}
		},
		{
			"from": [8.0755, 8.23621, 5.192],
			"to": [8.2035, 8.41221, 7.108],
			"rotation": {"angle": -45, "axis": "z", "origin": [8.1715, 8.32421, 6.502]},
			"faces": {
				"north": {"uv": [3, 3, 3, 3], "texture": "#0"},
				"east": {"uv": [3, 3, 3, 3], "rotation": 180, "texture": "#0"},
				"south": {"uv": [3, 3, 3, 3], "rotation": 180, "texture": "#0"},
				"west": {"uv": [3, 3, 3, 3], "rotation": 180, "texture": "#0"},
				"up": {"uv": [3, 3, 3, 3], "rotation": 180, "texture": "#0"},
				"down": {"uv": [3, 3, 3, 3], "rotation": 180, "texture": "#0"}
			}
		},
		{
			"from": [7.8835, 8.23621, 5.224],
			"to": [8.1395, 8.41221, 5.316],
			"rotation": {"angle": -45, "axis": "z", "origin": [8.1715, 8.32421, 6.47]},
			"faces": {
				"north": {"uv": [6.875, 11.5, 6.875, 11.5], "texture": "#0"},
				"east": {"uv": [6.875, 11.5, 6.875, 11.5], "texture": "#0"},
				"south": {"uv": [6.875, 11.5, 6.875, 11.5], "texture": "#0"},
				"west": {"uv": [6.875, 11.5, 6.875, 11.5], "texture": "#0"},
				"up": {"uv": [6.875, 11.5, 6.875, 11.5], "texture": "#0"},
				"down": {"uv": [6.875, 11.5, 6.875, 11.5], "texture": "#0"}
			}
		},
		{
			"from": [8.0108, 8.44535, -9.152],
			"to": [8.0748, 8.46135, 5.284],
			"rotation": {"angle": 0, "axis": "y", "origin": [8.15436, 8.43735, 4.806]},
			"faces": {
				"north": {"uv": [7.375, 7.625, 7.375, 7.625], "texture": "#0"},
				"east": {"uv": [8.875, 7.125, 8.875, 7.125], "texture": "#0"},
				"south": {"uv": [8.875, 7.125, 8.875, 7.125], "texture": "#0"},
				"west": {"uv": [8.875, 7.125, 8.875, 7.125], "texture": "#0"},
				"up": {"uv": [8.875, 7.125, 8.875, 7.125], "texture": "#0"},
				"down": {"uv": [8.875, 7.125, 8.875, 7.125], "texture": "#0"}
			}
		},
		{
			"from": [8.0348, 8.42135, -9.152],
			"to": [8.0508, 8.48535, 5.284],
			"rotation": {"angle": 0, "axis": "y", "origin": [8.0428, 8.45335, 2.518]},
			"faces": {
				"north": {"uv": [7.375, 7.625, 7.375, 7.625], "rotation": 90, "texture": "#0"},
				"east": {"uv": [8.875, 7.125, 8.875, 7.125], "rotation": 270, "texture": "#0"},
				"south": {"uv": [8.875, 7.125, 8.875, 7.125], "rotation": 270, "texture": "#0"},
				"west": {"uv": [8.875, 7.125, 8.875, 7.125], "rotation": 270, "texture": "#0"},
				"up": {"uv": [8.875, 7.125, 8.875, 7.125], "rotation": 270, "texture": "#0"},
				"down": {"uv": [8.875, 7.125, 8.875, 7.125], "rotation": 270, "texture": "#0"}
			}
		},
		{
			"from": [7.7319, 8.53626, 6.024],
			"to": [8.3559, 8.98426, 8.964],
			"rotation": {"angle": 0, "axis": "y", "origin": [8.0278, 8.57335, 5.14418]},
			"faces": {
				"north": {"uv": [7.375, 11.875, 7.375, 11.875], "rotation": 90, "texture": "#0"},
				"east": {"uv": [7.375, 11.875, 7.375, 11.875], "rotation": 90, "texture": "#0"},
				"south": {"uv": [7.375, 11.875, 7.375, 11.875], "rotation": 90, "texture": "#0"},
				"west": {"uv": [7.375, 11.875, 7.375, 11.875], "rotation": 90, "texture": "#0"},
				"up": {"uv": [7.375, 11.875, 7.375, 11.875], "rotation": 90, "texture": "#0"},
				"down": {"uv": [7.375, 11.875, 7.375, 11.875], "rotation": 90, "texture": "#0"}
			}
		},
		{
			"from": [7.60095, 7.99226, 8.63674],
			"to": [7.96895, 8.53626, 8.79274],
			"rotation": {"angle": -45, "axis": "y", "origin": [7.78495, 7.54426, 8.71474]},
			"faces": {
				"north": {"uv": [3, 3, 3, 3], "rotation": 90, "texture": "#0"},
				"east": {"uv": [3, 3, 3, 3], "rotation": 90, "texture": "#0"},
				"south": {"uv": [3, 3, 3, 3], "rotation": 90, "texture": "#0"},
				"west": {"uv": [3, 3, 3, 3], "rotation": 90, "texture": "#0"},
				"up": {"uv": [3, 3, 3, 3], "rotation": 90, "texture": "#0"},
				"down": {"uv": [3, 3, 3, 3], "rotation": 90, "texture": "#0"}
			}
		},
		{
			"from": [7.60095, 5.78426, 8.63674],
			"to": [7.96895, 7.86426, 8.79274],
			"rotation": {"angle": -45, "axis": "y", "origin": [7.78495, 6.87226, 8.71474]},
			"faces": {
				"north": {"uv": [3, 3, 3, 3], "rotation": 90, "texture": "#0"},
				"east": {"uv": [3, 3, 3, 3], "rotation": 90, "texture": "#0"},
				"south": {"uv": [3, 3, 3, 3], "rotation": 90, "texture": "#0"},
				"west": {"uv": [3, 3, 3, 3], "rotation": 90, "texture": "#0"},
				"up": {"uv": [3, 3, 3, 3], "rotation": 90, "texture": "#0"},
				"down": {"uv": [3, 3, 3, 3], "rotation": 90, "texture": "#0"}
			}
		},
		{
			"from": [8.33212, 7.99226, 8.08868],
			"to": [8.48812, 8.53626, 8.45668],
			"rotation": {"angle": 45, "axis": "y", "origin": [8.26493, 7.54426, 8.36423]},
			"faces": {
				"north": {"uv": [3, 3, 3, 3], "rotation": 90, "texture": "#0"},
				"east": {"uv": [3, 3, 3, 3], "rotation": 90, "texture": "#0"},
				"south": {"uv": [3, 3, 3, 3], "rotation": 90, "texture": "#0"},
				"west": {"uv": [3, 3, 3, 3], "rotation": 90, "texture": "#0"},
				"up": {"uv": [3, 3, 3, 3], "texture": "#0"},
				"down": {"uv": [3, 3, 3, 3], "rotation": 180, "texture": "#0"}
			}
		},
		{
			"from": [8.33212, 5.78426, 8.08868],
			"to": [8.48812, 7.86426, 8.45668],
			"rotation": {"angle": 45, "axis": "y", "origin": [8.26493, 6.87226, 8.36423]},
			"faces": {
				"north": {"uv": [3, 3, 3, 3], "rotation": 90, "texture": "#0"},
				"east": {"uv": [3, 3, 3, 3], "rotation": 90, "texture": "#0"},
				"south": {"uv": [3, 3, 3, 3], "rotation": 90, "texture": "#0"},
				"west": {"uv": [3, 3, 3, 3], "rotation": 90, "texture": "#0"},
				"up": {"uv": [3, 3, 3, 3], "texture": "#0"},
				"down": {"uv": [3, 3, 3, 3], "rotation": 180, "texture": "#0"}
			}
		},
		{
			"from": [7.70695, 7.99226, 8.01283],
			"to": [7.86295, 8.53626, 8.38083],
			"rotation": {"angle": -45, "axis": "y", "origin": [7.78495, 7.54426, 8.19683]},
			"faces": {
				"north": {"uv": [3, 3, 3, 3], "rotation": 90, "texture": "#0"},
				"east": {"uv": [3, 3, 3, 3], "rotation": 90, "texture": "#0"},
				"south": {"uv": [3, 3, 3, 3], "rotation": 90, "texture": "#0"},
				"west": {"uv": [3, 3, 3, 3], "rotation": 90, "texture": "#0"},
				"up": {"uv": [3, 3, 3, 3], "texture": "#0"},
				"down": {"uv": [3, 3, 3, 3], "rotation": 180, "texture": "#0"}
			}
		},
		{
			"from": [7.70695, 5.78426, 8.01283],
			"to": [7.86295, 7.86426, 8.38083],
			"rotation": {"angle": -45, "axis": "y", "origin": [7.78495, 6.87226, 8.19683]},
			"faces": {
				"north": {"uv": [3, 3, 3, 3], "rotation": 90, "texture": "#0"},
				"east": {"uv": [3, 3, 3, 3], "rotation": 90, "texture": "#0"},
				"south": {"uv": [3, 3, 3, 3], "rotation": 90, "texture": "#0"},
				"west": {"uv": [3, 3, 3, 3], "rotation": 90, "texture": "#0"},
				"up": {"uv": [3, 3, 3, 3], "texture": "#0"},
				"down": {"uv": [3, 3, 3, 3], "rotation": 180, "texture": "#0"}
			}
		},
		{
			"from": [7.8599, 7.99226, 8.56089],
			"to": [8.2279, 8.53626, 8.71689],
			"rotation": {"angle": 45, "axis": "y", "origin": [8.26493, 7.54426, 8.36423]},
			"faces": {
				"north": {"uv": [3, 3, 3, 3], "rotation": 90, "texture": "#0"},
				"east": {"uv": [3, 3, 3, 3], "rotation": 90, "texture": "#0"},
				"south": {"uv": [3, 3, 3, 3], "rotation": 90, "texture": "#0"},
				"west": {"uv": [3, 3, 3, 3], "rotation": 90, "texture": "#0"},
				"up": {"uv": [3, 3, 3, 3], "rotation": 270, "texture": "#0"},
				"down": {"uv": [3, 3, 3, 3], "rotation": 270, "texture": "#0"}
			}
		},
		{
			"from": [7.8599, 5.78426, 8.56089],
			"to": [8.2279, 7.86426, 8.71689],
			"rotation": {"angle": 45, "axis": "y", "origin": [8.26493, 6.87226, 8.36423]},
			"faces": {
				"north": {"uv": [3, 3, 3, 3], "rotation": 90, "texture": "#0"},
				"east": {"uv": [3, 3, 3, 3], "rotation": 90, "texture": "#0"},
				"south": {"uv": [3, 3, 3, 3], "rotation": 90, "texture": "#0"},
				"west": {"uv": [3, 3, 3, 3], "rotation": 90, "texture": "#0"},
				"up": {"uv": [3, 3, 3, 3], "rotation": 270, "texture": "#0"},
				"down": {"uv": [3, 3, 3, 3], "rotation": 270, "texture": "#0"}
			}
		},
		{
			"from": [7.59968, 7.99226, 8.27178],
			"to": [7.75568, 8.98426, 8.63978],
			"rotation": {"angle": 0, "axis": "y", "origin": [7.67768, 7.54426, 8.45578]},
			"faces": {
				"north": {"uv": [3, 3, 3, 3], "rotation": 90, "texture": "#0"},
				"east": {"uv": [3, 3, 3, 3], "rotation": 90, "texture": "#0"},
				"south": {"uv": [3, 3, 3, 3], "rotation": 90, "texture": "#0"},
				"west": {"uv": [3, 3, 3, 3], "rotation": 90, "texture": "#0"},
				"up": {"uv": [3, 3, 3, 3], "rotation": 180, "texture": "#0"},
				"down": {"uv": [3, 3, 3, 3], "texture": "#0"}
			}
		},
		{
			"from": [7.56768, 8.69626, 8.36778],
			"to": [8.52368, 8.87226, 8.54378],
			"rotation": {"angle": 45, "axis": "x", "origin": [7.66168, 8.76826, 8.43978]},
			"faces": {
				"north": {"uv": [4.375, 3.375, 4.375, 3.375], "rotation": 90, "texture": "#0"},
				"east": {"uv": [4.375, 3.375, 4.375, 3.375], "rotation": 90, "texture": "#0"},
				"south": {"uv": [4.375, 3.375, 4.375, 3.375], "rotation": 90, "texture": "#0"},
				"west": {"uv": [4.375, 3.375, 4.375, 3.375], "rotation": 90, "texture": "#0"},
				"up": {"uv": [4.375, 3.375, 4.375, 3.375], "rotation": 90, "texture": "#0"},
				"down": {"uv": [4.375, 3.375, 4.375, 3.375], "rotation": 90, "texture": "#0"}
			}
		},
		{
			"from": [7.69568, 8.82426, 6.15978],
			"to": [8.39568, 8.93626, 6.27178],
			"rotation": {"angle": 45, "axis": "x", "origin": [7.66168, 8.89626, 6.16778]},
			"faces": {
				"north": {"uv": [4.375, 3.375, 4.375, 3.375], "rotation": 90, "texture": "#0"},
				"east": {"uv": [4.375, 3.375, 4.375, 3.375], "rotation": 90, "texture": "#0"},
				"south": {"uv": [4.375, 3.375, 4.375, 3.375], "rotation": 90, "texture": "#0"},
				"west": {"uv": [4.375, 3.375, 4.375, 3.375], "rotation": 90, "texture": "#0"},
				"up": {"uv": [4.375, 3.375, 4.375, 3.375], "rotation": 90, "texture": "#0"},
				"down": {"uv": [4.375, 3.375, 4.375, 3.375], "rotation": 90, "texture": "#0"}
			}
		},
		{
			"from": [7.69568, 8.82426, 6.92778],
			"to": [8.39568, 8.93626, 7.03978],
			"rotation": {"angle": 45, "axis": "x", "origin": [7.66168, 8.89626, 6.93578]},
			"faces": {
				"north": {"uv": [4.375, 3.375, 4.375, 3.375], "rotation": 90, "texture": "#0"},
				"east": {"uv": [4.375, 3.375, 4.375, 3.375], "rotation": 90, "texture": "#0"},
				"south": {"uv": [4.375, 3.375, 4.375, 3.375], "rotation": 90, "texture": "#0"},
				"west": {"uv": [4.375, 3.375, 4.375, 3.375], "rotation": 90, "texture": "#0"},
				"up": {"uv": [4.375, 3.375, 4.375, 3.375], "rotation": 90, "texture": "#0"},
				"down": {"uv": [4.375, 3.375, 4.375, 3.375], "rotation": 90, "texture": "#0"}
			}
		},
		{
			"from": [7.59968, 5.78426, 8.27178],
			"to": [7.75568, 7.86426, 8.63978],
			"rotation": {"angle": 0, "axis": "y", "origin": [7.67768, 6.87226, 8.45578]},
			"faces": {
				"north": {"uv": [3, 3, 3, 3], "rotation": 90, "texture": "#0"},
				"east": {"uv": [3, 3, 3, 3], "rotation": 90, "texture": "#0"},
				"south": {"uv": [3, 3, 3, 3], "rotation": 90, "texture": "#0"},
				"west": {"uv": [3, 3, 3, 3], "rotation": 90, "texture": "#0"},
				"up": {"uv": [3, 3, 3, 3], "rotation": 180, "texture": "#0"},
				"down": {"uv": [3, 3, 3, 3], "texture": "#0"}
			}
		},
		{
			"from": [8.33212, 7.99226, 8.27178],
			"to": [8.48812, 8.98426, 8.63978],
			"rotation": {"angle": 0, "axis": "y", "origin": [8.26493, 7.54426, 8.36423]},
			"faces": {
				"north": {"uv": [3, 3, 3, 3], "rotation": 90, "texture": "#0"},
				"east": {"uv": [3, 3, 3, 3], "rotation": 90, "texture": "#0"},
				"south": {"uv": [3, 3, 3, 3], "rotation": 90, "texture": "#0"},
				"west": {"uv": [3, 3, 3, 3], "rotation": 90, "texture": "#0"},
				"up": {"uv": [3, 3, 3, 3], "texture": "#0"},
				"down": {"uv": [3, 3, 3, 3], "rotation": 180, "texture": "#0"}
			}
		},
		{
			"from": [8.33212, 5.78426, 8.27178],
			"to": [8.48812, 7.86426, 8.63978],
			"rotation": {"angle": 0, "axis": "y", "origin": [8.26493, 6.87226, 8.36423]},
			"faces": {
				"north": {"uv": [3, 3, 3, 3], "rotation": 90, "texture": "#0"},
				"east": {"uv": [3, 3, 3, 3], "rotation": 90, "texture": "#0"},
				"south": {"uv": [3, 3, 3, 3], "rotation": 90, "texture": "#0"},
				"west": {"uv": [3, 3, 3, 3], "rotation": 90, "texture": "#0"},
				"up": {"uv": [3, 3, 3, 3], "texture": "#0"},
				"down": {"uv": [3, 3, 3, 3], "rotation": 180, "texture": "#0"}
			}
		},
		{
			"from": [7.8599, 7.99226, 8.744],
			"to": [8.2279, 8.53626, 8.9],
			"rotation": {"angle": 0, "axis": "y", "origin": [8.0439, 7.54426, 8.822]},
			"faces": {
				"north": {"uv": [3, 3, 3, 3], "rotation": 90, "texture": "#0"},
				"east": {"uv": [3, 3, 3, 3], "rotation": 90, "texture": "#0"},
				"south": {"uv": [3, 3, 3, 3], "rotation": 90, "texture": "#0"},
				"west": {"uv": [3, 3, 3, 3], "rotation": 90, "texture": "#0"},
				"up": {"uv": [3, 3, 3, 3], "rotation": 90, "texture": "#0"},
				"down": {"uv": [3, 3, 3, 3], "rotation": 90, "texture": "#0"}
			}
		},
		{
			"from": [7.8599, 5.78426, 8.744],
			"to": [8.2279, 7.86426, 8.9],
			"rotation": {"angle": 0, "axis": "y", "origin": [8.0439, 6.87226, 8.822]},
			"faces": {
				"north": {"uv": [3, 3, 3, 3], "rotation": 90, "texture": "#0"},
				"east": {"uv": [3, 3, 3, 3], "rotation": 90, "texture": "#0"},
				"south": {"uv": [3, 3, 3, 3], "rotation": 90, "texture": "#0"},
				"west": {"uv": [3, 3, 3, 3], "rotation": 90, "texture": "#0"},
				"up": {"uv": [3, 3, 3, 3], "rotation": 90, "texture": "#0"},
				"down": {"uv": [3, 3, 3, 3], "rotation": 90, "texture": "#0"}
			}
		},
		{
			"from": [7.67694, 5.59226, 8.31704],
			"to": [7.83294, 8.53626, 8.62104],
			"rotation": {"angle": 0, "axis": "y", "origin": [7.75494, 8.31226, 8.46904]},
			"faces": {
				"north": {"uv": [7.625, 11.875, 7.625, 11.875], "rotation": 90, "texture": "#0"},
				"east": {"uv": [7.625, 11.875, 7.625, 11.875], "rotation": 90, "texture": "#0"},
				"south": {"uv": [7.625, 11.875, 7.625, 11.875], "rotation": 90, "texture": "#0"},
				"west": {"uv": [7.625, 11.875, 7.625, 11.875], "rotation": 90, "texture": "#0"},
				"up": {"uv": [7.625, 11.875, 7.625, 11.875], "rotation": 90, "texture": "#0"},
				"down": {"uv": [7.625, 11.875, 7.625, 11.875], "rotation": 90, "texture": "#0"}
			}
		},
		{
			"from": [7.80686, 5.59226, 8.31704],
			"to": [8.41086, 8.53626, 8.62104],
			"rotation": {"angle": 0, "axis": "y", "origin": [8.2183, 8.31226, 8.3968]},
			"faces": {
				"north": {"uv": [7.625, 11.875, 7.625, 11.875], "rotation": 90, "texture": "#0"},
				"east": {"uv": [7.625, 11.875, 7.625, 11.875], "rotation": 90, "texture": "#0"},
				"south": {"uv": [7.625, 11.875, 7.625, 11.875], "rotation": 90, "texture": "#0"},
				"west": {"uv": [7.625, 11.875, 7.625, 11.875], "rotation": 90, "texture": "#0"},
				"up": {"uv": [7.625, 11.875, 7.625, 11.875], "rotation": 90, "texture": "#0"},
				"down": {"uv": [7.625, 11.875, 7.625, 11.875], "rotation": 90, "texture": "#0"}
			}
		},
		{
			"from": [7.68757, 5.59226, 8.59537],
			"to": [7.99157, 8.53626, 8.75137],
			"rotation": {"angle": -45, "axis": "y", "origin": [7.83957, 8.31226, 8.67337]},
			"faces": {
				"north": {"uv": [7.625, 11.875, 7.625, 11.875], "rotation": 90, "texture": "#0"},
				"east": {"uv": [7.625, 11.875, 7.625, 11.875], "rotation": 90, "texture": "#0"},
				"south": {"uv": [7.625, 11.875, 7.625, 11.875], "rotation": 90, "texture": "#0"},
				"west": {"uv": [7.625, 11.875, 7.625, 11.875], "rotation": 90, "texture": "#0"},
				"up": {"uv": [7.625, 11.875, 7.625, 11.875], "rotation": 90, "texture": "#0"},
				"down": {"uv": [7.625, 11.875, 7.625, 11.875], "rotation": 90, "texture": "#0"}
			}
		},
		{
			"from": [7.99406, 5.59226, 8.20424],
			"to": [8.29806, 8.53626, 8.36024],
			"rotation": {"angle": -45, "axis": "y", "origin": [8.2183, 8.31226, 8.3968]},
			"faces": {
				"north": {"uv": [7.625, 11.875, 7.625, 11.875], "rotation": 90, "texture": "#0"},
				"east": {"uv": [7.625, 11.875, 7.625, 11.875], "rotation": 90, "texture": "#0"},
				"south": {"uv": [7.625, 11.875, 7.625, 11.875], "rotation": 90, "texture": "#0"},
				"west": {"uv": [7.625, 11.875, 7.625, 11.875], "rotation": 90, "texture": "#0"},
				"up": {"uv": [7.625, 11.875, 7.625, 11.875], "rotation": 90, "texture": "#0"},
				"down": {"uv": [7.625, 11.875, 7.625, 11.875], "rotation": 90, "texture": "#0"}
			}
		},
		{
			"from": [7.8919, 5.59226, 8.68],
			"to": [8.1959, 8.53626, 8.836],
			"rotation": {"angle": 0, "axis": "y", "origin": [8.0439, 8.31226, 8.758]},
			"faces": {
				"north": {"uv": [7.625, 11.875, 7.625, 11.875], "rotation": 90, "texture": "#0"},
				"east": {"uv": [7.625, 11.875, 7.625, 11.875], "rotation": 90, "texture": "#0"},
				"south": {"uv": [7.625, 11.875, 7.625, 11.875], "rotation": 90, "texture": "#0"},
				"west": {"uv": [7.625, 11.875, 7.625, 11.875], "rotation": 90, "texture": "#0"},
				"up": {"uv": [7.625, 11.875, 7.625, 11.875], "rotation": 90, "texture": "#0"},
				"down": {"uv": [7.625, 11.875, 7.625, 11.875], "rotation": 90, "texture": "#0"}
			}
		},
		{
			"from": [7.8919, 5.59226, 8.10208],
			"to": [8.1959, 8.53626, 8.80208],
			"rotation": {"angle": 0, "axis": "y", "origin": [8.2183, 8.31226, 8.3968]},
			"faces": {
				"north": {"uv": [7.625, 11.875, 7.625, 11.875], "rotation": 90, "texture": "#0"},
				"east": {"uv": [7.625, 11.875, 7.625, 11.875], "rotation": 90, "texture": "#0"},
				"south": {"uv": [7.625, 11.875, 7.625, 11.875], "rotation": 90, "texture": "#0"},
				"west": {"uv": [7.625, 11.875, 7.625, 11.875], "rotation": 90, "texture": "#0"},
				"up": {"uv": [7.625, 11.875, 7.625, 11.875], "rotation": 90, "texture": "#0"},
				"down": {"uv": [7.625, 11.875, 7.625, 11.875], "rotation": 90, "texture": "#0"}
			}
		},
		{
			"from": [7.68757, 5.59226, 8.18671],
			"to": [7.99157, 8.53626, 8.34271],
			"rotation": {"angle": 45, "axis": "y", "origin": [7.83957, 8.31226, 8.26471]},
			"faces": {
				"north": {"uv": [7.625, 11.875, 7.625, 11.875], "rotation": 90, "texture": "#0"},
				"east": {"uv": [7.625, 11.875, 7.625, 11.875], "rotation": 90, "texture": "#0"},
				"south": {"uv": [7.625, 11.875, 7.625, 11.875], "rotation": 90, "texture": "#0"},
				"west": {"uv": [7.625, 11.875, 7.625, 11.875], "rotation": 90, "texture": "#0"},
				"up": {"uv": [7.625, 11.875, 7.625, 11.875], "rotation": 90, "texture": "#0"},
				"down": {"uv": [7.625, 11.875, 7.625, 11.875], "rotation": 90, "texture": "#0"}
			}
		},
		{
			"from": [8.35702, 5.59226, 8.4192],
			"to": [8.51302, 8.53626, 8.7232],
			"rotation": {"angle": -45, "axis": "y", "origin": [8.2183, 8.31226, 8.3968]},
			"faces": {
				"north": {"uv": [7.625, 11.875, 7.625, 11.875], "rotation": 90, "texture": "#0"},
				"east": {"uv": [7.625, 11.875, 7.625, 11.875], "rotation": 90, "texture": "#0"},
				"south": {"uv": [7.625, 11.875, 7.625, 11.875], "rotation": 90, "texture": "#0"},
				"west": {"uv": [7.625, 11.875, 7.625, 11.875], "rotation": 90, "texture": "#0"},
				"up": {"uv": [7.625, 11.875, 7.625, 11.875], "rotation": 90, "texture": "#0"},
				"down": {"uv": [7.625, 11.875, 7.625, 11.875], "rotation": 90, "texture": "#0"}
			}
		},
		{
			"from": [7.8599, 7.99226, 8.01157],
			"to": [8.2279, 8.53626, 8.16757],
			"rotation": {"angle": 0, "axis": "y", "origin": [8.26493, 7.54426, 8.36423]},
			"faces": {
				"north": {"uv": [3, 3, 3, 3], "rotation": 90, "texture": "#0"},
				"east": {"uv": [3, 3, 3, 3], "rotation": 90, "texture": "#0"},
				"south": {"uv": [3, 3, 3, 3], "rotation": 90, "texture": "#0"},
				"west": {"uv": [3, 3, 3, 3], "rotation": 90, "texture": "#0"},
				"up": {"uv": [3, 3, 3, 3], "rotation": 270, "texture": "#0"},
				"down": {"uv": [3, 3, 3, 3], "rotation": 270, "texture": "#0"}
			}
		},
		{
			"from": [7.8599, 5.78426, 8.01157],
			"to": [8.2279, 7.86426, 8.16757],
			"rotation": {"angle": 0, "axis": "y", "origin": [8.26493, 6.87226, 8.36423]},
			"faces": {
				"north": {"uv": [3, 3, 3, 3], "rotation": 90, "texture": "#0"},
				"east": {"uv": [3, 3, 3, 3], "rotation": 90, "texture": "#0"},
				"south": {"uv": [3, 3, 3, 3], "rotation": 90, "texture": "#0"},
				"west": {"uv": [3, 3, 3, 3], "rotation": 90, "texture": "#0"},
				"up": {"uv": [3, 3, 3, 3], "rotation": 270, "texture": "#0"},
				"down": {"uv": [3, 3, 3, 3], "rotation": 270, "texture": "#0"}
			}
		}
	],
	"display": {
		"thirdperson_righthand": {
			"rotation": [0.5, 0, 1.25],
			"translation": [-1.25, -0.75, -6],
			"scale": [1, 1, 0.83]
		},
		"thirdperson_lefthand": {
			"rotation": [3, 0, 0],
			"translation": [-0.75, -0.75, -5.75],
			"scale": [1, 1, 0.83]
		},
		"firstperson_righthand": {
			"rotation": [1, 1, 0],
			"translation": [-5.25, 3.5, -0.75],
			"scale": [1.19, 1.14, 0.87]
		},
		"firstperson_lefthand": {
			"rotation": [1, 1, 0],
			"translation": [-3.5, 3.25, -4.5],
			"scale": [1.19, 1.14, 0.87]
		},
		"ground": {
			"translation": [0, 0, -3.25]
		},
		"gui": {
			"rotation": [11, 16, -16],
			"translation": [-0.75, -0.25, 0],
			"scale": [1.25, 1.28, 1.60945]
		},
		"head": {
			"rotation": [0, -139, 90],
			"translation": [2.5, 6.5, 4.5],
			"scale": [1.36, 1.36, 1.36]
		},
		"fixed": {
			"rotation": [0, -90, 0],
			"translation": [4, 0, -1.75],
			"scale": [1.58, 1.39, 1.28]
		}
	}
}