{
	"credit": "Made with Blockbench",
	"textures": {
		"0": "gci:items/common/all_in_one",
		"1": "gci:items/common/mpz2",
		"particle": "gci:items/common/all_in_one"
	},
	"elements": [
		{
			"from": [7.95776, 8.5228, 5.04932],
			"to": [8.12876, 8.5798, 5.84732],
			"rotation": {"angle": 0, "axis": "y", "origin": [7.99277, 8.5513, 5.74764]},
			"faces": {
				"north": {"uv": [9.5, 5, 11.547, 7.047], "rotation": 180, "texture": "#0"},
				"east": {"uv": [9.5, 5, 11.547, 7.047], "rotation": 180, "texture": "#0"},
				"south": {"uv": [9.5, 5, 11.547, 7.047], "rotation": 180, "texture": "#0"},
				"west": {"uv": [9.5, 5, 11.547, 7.047], "rotation": 180, "texture": "#1"},
				"up": {"uv": [9.5, 5, 11.547, 7.047], "rotation": 90, "texture": "#0"},
				"down": {"uv": [9.5, 5, 11.547, 7.047], "rotation": 270, "texture": "#0"}
			}
		},
		{
			"from": [7.93496, 8.57978, 5.39132],
			"to": [8.15156, 8.63678, 5.50532],
			"rotation": {"angle": 0, "axis": "y", "origin": [7.99277, 8.5513, 5.51964]},
			"faces": {
				"north": {"uv": [9.5, 5, 11.547, 7.047], "rotation": 180, "texture": "#0"},
				"east": {"uv": [9.5, 5, 11.547, 7.047], "rotation": 180, "texture": "#0"},
				"south": {"uv": [9.5, 5, 11.547, 7.047], "rotation": 180, "texture": "#0"},
				"west": {"uv": [9.5, 5, 11.547, 7.047], "rotation": 180, "texture": "#1"},
				"up": {"uv": [9.5, 5, 11.547, 7.047], "rotation": 90, "texture": "#0"},
				"down": {"uv": [9.5, 5, 11.547, 7.047], "rotation": 270, "texture": "#0"}
			}
		},
		{
			"from": [7.93496, 8.11386, 5.39132],
			"to": [8.15156, 8.17086, 5.50532],
			"rotation": {"angle": 0, "axis": "y", "origin": [7.99277, 8.08538, 5.51964]},
			"faces": {
				"north": {"uv": [9.5, 5, 11.547, 7.047], "rotation": 180, "texture": "#0"},
				"east": {"uv": [9.5, 5, 11.547, 7.047], "rotation": 180, "texture": "#0"},
				"south": {"uv": [9.5, 5, 11.547, 7.047], "rotation": 180, "texture": "#0"},
				"west": {"uv": [9.5, 5, 11.547, 7.047], "rotation": 180, "texture": "#1"},
				"up": {"uv": [9.5, 5, 11.547, 7.047], "rotation": 90, "texture": "#0"},
				"down": {"uv": [9.5, 5, 11.547, 7.047], "rotation": 270, "texture": "#0"}
			}
		},
		{
			"from": [8.24772, 8.26702, 5.39132],
			"to": [8.30472, 8.48362, 5.50532],
			"rotation": {"angle": 0, "axis": "y", "origin": [8.3332, 8.31913, 5.51964]},
			"faces": {
				"north": {"uv": [9.5, 5, 11.547, 7.047], "rotation": 270, "texture": "#0"},
				"east": {"uv": [9.5, 5, 11.547, 7.047], "rotation": 270, "texture": "#0"},
				"south": {"uv": [9.5, 5, 11.547, 7.047], "rotation": 270, "texture": "#0"},
				"west": {"uv": [9.5, 5, 11.547, 7.047], "rotation": 270, "texture": "#1"},
				"up": {"uv": [9.5, 5, 11.547, 7.047], "rotation": 180, "texture": "#0"},
				"down": {"uv": [9.5, 5, 11.547, 7.047], "texture": "#0"}
			}
		},
		{
			"from": [7.7818, 8.26702, 5.39132],
			"to": [7.8388, 8.48362, 5.50532],
			"rotation": {"angle": 0, "axis": "y", "origin": [7.86728, 8.31913, 5.51964]},
			"faces": {
				"north": {"uv": [9.5, 5, 11.547, 7.047], "rotation": 270, "texture": "#0"},
				"east": {"uv": [9.5, 5, 11.547, 7.047], "rotation": 270, "texture": "#0"},
				"south": {"uv": [9.5, 5, 11.547, 7.047], "rotation": 270, "texture": "#0"},
				"west": {"uv": [9.5, 5, 11.547, 7.047], "rotation": 270, "texture": "#1"},
				"up": {"uv": [9.5, 5, 11.547, 7.047], "rotation": 180, "texture": "#0"},
				"down": {"uv": [9.5, 5, 11.547, 7.047], "texture": "#0"}
			}
		},
		{
			"from": [7.82698, 8.4885, 5.39132],
			"to": [8.04358, 8.5455, 5.50532],
			"rotation": {"angle": 45, "axis": "z", "origin": [7.87909, 8.46002, 5.51964]},
			"faces": {
				"north": {"uv": [9.5, 5, 11.547, 7.047], "rotation": 180, "texture": "#0"},
				"east": {"uv": [9.5, 5, 11.547, 7.047], "rotation": 180, "texture": "#0"},
				"south": {"uv": [9.5, 5, 11.547, 7.047], "rotation": 180, "texture": "#0"},
				"west": {"uv": [9.5, 5, 11.547, 7.047], "rotation": 180, "texture": "#1"},
				"up": {"uv": [9.5, 5, 11.547, 7.047], "rotation": 90, "texture": "#0"},
				"down": {"uv": [9.5, 5, 11.547, 7.047], "rotation": 270, "texture": "#0"}
			}
		},
		{
			"from": [8.15643, 8.15905, 5.39132],
			"to": [8.37303, 8.21605, 5.50532],
			"rotation": {"angle": 45, "axis": "z", "origin": [8.20854, 8.13057, 5.51964]},
			"faces": {
				"north": {"uv": [9.5, 5, 11.547, 7.047], "rotation": 180, "texture": "#0"},
				"east": {"uv": [9.5, 5, 11.547, 7.047], "rotation": 180, "texture": "#0"},
				"south": {"uv": [9.5, 5, 11.547, 7.047], "rotation": 180, "texture": "#0"},
				"west": {"uv": [9.5, 5, 11.547, 7.047], "rotation": 180, "texture": "#1"},
				"up": {"uv": [9.5, 5, 11.547, 7.047], "rotation": 90, "texture": "#0"},
				"down": {"uv": [9.5, 5, 11.547, 7.047], "rotation": 270, "texture": "#0"}
			}
		},
		{
			"from": [8.07585, 8.56797, 5.39132],
			"to": [8.29245, 8.62497, 5.50532],
			"rotation": {"angle": -45, "axis": "z", "origin": [8.12796, 8.53949, 5.51964]},
			"faces": {
				"north": {"uv": [9.5, 5, 11.547, 7.047], "rotation": 180, "texture": "#0"},
				"east": {"uv": [9.5, 5, 11.547, 7.047], "rotation": 180, "texture": "#0"},
				"south": {"uv": [9.5, 5, 11.547, 7.047], "rotation": 180, "texture": "#0"},
				"west": {"uv": [9.5, 5, 11.547, 7.047], "rotation": 180, "texture": "#1"},
				"up": {"uv": [9.5, 5, 11.547, 7.047], "rotation": 90, "texture": "#0"},
				"down": {"uv": [9.5, 5, 11.547, 7.047], "rotation": 270, "texture": "#0"}
			}
		},
		{
			"from": [7.7464, 8.23851, 5.39132],
			"to": [7.963, 8.29551, 5.50532],
			"rotation": {"angle": -45, "axis": "z", "origin": [7.79851, 8.21003, 5.51964]},
			"faces": {
				"north": {"uv": [9.5, 5, 11.547, 7.047], "rotation": 180, "texture": "#0"},
				"east": {"uv": [9.5, 5, 11.547, 7.047], "rotation": 180, "texture": "#0"},
				"south": {"uv": [9.5, 5, 11.547, 7.047], "rotation": 180, "texture": "#0"},
				"west": {"uv": [9.5, 5, 11.547, 7.047], "rotation": 180, "texture": "#1"},
				"up": {"uv": [9.5, 5, 11.547, 7.047], "rotation": 90, "texture": "#0"},
				"down": {"uv": [9.5, 5, 11.547, 7.047], "rotation": 270, "texture": "#0"}
			}
		},
		{
			"from": [7.84031, 8.45054, 5.04932],
			"to": [8.01131, 8.50754, 5.84732],
			"rotation": {"angle": 45, "axis": "z", "origin": [7.89731, 8.47904, 5.79032]},
			"faces": {
				"north": {"uv": [9.5, 5, 11.547, 7.047], "rotation": 180, "texture": "#0"},
				"east": {"uv": [9.5, 5, 11.547, 7.047], "rotation": 180, "texture": "#0"},
				"south": {"uv": [9.5, 5, 11.547, 7.047], "rotation": 180, "texture": "#0"},
				"west": {"uv": [9.5, 5, 11.547, 7.047], "rotation": 180, "texture": "#1"},
				"up": {"uv": [9.5, 5, 11.547, 7.047], "rotation": 90, "texture": "#0"},
				"down": {"uv": [9.5, 5, 11.547, 7.047], "rotation": 270, "texture": "#0"}
			}
		},
		{
			"from": [7.83684, 8.28789, 5.04932],
			"to": [7.89384, 8.45889, 5.84732],
			"rotation": {"angle": 0, "axis": "y", "origin": [8.22444, 8.71929, 5.49392]},
			"faces": {
				"north": {"uv": [9.5, 5, 11.547, 7.047], "texture": "#0"},
				"east": {"uv": [9.5, 5, 11.547, 7.047], "texture": "#0"},
				"south": {"uv": [9.5, 5, 11.547, 7.047], "texture": "#0"},
				"west": {"uv": [9.5, 5, 11.547, 7.047], "texture": "#1"},
				"up": {"uv": [9.5, 5, 11.547, 7.047], "rotation": 270, "texture": "#0"},
				"down": {"uv": [9.5, 5, 11.547, 7.047], "rotation": 90, "texture": "#0"}
			}
		},
		{
			"from": [7.90911, 8.17043, 5.04932],
			"to": [7.96611, 8.34143, 5.84732],
			"rotation": {"angle": 45, "axis": "z", "origin": [7.93761, 8.22743, 5.79032]},
			"faces": {
				"north": {"uv": [9.5, 5, 11.547, 7.047], "texture": "#0"},
				"east": {"uv": [9.5, 5, 11.547, 7.047], "texture": "#0"},
				"south": {"uv": [9.5, 5, 11.547, 7.047], "texture": "#0"},
				"west": {"uv": [9.5, 5, 11.547, 7.047], "texture": "#1"},
				"up": {"uv": [9.5, 5, 11.547, 7.047], "rotation": 270, "texture": "#0"},
				"down": {"uv": [9.5, 5, 11.547, 7.047], "rotation": 90, "texture": "#0"}
			}
		},
		{
			"from": [8.16072, 8.42204, 5.04932],
			"to": [8.21772, 8.59304, 5.84732],
			"rotation": {"angle": 45, "axis": "z", "origin": [8.18922, 8.47904, 5.79032]},
			"faces": {
				"north": {"uv": [9.5, 5, 11.547, 7.047], "texture": "#0"},
				"east": {"uv": [9.5, 5, 11.547, 7.047], "texture": "#0"},
				"south": {"uv": [9.5, 5, 11.547, 7.047], "texture": "#0"},
				"west": {"uv": [9.5, 5, 11.547, 7.047], "texture": "#1"},
				"up": {"uv": [9.5, 5, 11.547, 7.047], "rotation": 270, "texture": "#0"},
				"down": {"uv": [9.5, 5, 11.547, 7.047], "rotation": 90, "texture": "#0"}
			}
		},
		{
			"from": [8.19268, 8.28789, 5.04932],
			"to": [8.24968, 8.45889, 5.84732],
			"rotation": {"angle": 0, "axis": "y", "origin": [8.51189, 8.49129, 5.49392]},
			"faces": {
				"north": {"uv": [9.5, 5, 11.547, 7.047], "texture": "#0"},
				"east": {"uv": [9.5, 5, 11.547, 7.047], "texture": "#0"},
				"south": {"uv": [9.5, 5, 11.547, 7.047], "texture": "#0"},
				"west": {"uv": [9.5, 5, 11.547, 7.047], "texture": "#1"},
				"up": {"uv": [9.5, 5, 11.547, 7.047], "rotation": 270, "texture": "#0"},
				"down": {"uv": [9.5, 5, 11.547, 7.047], "rotation": 90, "texture": "#0"}
			}
		},
		{
			"from": [8.09192, 8.19893, 5.04932],
			"to": [8.26292, 8.25593, 5.84732],
			"rotation": {"angle": 45, "axis": "z", "origin": [8.14892, 8.22743, 5.79032]},
			"faces": {
				"north": {"uv": [9.5, 5, 11.547, 7.047], "rotation": 180, "texture": "#0"},
				"east": {"uv": [9.5, 5, 11.547, 7.047], "rotation": 180, "texture": "#0"},
				"south": {"uv": [9.5, 5, 11.547, 7.047], "rotation": 180, "texture": "#0"},
				"west": {"uv": [9.5, 5, 11.547, 7.047], "rotation": 180, "texture": "#1"},
				"up": {"uv": [9.5, 5, 11.547, 7.047], "rotation": 90, "texture": "#0"},
				"down": {"uv": [9.5, 5, 11.547, 7.047], "rotation": 270, "texture": "#0"}
			}
		},
		{
			"from": [7.95776, 8.16697, 5.04932],
			"to": [8.12876, 8.22397, 5.84732],
			"rotation": {"angle": 0, "axis": "y", "origin": [8.02126, 8.19547, 5.74764]},
			"faces": {
				"north": {"uv": [9.5, 5, 11.547, 7.047], "rotation": 180, "texture": "#0"},
				"east": {"uv": [9.5, 5, 11.547, 7.047], "rotation": 180, "texture": "#0"},
				"south": {"uv": [9.5, 5, 11.547, 7.047], "rotation": 180, "texture": "#0"},
				"west": {"uv": [9.5, 5, 11.547, 7.047], "rotation": 180, "texture": "#1"},
				"up": {"uv": [9.5, 5, 11.547, 7.047], "rotation": 90, "texture": "#0"},
				"down": {"uv": [9.5, 5, 11.547, 7.047], "rotation": 270, "texture": "#0"}
			}
		},
		{
			"from": [7.70126, 7.99108, 5.87012],
			"to": [8.38526, 8.21908, 8.49212],
			"rotation": {"angle": 0, "axis": "y", "origin": [8.04326, 8.94312, 12.35332]},
			"faces": {
				"north": {"uv": [0, 0, 3.032, 2.394], "texture": "#0"},
				"east": {"uv": [0, 0, 3.032, 2.394], "texture": "#0"},
				"south": {"uv": [0, 0, 3.032, 2.394], "texture": "#0"},
				"west": {"uv": [0, 0, 3.032, 2.394], "texture": "#1"},
				"up": {"uv": [0, 0, 3.032, 2.394], "rotation": 270, "texture": "#0"},
				"down": {"uv": [0, 0, 3.032, 2.394], "rotation": 90, "texture": "#0"}
			}
		},
		{
			"from": [7.81526, 8.21908, 5.87012],
			"to": [8.38526, 8.56108, 8.60612],
			"rotation": {"angle": 0, "axis": "y", "origin": [8.15726, 9.17112, 12.35332]},
			"faces": {
				"north": {"uv": [0, 0, 3.032, 2.394], "texture": "#0"},
				"east": {"uv": [0, 0, 3.032, 2.394], "texture": "#0"},
				"south": {"uv": [0, 0, 3.032, 2.394], "texture": "#0"},
				"west": {"uv": [0, 0, 3.032, 2.394], "texture": "#1"},
				"up": {"uv": [0, 0, 3.032, 2.394], "rotation": 270, "texture": "#0"},
				"down": {"uv": [0, 0, 3.032, 2.394], "rotation": 90, "texture": "#0"}
			}
		},
		{
			"from": [7.70126, 8.21908, 5.87012],
			"to": [7.81526, 8.56108, 6.09812],
			"rotation": {"angle": 0, "axis": "y", "origin": [8.04326, 9.17112, 12.35332]},
			"faces": {
				"north": {"uv": [0, 0, 3.032, 2.394], "texture": "#0"},
				"east": {"uv": [0, 0, 3.032, 2.394], "texture": "#0"},
				"south": {"uv": [0, 0, 3.032, 2.394], "texture": "#0"},
				"west": {"uv": [0, 0, 3.032, 2.394], "texture": "#1"},
				"up": {"uv": [0, 0, 3.032, 2.394], "rotation": 270, "texture": "#0"},
				"down": {"uv": [0, 0, 3.032, 2.394], "rotation": 90, "texture": "#0"}
			}
		},
		{
			"from": [7.66706, 8.67508, 8.72012],
			"to": [7.78326, 9.02108, 8.94812],
			"rotation": {"angle": 0, "axis": "y", "origin": [8.04326, 9.62712, 15.20332]},
			"faces": {
				"north": {"uv": [0, 0, 3.032, 2.394], "texture": "#0"},
				"east": {"uv": [0, 0, 3.032, 2.394], "texture": "#0"},
				"south": {"uv": [0, 0, 3.032, 2.394], "texture": "#0"},
				"west": {"uv": [0, 0, 3.032, 2.394], "texture": "#1"},
				"up": {"uv": [0, 0, 3.032, 2.394], "rotation": 270, "texture": "#0"},
				"down": {"uv": [0, 0, 3.032, 2.394], "rotation": 90, "texture": "#0"}
			}
		},
		{
			"from": [7.66706, 8.67508, 6.32612],
			"to": [7.78326, 9.02108, 6.55412],
			"rotation": {"angle": 0, "axis": "y", "origin": [8.04326, 9.62712, 12.80932]},
			"faces": {
				"north": {"uv": [0, 0, 3.032, 2.394], "texture": "#0"},
				"east": {"uv": [0, 0, 3.032, 2.394], "texture": "#0"},
				"south": {"uv": [0, 0, 3.032, 2.394], "texture": "#0"},
				"west": {"uv": [0, 0, 3.032, 2.394], "texture": "#1"},
				"up": {"uv": [0, 0, 3.032, 2.394], "rotation": 270, "texture": "#0"},
				"down": {"uv": [0, 0, 3.032, 2.394], "rotation": 90, "texture": "#0"}
			}
		},
		{
			"from": [8.30326, 8.67508, 8.72012],
			"to": [8.41946, 9.02108, 8.94812],
			"rotation": {"angle": 0, "axis": "y", "origin": [8.61326, 9.62712, 15.20332]},
			"faces": {
				"north": {"uv": [0, 0, 3.032, 2.394], "texture": "#0"},
				"east": {"uv": [0, 0, 3.032, 2.394], "texture": "#0"},
				"south": {"uv": [0, 0, 3.032, 2.394], "texture": "#0"},
				"west": {"uv": [0, 0, 3.032, 2.394], "texture": "#1"},
				"up": {"uv": [0, 0, 3.032, 2.394], "rotation": 270, "texture": "#0"},
				"down": {"uv": [0, 0, 3.032, 2.394], "rotation": 90, "texture": "#0"}
			}
		},
		{
			"from": [8.30326, 8.67508, 6.32612],
			"to": [8.41946, 9.02108, 6.55412],
			"rotation": {"angle": 0, "axis": "y", "origin": [8.61326, 9.62712, 12.80932]},
			"faces": {
				"north": {"uv": [0, 0, 3.032, 2.394], "texture": "#0"},
				"east": {"uv": [0, 0, 3.032, 2.394], "texture": "#0"},
				"south": {"uv": [0, 0, 3.032, 2.394], "texture": "#0"},
				"west": {"uv": [0, 0, 3.032, 2.394], "texture": "#1"},
				"up": {"uv": [0, 0, 3.032, 2.394], "rotation": 270, "texture": "#0"},
				"down": {"uv": [0, 0, 3.032, 2.394], "rotation": 90, "texture": "#0"}
			}
		},
		{
			"from": [7.70126, 8.53828, 5.87012],
			"to": [8.38526, 8.99028, 9.06212],
			"rotation": {"angle": 0, "axis": "y", "origin": [8.04326, 9.39912, 12.35332]},
			"faces": {
				"north": {"uv": [0, 0, 3.032, 2.394], "texture": "#0"},
				"east": {"uv": [0, 0, 3.032, 2.394], "texture": "#0"},
				"south": {"uv": [0, 0, 3.032, 2.394], "texture": "#0"},
				"west": {"uv": [0, 0, 3.032, 2.394], "texture": "#1"},
				"up": {"uv": [0, 0, 3.032, 2.394], "rotation": 270, "texture": "#0"},
				"down": {"uv": [0, 0, 3.032, 2.394], "rotation": 90, "texture": "#0"}
			}
		},
		{
			"from": [7.70126, 7.56489, 7.01012],
			"to": [8.38526, 8.24889, 7.80812],
			"rotation": {"angle": -22.5, "axis": "x", "origin": [8.04326, 7.90689, 7.29512]},
			"faces": {
				"north": {"uv": [0, 0, 3.032, 2.394], "texture": "#0"},
				"east": {"uv": [0, 0, 3.032, 2.394], "texture": "#0"},
				"south": {"uv": [0, 0, 3.032, 2.394], "texture": "#0"},
				"west": {"uv": [0, 0, 3.032, 2.394], "texture": "#1"},
				"up": {"uv": [0, 0, 3.032, 2.394], "rotation": 270, "texture": "#0"},
				"down": {"uv": [0, 0, 3.032, 2.394], "rotation": 90, "texture": "#0"}
			}
		},
		{
			"from": [7.70126, 7.74028, 7.35212],
			"to": [8.38526, 8.53828, 8.60612],
			"rotation": {"angle": 0, "axis": "y", "origin": [8.04326, 7.96828, 7.97912]},
			"faces": {
				"north": {"uv": [0, 0, 3.032, 2.394], "texture": "#0"},
				"east": {"uv": [0, 0, 3.032, 2.394], "texture": "#0"},
				"south": {"uv": [0, 0, 3.032, 2.394], "texture": "#0"},
				"west": {"uv": [0, 0, 3.032, 2.394], "texture": "#1"},
				"up": {"uv": [0, 0, 3.032, 2.394], "rotation": 270, "texture": "#0"},
				"down": {"uv": [0, 0, 3.032, 2.394], "rotation": 90, "texture": "#0"}
			}
		},
		{
			"from": [7.70126, 7.65606, 8.33931],
			"to": [8.38526, 8.68206, 8.90931],
			"rotation": {"angle": 22.5, "axis": "x", "origin": [8.04326, 8.22606, 8.62431]},
			"faces": {
				"north": {"uv": [0, 0, 3.032, 2.394], "texture": "#0"},
				"east": {"uv": [0, 0, 3.032, 2.394], "texture": "#0"},
				"south": {"uv": [0, 0, 3.032, 2.394], "texture": "#0"},
				"west": {"uv": [0, 0, 3.032, 2.394], "texture": "#1"},
				"up": {"uv": [0, 0, 3.032, 2.394], "rotation": 270, "texture": "#0"},
				"down": {"uv": [0, 0, 3.032, 2.394], "rotation": 90, "texture": "#0"}
			}
		},
		{
			"from": [7.92926, 7.57401, 5.99203],
			"to": [8.15726, 7.63101, 6.33403],
			"rotation": {"angle": 45, "axis": "x", "origin": [8.04326, 7.60251, 6.04903]},
			"faces": {
				"north": {"uv": [9, 4.5, 11.3, 6.594], "texture": "#0"},
				"east": {"uv": [9, 4.5, 11.3, 6.594], "texture": "#0"},
				"south": {"uv": [9, 4.5, 11.3, 6.594], "texture": "#0"},
				"west": {"uv": [9, 4.5, 11.3, 6.594], "texture": "#1"},
				"up": {"uv": [9, 4.5, 11.3, 6.594], "rotation": 270, "texture": "#0"},
				"down": {"uv": [9, 4.5, 11.3, 6.594], "rotation": 90, "texture": "#0"}
			}
		},
		{
			"from": [7.92926, 7.62056, 5.92096],
			"to": [8.15726, 7.84856, 5.97796],
			"rotation": {"angle": -22.5, "axis": "x", "origin": [8.04326, 7.79156, 5.94946]},
			"faces": {
				"north": {"uv": [9, 4.5, 11.3, 6.594], "rotation": 90, "texture": "#0"},
				"east": {"uv": [9, 4.5, 11.3, 6.594], "rotation": 90, "texture": "#0"},
				"south": {"uv": [9, 4.5, 11.3, 6.594], "rotation": 90, "texture": "#0"},
				"west": {"uv": [9, 4.5, 11.3, 6.594], "rotation": 90, "texture": "#1"},
				"up": {"uv": [9, 4.5, 11.3, 6.594], "texture": "#0"},
				"down": {"uv": [9, 4.5, 11.3, 6.594], "rotation": 180, "texture": "#0"}
			}
		},
		{
			"from": [7.92926, 7.83332, 5.90132],
			"to": [8.15726, 8.06132, 5.95832],
			"rotation": {"angle": 0, "axis": "y", "origin": [8.04326, 8.00432, 5.92982]},
			"faces": {
				"north": {"uv": [9, 4.5, 11.3, 6.594], "rotation": 90, "texture": "#0"},
				"east": {"uv": [9, 4.5, 11.3, 6.594], "rotation": 90, "texture": "#0"},
				"south": {"uv": [9, 4.5, 11.3, 6.594], "rotation": 90, "texture": "#0"},
				"west": {"uv": [9, 4.5, 11.3, 6.594], "rotation": 90, "texture": "#1"},
				"up": {"uv": [9, 4.5, 11.3, 6.594], "texture": "#0"},
				"down": {"uv": [9, 4.5, 11.3, 6.594], "rotation": 180, "texture": "#0"}
			}
		},
		{
			"from": [7.92926, 7.38084, 6.23041],
			"to": [8.15726, 7.43784, 6.80041],
			"rotation": {"angle": 0, "axis": "y", "origin": [8.04326, 7.40934, 6.71491]},
			"faces": {
				"north": {"uv": [9, 4.5, 11.3, 6.594], "texture": "#0"},
				"east": {"uv": [9, 4.5, 11.3, 6.594], "texture": "#0"},
				"south": {"uv": [9, 4.5, 11.3, 6.594], "texture": "#0"},
				"west": {"uv": [9, 4.5, 11.3, 6.594], "texture": "#1"},
				"up": {"uv": [9, 4.5, 11.3, 6.594], "rotation": 270, "texture": "#0"},
				"down": {"uv": [9, 4.5, 11.3, 6.594], "rotation": 90, "texture": "#0"}
			}
		},
		{
			"from": [7.92926, 7.42013, 6.76991],
			"to": [8.15726, 7.47713, 7.28291],
			"rotation": {"angle": -22.5, "axis": "x", "origin": [8.04326, 7.47713, 6.88391]},
			"faces": {
				"north": {"uv": [9, 4.5, 11.3, 6.594], "texture": "#0"},
				"east": {"uv": [9, 4.5, 11.3, 6.594], "texture": "#0"},
				"south": {"uv": [9, 4.5, 11.3, 6.594], "texture": "#0"},
				"west": {"uv": [9, 4.5, 11.3, 6.594], "texture": "#1"},
				"up": {"uv": [9, 4.5, 11.3, 6.594], "rotation": 270, "texture": "#0"},
				"down": {"uv": [9, 4.5, 11.3, 6.594], "rotation": 90, "texture": "#0"}
			}
		},
		{
			"from": [7.98626, 7.69947, 6.80913],
			"to": [8.10026, 7.81347, 6.86613],
			"rotation": {"angle": 22.5, "axis": "x", "origin": [8.04326, 7.87047, 6.83763]},
			"faces": {
				"north": {"uv": [1, 5, 2.8, 7.094], "rotation": 270, "texture": "#0"},
				"east": {"uv": [1, 5, 2.8, 7.094], "rotation": 270, "texture": "#0"},
				"south": {"uv": [1, 5, 2.8, 7.094], "rotation": 270, "texture": "#0"},
				"west": {"uv": [1, 5, 2.8, 7.094], "rotation": 270, "texture": "#1"},
				"up": {"uv": [1, 5, 2.8, 7.094], "rotation": 180, "texture": "#0"},
				"down": {"uv": [1, 5, 2.8, 7.094], "texture": "#0"}
			}
		},
		{
			"from": [7.98626, 7.62444, 6.70956],
			"to": [8.10026, 7.73844, 6.76656],
			"rotation": {"angle": 45, "axis": "x", "origin": [8.04326, 7.68144, 6.73806]},
			"faces": {
				"north": {"uv": [1, 5, 2.8, 7.094], "rotation": 270, "texture": "#0"},
				"east": {"uv": [1, 5, 2.8, 7.094], "rotation": 270, "texture": "#0"},
				"south": {"uv": [1, 5, 2.8, 7.094], "rotation": 270, "texture": "#0"},
				"west": {"uv": [1, 5, 2.8, 7.094], "rotation": 270, "texture": "#1"},
				"up": {"uv": [1, 5, 2.8, 7.094], "rotation": 180, "texture": "#0"},
				"down": {"uv": [1, 5, 2.8, 7.094], "texture": "#0"}
			}
		},
		{
			"from": [7.98626, 7.8048, 6.85275],
			"to": [8.10026, 8.1468, 6.90975],
			"rotation": {"angle": 22.5, "axis": "x", "origin": [8.04326, 7.9758, 6.88125]},
			"faces": {
				"north": {"uv": [1, 5, 2.8, 7.094], "rotation": 270, "texture": "#0"},
				"east": {"uv": [1, 5, 2.8, 7.094], "rotation": 270, "texture": "#0"},
				"south": {"uv": [1, 5, 2.8, 7.094], "rotation": 270, "texture": "#0"},
				"west": {"uv": [1, 5, 2.8, 7.094], "rotation": 270, "texture": "#1"},
				"up": {"uv": [1, 5, 2.8, 7.094], "rotation": 180, "texture": "#0"},
				"down": {"uv": [1, 5, 2.8, 7.094], "texture": "#0"}
			}
		},
		{
			"from": [7.98626, 7.89699, 6.84841],
			"to": [8.10026, 8.23899, 6.90541],
			"rotation": {"angle": 22.5, "axis": "x", "origin": [8.04326, 8.06799, 6.87691]},
			"faces": {
				"north": {"uv": [2, 6, 3.3, 7.094], "rotation": 270, "texture": "#0"},
				"east": {"uv": [2, 6, 3.3, 7.094], "rotation": 270, "texture": "#0"},
				"south": {"uv": [2, 6, 3.3, 7.094], "rotation": 270, "texture": "#0"},
				"west": {"uv": [2, 6, 3.3, 7.094], "rotation": 270, "texture": "#1"},
				"up": {"uv": [2, 6, 3.3, 7.094], "rotation": 270, "texture": "#0"},
				"down": {"uv": [2, 6, 3.3, 7.094], "rotation": 270, "texture": "#0"}
			}
		},
		{
			"from": [7.98626, 7.9209, 6.78514],
			"to": [8.10026, 8.2629, 6.84214],
			"rotation": {"angle": 0, "axis": "y", "origin": [8.04326, 8.0919, 6.81364]},
			"faces": {
				"north": {"uv": [2, 6, 3.3, 7.094], "rotation": 270, "texture": "#0"},
				"east": {"uv": [2, 6, 3.3, 7.094], "rotation": 270, "texture": "#0"},
				"south": {"uv": [2, 6, 3.3, 7.094], "rotation": 270, "texture": "#0"},
				"west": {"uv": [2, 6, 3.3, 7.094], "rotation": 270, "texture": "#1"},
				"up": {"uv": [2, 6, 3.3, 7.094], "rotation": 270, "texture": "#0"},
				"down": {"uv": [2, 6, 3.3, 7.094], "rotation": 270, "texture": "#0"}
			}
		},
		{
			"from": [7.98626, 7.8069, 6.78514],
			"to": [8.10026, 7.9209, 6.84214],
			"rotation": {"angle": 0, "axis": "y", "origin": [8.04326, 7.9779, 6.81364]},
			"faces": {
				"north": {"uv": [1, 5, 2.8, 7.094], "rotation": 270, "texture": "#0"},
				"east": {"uv": [1, 5, 2.8, 7.094], "rotation": 270, "texture": "#0"},
				"south": {"uv": [1, 5, 2.8, 7.094], "rotation": 270, "texture": "#0"},
				"west": {"uv": [1, 5, 2.8, 7.094], "rotation": 270, "texture": "#1"},
				"up": {"uv": [1, 5, 2.8, 7.094], "rotation": 180, "texture": "#0"},
				"down": {"uv": [1, 5, 2.8, 7.094], "texture": "#0"}
			}
		},
		{
			"from": [7.72292, 8.21908, 6.09812],
			"to": [7.83692, 8.56108, 7.46612],
			"rotation": {"angle": 0, "axis": "y", "origin": [8.04326, 9.17112, 12.58132]},
			"faces": {
				"north": {"uv": [4.5, 4.5, 7.263, 7.099], "texture": "#0"},
				"east": {"uv": [4.5, 4.5, 7.263, 7.099], "texture": "#0"},
				"south": {"uv": [4.5, 4.5, 7.263, 7.099], "texture": "#0"},
				"west": {"uv": [4.5, 4.5, 7.263, 7.099], "texture": "#1"},
				"up": {"uv": [4.5, 4.5, 7.263, 7.099], "rotation": 270, "texture": "#0"},
				"down": {"uv": [4.5, 4.5, 7.263, 7.099], "rotation": 90, "texture": "#0"}
			}
		},
		{
			"from": [7.36041, 8.35144, 6.27514],
			"to": [7.57701, 8.48824, 6.36634],
			"rotation": {"angle": 45, "axis": "y", "origin": [7.47441, 8.41984, 6.30934]},
			"faces": {
				"north": {"uv": [4.5, 4.5, 7.263, 7.099], "texture": "#0"},
				"east": {"uv": [4.5, 4.5, 7.263, 7.099], "texture": "#0"},
				"south": {"uv": [4.5, 4.5, 7.263, 7.099], "texture": "#0"},
				"west": {"uv": [4.5, 4.5, 7.263, 7.099], "texture": "#1"},
				"up": {"uv": [4.5, 4.5, 7.263, 7.099], "rotation": 270, "texture": "#0"},
				"down": {"uv": [4.5, 4.5, 7.263, 7.099], "rotation": 90, "texture": "#0"}
			}
		},
		{
			"from": [7.43336, 8.35144, 6.2144],
			"to": [7.52456, 8.48824, 6.431],
			"rotation": {"angle": 0, "axis": "y", "origin": [7.47896, 8.41984, 6.3227]},
			"faces": {
				"north": {"uv": [4.5, 4.5, 6.763, 6.099], "texture": "#0"},
				"east": {"uv": [4.5, 4.5, 6.763, 6.099], "texture": "#0"},
				"south": {"uv": [4.5, 4.5, 6.763, 6.099], "texture": "#0"},
				"west": {"uv": [4.5, 4.5, 6.763, 6.099], "texture": "#1"},
				"up": {"uv": [4.5, 4.5, 6.763, 6.099], "rotation": 270, "texture": "#0"},
				"down": {"uv": [4.5, 4.5, 6.763, 6.099], "rotation": 90, "texture": "#0"}
			}
		},
		{
			"from": [7.37066, 8.35144, 6.2771],
			"to": [7.58726, 8.48824, 6.3683],
			"rotation": {"angle": 0, "axis": "y", "origin": [7.71266, 9.28512, 13.1513]},
			"faces": {
				"north": {"uv": [4.5, 4.5, 7.263, 7.099], "texture": "#0"},
				"east": {"uv": [4.5, 4.5, 7.263, 7.099], "texture": "#0"},
				"south": {"uv": [4.5, 4.5, 7.263, 7.099], "texture": "#0"},
				"west": {"uv": [4.5, 4.5, 7.263, 7.099], "texture": "#1"},
				"up": {"uv": [4.5, 4.5, 7.263, 7.099], "rotation": 270, "texture": "#0"},
				"down": {"uv": [4.5, 4.5, 7.263, 7.099], "rotation": 90, "texture": "#0"}
			}
		},
		{
			"from": [7.37066, 8.35144, 6.2771],
			"to": [7.58726, 8.48824, 6.3683],
			"rotation": {"angle": -45, "axis": "y", "origin": [7.47896, 8.41984, 6.3227]},
			"faces": {
				"north": {"uv": [4.5, 4.5, 7.263, 7.099], "texture": "#0"},
				"east": {"uv": [4.5, 4.5, 7.263, 7.099], "texture": "#0"},
				"south": {"uv": [4.5, 4.5, 7.263, 7.099], "texture": "#0"},
				"west": {"uv": [4.5, 4.5, 7.263, 7.099], "texture": "#1"},
				"up": {"uv": [4.5, 4.5, 7.263, 7.099], "rotation": 270, "texture": "#0"},
				"down": {"uv": [4.5, 4.5, 7.263, 7.099], "rotation": 90, "texture": "#0"}
			}
		},
		{
			"from": [7.58726, 8.37424, 6.2771],
			"to": [8.10026, 8.46544, 6.3683],
			"rotation": {"angle": 0, "axis": "y", "origin": [7.92926, 9.28512, 13.1513]},
			"faces": {
				"north": {"uv": [4.5, 4.5, 7.263, 7.099], "texture": "#0"},
				"east": {"uv": [4.5, 4.5, 7.263, 7.099], "texture": "#0"},
				"south": {"uv": [4.5, 4.5, 7.263, 7.099], "texture": "#0"},
				"west": {"uv": [4.5, 4.5, 7.263, 7.099], "texture": "#1"},
				"up": {"uv": [4.5, 4.5, 7.263, 7.099], "rotation": 270, "texture": "#0"},
				"down": {"uv": [4.5, 4.5, 7.263, 7.099], "rotation": 90, "texture": "#0"}
			}
		}
	],
	"display": {
		"thirdperson_righthand": {
			"rotation": [0.5, 0, 1.25],
			"translation": [-1.25, -0.75, -6],
			"scale": [1, 1, 0.83]
		},
		"thirdperson_lefthand": {
			"rotation": [3, 0, 0],
			"translation": [-0.75, -0.75, -5.75],
			"scale": [1, 1, 0.83]
		},
		"firstperson_righthand": {
			"rotation": [1, 1, 0],
			"translation": [-5.25, 3.5, -0.75],
			"scale": [1.19, 1.14, 0.87]
		},
		"firstperson_lefthand": {
			"rotation": [1, 1, 0],
			"translation": [-3.5, 3.25, -4.5],
			"scale": [1.19, 1.14, 0.87]
		},
		"ground": {
			"translation": [0, 0, -3.25]
		},
		"gui": {
			"rotation": [11, 16, -16],
			"translation": [-0.75, -0.25, 0],
			"scale": [1.25, 1.28, 1.60945]
		},
		"head": {
			"rotation": [0, -139, 90],
			"translation": [2.5, 6.5, 4.5],
			"scale": [1.36, 1.36, 1.36]
		},
		"fixed": {
			"rotation": [0, -90, 0],
			"translation": [4, 0, -1.75],
			"scale": [1.58, 1.39, 1.28]
		}
	}
}