{
    "textures": {
        "0": "gci:items/common/all_in_one",
        "2": "gci:items/common/mpz",
        "particle": "gci:items/common/all_in_one"
    },
    "elements": [
        {
            "from": [
                8.25415,
                5.94869,
                -7.80418
            ],
            "to": [
                8.43415,
                6.30869,
                -5.21938
            ],
            "rotation": {
                "angle": 45,
                "axis": "z",
                "origin": [
                    7.99959,
                    6.12869,
                    -3.54538
                ]
            },
            "faces": {
                "north": {
                    "uv": [
                        7.625,
                        12.375,
                        7.625,
                        12.5
                    ],
                    "rotation": 270,
                    "texture": "#0"
                },
                "east": {
                    "uv": [
                        4,
                        3,
                        4.625,
                        3
                    ],
                    "rotation": 180,
                    "texture": "#0"
                },
                "south": {
                    "uv": [
                        4,
                        3,
                        4.625,
                        3
                    ],
                    "rotation": 180,
                    "texture": "#0"
                },
                "west": {
                    "uv": [
                        7.625,
                        12.375,
                        7.625,
                        12.5
                    ],
                    "rotation": 270,
                    "texture": "#0"
                },
                "up": {
                    "uv": [
                        4,
                        3,
                        4.625,
                        3
                    ],
                    "rotation": 180,
                    "texture": "#0"
                },
                "down": {
                    "uv": [
                        4,
                        3,
                        4.625,
                        3
                    ],
                    "rotation": 180,
                    "texture": "#0"
                }
            }
        },
        {
            "from": [
                7.56502,
                5.94869,
                -7.80418
            ],
            "to": [
                7.74502,
                6.30869,
                -5.21938
            ],
            "rotation": {
                "angle": 45,
                "axis": "z",
                "origin": [
                    7.99959,
                    6.12869,
                    -3.54538
                ]
            },
            "faces": {
                "north": {
                    "uv": [
                        7.625,
                        12.375,
                        7.625,
                        12.5
                    ],
                    "rotation": 270,
                    "texture": "#0"
                },
                "east": {
                    "uv": [
                        7.625,
                        12.375,
                        7.625,
                        12.5
                    ],
                    "rotation": 270,
                    "texture": "#0"
                },
                "south": {
                    "uv": [
                        4,
                        3,
                        4.625,
                        3
                    ],
                    "rotation": 180,
                    "texture": "#0"
                },
                "west": {
                    "uv": [
                        4,
                        3,
                        4.625,
                        3
                    ],
                    "rotation": 180,
                    "texture": "#0"
                },
                "up": {
                    "uv": [
                        4,
                        3,
                        4.625,
                        3
                    ],
                    "rotation": 180,
                    "texture": "#0"
                },
                "down": {
                    "uv": [
                        4,
                        3,
                        4.625,
                        3
                    ],
                    "rotation": 180,
                    "texture": "#0"
                }
            }
        },
        {
            "from": [
                7.81959,
                5.69413,
                -7.80418
            ],
            "to": [
                8.17959,
                5.87413,
                -5.21938
            ],
            "rotation": {
                "angle": 0,
                "axis": "y",
                "origin": [
                    7.53415,
                    5.61957,
                    -28.29538
                ]
            },
            "faces": {
                "north": {
                    "uv": [
                        7.625,
                        12.375,
                        7.625,
                        12.5
                    ],
                    "rotation": 270,
                    "texture": "#0"
                },
                "east": {
                    "uv": [
                        4,
                        3,
                        4.625,
                        3
                    ],
                    "rotation": 270,
                    "texture": "#0"
                },
                "south": {
                    "uv": [
                        4,
                        3,
                        4.625,
                        3
                    ],
                    "rotation": 270,
                    "texture": "#0"
                },
                "west": {
                    "uv": [
                        4,
                        3,
                        4.625,
                        3
                    ],
                    "rotation": 270,
                    "texture": "#0"
                },
                "up": {
                    "uv": [
                        7.625,
                        12.375,
                        7.625,
                        12.5
                    ],
                    "rotation": 270,
                    "texture": "#0"
                },
                "down": {
                    "uv": [
                        4,
                        3,
                        4.625,
                        3
                    ],
                    "rotation": 270,
                    "texture": "#0"
                }
            }
        },
        {
            "from": [
                7.81959,
                6.38326,
                -7.80418
            ],
            "to": [
                8.17959,
                6.56326,
                -5.21938
            ],
            "rotation": {
                "angle": 0,
                "axis": "y",
                "origin": [
                    7.53415,
                    6.30869,
                    -28.29538
                ]
            },
            "faces": {
                "north": {
                    "uv": [
                        7.625,
                        12.375,
                        7.625,
                        12.5
                    ],
                    "rotation": 270,
                    "texture": "#0"
                },
                "east": {
                    "uv": [
                        4,
                        3,
                        4.625,
                        3
                    ],
                    "rotation": 270,
                    "texture": "#0"
                },
                "south": {
                    "uv": [
                        4,
                        3,
                        4.625,
                        3
                    ],
                    "rotation": 270,
                    "texture": "#0"
                },
                "west": {
                    "uv": [
                        4,
                        3,
                        4.625,
                        3
                    ],
                    "rotation": 270,
                    "texture": "#0"
                },
                "up": {
                    "uv": [
                        4,
                        3,
                        4.625,
                        3
                    ],
                    "rotation": 270,
                    "texture": "#0"
                },
                "down": {
                    "uv": [
                        7.625,
                        12.375,
                        7.625,
                        12.5
                    ],
                    "rotation": 270,
                    "texture": "#0"
                }
            }
        },
        {
            "from": [
                8.27802,
                5.88885,
                -7.86178
            ],
            "to": [
                8.57322,
                6.36405,
                -5.68018
            ],
            "rotation": {
                "angle": 0,
                "axis": "y",
                "origin": [
                    8.38877,
                    6.12645,
                    -6.16618
                ]
            },
            "faces": {
                "north": {
                    "uv": [
                        3,
                        2.75,
                        3,
                        2.875
                    ],
                    "texture": "#0"
                },
                "east": {
                    "uv": [
                        3,
                        2.75,
                        3,
                        2.875
                    ],
                    "rotation": 180,
                    "texture": "#0"
                },
                "south": {
                    "uv": [
                        3,
                        2.75,
                        3,
                        2.875
                    ],
                    "rotation": 180,
                    "texture": "#0"
                },
                "west": {
                    "uv": [
                        7.625,
                        12.375,
                        7.625,
                        12.5
                    ],
                    "rotation": 270,
                    "texture": "#0"
                },
                "up": {
                    "uv": [
                        3,
                        2.75,
                        3,
                        2.875
                    ],
                    "rotation": 180,
                    "texture": "#0"
                },
                "down": {
                    "uv": [
                        3,
                        2.75,
                        3,
                        2.875
                    ],
                    "rotation": 180,
                    "texture": "#0"
                }
            }
        },
        {
            "from": [
                7.42597,
                5.88885,
                -7.86178
            ],
            "to": [
                7.72117,
                6.36405,
                -5.68018
            ],
            "rotation": {
                "angle": 0,
                "axis": "y",
                "origin": [
                    7.7077,
                    6.00555,
                    -6.16618
                ]
            },
            "faces": {
                "north": {
                    "uv": [
                        3,
                        2.75,
                        3,
                        2.875
                    ],
                    "rotation": 180,
                    "texture": "#0"
                },
                "east": {
                    "uv": [
                        7.625,
                        12.375,
                        7.625,
                        12.5
                    ],
                    "rotation": 270,
                    "texture": "#0"
                },
                "south": {
                    "uv": [
                        3,
                        2.75,
                        3,
                        2.875
                    ],
                    "texture": "#0"
                },
                "west": {
                    "uv": [
                        3,
                        2.75,
                        3,
                        2.875
                    ],
                    "texture": "#0"
                },
                "up": {
                    "uv": [
                        3,
                        2.75,
                        3,
                        2.875
                    ],
                    "texture": "#0"
                },
                "down": {
                    "uv": [
                        3,
                        2.75,
                        3,
                        2.875
                    ],
                    "texture": "#0"
                }
            }
        },
        {
            "from": [
                7.42597,
                6.23445,
                -8.14258
            ],
            "to": [
                7.60597,
                6.36405,
                -7.86178
            ],
            "rotation": {
                "angle": 0,
                "axis": "y",
                "origin": [
                    7.7077,
                    6.00555,
                    -6.44698
                ]
            },
            "faces": {
                "north": {
                    "uv": [
                        3,
                        2.75,
                        3,
                        2.875
                    ],
                    "rotation": 180,
                    "texture": "#0"
                },
                "east": {
                    "uv": [
                        3,
                        2.75,
                        3,
                        2.875
                    ],
                    "texture": "#0"
                },
                "south": {
                    "uv": [
                        3,
                        2.75,
                        3,
                        2.875
                    ],
                    "texture": "#0"
                },
                "west": {
                    "uv": [
                        3,
                        2.75,
                        3,
                        2.875
                    ],
                    "texture": "#0"
                },
                "up": {
                    "uv": [
                        3,
                        2.75,
                        3,
                        2.875
                    ],
                    "texture": "#0"
                },
                "down": {
                    "uv": [
                        3,
                        2.75,
                        3,
                        2.875
                    ],
                    "texture": "#0"
                }
            }
        },
        {
            "from": [
                8.40517,
                6.23445,
                -8.14258
            ],
            "to": [
                8.58517,
                6.36405,
                -7.86178
            ],
            "rotation": {
                "angle": 0,
                "axis": "y",
                "origin": [
                    8.6869,
                    6.00555,
                    -6.44698
                ]
            },
            "faces": {
                "north": {
                    "uv": [
                        3,
                        2.75,
                        3,
                        2.875
                    ],
                    "rotation": 180,
                    "texture": "#0"
                },
                "east": {
                    "uv": [
                        3,
                        2.75,
                        3,
                        2.875
                    ],
                    "texture": "#0"
                },
                "south": {
                    "uv": [
                        3,
                        2.75,
                        3,
                        2.875
                    ],
                    "texture": "#0"
                },
                "west": {
                    "uv": [
                        3,
                        2.75,
                        3,
                        2.875
                    ],
                    "texture": "#0"
                },
                "up": {
                    "uv": [
                        3,
                        2.75,
                        3,
                        2.875
                    ],
                    "texture": "#0"
                },
                "down": {
                    "uv": [
                        3,
                        2.75,
                        3,
                        2.875
                    ],
                    "texture": "#0"
                }
            }
        },
        {
            "from": [
                7.42597,
                5.88885,
                -8.14258
            ],
            "to": [
                7.60597,
                6.01845,
                -7.86178
            ],
            "rotation": {
                "angle": 0,
                "axis": "y",
                "origin": [
                    7.7077,
                    5.71755,
                    -6.44698
                ]
            },
            "faces": {
                "north": {
                    "uv": [
                        3,
                        2.75,
                        3,
                        2.875
                    ],
                    "rotation": 180,
                    "texture": "#0"
                },
                "east": {
                    "uv": [
                        3,
                        2.75,
                        3,
                        2.875
                    ],
                    "texture": "#0"
                },
                "south": {
                    "uv": [
                        3,
                        2.75,
                        3,
                        2.875
                    ],
                    "texture": "#0"
                },
                "west": {
                    "uv": [
                        3,
                        2.75,
                        3,
                        2.875
                    ],
                    "texture": "#0"
                },
                "up": {
                    "uv": [
                        3,
                        2.75,
                        3,
                        2.875
                    ],
                    "texture": "#0"
                },
                "down": {
                    "uv": [
                        3,
                        2.75,
                        3,
                        2.875
                    ],
                    "texture": "#0"
                }
            }
        },
        {
            "from": [
                8.40517,
                5.88885,
                -8.14258
            ],
            "to": [
                8.58517,
                6.01845,
                -7.86178
            ],
            "rotation": {
                "angle": 0,
                "axis": "y",
                "origin": [
                    8.6869,
                    5.71755,
                    -6.44698
                ]
            },
            "faces": {
                "north": {
                    "uv": [
                        3,
                        2.75,
                        3,
                        2.875
                    ],
                    "rotation": 180,
                    "texture": "#0"
                },
                "east": {
                    "uv": [
                        3,
                        2.75,
                        3,
                        2.875
                    ],
                    "texture": "#0"
                },
                "south": {
                    "uv": [
                        3,
                        2.75,
                        3,
                        2.875
                    ],
                    "texture": "#0"
                },
                "west": {
                    "uv": [
                        3,
                        2.75,
                        3,
                        2.875
                    ],
                    "texture": "#0"
                },
                "up": {
                    "uv": [
                        3,
                        2.75,
                        3,
                        2.875
                    ],
                    "texture": "#0"
                },
                "down": {
                    "uv": [
                        3,
                        2.75,
                        3,
                        2.875
                    ],
                    "texture": "#0"
                }
            }
        },
        {
            "from": [
                7.87599,
                6.12968,
                -7.86178
            ],
            "to": [
                8.35119,
                6.42488,
                -5.68018
            ],
            "rotation": {
                "angle": -45,
                "axis": "z",
                "origin": [
                    8.38877,
                    6.12645,
                    -6.16618
                ]
            },
            "faces": {
                "north": {
                    "uv": [
                        3,
                        2.75,
                        3,
                        2.875
                    ],
                    "rotation": 270,
                    "texture": "#0"
                },
                "east": {
                    "uv": [
                        3,
                        2.75,
                        3,
                        2.875
                    ],
                    "rotation": 270,
                    "texture": "#0"
                },
                "south": {
                    "uv": [
                        3,
                        2.75,
                        3,
                        2.875
                    ],
                    "rotation": 270,
                    "texture": "#0"
                },
                "west": {
                    "uv": [
                        3,
                        2.75,
                        3,
                        2.875
                    ],
                    "rotation": 270,
                    "texture": "#0"
                },
                "up": {
                    "uv": [
                        3,
                        2.75,
                        3,
                        2.875
                    ],
                    "rotation": 270,
                    "texture": "#0"
                },
                "down": {
                    "uv": [
                        7.625,
                        12.375,
                        7.625,
                        12.5
                    ],
                    "rotation": 270,
                    "texture": "#0"
                }
            }
        },
        {
            "from": [
                7.87599,
                6.24488,
                -8.14258
            ],
            "to": [
                8.35119,
                6.42488,
                -7.86178
            ],
            "rotation": {
                "angle": -45,
                "axis": "z",
                "origin": [
                    8.38877,
                    6.12645,
                    -6.44698
                ]
            },
            "faces": {
                "north": {
                    "uv": [
                        3,
                        2.75,
                        3,
                        2.875
                    ],
                    "rotation": 270,
                    "texture": "#0"
                },
                "east": {
                    "uv": [
                        3,
                        2.75,
                        3,
                        2.875
                    ],
                    "rotation": 270,
                    "texture": "#0"
                },
                "south": {
                    "uv": [
                        3,
                        2.75,
                        3,
                        2.875
                    ],
                    "rotation": 270,
                    "texture": "#0"
                },
                "west": {
                    "uv": [
                        3,
                        2.75,
                        3,
                        2.875
                    ],
                    "rotation": 270,
                    "texture": "#0"
                },
                "up": {
                    "uv": [
                        3,
                        2.75,
                        3,
                        2.875
                    ],
                    "rotation": 270,
                    "texture": "#0"
                },
                "down": {
                    "uv": [
                        3,
                        2.75,
                        3,
                        2.875
                    ],
                    "rotation": 270,
                    "texture": "#0"
                }
            }
        },
        {
            "from": [
                7.42597,
                5.64706,
                -7.86178
            ],
            "to": [
                7.72117,
                6.12226,
                -5.68018
            ],
            "rotation": {
                "angle": 45,
                "axis": "z",
                "origin": [
                    7.7077,
                    6.00555,
                    -6.16618
                ]
            },
            "faces": {
                "north": {
                    "uv": [
                        3,
                        2.75,
                        3,
                        2.875
                    ],
                    "texture": "#0"
                },
                "east": {
                    "uv": [
                        7.625,
                        12.375,
                        7.625,
                        12.5
                    ],
                    "rotation": 270,
                    "texture": "#0"
                },
                "south": {
                    "uv": [
                        3,
                        2.75,
                        3,
                        2.875
                    ],
                    "rotation": 180,
                    "texture": "#0"
                },
                "west": {
                    "uv": [
                        3,
                        2.75,
                        3,
                        2.875
                    ],
                    "rotation": 180,
                    "texture": "#0"
                },
                "up": {
                    "uv": [
                        3,
                        2.75,
                        3,
                        2.875
                    ],
                    "rotation": 180,
                    "texture": "#0"
                },
                "down": {
                    "uv": [
                        3,
                        2.75,
                        3,
                        2.875
                    ],
                    "rotation": 180,
                    "texture": "#0"
                }
            }
        },
        {
            "from": [
                7.42597,
                5.64706,
                -8.14258
            ],
            "to": [
                7.60597,
                6.12226,
                -7.86178
            ],
            "rotation": {
                "angle": 45,
                "axis": "z",
                "origin": [
                    7.7077,
                    6.00555,
                    -6.44698
                ]
            },
            "faces": {
                "north": {
                    "uv": [
                        3,
                        2.75,
                        3,
                        2.875
                    ],
                    "texture": "#0"
                },
                "east": {
                    "uv": [
                        3,
                        2.75,
                        3,
                        2.875
                    ],
                    "rotation": 180,
                    "texture": "#0"
                },
                "south": {
                    "uv": [
                        3,
                        2.75,
                        3,
                        2.875
                    ],
                    "rotation": 180,
                    "texture": "#0"
                },
                "west": {
                    "uv": [
                        3,
                        2.75,
                        3,
                        2.875
                    ],
                    "rotation": 180,
                    "texture": "#0"
                },
                "up": {
                    "uv": [
                        3,
                        2.75,
                        3,
                        2.875
                    ],
                    "rotation": 180,
                    "texture": "#0"
                },
                "down": {
                    "uv": [
                        3,
                        2.75,
                        3,
                        2.875
                    ],
                    "rotation": 180,
                    "texture": "#0"
                }
            }
        },
        {
            "from": [
                7.76199,
                6.40488,
                -7.86178
            ],
            "to": [
                8.23719,
                6.70008,
                -5.68018
            ],
            "rotation": {
                "angle": 0,
                "axis": "y",
                "origin": [
                    7.99959,
                    6.64606,
                    -6.16618
                ]
            },
            "faces": {
                "north": {
                    "uv": [
                        3,
                        2.75,
                        3,
                        2.875
                    ],
                    "rotation": 270,
                    "texture": "#0"
                },
                "east": {
                    "uv": [
                        3,
                        2.75,
                        3,
                        2.875
                    ],
                    "rotation": 270,
                    "texture": "#0"
                },
                "south": {
                    "uv": [
                        3,
                        2.75,
                        3,
                        2.875
                    ],
                    "rotation": 270,
                    "texture": "#0"
                },
                "west": {
                    "uv": [
                        3,
                        2.75,
                        3,
                        2.875
                    ],
                    "rotation": 270,
                    "texture": "#0"
                },
                "up": {
                    "uv": [
                        3,
                        2.75,
                        3,
                        2.875
                    ],
                    "rotation": 270,
                    "texture": "#0"
                },
                "down": {
                    "uv": [
                        7.625,
                        12.375,
                        7.625,
                        12.5
                    ],
                    "rotation": 270,
                    "texture": "#0"
                }
            }
        },
        {
            "from": [
                7.76199,
                6.52008,
                -8.14258
            ],
            "to": [
                8.23719,
                6.70008,
                -7.86178
            ],
            "rotation": {
                "angle": 0,
                "axis": "y",
                "origin": [
                    7.99959,
                    6.64606,
                    -6.44698
                ]
            },
            "faces": {
                "north": {
                    "uv": [
                        3,
                        2.75,
                        3,
                        2.875
                    ],
                    "rotation": 270,
                    "texture": "#0"
                },
                "east": {
                    "uv": [
                        3,
                        2.75,
                        3,
                        2.875
                    ],
                    "rotation": 270,
                    "texture": "#0"
                },
                "south": {
                    "uv": [
                        3,
                        2.75,
                        3,
                        2.875
                    ],
                    "rotation": 270,
                    "texture": "#0"
                },
                "west": {
                    "uv": [
                        3,
                        2.75,
                        3,
                        2.875
                    ],
                    "rotation": 270,
                    "texture": "#0"
                },
                "up": {
                    "uv": [
                        3,
                        2.75,
                        3,
                        2.875
                    ],
                    "rotation": 270,
                    "texture": "#0"
                },
                "down": {
                    "uv": [
                        3,
                        2.75,
                        3,
                        2.875
                    ],
                    "rotation": 270,
                    "texture": "#0"
                }
            }
        },
        {
            "from": [
                7.76199,
                5.55285,
                -7.86178
            ],
            "to": [
                8.23719,
                5.84805,
                -5.68018
            ],
            "rotation": {
                "angle": 0,
                "axis": "y",
                "origin": [
                    7.7077,
                    6.00555,
                    -6.16618
                ]
            },
            "faces": {
                "north": {
                    "uv": [
                        3,
                        2.75,
                        3,
                        2.875
                    ],
                    "rotation": 90,
                    "texture": "#0"
                },
                "east": {
                    "uv": [
                        3,
                        2.75,
                        3,
                        2.875
                    ],
                    "rotation": 90,
                    "texture": "#0"
                },
                "south": {
                    "uv": [
                        3,
                        2.75,
                        3,
                        2.875
                    ],
                    "rotation": 90,
                    "texture": "#0"
                },
                "west": {
                    "uv": [
                        3,
                        2.75,
                        3,
                        2.875
                    ],
                    "rotation": 90,
                    "texture": "#0"
                },
                "up": {
                    "uv": [
                        7.625,
                        12.375,
                        7.625,
                        12.5
                    ],
                    "rotation": 270,
                    "texture": "#0"
                },
                "down": {
                    "uv": [
                        3,
                        2.75,
                        3,
                        2.875
                    ],
                    "rotation": 90,
                    "texture": "#0"
                }
            }
        },
        {
            "from": [
                7.76199,
                5.55285,
                -8.14258
            ],
            "to": [
                8.23719,
                5.73285,
                -7.86178
            ],
            "rotation": {
                "angle": 0,
                "axis": "y",
                "origin": [
                    7.7077,
                    6.00555,
                    -6.44698
                ]
            },
            "faces": {
                "north": {
                    "uv": [
                        3,
                        2.75,
                        3,
                        2.875
                    ],
                    "rotation": 90,
                    "texture": "#0"
                },
                "east": {
                    "uv": [
                        3,
                        2.75,
                        3,
                        2.875
                    ],
                    "rotation": 90,
                    "texture": "#0"
                },
                "south": {
                    "uv": [
                        3,
                        2.75,
                        3,
                        2.875
                    ],
                    "rotation": 90,
                    "texture": "#0"
                },
                "west": {
                    "uv": [
                        3,
                        2.75,
                        3,
                        2.875
                    ],
                    "rotation": 90,
                    "texture": "#0"
                },
                "up": {
                    "uv": [
                        3,
                        2.75,
                        3,
                        2.875
                    ],
                    "rotation": 90,
                    "texture": "#0"
                },
                "down": {
                    "uv": [
                        3,
                        2.75,
                        3,
                        2.875
                    ],
                    "rotation": 90,
                    "texture": "#0"
                }
            }
        },
        {
            "from": [
                8.39199,
                5.61367,
                -7.86178
            ],
            "to": [
                8.68719,
                6.08887,
                -5.68018
            ],
            "rotation": {
                "angle": -45,
                "axis": "z",
                "origin": [
                    8.38877,
                    6.12645,
                    -6.16618
                ]
            },
            "faces": {
                "north": {
                    "uv": [
                        3,
                        2.75,
                        3,
                        2.875
                    ],
                    "rotation": 180,
                    "texture": "#0"
                },
                "east": {
                    "uv": [
                        3,
                        2.75,
                        3,
                        2.875
                    ],
                    "texture": "#0"
                },
                "south": {
                    "uv": [
                        3,
                        2.75,
                        3,
                        2.875
                    ],
                    "texture": "#0"
                },
                "west": {
                    "uv": [
                        7.625,
                        12.375,
                        7.625,
                        12.5
                    ],
                    "rotation": 270,
                    "texture": "#0"
                },
                "up": {
                    "uv": [
                        3,
                        2.75,
                        3,
                        2.875
                    ],
                    "texture": "#0"
                },
                "down": {
                    "uv": [
                        3,
                        2.75,
                        3,
                        2.875
                    ],
                    "texture": "#0"
                }
            }
        },
        {
            "from": [
                8.50719,
                5.61367,
                -8.14258
            ],
            "to": [
                8.68719,
                6.08887,
                -7.86178
            ],
            "rotation": {
                "angle": -45,
                "axis": "z",
                "origin": [
                    8.38877,
                    6.12645,
                    -6.44698
                ]
            },
            "faces": {
                "north": {
                    "uv": [
                        3,
                        2.75,
                        3,
                        2.875
                    ],
                    "rotation": 180,
                    "texture": "#0"
                },
                "east": {
                    "uv": [
                        3,
                        2.75,
                        3,
                        2.875
                    ],
                    "texture": "#0"
                },
                "south": {
                    "uv": [
                        3,
                        2.75,
                        3,
                        2.875
                    ],
                    "texture": "#0"
                },
                "west": {
                    "uv": [
                        3,
                        2.75,
                        3,
                        2.875
                    ],
                    "texture": "#0"
                },
                "up": {
                    "uv": [
                        3,
                        2.75,
                        3,
                        2.875
                    ],
                    "texture": "#0"
                },
                "down": {
                    "uv": [
                        3,
                        2.75,
                        3,
                        2.875
                    ],
                    "texture": "#0"
                }
            }
        },
        {
            "from": [
                7.76199,
                6.16307,
                -7.86178
            ],
            "to": [
                8.23719,
                6.45827,
                -5.68018
            ],
            "rotation": {
                "angle": 45,
                "axis": "z",
                "origin": [
                    7.7077,
                    6.00555,
                    -6.16618
                ]
            },
            "faces": {
                "north": {
                    "uv": [
                        3,
                        2.75,
                        3,
                        2.875
                    ],
                    "rotation": 270,
                    "texture": "#0"
                },
                "east": {
                    "uv": [
                        3,
                        2.75,
                        3,
                        2.875
                    ],
                    "rotation": 270,
                    "texture": "#0"
                },
                "south": {
                    "uv": [
                        3,
                        2.75,
                        3,
                        2.875
                    ],
                    "rotation": 270,
                    "texture": "#0"
                },
                "west": {
                    "uv": [
                        3,
                        2.75,
                        3,
                        2.875
                    ],
                    "rotation": 270,
                    "texture": "#0"
                },
                "up": {
                    "uv": [
                        3,
                        2.75,
                        3,
                        2.875
                    ],
                    "rotation": 270,
                    "texture": "#0"
                },
                "down": {
                    "uv": [
                        7.625,
                        12.375,
                        7.625,
                        12.5
                    ],
                    "rotation": 270,
                    "texture": "#0"
                }
            }
        },
        {
            "from": [
                7.76199,
                6.27827,
                -8.14258
            ],
            "to": [
                8.23719,
                6.45827,
                -7.86178
            ],
            "rotation": {
                "angle": 45,
                "axis": "z",
                "origin": [
                    7.7077,
                    6.00555,
                    -6.44698
                ]
            },
            "faces": {
                "north": {
                    "uv": [
                        3,
                        2.75,
                        3,
                        2.875
                    ],
                    "rotation": 270,
                    "texture": "#0"
                },
                "east": {
                    "uv": [
                        3,
                        2.75,
                        3,
                        2.875
                    ],
                    "rotation": 270,
                    "texture": "#0"
                },
                "south": {
                    "uv": [
                        3,
                        2.75,
                        3,
                        2.875
                    ],
                    "rotation": 270,
                    "texture": "#0"
                },
                "west": {
                    "uv": [
                        3,
                        2.75,
                        3,
                        2.875
                    ],
                    "rotation": 270,
                    "texture": "#0"
                },
                "up": {
                    "uv": [
                        3,
                        2.75,
                        3,
                        2.875
                    ],
                    "rotation": 270,
                    "texture": "#0"
                },
                "down": {
                    "uv": [
                        3,
                        2.75,
                        3,
                        2.875
                    ],
                    "rotation": 270,
                    "texture": "#0"
                }
            }
        },
        {
            "from": [
                7.56502,
                5.94869,
                -7.80418
            ],
            "to": [
                7.74502,
                6.30869,
                -5.21938
            ],
            "rotation": {
                "angle": 0,
                "axis": "y",
                "origin": [
                    7.65502,
                    6.12869,
                    -5.34538
                ]
            },
            "faces": {
                "north": {
                    "uv": [
                        7.625,
                        12.375,
                        7.625,
                        12.5
                    ],
                    "rotation": 270,
                    "texture": "#0"
                },
                "east": {
                    "uv": [
                        7.625,
                        12.375,
                        7.625,
                        12.5
                    ],
                    "rotation": 270,
                    "texture": "#0"
                },
                "south": {
                    "uv": [
                        4,
                        3,
                        4.625,
                        3
                    ],
                    "texture": "#0"
                },
                "west": {
                    "uv": [
                        4,
                        3,
                        4.625,
                        3
                    ],
                    "texture": "#0"
                },
                "up": {
                    "uv": [
                        4,
                        3,
                        4.625,
                        3
                    ],
                    "texture": "#0"
                },
                "down": {
                    "uv": [
                        4,
                        3,
                        4.625,
                        3
                    ],
                    "texture": "#0"
                }
            }
        },
        {
            "from": [
                8.25415,
                5.94869,
                -7.80418
            ],
            "to": [
                8.43415,
                6.30869,
                -5.21938
            ],
            "rotation": {
                "angle": 0,
                "axis": "y",
                "origin": [
                    8.34415,
                    6.12869,
                    -5.34538
                ]
            },
            "faces": {
                "north": {
                    "uv": [
                        7.625,
                        12.375,
                        7.625,
                        12.5
                    ],
                    "rotation": 270,
                    "texture": "#0"
                },
                "east": {
                    "uv": [
                        4,
                        3,
                        4.625,
                        3
                    ],
                    "texture": "#0"
                },
                "south": {
                    "uv": [
                        4,
                        3,
                        4.625,
                        3
                    ],
                    "texture": "#0"
                },
                "west": {
                    "uv": [
                        7.625,
                        12.375,
                        7.625,
                        12.5
                    ],
                    "rotation": 270,
                    "texture": "#0"
                },
                "up": {
                    "uv": [
                        4,
                        3,
                        4.625,
                        3
                    ],
                    "texture": "#0"
                },
                "down": {
                    "uv": [
                        4,
                        3,
                        4.625,
                        3
                    ],
                    "texture": "#0"
                }
            }
        },
        {
            "from": [
                7.81959,
                5.69413,
                -7.80418
            ],
            "to": [
                8.17959,
                5.87413,
                -5.21938
            ],
            "rotation": {
                "angle": 45,
                "axis": "z",
                "origin": [
                    7.99959,
                    6.12869,
                    -3.54538
                ]
            },
            "faces": {
                "north": {
                    "uv": [
                        7.625,
                        12.375,
                        7.625,
                        12.5
                    ],
                    "rotation": 270,
                    "texture": "#0"
                },
                "east": {
                    "uv": [
                        4,
                        3,
                        4.625,
                        3
                    ],
                    "rotation": 90,
                    "texture": "#0"
                },
                "south": {
                    "uv": [
                        4,
                        3,
                        4.625,
                        3
                    ],
                    "rotation": 90,
                    "texture": "#0"
                },
                "west": {
                    "uv": [
                        4,
                        3,
                        4.625,
                        3
                    ],
                    "rotation": 90,
                    "texture": "#0"
                },
                "up": {
                    "uv": [
                        7.625,
                        12.375,
                        7.625,
                        12.5
                    ],
                    "rotation": 270,
                    "texture": "#0"
                },
                "down": {
                    "uv": [
                        4,
                        3,
                        4.625,
                        3
                    ],
                    "rotation": 90,
                    "texture": "#0"
                }
            }
        },
        {
            "from": [
                7.81959,
                6.38326,
                -7.80418
            ],
            "to": [
                8.17959,
                6.56326,
                -5.21938
            ],
            "rotation": {
                "angle": 45,
                "axis": "z",
                "origin": [
                    7.99959,
                    6.12869,
                    -3.54538
                ]
            },
            "faces": {
                "north": {
                    "uv": [
                        7.625,
                        12.375,
                        7.625,
                        12.5
                    ],
                    "rotation": 270,
                    "texture": "#0"
                },
                "east": {
                    "uv": [
                        4,
                        3,
                        4.625,
                        3
                    ],
                    "rotation": 90,
                    "texture": "#0"
                },
                "south": {
                    "uv": [
                        4,
                        3,
                        4.625,
                        3
                    ],
                    "rotation": 90,
                    "texture": "#0"
                },
                "west": {
                    "uv": [
                        4,
                        3,
                        4.625,
                        3
                    ],
                    "rotation": 90,
                    "texture": "#0"
                },
                "up": {
                    "uv": [
                        4,
                        3,
                        4.625,
                        3
                    ],
                    "rotation": 90,
                    "texture": "#0"
                },
                "down": {
                    "uv": [
                        7.625,
                        12.375,
                        7.625,
                        12.5
                    ],
                    "rotation": 270,
                    "texture": "#0"
                }
            }
        }
    ],
    "display": {
        "thirdperson_righthand": {
            "translation": [
                -0.25,
                2,
                -4.75
            ],
            "scale": [
                0.8,
                0.8,
                0.8
            ]
        },
        "thirdperson_lefthand": {
            "translation": [
                -0.75,
                1.75,
                -3.75
            ],
            "scale": [
                0.8,
                0.8,
                0.8
            ]
        },
        "firstperson_righthand": {
            "translation": [
                -5.5,
                5.5,
                0.75
            ],
            "scale": [
                1,
                1,
                0.9
            ]
        },
        "firstperson_lefthand": {
            "translation": [
                -5.5,
                5.25,
                0.75
            ],
            "scale": [
                1,
                1,
                0.9
            ]
        },
        "ground": {
            "rotation": [
                0,
                0,
                45
            ],
            "scale": [
                0.88,
                0.88,
                0.88
            ]
        },
        "gui": {
            "rotation": [
                20,
                27,
                -14
            ],
            "translation": [
                -1,
                2,
                0
            ]
        },
        "head": {
            "rotation": [
                0,
                122,
                90
            ],
            "translation": [
                -3.25,
                7.25,
                1.75
            ]
        },
        "fixed": {
            "rotation": [
                90,
                45,
                -90
            ],
            "translation": [
                0.5,
                3.5,
                -2.25
            ]
        }
    }
}