{
    "textures": {
        "0": "gci:items/common/all_in_one",
        "2": "gci:items/common/mpz",
        "particle": "gci:items/common/all_in_one"
    },
    "elements": [
        {
            "from": [
                7.5,
                5.224,
                16.25
            ],
            "to": [
                8.5,
                6.512,
                18.274
            ],
            "rotation": {
                "angle": 0,
                "axis": "y",
                "origin": [
                    8,
                    5.34,
                    17.454
                ]
            },
            "faces": {
                "north": {
                    "uv": [
                        4,
                        4,
                        4,
                        4
                    ],
                    "texture": "#0"
                },
                "east": {
                    "uv": [
                        4,
                        4,
                        4,
                        4
                    ],
                    "texture": "#0"
                },
                "south": {
                    "uv": [
                        4,
                        4,
                        4,
                        4
                    ],
                    "texture": "#0"
                },
                "west": {
                    "uv": [
                        4,
                        4,
                        4,
                        4
                    ],
                    "texture": "#0"
                },
                "up": {
                    "uv": [
                        4,
                        4,
                        4,
                        4
                    ],
                    "texture": "#0"
                },
                "down": {
                    "uv": [
                        4,
                        4,
                        4,
                        4
                    ],
                    "texture": "#0"
                }
            }
        },
        {
            "from": [
                7.468,
                5.192,
                16.25
            ],
            "to": [
                8.532,
                7.248,
                16.802
            ],
            "rotation": {
                "angle": 0,
                "axis": "y",
                "origin": [
                    8,
                    5.34,
                    17.454
                ]
            },
            "faces": {
                "north": {
                    "uv": [
                        4,
                        4.25,
                        4,
                        4.25
                    ],
                    "texture": "#0"
                },
                "east": {
                    "uv": [
                        4,
                        4.25,
                        4,
                        4.25
                    ],
                    "texture": "#0"
                },
                "south": {
                    "uv": [
                        4,
                        4.25,
                        4,
                        4.25
                    ],
                    "texture": "#0"
                },
                "west": {
                    "uv": [
                        4,
                        4.25,
                        4,
                        4.25
                    ],
                    "texture": "#0"
                },
                "up": {
                    "uv": [
                        4,
                        4.25,
                        4,
                        4.25
                    ],
                    "texture": "#0"
                },
                "down": {
                    "uv": [
                        4,
                        4.25,
                        4,
                        4.25
                    ],
                    "texture": "#0"
                }
            }
        },
        {
            "from": [
                7.5,
                5.73805,
                15.99244
            ],
            "to": [
                8.5,
                6.89805,
                18.27244
            ],
            "rotation": {
                "angle": 22.5,
                "axis": "x",
                "origin": [
                    8,
                    5.02205,
                    17.19644
                ]
            },
            "faces": {
                "north": {
                    "uv": [
                        4,
                        4,
                        4,
                        4
                    ],
                    "texture": "#0"
                },
                "east": {
                    "uv": [
                        4,
                        4,
                        4,
                        4
                    ],
                    "texture": "#0"
                },
                "south": {
                    "uv": [
                        4,
                        4,
                        4,
                        4
                    ],
                    "texture": "#0"
                },
                "west": {
                    "uv": [
                        4,
                        4,
                        4,
                        4
                    ],
                    "texture": "#0"
                },
                "up": {
                    "uv": [
                        4,
                        4,
                        4,
                        4
                    ],
                    "texture": "#0"
                },
                "down": {
                    "uv": [
                        4,
                        4,
                        4,
                        4
                    ],
                    "texture": "#0"
                }
            }
        },
        {
            "from": [
                7.66,
                5.86605,
                15.70444
            ],
            "to": [
                8.34,
                7.02605,
                18.27244
            ],
            "rotation": {
                "angle": 22.5,
                "axis": "x",
                "origin": [
                    8,
                    5.15005,
                    17.19644
                ]
            },
            "faces": {
                "north": {
                    "uv": [
                        4,
                        3.875,
                        4,
                        3.875
                    ],
                    "texture": "#0"
                },
                "east": {
                    "uv": [
                        4,
                        3.875,
                        4,
                        3.875
                    ],
                    "texture": "#0"
                },
                "south": {
                    "uv": [
                        4,
                        3.875,
                        4,
                        3.875
                    ],
                    "texture": "#0"
                },
                "west": {
                    "uv": [
                        4,
                        3.875,
                        4,
                        3.875
                    ],
                    "texture": "#0"
                },
                "up": {
                    "uv": [
                        4,
                        3.875,
                        4,
                        3.875
                    ],
                    "texture": "#0"
                },
                "down": {
                    "uv": [
                        4,
                        3.875,
                        4,
                        3.875
                    ],
                    "texture": "#0"
                }
            }
        },
        {
            "from": [
                7.852,
                5.89805,
                15.70444
            ],
            "to": [
                8.148,
                7.05805,
                17.44044
            ],
            "rotation": {
                "angle": 22.5,
                "axis": "x",
                "origin": [
                    8,
                    5.18205,
                    17.19644
                ]
            },
            "faces": {
                "north": {
                    "uv": [
                        3,
                        3.375,
                        3,
                        3.375
                    ],
                    "texture": "#0"
                },
                "east": {
                    "uv": [
                        3,
                        3.375,
                        3,
                        3.375
                    ],
                    "texture": "#0"
                },
                "south": {
                    "uv": [
                        3,
                        3.375,
                        3,
                        3.375
                    ],
                    "texture": "#0"
                },
                "west": {
                    "uv": [
                        3,
                        3.375,
                        3,
                        3.375
                    ],
                    "texture": "#0"
                },
                "up": {
                    "uv": [
                        3,
                        3.375,
                        3,
                        3.375
                    ],
                    "texture": "#0"
                },
                "down": {
                    "uv": [
                        3,
                        3.375,
                        3,
                        3.375
                    ],
                    "texture": "#0"
                }
            }
        },
        {
            "from": [
                7.66,
                5.16205,
                21.78444
            ],
            "to": [
                8.34,
                6.32205,
                24.35244
            ],
            "rotation": {
                "angle": -22.5,
                "axis": "x",
                "origin": [
                    8,
                    4.44605,
                    23.27644
                ]
            },
            "faces": {
                "north": {
                    "uv": [
                        4,
                        3.75,
                        4,
                        3.75
                    ],
                    "texture": "#0"
                },
                "east": {
                    "uv": [
                        4,
                        3.75,
                        4,
                        3.75
                    ],
                    "texture": "#0"
                },
                "south": {
                    "uv": [
                        4,
                        3.75,
                        4,
                        3.75
                    ],
                    "texture": "#0"
                },
                "west": {
                    "uv": [
                        4,
                        3.75,
                        4,
                        3.75
                    ],
                    "texture": "#0"
                },
                "up": {
                    "uv": [
                        4,
                        3.75,
                        4,
                        3.75
                    ],
                    "texture": "#0"
                },
                "down": {
                    "uv": [
                        4,
                        3.75,
                        4,
                        3.75
                    ],
                    "texture": "#0"
                }
            }
        },
        {
            "from": [
                7.5,
                5.224,
                16.666
            ],
            "to": [
                8.5,
                6.512,
                25.698
            ],
            "rotation": {
                "angle": 22.5,
                "axis": "x",
                "origin": [
                    8,
                    5.34,
                    17.454
                ]
            },
            "faces": {
                "north": {
                    "uv": [
                        4,
                        4,
                        4,
                        4
                    ],
                    "texture": "#0"
                },
                "east": {
                    "uv": [
                        4,
                        4,
                        4,
                        4
                    ],
                    "texture": "#0"
                },
                "south": {
                    "uv": [
                        4,
                        4,
                        4,
                        4
                    ],
                    "texture": "#0"
                },
                "west": {
                    "uv": [
                        4,
                        4,
                        4,
                        4
                    ],
                    "texture": "#0"
                },
                "up": {
                    "uv": [
                        4,
                        4,
                        4,
                        4
                    ],
                    "texture": "#0"
                },
                "down": {
                    "uv": [
                        4,
                        4,
                        4,
                        4
                    ],
                    "texture": "#0"
                }
            }
        },
        {
            "from": [
                7.692,
                5.16,
                16.666
            ],
            "to": [
                8.308,
                6.448,
                25.698
            ],
            "rotation": {
                "angle": 22.5,
                "axis": "x",
                "origin": [
                    8,
                    5.276,
                    17.454
                ]
            },
            "faces": {
                "north": {
                    "uv": [
                        3,
                        3.5,
                        3,
                        3.5
                    ],
                    "texture": "#0"
                },
                "east": {
                    "uv": [
                        3,
                        3.5,
                        3,
                        3.5
                    ],
                    "texture": "#0"
                },
                "south": {
                    "uv": [
                        3,
                        3.5,
                        3,
                        3.5
                    ],
                    "texture": "#0"
                },
                "west": {
                    "uv": [
                        3,
                        3.5,
                        3,
                        3.5
                    ],
                    "texture": "#0"
                },
                "up": {
                    "uv": [
                        3,
                        3.5,
                        3,
                        3.5
                    ],
                    "texture": "#0"
                },
                "down": {
                    "uv": [
                        3,
                        3.5,
                        3,
                        3.5
                    ],
                    "texture": "#0"
                }
            }
        },
        {
            "from": [
                7.5,
                5.864,
                20.698
            ],
            "to": [
                8.5,
                7.408,
                25.314
            ],
            "rotation": {
                "angle": 22.5,
                "axis": "x",
                "origin": [
                    8,
                    5.34,
                    17.454
                ]
            },
            "faces": {
                "north": {
                    "uv": [
                        4,
                        4,
                        4,
                        4
                    ],
                    "texture": "#0"
                },
                "east": {
                    "uv": [
                        4,
                        4,
                        4,
                        4
                    ],
                    "texture": "#0"
                },
                "south": {
                    "uv": [
                        4,
                        4,
                        4,
                        4
                    ],
                    "texture": "#0"
                },
                "west": {
                    "uv": [
                        4,
                        4,
                        4,
                        4
                    ],
                    "texture": "#0"
                },
                "up": {
                    "uv": [
                        4,
                        4,
                        4,
                        4
                    ],
                    "texture": "#0"
                },
                "down": {
                    "uv": [
                        4,
                        4,
                        4,
                        4
                    ],
                    "texture": "#0"
                }
            }
        },
        {
            "from": [
                7.5,
                6.696,
                22.778
            ],
            "to": [
                8.5,
                8.24,
                25.314
            ],
            "rotation": {
                "angle": 22.5,
                "axis": "x",
                "origin": [
                    8,
                    6.172,
                    17.454
                ]
            },
            "faces": {
                "north": {
                    "uv": [
                        4,
                        4,
                        4,
                        4
                    ],
                    "texture": "#0"
                },
                "east": {
                    "uv": [
                        4,
                        4,
                        4,
                        4
                    ],
                    "texture": "#0"
                },
                "south": {
                    "uv": [
                        4,
                        4,
                        4,
                        4
                    ],
                    "texture": "#0"
                },
                "west": {
                    "uv": [
                        4,
                        4,
                        4,
                        4
                    ],
                    "texture": "#0"
                },
                "up": {
                    "uv": [
                        4,
                        4,
                        4,
                        4
                    ],
                    "texture": "#0"
                },
                "down": {
                    "uv": [
                        4,
                        4,
                        4,
                        4
                    ],
                    "texture": "#0"
                }
            }
        },
        {
            "from": [
                7.5,
                5.16,
                23.514
            ],
            "to": [
                8.5,
                6.544,
                25.73
            ],
            "rotation": {
                "angle": 0,
                "axis": "y",
                "origin": [
                    8,
                    5.276,
                    19.47
                ]
            },
            "faces": {
                "north": {
                    "uv": [
                        4,
                        4,
                        4,
                        4
                    ],
                    "texture": "#0"
                },
                "east": {
                    "uv": [
                        4,
                        4,
                        4,
                        4
                    ],
                    "texture": "#0"
                },
                "south": {
                    "uv": [
                        4,
                        4,
                        4,
                        4
                    ],
                    "texture": "#0"
                },
                "west": {
                    "uv": [
                        4,
                        4,
                        4,
                        4
                    ],
                    "texture": "#0"
                },
                "up": {
                    "uv": [
                        4,
                        4,
                        4,
                        4
                    ],
                    "texture": "#0"
                },
                "down": {
                    "uv": [
                        4,
                        4,
                        4,
                        4
                    ],
                    "texture": "#0"
                }
            }
        },
        {
            "from": [
                7.5,
                5.16,
                25.73
            ],
            "to": [
                8.5,
                6.544,
                26.434
            ],
            "rotation": {
                "angle": 0,
                "axis": "y",
                "origin": [
                    8,
                    5.276,
                    20.174
                ]
            },
            "faces": {
                "north": {
                    "uv": [
                        7.375,
                        12.375,
                        7.375,
                        12.375
                    ],
                    "texture": "#0"
                },
                "east": {
                    "uv": [
                        7.375,
                        12.375,
                        7.375,
                        12.375
                    ],
                    "texture": "#0"
                },
                "south": {
                    "uv": [
                        7.375,
                        12.375,
                        7.375,
                        12.375
                    ],
                    "texture": "#0"
                },
                "west": {
                    "uv": [
                        7.375,
                        12.375,
                        7.375,
                        12.375
                    ],
                    "texture": "#0"
                },
                "up": {
                    "uv": [
                        7.375,
                        12.375,
                        7.375,
                        12.375
                    ],
                    "texture": "#0"
                },
                "down": {
                    "uv": [
                        7.375,
                        12.375,
                        7.375,
                        12.375
                    ],
                    "texture": "#0"
                }
            }
        },
        {
            "from": [
                7.5,
                2.088,
                25.05
            ],
            "to": [
                8.5,
                6.448,
                25.73
            ],
            "rotation": {
                "angle": 0,
                "axis": "y",
                "origin": [
                    8,
                    5.628,
                    19.95
                ]
            },
            "faces": {
                "north": {
                    "uv": [
                        4,
                        4,
                        4,
                        4
                    ],
                    "texture": "#0"
                },
                "east": {
                    "uv": [
                        4,
                        4,
                        4,
                        4
                    ],
                    "texture": "#0"
                },
                "south": {
                    "uv": [
                        4,
                        4,
                        4,
                        4
                    ],
                    "texture": "#0"
                },
                "west": {
                    "uv": [
                        4,
                        4,
                        4,
                        4
                    ],
                    "texture": "#0"
                },
                "up": {
                    "uv": [
                        4,
                        4,
                        4,
                        4
                    ],
                    "texture": "#0"
                },
                "down": {
                    "uv": [
                        4,
                        4,
                        4,
                        4
                    ],
                    "texture": "#0"
                }
            }
        },
        {
            "from": [
                7.5,
                2.088,
                25.73
            ],
            "to": [
                8.5,
                6.448,
                26.434
            ],
            "rotation": {
                "angle": 0,
                "axis": "y",
                "origin": [
                    8,
                    5.628,
                    20.654
                ]
            },
            "faces": {
                "north": {
                    "uv": [
                        7.375,
                        12.375,
                        7.375,
                        12.375
                    ],
                    "texture": "#0"
                },
                "east": {
                    "uv": [
                        7.375,
                        12.375,
                        7.375,
                        12.375
                    ],
                    "texture": "#0"
                },
                "south": {
                    "uv": [
                        7.375,
                        12.375,
                        7.375,
                        12.375
                    ],
                    "texture": "#0"
                },
                "west": {
                    "uv": [
                        7.375,
                        12.375,
                        7.375,
                        12.375
                    ],
                    "texture": "#0"
                },
                "up": {
                    "uv": [
                        7.375,
                        12.375,
                        7.375,
                        12.375
                    ],
                    "texture": "#0"
                },
                "down": {
                    "uv": [
                        7.375,
                        12.375,
                        7.375,
                        12.375
                    ],
                    "texture": "#0"
                }
            }
        },
        {
            "from": [
                7.5,
                5.096,
                18.362
            ],
            "to": [
                8.5,
                6.416,
                23.778
            ],
            "rotation": {
                "angle": 0,
                "axis": "y",
                "origin": [
                    8,
                    5.212,
                    14.318
                ]
            },
            "faces": {
                "north": {
                    "uv": [
                        4,
                        4,
                        4,
                        4
                    ],
                    "texture": "#0"
                },
                "east": {
                    "uv": [
                        4,
                        4,
                        4,
                        4
                    ],
                    "texture": "#0"
                },
                "south": {
                    "uv": [
                        4,
                        4,
                        4,
                        4
                    ],
                    "texture": "#0"
                },
                "west": {
                    "uv": [
                        4,
                        4,
                        4,
                        4
                    ],
                    "texture": "#0"
                },
                "up": {
                    "uv": [
                        4,
                        4,
                        4,
                        4
                    ],
                    "texture": "#0"
                },
                "down": {
                    "uv": [
                        4,
                        4,
                        4,
                        4
                    ],
                    "texture": "#0"
                }
            }
        },
        {
            "from": [
                7.8326,
                5.23377,
                18.362
            ],
            "to": [
                8.1674,
                6.55377,
                23.778
            ],
            "rotation": {
                "angle": 0,
                "axis": "y",
                "origin": [
                    8.0446,
                    5.34977,
                    14.318
                ]
            },
            "faces": {
                "north": {
                    "uv": [
                        4,
                        3.875,
                        4,
                        3.875
                    ],
                    "texture": "#0"
                },
                "east": {
                    "uv": [
                        4,
                        3.875,
                        4,
                        3.875
                    ],
                    "texture": "#0"
                },
                "south": {
                    "uv": [
                        4,
                        3.875,
                        4,
                        3.875
                    ],
                    "texture": "#0"
                },
                "west": {
                    "uv": [
                        4,
                        3.875,
                        4,
                        3.875
                    ],
                    "texture": "#0"
                },
                "up": {
                    "uv": [
                        4,
                        3.875,
                        4,
                        3.875
                    ],
                    "texture": "#0"
                },
                "down": {
                    "uv": [
                        4,
                        3.875,
                        4,
                        3.875
                    ],
                    "texture": "#0"
                }
            }
        },
        {
            "from": [
                7.8326,
                6.41777,
                23.514
            ],
            "to": [
                8.1674,
                6.68177,
                25.73
            ],
            "rotation": {
                "angle": 0,
                "axis": "y",
                "origin": [
                    8.0446,
                    5.47777,
                    16.27
                ]
            },
            "faces": {
                "north": {
                    "uv": [
                        3.75,
                        4.25,
                        3.75,
                        4.25
                    ],
                    "texture": "#0"
                },
                "east": {
                    "uv": [
                        3.75,
                        4.25,
                        3.75,
                        4.25
                    ],
                    "texture": "#0"
                },
                "south": {
                    "uv": [
                        3.75,
                        4.25,
                        3.75,
                        4.25
                    ],
                    "texture": "#0"
                },
                "west": {
                    "uv": [
                        3.75,
                        4.25,
                        3.75,
                        4.25
                    ],
                    "texture": "#0"
                },
                "up": {
                    "uv": [
                        3.75,
                        4.25,
                        3.75,
                        4.25
                    ],
                    "texture": "#0"
                },
                "down": {
                    "uv": [
                        3.75,
                        4.25,
                        3.75,
                        4.25
                    ],
                    "texture": "#0"
                }
            }
        },
        {
            "from": [
                7.8326,
                6.41777,
                25.73
            ],
            "to": [
                8.1674,
                6.68177,
                26.434
            ],
            "rotation": {
                "angle": 0,
                "axis": "y",
                "origin": [
                    8.0446,
                    5.47777,
                    16.974
                ]
            },
            "faces": {
                "north": {
                    "uv": [
                        7.375,
                        12.375,
                        7.375,
                        12.375
                    ],
                    "texture": "#0"
                },
                "east": {
                    "uv": [
                        7.375,
                        12.375,
                        7.375,
                        12.375
                    ],
                    "texture": "#0"
                },
                "south": {
                    "uv": [
                        7.375,
                        12.375,
                        7.375,
                        12.375
                    ],
                    "texture": "#0"
                },
                "west": {
                    "uv": [
                        7.375,
                        12.375,
                        7.375,
                        12.375
                    ],
                    "texture": "#0"
                },
                "up": {
                    "uv": [
                        7.375,
                        12.375,
                        7.375,
                        12.375
                    ],
                    "texture": "#0"
                },
                "down": {
                    "uv": [
                        7.375,
                        12.375,
                        7.375,
                        12.375
                    ],
                    "texture": "#0"
                }
            }
        },
        {
            "from": [
                7.8326,
                1.95023,
                25.018
            ],
            "to": [
                8.1674,
                2.21423,
                25.73
            ],
            "rotation": {
                "angle": 0,
                "axis": "y",
                "origin": [
                    7.99796,
                    2.09682,
                    24.622
                ]
            },
            "faces": {
                "north": {
                    "uv": [
                        3,
                        3.375,
                        3,
                        3.375
                    ],
                    "rotation": 180,
                    "texture": "#0"
                },
                "east": {
                    "uv": [
                        3,
                        3.375,
                        3,
                        3.375
                    ],
                    "rotation": 180,
                    "texture": "#0"
                },
                "south": {
                    "uv": [
                        3,
                        3.375,
                        3,
                        3.375
                    ],
                    "rotation": 180,
                    "texture": "#0"
                },
                "west": {
                    "uv": [
                        3,
                        3.375,
                        3,
                        3.375
                    ],
                    "rotation": 180,
                    "texture": "#0"
                },
                "up": {
                    "uv": [
                        3,
                        3.375,
                        3,
                        3.375
                    ],
                    "rotation": 180,
                    "texture": "#0"
                },
                "down": {
                    "uv": [
                        3,
                        3.375,
                        3,
                        3.375
                    ],
                    "rotation": 180,
                    "texture": "#0"
                }
            }
        },
        {
            "from": [
                7.8326,
                1.95023,
                25.018
            ],
            "to": [
                8.1674,
                2.21423,
                25.73
            ],
            "rotation": {
                "angle": 0,
                "axis": "y",
                "origin": [
                    7.99796,
                    2.09682,
                    24.622
                ]
            },
            "faces": {
                "north": {
                    "uv": [
                        3,
                        3.375,
                        3,
                        3.375
                    ],
                    "rotation": 180,
                    "texture": "#0"
                },
                "east": {
                    "uv": [
                        3,
                        3.375,
                        3,
                        3.375
                    ],
                    "rotation": 180,
                    "texture": "#0"
                },
                "south": {
                    "uv": [
                        3,
                        3.375,
                        3,
                        3.375
                    ],
                    "rotation": 180,
                    "texture": "#0"
                },
                "west": {
                    "uv": [
                        3,
                        3.375,
                        3,
                        3.375
                    ],
                    "rotation": 180,
                    "texture": "#0"
                },
                "up": {
                    "uv": [
                        3,
                        3.375,
                        3,
                        3.375
                    ],
                    "rotation": 180,
                    "texture": "#0"
                },
                "down": {
                    "uv": [
                        3,
                        3.375,
                        3,
                        3.375
                    ],
                    "rotation": 180,
                    "texture": "#0"
                }
            }
        },
        {
            "from": [
                7.8326,
                1.95023,
                25.73
            ],
            "to": [
                8.1674,
                2.21423,
                26.434
            ],
            "rotation": {
                "angle": 0,
                "axis": "y",
                "origin": [
                    7.99796,
                    2.09682,
                    25.326
                ]
            },
            "faces": {
                "north": {
                    "uv": [
                        7.375,
                        12.375,
                        7.375,
                        12.375
                    ],
                    "rotation": 180,
                    "texture": "#0"
                },
                "east": {
                    "uv": [
                        7.375,
                        12.375,
                        7.375,
                        12.375
                    ],
                    "rotation": 180,
                    "texture": "#0"
                },
                "south": {
                    "uv": [
                        7.375,
                        12.375,
                        7.375,
                        12.375
                    ],
                    "rotation": 180,
                    "texture": "#0"
                },
                "west": {
                    "uv": [
                        7.375,
                        12.375,
                        7.375,
                        12.375
                    ],
                    "rotation": 180,
                    "texture": "#0"
                },
                "up": {
                    "uv": [
                        7.375,
                        12.375,
                        7.375,
                        12.375
                    ],
                    "rotation": 180,
                    "texture": "#0"
                },
                "down": {
                    "uv": [
                        7.375,
                        12.375,
                        7.375,
                        12.375
                    ],
                    "rotation": 180,
                    "texture": "#0"
                }
            }
        },
        {
            "from": [
                7.94461,
                6.48478,
                18.362
            ],
            "to": [
                8.30461,
                6.58878,
                23.778
            ],
            "rotation": {
                "angle": 22.5,
                "axis": "z",
                "origin": [
                    8.15661,
                    5.38478,
                    14.318
                ]
            },
            "faces": {
                "north": {
                    "uv": [
                        3.75,
                        4.25,
                        3.75,
                        4.25
                    ],
                    "texture": "#0"
                },
                "east": {
                    "uv": [
                        3.75,
                        4.25,
                        3.75,
                        4.25
                    ],
                    "texture": "#0"
                },
                "south": {
                    "uv": [
                        3.75,
                        4.25,
                        3.75,
                        4.25
                    ],
                    "texture": "#0"
                },
                "west": {
                    "uv": [
                        3.75,
                        4.25,
                        3.75,
                        4.25
                    ],
                    "texture": "#0"
                },
                "up": {
                    "uv": [
                        3.75,
                        4.25,
                        3.75,
                        4.25
                    ],
                    "texture": "#0"
                },
                "down": {
                    "uv": [
                        3.75,
                        4.25,
                        3.75,
                        4.25
                    ],
                    "texture": "#0"
                }
            }
        },
        {
            "from": [
                7.94461,
                6.51678,
                23.514
            ],
            "to": [
                8.30461,
                6.71678,
                25.73
            ],
            "rotation": {
                "angle": 22.5,
                "axis": "z",
                "origin": [
                    8.15661,
                    5.51278,
                    16.27
                ]
            },
            "faces": {
                "north": {
                    "uv": [
                        3.75,
                        4.25,
                        3.75,
                        4.25
                    ],
                    "texture": "#0"
                },
                "east": {
                    "uv": [
                        3.75,
                        4.25,
                        3.75,
                        4.25
                    ],
                    "texture": "#0"
                },
                "south": {
                    "uv": [
                        3.75,
                        4.25,
                        3.75,
                        4.25
                    ],
                    "texture": "#0"
                },
                "west": {
                    "uv": [
                        3.75,
                        4.25,
                        3.75,
                        4.25
                    ],
                    "texture": "#0"
                },
                "up": {
                    "uv": [
                        3.75,
                        4.25,
                        3.75,
                        4.25
                    ],
                    "texture": "#0"
                },
                "down": {
                    "uv": [
                        3.75,
                        4.25,
                        3.75,
                        4.25
                    ],
                    "texture": "#0"
                }
            }
        },
        {
            "from": [
                7.94461,
                6.51678,
                25.73
            ],
            "to": [
                8.30461,
                6.71678,
                26.434
            ],
            "rotation": {
                "angle": 22.5,
                "axis": "z",
                "origin": [
                    8.15661,
                    5.51278,
                    16.974
                ]
            },
            "faces": {
                "north": {
                    "uv": [
                        7.375,
                        12.375,
                        7.375,
                        12.375
                    ],
                    "texture": "#0"
                },
                "east": {
                    "uv": [
                        7.375,
                        12.375,
                        7.375,
                        12.375
                    ],
                    "texture": "#0"
                },
                "south": {
                    "uv": [
                        7.375,
                        12.375,
                        7.375,
                        12.375
                    ],
                    "texture": "#0"
                },
                "west": {
                    "uv": [
                        7.375,
                        12.375,
                        7.375,
                        12.375
                    ],
                    "texture": "#0"
                },
                "up": {
                    "uv": [
                        7.375,
                        12.375,
                        7.375,
                        12.375
                    ],
                    "texture": "#0"
                },
                "down": {
                    "uv": [
                        7.375,
                        12.375,
                        7.375,
                        12.375
                    ],
                    "texture": "#0"
                }
            }
        },
        {
            "from": [
                8.09841,
                1.89655,
                25.018
            ],
            "to": [
                8.45841,
                2.09655,
                25.73
            ],
            "rotation": {
                "angle": 22.5,
                "axis": "z",
                "origin": [
                    7.99796,
                    2.09682,
                    24.622
                ]
            },
            "faces": {
                "north": {
                    "uv": [
                        3,
                        3.375,
                        3,
                        3.375
                    ],
                    "rotation": 180,
                    "texture": "#0"
                },
                "east": {
                    "uv": [
                        3,
                        3.375,
                        3,
                        3.375
                    ],
                    "rotation": 180,
                    "texture": "#0"
                },
                "south": {
                    "uv": [
                        3,
                        3.375,
                        3,
                        3.375
                    ],
                    "rotation": 180,
                    "texture": "#0"
                },
                "west": {
                    "uv": [
                        3,
                        3.375,
                        3,
                        3.375
                    ],
                    "rotation": 180,
                    "texture": "#0"
                },
                "up": {
                    "uv": [
                        3,
                        3.375,
                        3,
                        3.375
                    ],
                    "rotation": 180,
                    "texture": "#0"
                },
                "down": {
                    "uv": [
                        3,
                        3.375,
                        3,
                        3.375
                    ],
                    "rotation": 180,
                    "texture": "#0"
                }
            }
        },
        {
            "from": [
                8.09841,
                1.89655,
                25.018
            ],
            "to": [
                8.45841,
                2.09655,
                25.73
            ],
            "rotation": {
                "angle": 22.5,
                "axis": "z",
                "origin": [
                    7.99796,
                    2.09682,
                    24.622
                ]
            },
            "faces": {
                "north": {
                    "uv": [
                        3,
                        3.375,
                        3,
                        3.375
                    ],
                    "rotation": 180,
                    "texture": "#0"
                },
                "east": {
                    "uv": [
                        3,
                        3.375,
                        3,
                        3.375
                    ],
                    "rotation": 180,
                    "texture": "#0"
                },
                "south": {
                    "uv": [
                        3,
                        3.375,
                        3,
                        3.375
                    ],
                    "rotation": 180,
                    "texture": "#0"
                },
                "west": {
                    "uv": [
                        3,
                        3.375,
                        3,
                        3.375
                    ],
                    "rotation": 180,
                    "texture": "#0"
                },
                "up": {
                    "uv": [
                        3,
                        3.375,
                        3,
                        3.375
                    ],
                    "rotation": 180,
                    "texture": "#0"
                },
                "down": {
                    "uv": [
                        3,
                        3.375,
                        3,
                        3.375
                    ],
                    "rotation": 180,
                    "texture": "#0"
                }
            }
        },
        {
            "from": [
                8.09841,
                1.89655,
                25.73
            ],
            "to": [
                8.45841,
                2.09655,
                26.434
            ],
            "rotation": {
                "angle": 22.5,
                "axis": "z",
                "origin": [
                    7.99796,
                    2.09682,
                    25.326
                ]
            },
            "faces": {
                "north": {
                    "uv": [
                        7.375,
                        12.375,
                        7.375,
                        12.375
                    ],
                    "rotation": 180,
                    "texture": "#0"
                },
                "east": {
                    "uv": [
                        7.375,
                        12.375,
                        7.375,
                        12.375
                    ],
                    "rotation": 180,
                    "texture": "#0"
                },
                "south": {
                    "uv": [
                        7.375,
                        12.375,
                        7.375,
                        12.375
                    ],
                    "rotation": 180,
                    "texture": "#0"
                },
                "west": {
                    "uv": [
                        7.375,
                        12.375,
                        7.375,
                        12.375
                    ],
                    "rotation": 180,
                    "texture": "#0"
                },
                "up": {
                    "uv": [
                        7.375,
                        12.375,
                        7.375,
                        12.375
                    ],
                    "rotation": 180,
                    "texture": "#0"
                },
                "down": {
                    "uv": [
                        7.375,
                        12.375,
                        7.375,
                        12.375
                    ],
                    "rotation": 180,
                    "texture": "#0"
                }
            }
        },
        {
            "from": [
                7.69539,
                6.48478,
                18.362
            ],
            "to": [
                8.05539,
                6.58878,
                23.778
            ],
            "rotation": {
                "angle": -22.5,
                "axis": "z",
                "origin": [
                    7.84339,
                    5.38478,
                    14.318
                ]
            },
            "faces": {
                "north": {
                    "uv": [
                        3.75,
                        4.25,
                        3.75,
                        4.25
                    ],
                    "texture": "#0"
                },
                "east": {
                    "uv": [
                        3.75,
                        4.25,
                        3.75,
                        4.25
                    ],
                    "texture": "#0"
                },
                "south": {
                    "uv": [
                        3.75,
                        4.25,
                        3.75,
                        4.25
                    ],
                    "texture": "#0"
                },
                "west": {
                    "uv": [
                        3.75,
                        4.25,
                        3.75,
                        4.25
                    ],
                    "texture": "#0"
                },
                "up": {
                    "uv": [
                        3.75,
                        4.25,
                        3.75,
                        4.25
                    ],
                    "texture": "#0"
                },
                "down": {
                    "uv": [
                        3.75,
                        4.25,
                        3.75,
                        4.25
                    ],
                    "texture": "#0"
                }
            }
        },
        {
            "from": [
                7.69539,
                6.54878,
                23.514
            ],
            "to": [
                8.05539,
                6.71678,
                25.73
            ],
            "rotation": {
                "angle": -22.5,
                "axis": "z",
                "origin": [
                    7.84339,
                    5.51278,
                    16.27
                ]
            },
            "faces": {
                "north": {
                    "uv": [
                        3.75,
                        4.25,
                        3.75,
                        4.25
                    ],
                    "texture": "#0"
                },
                "east": {
                    "uv": [
                        3.75,
                        4.25,
                        3.75,
                        4.25
                    ],
                    "texture": "#0"
                },
                "south": {
                    "uv": [
                        3.75,
                        4.25,
                        3.75,
                        4.25
                    ],
                    "texture": "#0"
                },
                "west": {
                    "uv": [
                        3.75,
                        4.25,
                        3.75,
                        4.25
                    ],
                    "texture": "#0"
                },
                "up": {
                    "uv": [
                        3.75,
                        4.25,
                        3.75,
                        4.25
                    ],
                    "texture": "#0"
                },
                "down": {
                    "uv": [
                        3.75,
                        4.25,
                        3.75,
                        4.25
                    ],
                    "texture": "#0"
                }
            }
        },
        {
            "from": [
                7.69539,
                6.54878,
                25.73
            ],
            "to": [
                8.05539,
                6.71678,
                26.434
            ],
            "rotation": {
                "angle": -22.5,
                "axis": "z",
                "origin": [
                    7.84339,
                    5.51278,
                    16.974
                ]
            },
            "faces": {
                "north": {
                    "uv": [
                        7.375,
                        12.375,
                        7.375,
                        12.375
                    ],
                    "texture": "#0"
                },
                "east": {
                    "uv": [
                        7.375,
                        12.375,
                        7.375,
                        12.375
                    ],
                    "texture": "#0"
                },
                "south": {
                    "uv": [
                        7.375,
                        12.375,
                        7.375,
                        12.375
                    ],
                    "texture": "#0"
                },
                "west": {
                    "uv": [
                        7.375,
                        12.375,
                        7.375,
                        12.375
                    ],
                    "texture": "#0"
                },
                "up": {
                    "uv": [
                        7.375,
                        12.375,
                        7.375,
                        12.375
                    ],
                    "texture": "#0"
                },
                "down": {
                    "uv": [
                        7.375,
                        12.375,
                        7.375,
                        12.375
                    ],
                    "texture": "#0"
                }
            }
        },
        {
            "from": [
                7.54128,
                1.89811,
                25.018
            ],
            "to": [
                7.90128,
                2.19411,
                25.73
            ],
            "rotation": {
                "angle": -22.5,
                "axis": "z",
                "origin": [
                    7.99796,
                    2.09682,
                    24.622
                ]
            },
            "faces": {
                "north": {
                    "uv": [
                        3,
                        3.375,
                        3,
                        3.375
                    ],
                    "rotation": 180,
                    "texture": "#0"
                },
                "east": {
                    "uv": [
                        3,
                        3.375,
                        3,
                        3.375
                    ],
                    "rotation": 180,
                    "texture": "#0"
                },
                "south": {
                    "uv": [
                        3,
                        3.375,
                        3,
                        3.375
                    ],
                    "rotation": 180,
                    "texture": "#0"
                },
                "west": {
                    "uv": [
                        3,
                        3.375,
                        3,
                        3.375
                    ],
                    "rotation": 180,
                    "texture": "#0"
                },
                "up": {
                    "uv": [
                        3,
                        3.375,
                        3,
                        3.375
                    ],
                    "rotation": 180,
                    "texture": "#0"
                },
                "down": {
                    "uv": [
                        3,
                        3.375,
                        3,
                        3.375
                    ],
                    "rotation": 180,
                    "texture": "#0"
                }
            }
        },
        {
            "from": [
                7.54128,
                1.89811,
                25.018
            ],
            "to": [
                7.90128,
                2.19411,
                25.73
            ],
            "rotation": {
                "angle": -22.5,
                "axis": "z",
                "origin": [
                    7.99796,
                    2.09682,
                    24.622
                ]
            },
            "faces": {
                "north": {
                    "uv": [
                        3,
                        3.375,
                        3,
                        3.375
                    ],
                    "rotation": 180,
                    "texture": "#0"
                },
                "east": {
                    "uv": [
                        3,
                        3.375,
                        3,
                        3.375
                    ],
                    "rotation": 180,
                    "texture": "#0"
                },
                "south": {
                    "uv": [
                        3,
                        3.375,
                        3,
                        3.375
                    ],
                    "rotation": 180,
                    "texture": "#0"
                },
                "west": {
                    "uv": [
                        3,
                        3.375,
                        3,
                        3.375
                    ],
                    "rotation": 180,
                    "texture": "#0"
                },
                "up": {
                    "uv": [
                        3,
                        3.375,
                        3,
                        3.375
                    ],
                    "rotation": 180,
                    "texture": "#0"
                },
                "down": {
                    "uv": [
                        3,
                        3.375,
                        3,
                        3.375
                    ],
                    "rotation": 180,
                    "texture": "#0"
                }
            }
        },
        {
            "from": [
                7.54128,
                1.89811,
                25.73
            ],
            "to": [
                7.90128,
                2.19411,
                26.434
            ],
            "rotation": {
                "angle": -22.5,
                "axis": "z",
                "origin": [
                    7.99796,
                    2.09682,
                    25.326
                ]
            },
            "faces": {
                "north": {
                    "uv": [
                        7.375,
                        12.375,
                        7.375,
                        12.375
                    ],
                    "rotation": 180,
                    "texture": "#0"
                },
                "east": {
                    "uv": [
                        7.375,
                        12.375,
                        7.375,
                        12.375
                    ],
                    "rotation": 180,
                    "texture": "#0"
                },
                "south": {
                    "uv": [
                        7.375,
                        12.375,
                        7.375,
                        12.375
                    ],
                    "rotation": 180,
                    "texture": "#0"
                },
                "west": {
                    "uv": [
                        7.375,
                        12.375,
                        7.375,
                        12.375
                    ],
                    "rotation": 180,
                    "texture": "#0"
                },
                "up": {
                    "uv": [
                        7.375,
                        12.375,
                        7.375,
                        12.375
                    ],
                    "rotation": 180,
                    "texture": "#0"
                },
                "down": {
                    "uv": [
                        7.375,
                        12.375,
                        7.375,
                        12.375
                    ],
                    "rotation": 180,
                    "texture": "#0"
                }
            }
        }
    ],
    "display": {
        "thirdperson_righthand": {
            "translation": [
                -0.25,
                2,
                -4.75
            ],
            "scale": [
                0.8,
                0.8,
                0.8
            ]
        },
        "thirdperson_lefthand": {
            "translation": [
                -0.75,
                1.75,
                -3.75
            ],
            "scale": [
                0.8,
                0.8,
                0.8
            ]
        },
        "firstperson_righthand": {
            "translation": [
                -5.5,
                5.5,
                0.75
            ],
            "scale": [
                1,
                1,
                0.9
            ]
        },
        "firstperson_lefthand": {
            "translation": [
                -5.5,
                5.25,
                0.75
            ],
            "scale": [
                1,
                1,
                0.9
            ]
        },
        "ground": {
            "rotation": [
                0,
                0,
                45
            ],
            "scale": [
                0.88,
                0.88,
                0.88
            ]
        },
        "gui": {
            "rotation": [
                20,
                27,
                -14
            ],
            "translation": [
                -1,
                2,
                0
            ]
        },
        "head": {
            "rotation": [
                0,
                122,
                90
            ],
            "translation": [
                -3.25,
                7.25,
                1.75
            ]
        },
        "fixed": {
            "rotation": [
                90,
                45,
                -90
            ],
            "translation": [
                0.5,
                3.5,
                -2.25
            ]
        }
    }
}