{
	"credit": "Made with Blockbench",
	"textures": {
		"0": "gci:items/common/mpz",
		"particle": "gci:items/common/mpz"
	},
	"elements": [
		{
			"from": [4.6287, 5.5444, 6.088],
			"to": [4.7513, 5.98815, 6.108],
			"rotation": {"angle": -22.5, "axis": "x", "origin": [4.69, 5.76627, 6.098]},
			"faces": {
				"north": {"uv": [5.83333, 3.26667, 7.33333, 4.68333], "texture": "#0"},
				"east": {"uv": [5.83333, 3.26667, 7.33333, 4.68333], "texture": "#0"},
				"south": {"uv": [5.83333, 3.26667, 7.33333, 4.68333], "texture": "#0"},
				"west": {"uv": [5.83333, 3.26667, 7.33333, 4.68333], "texture": "#0"},
				"up": {"uv": [5.83333, 3.26667, 7.33333, 4.68333], "texture": "#0"},
				"down": {"uv": [5.83333, 3.26667, 7.33333, 4.68333], "texture": "#0"}
			}
		},
		{
			"from": [4.6287, 5.5444, 5.988],
			"to": [4.7513, 5.98815, 6.008],
			"rotation": {"angle": -22.5, "axis": "x", "origin": [4.69, 5.76627, 5.998]},
			"faces": {
				"north": {"uv": [5.83333, 3.26667, 7.33333, 4.68333], "texture": "#0"},
				"east": {"uv": [5.83333, 3.26667, 7.33333, 4.68333], "texture": "#0"},
				"south": {"uv": [5.83333, 3.26667, 7.33333, 4.68333], "texture": "#0"},
				"west": {"uv": [5.83333, 3.26667, 7.33333, 4.68333], "texture": "#0"},
				"up": {"uv": [5.83333, 3.26667, 7.33333, 4.68333], "texture": "#0"},
				"down": {"uv": [5.83333, 3.26667, 7.33333, 4.68333], "texture": "#0"}
			}
		},
		{
			"from": [4.6287, 5.5444, 5.888],
			"to": [4.7513, 5.98815, 5.908],
			"rotation": {"angle": -22.5, "axis": "x", "origin": [4.69, 5.76627, 5.898]},
			"faces": {
				"north": {"uv": [5.83333, 3.26667, 7.33333, 4.68333], "texture": "#0"},
				"east": {"uv": [5.83333, 3.26667, 7.33333, 4.68333], "texture": "#0"},
				"south": {"uv": [5.83333, 3.26667, 7.33333, 4.68333], "texture": "#0"},
				"west": {"uv": [5.83333, 3.26667, 7.33333, 4.68333], "texture": "#0"},
				"up": {"uv": [5.83333, 3.26667, 7.33333, 4.68333], "texture": "#0"},
				"down": {"uv": [5.83333, 3.26667, 7.33333, 4.68333], "texture": "#0"}
			}
		},
		{
			"from": [4.6287, 5.5444, 5.788],
			"to": [4.7513, 5.98815, 5.808],
			"rotation": {"angle": -22.5, "axis": "x", "origin": [4.69, 5.76627, 5.798]},
			"faces": {
				"north": {"uv": [5.83333, 3.26667, 7.33333, 4.68333], "texture": "#0"},
				"east": {"uv": [5.83333, 3.26667, 7.33333, 4.68333], "texture": "#0"},
				"south": {"uv": [5.83333, 3.26667, 7.33333, 4.68333], "texture": "#0"},
				"west": {"uv": [5.83333, 3.26667, 7.33333, 4.68333], "texture": "#0"},
				"up": {"uv": [5.83333, 3.26667, 7.33333, 4.68333], "texture": "#0"},
				"down": {"uv": [5.83333, 3.26667, 7.33333, 4.68333], "texture": "#0"}
			}
		},
		{
			"from": [4.6287, 5.5444, 5.688],
			"to": [4.7513, 5.98815, 5.708],
			"rotation": {"angle": -22.5, "axis": "x", "origin": [4.69, 5.76627, 5.698]},
			"faces": {
				"north": {"uv": [5.83333, 3.26667, 7.33333, 4.68333], "texture": "#0"},
				"east": {"uv": [5.83333, 3.26667, 7.33333, 4.68333], "texture": "#0"},
				"south": {"uv": [5.83333, 3.26667, 7.33333, 4.68333], "texture": "#0"},
				"west": {"uv": [5.83333, 3.26667, 7.33333, 4.68333], "texture": "#0"},
				"up": {"uv": [5.83333, 3.26667, 7.33333, 4.68333], "texture": "#0"},
				"down": {"uv": [5.83333, 3.26667, 7.33333, 4.68333], "texture": "#0"}
			}
		},
		{
			"from": [4.6287, 5.5444, 5.588],
			"to": [4.7513, 5.98815, 5.608],
			"rotation": {"angle": -22.5, "axis": "x", "origin": [4.69, 5.76627, 5.598]},
			"faces": {
				"north": {"uv": [5.83333, 3.26667, 7.33333, 4.68333], "texture": "#0"},
				"east": {"uv": [5.83333, 3.26667, 7.33333, 4.68333], "texture": "#0"},
				"south": {"uv": [5.83333, 3.26667, 7.33333, 4.68333], "texture": "#0"},
				"west": {"uv": [5.83333, 3.26667, 7.33333, 4.68333], "texture": "#0"},
				"up": {"uv": [5.83333, 3.26667, 7.33333, 4.68333], "texture": "#0"},
				"down": {"uv": [5.83333, 3.26667, 7.33333, 4.68333], "texture": "#0"}
			}
		},
		{
			"from": [4.6287, 5.5444, 5.488],
			"to": [4.7513, 5.98815, 5.508],
			"rotation": {"angle": -22.5, "axis": "x", "origin": [4.69, 5.76627, 5.498]},
			"faces": {
				"north": {"uv": [5.83333, 3.26667, 7.33333, 4.68333], "texture": "#0"},
				"east": {"uv": [5.83333, 3.26667, 7.33333, 4.68333], "texture": "#0"},
				"south": {"uv": [5.83333, 3.26667, 7.33333, 4.68333], "texture": "#0"},
				"west": {"uv": [5.83333, 3.26667, 7.33333, 4.68333], "texture": "#0"},
				"up": {"uv": [5.83333, 3.26667, 7.33333, 4.68333], "texture": "#0"},
				"down": {"uv": [5.83333, 3.26667, 7.33333, 4.68333], "texture": "#0"}
			}
		},
		{
			"from": [4.6287, 5.5444, 5.388],
			"to": [4.7513, 5.98815, 5.408],
			"rotation": {"angle": -22.5, "axis": "x", "origin": [4.69, 5.76627, 5.398]},
			"faces": {
				"north": {"uv": [5.83333, 3.26667, 7.33333, 4.68333], "texture": "#0"},
				"east": {"uv": [5.83333, 3.26667, 7.33333, 4.68333], "texture": "#0"},
				"south": {"uv": [5.83333, 3.26667, 7.33333, 4.68333], "texture": "#0"},
				"west": {"uv": [5.83333, 3.26667, 7.33333, 4.68333], "texture": "#0"},
				"up": {"uv": [5.83333, 3.26667, 7.33333, 4.68333], "texture": "#0"},
				"down": {"uv": [5.83333, 3.26667, 7.33333, 4.68333], "texture": "#0"}
			}
		},
		{
			"from": [4.6287, 5.5444, 5.288],
			"to": [4.7513, 5.98815, 5.308],
			"rotation": {"angle": -22.5, "axis": "x", "origin": [4.69, 5.76627, 5.298]},
			"faces": {
				"north": {"uv": [5.83333, 3.26667, 7.33333, 4.68333], "texture": "#0"},
				"east": {"uv": [5.83333, 3.26667, 7.33333, 4.68333], "texture": "#0"},
				"south": {"uv": [5.83333, 3.26667, 7.33333, 4.68333], "texture": "#0"},
				"west": {"uv": [5.83333, 3.26667, 7.33333, 4.68333], "texture": "#0"},
				"up": {"uv": [5.83333, 3.26667, 7.33333, 4.68333], "texture": "#0"},
				"down": {"uv": [5.83333, 3.26667, 7.33333, 4.68333], "texture": "#0"}
			}
		},
		{
			"from": [4.6287, 5.5444, 5.188],
			"to": [4.7513, 5.98815, 5.208],
			"rotation": {"angle": -22.5, "axis": "x", "origin": [4.69, 5.76627, 5.198]},
			"faces": {
				"north": {"uv": [5.83333, 3.26667, 7.33333, 4.68333], "texture": "#0"},
				"east": {"uv": [5.83333, 3.26667, 7.33333, 4.68333], "texture": "#0"},
				"south": {"uv": [5.83333, 3.26667, 7.33333, 4.68333], "texture": "#0"},
				"west": {"uv": [5.83333, 3.26667, 7.33333, 4.68333], "texture": "#0"},
				"up": {"uv": [5.83333, 3.26667, 7.33333, 4.68333], "texture": "#0"},
				"down": {"uv": [5.83333, 3.26667, 7.33333, 4.68333], "texture": "#0"}
			}
		},
		{
			"from": [4.6287, 5.5444, 5.088],
			"to": [4.7513, 5.98815, 5.108],
			"rotation": {"angle": -22.5, "axis": "x", "origin": [4.69, 5.76627, 5.098]},
			"faces": {
				"north": {"uv": [5.83333, 3.26667, 7.33333, 4.68333], "texture": "#0"},
				"east": {"uv": [5.83333, 3.26667, 7.33333, 4.68333], "texture": "#0"},
				"south": {"uv": [5.83333, 3.26667, 7.33333, 4.68333], "texture": "#0"},
				"west": {"uv": [5.83333, 3.26667, 7.33333, 4.68333], "texture": "#0"},
				"up": {"uv": [5.83333, 3.26667, 7.33333, 4.68333], "texture": "#0"},
				"down": {"uv": [5.83333, 3.26667, 7.33333, 4.68333], "texture": "#0"}
			}
		},
		{
			"from": [4.6287, 5.5444, 4.988],
			"to": [4.7513, 5.98815, 5.008],
			"rotation": {"angle": -22.5, "axis": "x", "origin": [4.69, 5.76627, 4.998]},
			"faces": {
				"north": {"uv": [5.83333, 3.26667, 7.33333, 4.68333], "texture": "#0"},
				"east": {"uv": [5.83333, 3.26667, 7.33333, 4.68333], "texture": "#0"},
				"south": {"uv": [5.83333, 3.26667, 7.33333, 4.68333], "texture": "#0"},
				"west": {"uv": [5.83333, 3.26667, 7.33333, 4.68333], "texture": "#0"},
				"up": {"uv": [5.83333, 3.26667, 7.33333, 4.68333], "texture": "#0"},
				"down": {"uv": [5.83333, 3.26667, 7.33333, 4.68333], "texture": "#0"}
			}
		},
		{
			"from": [4.63866, 5.49444, 4.188],
			"to": [5.36126, 6.03819, 4.688],
			"rotation": {"angle": 0, "axis": "y", "origin": [4.8181, 5.83013, 6.03719]},
			"faces": {
				"north": {"uv": [11.16667, 0.6, 12.66667, 2.01667], "texture": "#0"},
				"east": {"uv": [11.16667, 0.6, 12.66667, 2.01667], "texture": "#0"},
				"south": {"uv": [11.16667, 0.6, 12.66667, 2.01667], "texture": "#0"},
				"west": {"uv": [11.16667, 0.6, 12.66667, 2.01667], "texture": "#0"},
				"up": {"uv": [11.16667, 0.6, 12.66667, 2.01667], "texture": "#0"},
				"down": {"uv": [11.16667, 0.6, 12.66667, 2.01667], "texture": "#0"}
			}
		},
		{
			"from": [4.69224, 5.92379, 4.188],
			"to": [4.91484, 6.20379, 4.688],
			"rotation": {"angle": -45, "axis": "z", "origin": [4.80354, 6.04566, 4.438]},
			"faces": {
				"north": {"uv": [11.16667, 0.6, 12.66667, 2.01667], "texture": "#0"},
				"east": {"uv": [11.16667, 0.6, 12.66667, 2.01667], "texture": "#0"},
				"south": {"uv": [11.16667, 0.6, 12.66667, 2.01667], "texture": "#0"},
				"west": {"uv": [11.16667, 0.6, 12.66667, 2.01667], "texture": "#0"},
				"up": {"uv": [11.16667, 0.6, 12.66667, 2.01667], "texture": "#0"},
				"down": {"uv": [11.16667, 0.6, 12.66667, 2.01667], "texture": "#0"}
			}
		},
		{
			"from": [4.83665, 6.01358, 4.188],
			"to": [5.16265, 6.23618, 4.688],
			"rotation": {"angle": 0, "axis": "z", "origin": [4.97665, 6.12488, 4.438]},
			"faces": {
				"north": {"uv": [11.16667, 0.6, 12.66667, 2.01667], "rotation": 90, "texture": "#0"},
				"east": {"uv": [11.16667, 0.6, 12.66667, 2.01667], "rotation": 90, "texture": "#0"},
				"south": {"uv": [11.16667, 0.6, 12.66667, 2.01667], "rotation": 90, "texture": "#0"},
				"west": {"uv": [11.16667, 0.6, 12.66667, 2.01667], "rotation": 90, "texture": "#0"},
				"up": {"uv": [11.16667, 0.6, 12.66667, 2.01667], "rotation": 90, "texture": "#0"},
				"down": {"uv": [11.16667, 0.6, 12.66667, 2.01667], "rotation": 90, "texture": "#0"}
			}
		},
		{
			"from": [5.08509, 5.92379, 4.188],
			"to": [5.30769, 6.20379, 4.688],
			"rotation": {"angle": 45, "axis": "z", "origin": [5.19639, 6.04566, 4.438]},
			"faces": {
				"north": {"uv": [11.16667, 0.6, 12.66667, 2.01667], "texture": "#0"},
				"east": {"uv": [11.16667, 0.6, 12.66667, 2.01667], "texture": "#0"},
				"south": {"uv": [11.16667, 0.6, 12.66667, 2.01667], "texture": "#0"},
				"west": {"uv": [11.16667, 0.6, 12.66667, 2.01667], "texture": "#0"},
				"up": {"uv": [11.16667, 0.6, 12.66667, 2.01667], "texture": "#0"},
				"down": {"uv": [11.16667, 0.6, 12.66667, 2.01667], "texture": "#0"}
			}
		},
		{
			"from": [4.63866, 5.49444, 5.788],
			"to": [5.36126, 6.03819, 6.288],
			"rotation": {"angle": 0, "axis": "y", "origin": [4.8181, 5.83013, 7.63719]},
			"faces": {
				"north": {"uv": [11.16667, 0.6, 12.66667, 2.01667], "texture": "#0"},
				"east": {"uv": [11.16667, 0.6, 12.66667, 2.01667], "texture": "#0"},
				"south": {"uv": [11.16667, 0.6, 12.66667, 2.01667], "texture": "#0"},
				"west": {"uv": [11.16667, 0.6, 12.66667, 2.01667], "texture": "#0"},
				"up": {"uv": [11.16667, 0.6, 12.66667, 2.01667], "texture": "#0"},
				"down": {"uv": [11.16667, 0.6, 12.66667, 2.01667], "texture": "#0"}
			}
		},
		{
			"from": [4.63867, 5.81965, 6.24324],
			"to": [5.36127, 6.01965, 6.44324],
			"rotation": {"angle": -45, "axis": "x", "origin": [4.99997, 5.84152, 6.34324]},
			"faces": {
				"north": {"uv": [11.16667, 0.6, 12.66667, 2.01667], "texture": "#0"},
				"east": {"uv": [11.16667, 0.6, 12.66667, 2.01667], "texture": "#0"},
				"south": {"uv": [11.16667, 0.6, 12.66667, 2.01667], "texture": "#0"},
				"west": {"uv": [11.16667, 0.6, 12.66667, 2.01667], "texture": "#0"},
				"up": {"uv": [11.16667, 0.6, 12.66667, 2.01667], "texture": "#0"},
				"down": {"uv": [11.16667, 0.6, 12.66667, 2.01667], "texture": "#0"}
			}
		},
		{
			"from": [4.63867, 5.49376, 6.22942],
			"to": [5.36127, 5.89676, 6.42942],
			"rotation": {"angle": 0, "axis": "x", "origin": [4.99997, 5.79376, 6.32942]},
			"faces": {
				"north": {"uv": [11.16667, 0.6, 12.66667, 2.01667], "texture": "#0"},
				"east": {"uv": [11.16667, 0.6, 12.66667, 2.01667], "texture": "#0"},
				"south": {"uv": [11.16667, 0.6, 12.66667, 2.01667], "texture": "#0"},
				"west": {"uv": [11.16667, 0.6, 12.66667, 2.01667], "texture": "#0"},
				"up": {"uv": [11.16667, 0.6, 12.66667, 2.01667], "texture": "#0"},
				"down": {"uv": [11.16667, 0.6, 12.66667, 2.01667], "texture": "#0"}
			}
		},
		{
			"from": [4.69224, 5.92379, 5.788],
			"to": [4.91484, 6.20379, 6.288],
			"rotation": {"angle": -45, "axis": "z", "origin": [4.80354, 6.04566, 6.038]},
			"faces": {
				"north": {"uv": [11.16667, 0.6, 12.66667, 2.01667], "texture": "#0"},
				"east": {"uv": [11.16667, 0.6, 12.66667, 2.01667], "texture": "#0"},
				"south": {"uv": [11.16667, 0.6, 12.66667, 2.01667], "texture": "#0"},
				"west": {"uv": [11.16667, 0.6, 12.66667, 2.01667], "texture": "#0"},
				"up": {"uv": [11.16667, 0.6, 12.66667, 2.01667], "texture": "#0"},
				"down": {"uv": [11.16667, 0.6, 12.66667, 2.01667], "texture": "#0"}
			}
		},
		{
			"from": [4.83665, 6.01358, 5.788],
			"to": [5.16265, 6.23618, 6.288],
			"rotation": {"angle": 0, "axis": "z", "origin": [4.97665, 6.12488, 6.038]},
			"faces": {
				"north": {"uv": [11.16667, 0.6, 12.66667, 2.01667], "rotation": 90, "texture": "#0"},
				"east": {"uv": [11.16667, 0.6, 12.66667, 2.01667], "rotation": 90, "texture": "#0"},
				"south": {"uv": [11.16667, 0.6, 12.66667, 2.01667], "rotation": 90, "texture": "#0"},
				"west": {"uv": [11.16667, 0.6, 12.66667, 2.01667], "rotation": 90, "texture": "#0"},
				"up": {"uv": [11.16667, 0.6, 12.66667, 2.01667], "rotation": 90, "texture": "#0"},
				"down": {"uv": [11.16667, 0.6, 12.66667, 2.01667], "rotation": 90, "texture": "#0"}
			}
		},
		{
			"from": [5.08509, 5.92379, 5.788],
			"to": [5.30769, 6.20379, 6.288],
			"rotation": {"angle": 45, "axis": "z", "origin": [5.19639, 6.04566, 6.038]},
			"faces": {
				"north": {"uv": [11.16667, 0.6, 12.66667, 2.01667], "texture": "#0"},
				"east": {"uv": [11.16667, 0.6, 12.66667, 2.01667], "texture": "#0"},
				"south": {"uv": [11.16667, 0.6, 12.66667, 2.01667], "texture": "#0"},
				"west": {"uv": [11.16667, 0.6, 12.66667, 2.01667], "texture": "#0"},
				"up": {"uv": [11.16667, 0.6, 12.66667, 2.01667], "texture": "#0"},
				"down": {"uv": [11.16667, 0.6, 12.66667, 2.01667], "texture": "#0"}
			}
		},
		{
			"from": [4.63866, 5.49444, 4.688],
			"to": [5.36126, 5.73819, 5.788],
			"rotation": {"angle": 0, "axis": "y", "origin": [4.8181, 5.83013, 6.53719]},
			"faces": {
				"north": {"uv": [11.16667, 0.6, 12.66667, 2.01667], "texture": "#0"},
				"east": {"uv": [11.16667, 0.6, 12.66667, 2.01667], "texture": "#0"},
				"south": {"uv": [11.16667, 0.6, 12.66667, 2.01667], "texture": "#0"},
				"west": {"uv": [11.16667, 0.6, 12.66667, 2.01667], "texture": "#0"},
				"up": {"uv": [11.16667, 0.6, 12.66667, 2.01667], "texture": "#0"},
				"down": {"uv": [11.16667, 0.6, 12.66667, 2.01667], "texture": "#0"}
			}
		},
		{
			"from": [4.63866, 5.69444, 4.688],
			"to": [4.96126, 6.03819, 5.788],
			"rotation": {"angle": 0, "axis": "y", "origin": [4.8181, 5.83013, 6.53719]},
			"faces": {
				"north": {"uv": [11.16667, 0.6, 12.66667, 2.01667], "texture": "#0"},
				"east": {"uv": [11.16667, 0.6, 12.66667, 2.01667], "texture": "#0"},
				"south": {"uv": [11.16667, 0.6, 12.66667, 2.01667], "texture": "#0"},
				"west": {"uv": [11.16667, 0.6, 12.66667, 2.01667], "texture": "#0"},
				"up": {"uv": [11.16667, 0.6, 12.66667, 2.01667], "texture": "#0"},
				"down": {"uv": [11.16667, 0.6, 12.66667, 2.01667], "texture": "#0"}
			}
		},
		{
			"from": [4.69224, 5.92379, 4.688],
			"to": [4.91484, 6.20379, 5.788],
			"rotation": {"angle": -45, "axis": "z", "origin": [4.80354, 6.04566, 4.938]},
			"faces": {
				"north": {"uv": [11.16667, 0.6, 12.66667, 2.01667], "texture": "#0"},
				"east": {"uv": [11.16667, 0.6, 12.66667, 2.01667], "texture": "#0"},
				"south": {"uv": [11.16667, 0.6, 12.66667, 2.01667], "texture": "#0"},
				"west": {"uv": [11.16667, 0.6, 12.66667, 2.01667], "texture": "#0"},
				"up": {"uv": [11.16667, 0.6, 12.66667, 2.01667], "texture": "#0"},
				"down": {"uv": [11.16667, 0.6, 12.66667, 2.01667], "texture": "#0"}
			}
		},
		{
			"from": [4.83665, 6.01358, 4.688],
			"to": [5.16265, 6.23618, 5.788],
			"rotation": {"angle": 0, "axis": "z", "origin": [4.97665, 6.12488, 4.938]},
			"faces": {
				"north": {"uv": [11.16667, 0.6, 12.66667, 2.01667], "rotation": 90, "texture": "#0"},
				"east": {"uv": [11.16667, 0.6, 12.66667, 2.01667], "rotation": 90, "texture": "#0"},
				"south": {"uv": [11.16667, 0.6, 12.66667, 2.01667], "rotation": 90, "texture": "#0"},
				"west": {"uv": [11.16667, 0.6, 12.66667, 2.01667], "rotation": 90, "texture": "#0"},
				"up": {"uv": [11.16667, 0.6, 12.66667, 2.01667], "rotation": 90, "texture": "#0"},
				"down": {"uv": [11.16667, 0.6, 12.66667, 2.01667], "rotation": 90, "texture": "#0"}
			}
		},
		{
			"from": [5.08509, 6.12379, 4.688],
			"to": [5.30769, 6.20379, 5.788],
			"rotation": {"angle": 45, "axis": "z", "origin": [5.19639, 6.04566, 4.938]},
			"faces": {
				"north": {"uv": [11.16667, 0.6, 12.66667, 2.01667], "texture": "#0"},
				"east": {"uv": [11.16667, 0.6, 12.66667, 2.01667], "texture": "#0"},
				"south": {"uv": [11.16667, 0.6, 12.66667, 2.01667], "texture": "#0"},
				"west": {"uv": [11.16667, 0.6, 12.66667, 2.01667], "texture": "#0"},
				"up": {"uv": [11.16667, 0.6, 12.66667, 2.01667], "texture": "#0"},
				"down": {"uv": [11.16667, 0.6, 12.66667, 2.01667], "texture": "#0"}
			}
		},
		{
			"from": [5.08509, 5.92379, 4.688],
			"to": [5.23509, 6.20379, 5.788],
			"rotation": {"angle": 45, "axis": "z", "origin": [5.19639, 6.04566, 4.938]},
			"faces": {
				"north": {"uv": [0.5, 3.26667, 2, 4.68333], "texture": "#0"},
				"east": {"uv": [0.5, 3.26667, 2, 4.68333], "texture": "#0"},
				"south": {"uv": [0.5, 3.26667, 2, 4.68333], "texture": "#0"},
				"west": {"uv": [0.5, 3.26667, 2, 4.68333], "texture": "#0"},
				"up": {"uv": [0.5, 3.26667, 2, 4.68333], "texture": "#0"},
				"down": {"uv": [0.5, 3.26667, 2, 4.68333], "texture": "#0"}
			}
		},
		{
			"from": [5.15993, 5.70685, 4.688],
			"to": [5.30993, 5.98685, 5.788],
			"rotation": {"angle": 0, "axis": "z", "origin": [5.23493, 5.84685, 5.488]},
			"faces": {
				"north": {"uv": [0.5, 3.26667, 2, 4.68333], "texture": "#0"},
				"east": {"uv": [0.5, 3.26667, 2, 4.68333], "texture": "#0"},
				"south": {"uv": [0.5, 3.26667, 2, 4.68333], "texture": "#0"},
				"west": {"uv": [0.5, 3.26667, 2, 4.68333], "texture": "#0"},
				"up": {"uv": [0.5, 3.26667, 2, 4.68333], "texture": "#0"},
				"down": {"uv": [0.5, 3.26667, 2, 4.68333], "texture": "#0"}
			}
		},
		{
			"from": [4.6887, 5.29444, 4.188],
			"to": [5.3113, 5.63819, 6.388],
			"rotation": {"angle": 0, "axis": "y", "origin": [4.8181, 5.83013, 6.53719]},
			"faces": {
				"north": {"uv": [11.16667, 0.6, 12.66667, 2.01667], "texture": "#0"},
				"east": {"uv": [11.16667, 0.6, 12.66667, 2.01667], "texture": "#0"},
				"south": {"uv": [11.16667, 0.6, 12.66667, 2.01667], "texture": "#0"},
				"west": {"uv": [11.16667, 0.6, 12.66667, 2.01667], "texture": "#0"},
				"up": {"uv": [11.16667, 0.6, 12.66667, 2.01667], "texture": "#0"},
				"down": {"uv": [11.16667, 0.6, 12.66667, 2.01667], "texture": "#0"}
			}
		},
		{
			"from": [4.6887, 5.26, 4.188],
			"to": [5.3113, 5.60375, 4.788],
			"rotation": {"angle": 0, "axis": "y", "origin": [4.8181, 5.83013, 6.53719]},
			"faces": {
				"north": {"uv": [11.16667, 0.6, 12.66667, 2.01667], "texture": "#0"},
				"east": {"uv": [11.16667, 0.6, 12.66667, 2.01667], "texture": "#0"},
				"south": {"uv": [11.16667, 0.6, 12.66667, 2.01667], "texture": "#0"},
				"west": {"uv": [11.16667, 0.6, 12.66667, 2.01667], "texture": "#0"},
				"up": {"uv": [11.16667, 0.6, 12.66667, 2.01667], "texture": "#0"},
				"down": {"uv": [11.16667, 0.6, 12.66667, 2.01667], "texture": "#0"}
			}
		},
		{
			"from": [4.6887, 5.25932, 6.21145],
			"to": [5.3113, 5.45932, 6.3552],
			"rotation": {"angle": -22.5, "axis": "x", "origin": [5, 5.35932, 6.28333]},
			"faces": {
				"north": {"uv": [11.16667, 0.6, 12.66667, 2.01667], "texture": "#0"},
				"east": {"uv": [11.16667, 0.6, 12.66667, 2.01667], "texture": "#0"},
				"south": {"uv": [11.16667, 0.6, 12.66667, 2.01667], "texture": "#0"},
				"west": {"uv": [11.16667, 0.6, 12.66667, 2.01667], "texture": "#0"},
				"up": {"uv": [11.16667, 0.6, 12.66667, 2.01667], "texture": "#0"},
				"down": {"uv": [11.16667, 0.6, 12.66667, 2.01667], "texture": "#0"}
			}
		},
		{
			"from": [4.6887, 5.68787, 5.56596],
			"to": [5.3113, 5.98787, 5.70971],
			"rotation": {"angle": -22.5, "axis": "x", "origin": [5, 5.78787, 7.23783]},
			"faces": {
				"north": {"uv": [11.16667, 0.6, 12.66667, 2.01667], "texture": "#0"},
				"east": {"uv": [11.16667, 0.6, 12.66667, 2.01667], "texture": "#0"},
				"south": {"uv": [11.16667, 0.6, 12.66667, 2.01667], "texture": "#0"},
				"west": {"uv": [11.16667, 0.6, 12.66667, 2.01667], "texture": "#0"},
				"up": {"uv": [11.16667, 0.6, 12.66667, 2.01667], "texture": "#0"},
				"down": {"uv": [11.16667, 0.6, 12.66667, 2.01667], "texture": "#0"}
			}
		},
		{
			"from": [4.6887, 5.02596, 5.60006],
			"to": [5.3113, 5.32596, 5.7438],
			"rotation": {"angle": -45, "axis": "x", "origin": [5, 5.17596, 5.67193]},
			"faces": {
				"north": {"uv": [11.16667, 0.6, 12.66667, 2.01667], "texture": "#0"},
				"east": {"uv": [11.16667, 0.6, 12.66667, 2.01667], "texture": "#0"},
				"south": {"uv": [11.16667, 0.6, 12.66667, 2.01667], "texture": "#0"},
				"west": {"uv": [11.16667, 0.6, 12.66667, 2.01667], "texture": "#0"},
				"up": {"uv": [11.16667, 0.6, 12.66667, 2.01667], "texture": "#0"},
				"down": {"uv": [11.16667, 0.6, 12.66667, 2.01667], "texture": "#0"}
			}
		},
		{
			"from": [4.6887, 5.00508, 5.62919],
			"to": [5.3113, 5.14882, 5.92919],
			"rotation": {"angle": 22.5, "axis": "x", "origin": [5, 5.47695, 5.77919]},
			"faces": {
				"north": {"uv": [11.16667, 0.6, 12.66667, 2.01667], "texture": "#0"},
				"east": {"uv": [11.16667, 0.6, 12.66667, 2.01667], "texture": "#0"},
				"south": {"uv": [11.16667, 0.6, 12.66667, 2.01667], "texture": "#0"},
				"west": {"uv": [11.16667, 0.6, 12.66667, 2.01667], "texture": "#0"},
				"up": {"uv": [11.16667, 0.6, 12.66667, 2.01667], "texture": "#0"},
				"down": {"uv": [11.16667, 0.6, 12.66667, 2.01667], "texture": "#0"}
			}
		},
		{
			"from": [4.6887, 4.65465, 5.46003],
			"to": [5.3113, 5.0984, 5.76003],
			"rotation": {"angle": 0, "axis": "x", "origin": [5, 5.92652, 5.61003]},
			"faces": {
				"north": {"uv": [11.16667, 0.6, 12.66667, 2.01667], "texture": "#0"},
				"east": {"uv": [11.16667, 0.6, 12.66667, 2.01667], "texture": "#0"},
				"south": {"uv": [11.16667, 0.6, 12.66667, 2.01667], "texture": "#0"},
				"west": {"uv": [11.16667, 0.6, 12.66667, 2.01667], "texture": "#0"},
				"up": {"uv": [11.16667, 0.6, 12.66667, 2.01667], "texture": "#0"},
				"down": {"uv": [11.16667, 0.6, 12.66667, 2.01667], "texture": "#0"}
			}
		},
		{
			"from": [4.6887, 3.41334, 5.79901],
			"to": [5.3113, 3.51334, 6.09901],
			"rotation": {"angle": 22.5, "axis": "x", "origin": [5, 3.48521, 5.94901]},
			"faces": {
				"north": {"uv": [11.16667, 0.6, 12.66667, 2.01667], "texture": "#0"},
				"east": {"uv": [11.16667, 0.6, 12.66667, 2.01667], "texture": "#0"},
				"south": {"uv": [11.16667, 0.6, 12.66667, 2.01667], "texture": "#0"},
				"west": {"uv": [11.16667, 0.6, 12.66667, 2.01667], "texture": "#0"},
				"up": {"uv": [11.16667, 0.6, 12.66667, 2.01667], "texture": "#0"},
				"down": {"uv": [11.16667, 0.6, 12.66667, 2.01667], "texture": "#0"}
			}
		},
		{
			"from": [4.6887, 3.25856, 6.06697],
			"to": [5.3113, 3.35856, 6.36697],
			"rotation": {"angle": 45, "axis": "x", "origin": [5, 3.73043, 6.21697]},
			"faces": {
				"north": {"uv": [11.16667, 0.6, 12.66667, 2.01667], "texture": "#0"},
				"east": {"uv": [11.16667, 0.6, 12.66667, 2.01667], "texture": "#0"},
				"south": {"uv": [11.16667, 0.6, 12.66667, 2.01667], "texture": "#0"},
				"west": {"uv": [11.16667, 0.6, 12.66667, 2.01667], "texture": "#0"},
				"up": {"uv": [11.16667, 0.6, 12.66667, 2.01667], "texture": "#0"},
				"down": {"uv": [11.16667, 0.6, 12.66667, 2.01667], "texture": "#0"}
			}
		},
		{
			"from": [4.6887, 3.2907, 5.88937],
			"to": [5.3113, 3.3907, 5.98937],
			"rotation": {"angle": 0, "axis": "x", "origin": [5, 3.4407, 5.93937]},
			"faces": {
				"north": {"uv": [11.16667, 0.6, 12.66667, 2.01667], "texture": "#0"},
				"east": {"uv": [11.16667, 0.6, 12.66667, 2.01667], "texture": "#0"},
				"south": {"uv": [11.16667, 0.6, 12.66667, 2.01667], "texture": "#0"},
				"west": {"uv": [11.16667, 0.6, 12.66667, 2.01667], "texture": "#0"},
				"up": {"uv": [11.16667, 0.6, 12.66667, 2.01667], "texture": "#0"},
				"down": {"uv": [11.16667, 0.6, 12.66667, 2.01667], "texture": "#0"}
			}
		},
		{
			"from": [4.6887, 3.2907, 4.88937],
			"to": [4.7113, 3.3907, 5.98937],
			"rotation": {"angle": 0, "axis": "x", "origin": [5, 3.3407, 5.83937]},
			"faces": {
				"north": {"uv": [11.16667, 0.6, 12.66667, 2.01667], "texture": "#0"},
				"east": {"uv": [11.16667, 0.6, 12.66667, 2.01667], "texture": "#0"},
				"south": {"uv": [11.16667, 0.6, 12.66667, 2.01667], "texture": "#0"},
				"west": {"uv": [11.16667, 0.6, 12.66667, 2.01667], "texture": "#0"},
				"up": {"uv": [11.16667, 0.6, 12.66667, 2.01667], "texture": "#0"},
				"down": {"uv": [11.16667, 0.6, 12.66667, 2.01667], "texture": "#0"}
			}
		},
		{
			"from": [5.2887, 3.2907, 4.88937],
			"to": [5.3113, 3.3907, 5.98937],
			"rotation": {"angle": 0, "axis": "x", "origin": [5, 3.3407, 5.43937]},
			"faces": {
				"north": {"uv": [11.16667, 0.6, 12.66667, 2.01667], "texture": "#0"},
				"east": {"uv": [11.16667, 0.6, 12.66667, 2.01667], "texture": "#0"},
				"south": {"uv": [11.16667, 0.6, 12.66667, 2.01667], "texture": "#0"},
				"west": {"uv": [11.16667, 0.6, 12.66667, 2.01667], "texture": "#0"},
				"up": {"uv": [11.16667, 0.6, 12.66667, 2.01667], "texture": "#0"},
				"down": {"uv": [11.16667, 0.6, 12.66667, 2.01667], "texture": "#0"}
			}
		},
		{
			"from": [4.6887, 3.3907, 4.88937],
			"to": [5.3113, 3.7907, 5.98937],
			"rotation": {"angle": 0, "axis": "x", "origin": [5, 3.3407, 5.43937]},
			"faces": {
				"north": {"uv": [11.16667, 0.6, 12.66667, 2.01667], "texture": "#0"},
				"east": {"uv": [11.16667, 0.6, 12.66667, 2.01667], "texture": "#0"},
				"south": {"uv": [11.16667, 0.6, 12.66667, 2.01667], "texture": "#0"},
				"west": {"uv": [11.16667, 0.6, 12.66667, 2.01667], "texture": "#0"},
				"up": {"uv": [11.16667, 0.6, 12.66667, 2.01667], "texture": "#0"},
				"down": {"uv": [11.16667, 0.6, 12.66667, 2.01667], "texture": "#0"}
			}
		},
		{
			"from": [4.6887, 3.36035, 4.63682],
			"to": [5.3113, 4.66035, 5.73682],
			"rotation": {"angle": -22.5, "axis": "x", "origin": [5, 4.41035, 4.68682]},
			"faces": {
				"north": {"uv": [11.16667, 0.6, 12.66667, 2.01667], "texture": "#0"},
				"east": {"uv": [11.16667, 0.6, 12.66667, 2.01667], "texture": "#0"},
				"south": {"uv": [11.16667, 0.6, 12.66667, 2.01667], "texture": "#0"},
				"west": {"uv": [11.16667, 0.6, 12.66667, 2.01667], "texture": "#0"},
				"up": {"uv": [11.16667, 0.6, 12.66667, 2.01667], "texture": "#0"},
				"down": {"uv": [11.16667, 0.6, 12.66667, 2.01667], "texture": "#0"}
			}
		},
		{
			"from": [4.6887, 4.62219, 4.54496],
			"to": [5.3113, 5.42219, 5.64496],
			"rotation": {"angle": 0, "axis": "x", "origin": [5, 5.17219, 5.69496]},
			"faces": {
				"north": {"uv": [11.16667, 0.6, 12.66667, 2.01667], "texture": "#0"},
				"east": {"uv": [11.16667, 0.6, 12.66667, 2.01667], "texture": "#0"},
				"south": {"uv": [11.16667, 0.6, 12.66667, 2.01667], "texture": "#0"},
				"west": {"uv": [11.16667, 0.6, 12.66667, 2.01667], "texture": "#0"},
				"up": {"uv": [11.16667, 0.6, 12.66667, 2.01667], "texture": "#0"},
				"down": {"uv": [11.16667, 0.6, 12.66667, 2.01667], "texture": "#0"}
			}
		},
		{
			"from": [4.6887, 3.4538, 5.79835],
			"to": [5.3113, 3.89754, 6.09835],
			"rotation": {"angle": 0, "axis": "x", "origin": [5, 6.82567, 5.94835]},
			"faces": {
				"north": {"uv": [11.16667, 0.6, 12.66667, 2.01667], "texture": "#0"},
				"east": {"uv": [11.16667, 0.6, 12.66667, 2.01667], "texture": "#0"},
				"south": {"uv": [11.16667, 0.6, 12.66667, 2.01667], "texture": "#0"},
				"west": {"uv": [11.16667, 0.6, 12.66667, 2.01667], "texture": "#0"},
				"up": {"uv": [11.16667, 0.6, 12.66667, 2.01667], "texture": "#0"},
				"down": {"uv": [11.16667, 0.6, 12.66667, 2.01667], "texture": "#0"}
			}
		},
		{
			"from": [4.6887, 3.77377, 5.47612],
			"to": [5.3113, 4.71752, 5.77612],
			"rotation": {"angle": -22.5, "axis": "x", "origin": [5, 4.64565, 5.62612]},
			"faces": {
				"north": {"uv": [11.16667, 0.6, 12.66667, 2.01667], "texture": "#0"},
				"east": {"uv": [11.16667, 0.6, 12.66667, 2.01667], "texture": "#0"},
				"south": {"uv": [11.16667, 0.6, 12.66667, 2.01667], "texture": "#0"},
				"west": {"uv": [11.16667, 0.6, 12.66667, 2.01667], "texture": "#0"},
				"up": {"uv": [11.16667, 0.6, 12.66667, 2.01667], "texture": "#0"},
				"down": {"uv": [11.16667, 0.6, 12.66667, 2.01667], "texture": "#0"}
			}
		},
		{
			"from": [4.6887, 5.12318, 5.82708],
			"to": [5.3113, 5.42318, 6.07083],
			"rotation": {"angle": -22.5, "axis": "x", "origin": [5, 5.52318, 5.99896]},
			"faces": {
				"north": {"uv": [11.16667, 0.6, 12.66667, 2.01667], "texture": "#0"},
				"east": {"uv": [11.16667, 0.6, 12.66667, 2.01667], "texture": "#0"},
				"south": {"uv": [11.16667, 0.6, 12.66667, 2.01667], "texture": "#0"},
				"west": {"uv": [11.16667, 0.6, 12.66667, 2.01667], "texture": "#0"},
				"up": {"uv": [11.16667, 0.6, 12.66667, 2.01667], "texture": "#0"},
				"down": {"uv": [11.16667, 0.6, 12.66667, 2.01667], "texture": "#0"}
			}
		},
		{
			"from": [4.6887, 5.08786, 5.74949],
			"to": [5.3113, 5.38786, 5.99324],
			"rotation": {"angle": 0, "axis": "x", "origin": [5, 5.23786, 5.87137]},
			"faces": {
				"north": {"uv": [11.16667, 0.6, 12.66667, 2.01667], "texture": "#0"},
				"east": {"uv": [11.16667, 0.6, 12.66667, 2.01667], "texture": "#0"},
				"south": {"uv": [11.16667, 0.6, 12.66667, 2.01667], "texture": "#0"},
				"west": {"uv": [11.16667, 0.6, 12.66667, 2.01667], "texture": "#0"},
				"up": {"uv": [11.16667, 0.6, 12.66667, 2.01667], "texture": "#0"},
				"down": {"uv": [11.16667, 0.6, 12.66667, 2.01667], "texture": "#0"}
			}
		},
		{
			"from": [4.6887, 5.20267, 6.12667],
			"to": [5.3113, 5.40267, 6.27042],
			"rotation": {"angle": -45, "axis": "x", "origin": [5, 5.30267, 6.19855]},
			"faces": {
				"north": {"uv": [11.16667, 0.6, 12.66667, 2.01667], "texture": "#0"},
				"east": {"uv": [11.16667, 0.6, 12.66667, 2.01667], "texture": "#0"},
				"south": {"uv": [11.16667, 0.6, 12.66667, 2.01667], "texture": "#0"},
				"west": {"uv": [11.16667, 0.6, 12.66667, 2.01667], "texture": "#0"},
				"up": {"uv": [11.16667, 0.6, 12.66667, 2.01667], "texture": "#0"},
				"down": {"uv": [11.16667, 0.6, 12.66667, 2.01667], "texture": "#0"}
			}
		},
		{
			"from": [4.83466, 4.69057, 4.50875],
			"to": [5.16534, 4.85057, 4.55875],
			"rotation": {"angle": 22.5, "axis": "x", "origin": [5, 4.67487, 4.51827]},
			"faces": {
				"north": {"uv": [11.16667, 0.6, 12.66667, 2.01667], "rotation": 270, "texture": "#0"},
				"east": {"uv": [11.16667, 0.6, 12.66667, 2.01667], "rotation": 270, "texture": "#0"},
				"south": {"uv": [11.16667, 0.6, 12.66667, 2.01667], "rotation": 270, "texture": "#0"},
				"west": {"uv": [11.16667, 0.6, 12.66667, 2.01667], "rotation": 270, "texture": "#0"},
				"up": {"uv": [11.16667, 0.6, 12.66667, 2.01667], "rotation": 270, "texture": "#0"},
				"down": {"uv": [11.16667, 0.6, 12.66667, 2.01667], "rotation": 270, "texture": "#0"}
			}
		},
		{
			"from": [4.83466, 4.64348, 4.48827],
			"to": [5.16534, 4.69348, 4.54827],
			"rotation": {"angle": -45, "axis": "x", "origin": [5, 4.67487, 4.51827]},
			"faces": {
				"north": {"uv": [11.16667, 0.6, 12.66667, 2.01667], "rotation": 180, "texture": "#0"},
				"east": {"uv": [11.16667, 0.6, 12.66667, 2.01667], "rotation": 180, "texture": "#0"},
				"south": {"uv": [11.16667, 0.6, 12.66667, 2.01667], "rotation": 180, "texture": "#0"},
				"west": {"uv": [11.16667, 0.6, 12.66667, 2.01667], "rotation": 180, "texture": "#0"},
				"up": {"uv": [11.16667, 0.6, 12.66667, 2.01667], "rotation": 180, "texture": "#0"},
				"down": {"uv": [11.16667, 0.6, 12.66667, 2.01667], "rotation": 180, "texture": "#0"}
			}
		},
		{
			"from": [4.83466, 4.63439, 4.44257],
			"to": [5.16534, 4.68439, 4.50257],
			"rotation": {"angle": -22.5, "axis": "x", "origin": [5, 4.67487, 4.51827]},
			"faces": {
				"north": {"uv": [11.16667, 0.6, 12.66667, 2.01667], "rotation": 180, "texture": "#0"},
				"east": {"uv": [11.16667, 0.6, 12.66667, 2.01667], "rotation": 180, "texture": "#0"},
				"south": {"uv": [11.16667, 0.6, 12.66667, 2.01667], "rotation": 180, "texture": "#0"},
				"west": {"uv": [11.16667, 0.6, 12.66667, 2.01667], "rotation": 180, "texture": "#0"},
				"up": {"uv": [11.16667, 0.6, 12.66667, 2.01667], "rotation": 180, "texture": "#0"},
				"down": {"uv": [11.16667, 0.6, 12.66667, 2.01667], "rotation": 180, "texture": "#0"}
			}
		},
		{
			"from": [4.83466, 4.57352, 4.48827],
			"to": [5.16534, 4.72352, 4.64827],
			"rotation": {"angle": 45, "axis": "x", "origin": [5, 4.59213, 4.51827]},
			"faces": {
				"north": {"uv": [11.16667, 0.6, 12.66667, 2.01667], "texture": "#0"},
				"east": {"uv": [11.16667, 0.6, 12.66667, 2.01667], "texture": "#0"},
				"south": {"uv": [11.16667, 0.6, 12.66667, 2.01667], "texture": "#0"},
				"west": {"uv": [11.16667, 0.6, 12.66667, 2.01667], "texture": "#0"},
				"up": {"uv": [11.16667, 0.6, 12.66667, 2.01667], "texture": "#0"},
				"down": {"uv": [11.16667, 0.6, 12.66667, 2.01667], "texture": "#0"}
			}
		},
		{
			"from": [4.83466, 4.58261, 4.44257],
			"to": [5.16534, 4.63261, 4.50257],
			"rotation": {"angle": 22.5, "axis": "x", "origin": [5, 4.59213, 4.51827]},
			"faces": {
				"north": {"uv": [11.16667, 0.6, 12.66667, 2.01667], "texture": "#0"},
				"east": {"uv": [11.16667, 0.6, 12.66667, 2.01667], "texture": "#0"},
				"south": {"uv": [11.16667, 0.6, 12.66667, 2.01667], "texture": "#0"},
				"west": {"uv": [11.16667, 0.6, 12.66667, 2.01667], "texture": "#0"},
				"up": {"uv": [11.16667, 0.6, 12.66667, 2.01667], "texture": "#0"},
				"down": {"uv": [11.16667, 0.6, 12.66667, 2.01667], "texture": "#0"}
			}
		},
		{
			"from": [4.83466, 4.72932, 3.333],
			"to": [5.16534, 5.26, 3.383],
			"rotation": {"angle": 0, "axis": "y", "origin": [4.83463, 6.00449, 5.82862]},
			"faces": {
				"north": {"uv": [11.16667, 0.6, 12.66667, 2.01667], "rotation": 90, "texture": "#0"},
				"east": {"uv": [11.16667, 0.6, 12.66667, 2.01667], "rotation": 90, "texture": "#0"},
				"south": {"uv": [11.16667, 0.6, 12.66667, 2.01667], "rotation": 90, "texture": "#0"},
				"west": {"uv": [11.16667, 0.6, 12.66667, 2.01667], "rotation": 90, "texture": "#0"},
				"up": {"uv": [11.16667, 0.6, 12.66667, 2.01667], "rotation": 90, "texture": "#0"},
				"down": {"uv": [11.16667, 0.6, 12.66667, 2.01667], "rotation": 90, "texture": "#0"}
			}
		},
		{
			"from": [4.83466, 4.67965, 3.33492],
			"to": [5.16534, 4.73965, 3.38492],
			"rotation": {"angle": -22.5, "axis": "x", "origin": [5, 4.72965, 3.35992]},
			"faces": {
				"north": {"uv": [11.16667, 0.6, 12.66667, 2.01667], "rotation": 90, "texture": "#0"},
				"east": {"uv": [11.16667, 0.6, 12.66667, 2.01667], "rotation": 90, "texture": "#0"},
				"south": {"uv": [11.16667, 0.6, 12.66667, 2.01667], "rotation": 90, "texture": "#0"},
				"west": {"uv": [11.16667, 0.6, 12.66667, 2.01667], "rotation": 90, "texture": "#0"},
				"up": {"uv": [11.16667, 0.6, 12.66667, 2.01667], "rotation": 90, "texture": "#0"},
				"down": {"uv": [11.16667, 0.6, 12.66667, 2.01667], "rotation": 90, "texture": "#0"}
			}
		},
		{
			"from": [4.83466, 4.64035, 3.36985],
			"to": [5.16534, 4.70035, 3.41985],
			"rotation": {"angle": -45, "axis": "x", "origin": [5, 4.67035, 3.39485]},
			"faces": {
				"north": {"uv": [11.16667, 0.6, 12.66667, 2.01667], "rotation": 90, "texture": "#0"},
				"east": {"uv": [11.16667, 0.6, 12.66667, 2.01667], "rotation": 90, "texture": "#0"},
				"south": {"uv": [11.16667, 0.6, 12.66667, 2.01667], "rotation": 90, "texture": "#0"},
				"west": {"uv": [11.16667, 0.6, 12.66667, 2.01667], "rotation": 90, "texture": "#0"},
				"up": {"uv": [11.16667, 0.6, 12.66667, 2.01667], "rotation": 90, "texture": "#0"},
				"down": {"uv": [11.16667, 0.6, 12.66667, 2.01667], "rotation": 90, "texture": "#0"}
			}
		},
		{
			"from": [4.83466, 4.61808, 3.40567],
			"to": [5.16534, 4.66808, 3.46567],
			"rotation": {"angle": 22.5, "axis": "x", "origin": [5, 4.64308, 3.43567]},
			"faces": {
				"north": {"uv": [11.16667, 0.6, 12.66667, 2.01667], "rotation": 180, "texture": "#0"},
				"east": {"uv": [11.16667, 0.6, 12.66667, 2.01667], "rotation": 180, "texture": "#0"},
				"south": {"uv": [11.16667, 0.6, 12.66667, 2.01667], "rotation": 180, "texture": "#0"},
				"west": {"uv": [11.16667, 0.6, 12.66667, 2.01667], "rotation": 180, "texture": "#0"},
				"up": {"uv": [11.16667, 0.6, 12.66667, 2.01667], "rotation": 180, "texture": "#0"},
				"down": {"uv": [11.16667, 0.6, 12.66667, 2.01667], "rotation": 180, "texture": "#0"}
			}
		},
		{
			"from": [4.83466, 4.6085, 3.45382],
			"to": [5.16534, 4.6585, 4.46382],
			"rotation": {"angle": 0, "axis": "x", "origin": [5, 4.6335, 3.48382]},
			"faces": {
				"north": {"uv": [11.16667, 0.6, 12.66667, 2.01667], "rotation": 180, "texture": "#0"},
				"east": {"uv": [11.16667, 0.6, 12.66667, 2.01667], "rotation": 180, "texture": "#0"},
				"south": {"uv": [11.16667, 0.6, 12.66667, 2.01667], "rotation": 180, "texture": "#0"},
				"west": {"uv": [11.16667, 0.6, 12.66667, 2.01667], "rotation": 180, "texture": "#0"},
				"up": {"uv": [11.16667, 0.6, 12.66667, 2.01667], "rotation": 180, "texture": "#0"},
				"down": {"uv": [11.16667, 0.6, 12.66667, 2.01667], "rotation": 180, "texture": "#0"}
			}
		},
		{
			"from": [4.93466, 5.18293, 3.92578],
			"to": [5.06534, 5.34293, 3.97578],
			"rotation": {"angle": -22.5, "axis": "x", "origin": [5, 5.21386, 3.94599]},
			"faces": {
				"north": {"uv": [11.16667, 0.6, 12.66667, 2.01667], "rotation": 270, "texture": "#0"},
				"east": {"uv": [11.16667, 0.6, 12.66667, 2.01667], "rotation": 270, "texture": "#0"},
				"south": {"uv": [11.16667, 0.6, 12.66667, 2.01667], "rotation": 270, "texture": "#0"},
				"west": {"uv": [11.16667, 0.6, 12.66667, 2.01667], "rotation": 270, "texture": "#0"},
				"up": {"uv": [11.16667, 0.6, 12.66667, 2.01667], "rotation": 270, "texture": "#0"},
				"down": {"uv": [11.16667, 0.6, 12.66667, 2.01667], "rotation": 270, "texture": "#0"}
			}
		},
		{
			"from": [4.93466, 5.14016, 4.26787],
			"to": [5.06534, 5.30016, 4.31787],
			"rotation": {"angle": 22.5, "axis": "x", "origin": [5, 5.22016, 4.29287]},
			"faces": {
				"north": {"uv": [11.16667, 0.6, 12.66667, 2.01667], "rotation": 270, "texture": "#0"},
				"east": {"uv": [11.16667, 0.6, 12.66667, 2.01667], "rotation": 270, "texture": "#0"},
				"south": {"uv": [11.16667, 0.6, 12.66667, 2.01667], "rotation": 270, "texture": "#0"},
				"west": {"uv": [11.16667, 0.6, 12.66667, 2.01667], "rotation": 270, "texture": "#0"},
				"up": {"uv": [11.16667, 0.6, 12.66667, 2.01667], "rotation": 270, "texture": "#0"},
				"down": {"uv": [11.16667, 0.6, 12.66667, 2.01667], "rotation": 270, "texture": "#0"}
			}
		},
		{
			"from": [4.93466, 4.93669, 3.93535],
			"to": [5.06534, 5.29669, 3.98535],
			"rotation": {"angle": 0, "axis": "x", "origin": [5, 5.21386, 3.94599]},
			"faces": {
				"north": {"uv": [11.16667, 0.6, 12.66667, 2.01667], "rotation": 270, "texture": "#0"},
				"east": {"uv": [11.16667, 0.6, 12.66667, 2.01667], "rotation": 270, "texture": "#0"},
				"south": {"uv": [11.16667, 0.6, 12.66667, 2.01667], "rotation": 270, "texture": "#0"},
				"west": {"uv": [11.16667, 0.6, 12.66667, 2.01667], "rotation": 270, "texture": "#0"},
				"up": {"uv": [11.16667, 0.6, 12.66667, 2.01667], "rotation": 270, "texture": "#0"},
				"down": {"uv": [11.16667, 0.6, 12.66667, 2.01667], "rotation": 270, "texture": "#0"}
			}
		},
		{
			"from": [4.93466, 4.85006, 3.91812],
			"to": [5.06534, 4.95006, 3.96812],
			"rotation": {"angle": 22.5, "axis": "x", "origin": [5, 4.90006, 3.94312]},
			"faces": {
				"north": {"uv": [11.16667, 0.6, 12.66667, 2.01667], "rotation": 270, "texture": "#0"},
				"east": {"uv": [11.16667, 0.6, 12.66667, 2.01667], "rotation": 270, "texture": "#0"},
				"south": {"uv": [11.16667, 0.6, 12.66667, 2.01667], "rotation": 270, "texture": "#0"},
				"west": {"uv": [11.16667, 0.6, 12.66667, 2.01667], "rotation": 270, "texture": "#0"},
				"up": {"uv": [11.16667, 0.6, 12.66667, 2.01667], "rotation": 270, "texture": "#0"},
				"down": {"uv": [11.16667, 0.6, 12.66667, 2.01667], "rotation": 270, "texture": "#0"}
			}
		},
		{
			"from": [4.93466, 4.77662, 3.86905],
			"to": [5.06534, 4.87662, 3.91905],
			"rotation": {"angle": 45, "axis": "x", "origin": [5, 4.82662, 3.89405]},
			"faces": {
				"north": {"uv": [11.16667, 0.6, 12.66667, 2.01667], "rotation": 270, "texture": "#0"},
				"east": {"uv": [11.16667, 0.6, 12.66667, 2.01667], "rotation": 270, "texture": "#0"},
				"south": {"uv": [11.16667, 0.6, 12.66667, 2.01667], "rotation": 270, "texture": "#0"},
				"west": {"uv": [11.16667, 0.6, 12.66667, 2.01667], "rotation": 270, "texture": "#0"},
				"up": {"uv": [11.16667, 0.6, 12.66667, 2.01667], "rotation": 270, "texture": "#0"},
				"down": {"uv": [11.16667, 0.6, 12.66667, 2.01667], "rotation": 270, "texture": "#0"}
			}
		},
		{
			"from": [4.93466, 5.13669, 3.93535],
			"to": [5.06534, 5.29669, 4.28535],
			"rotation": {"angle": 0, "axis": "x", "origin": [5, 5.21386, 3.94599]},
			"faces": {
				"north": {"uv": [11.16667, 0.6, 12.66667, 2.01667], "rotation": 270, "texture": "#0"},
				"east": {"uv": [11.16667, 0.6, 12.66667, 2.01667], "rotation": 270, "texture": "#0"},
				"south": {"uv": [11.16667, 0.6, 12.66667, 2.01667], "rotation": 270, "texture": "#0"},
				"west": {"uv": [11.16667, 0.6, 12.66667, 2.01667], "rotation": 270, "texture": "#0"},
				"up": {"uv": [11.16667, 0.6, 12.66667, 2.01667], "rotation": 270, "texture": "#0"},
				"down": {"uv": [11.16667, 0.6, 12.66667, 2.01667], "rotation": 270, "texture": "#0"}
			}
		},
		{
			"from": [4.64, 5.1422, 4.97],
			"to": [4.84, 5.2422, 5.12],
			"rotation": {"angle": -22.5, "axis": "z", "origin": [4.72, 5.1922, 5.045]},
			"faces": {
				"north": {"uv": [5.83333, 3.26667, 7.33333, 4.68333], "rotation": 270, "texture": "#0"},
				"east": {"uv": [5.83333, 3.26667, 7.33333, 4.68333], "rotation": 270, "texture": "#0"},
				"south": {"uv": [5.83333, 3.26667, 7.33333, 4.68333], "rotation": 270, "texture": "#0"},
				"west": {"uv": [5.83333, 3.26667, 7.33333, 4.68333], "rotation": 270, "texture": "#0"},
				"up": {"uv": [5.83333, 3.26667, 7.33333, 4.68333], "rotation": 270, "texture": "#0"},
				"down": {"uv": [5.83333, 3.26667, 7.33333, 4.68333], "rotation": 270, "texture": "#0"}
			}
		},
		{
			"from": [4.6767, 5.17666, 5.02],
			"to": [4.8767, 5.57666, 5.07],
			"rotation": {"angle": 0, "axis": "x", "origin": [4.74675, 5.32666, 5.045]},
			"faces": {
				"north": {"uv": [5.83333, 3.26667, 7.33333, 4.68333], "rotation": 270, "texture": "#0"},
				"east": {"uv": [5.83333, 3.26667, 7.33333, 4.68333], "rotation": 270, "texture": "#0"},
				"south": {"uv": [5.83333, 3.26667, 7.33333, 4.68333], "rotation": 270, "texture": "#0"},
				"west": {"uv": [5.83333, 3.26667, 7.33333, 4.68333], "rotation": 270, "texture": "#0"},
				"up": {"uv": [5.83333, 3.26667, 7.33333, 4.68333], "rotation": 270, "texture": "#0"},
				"down": {"uv": [5.83333, 3.26667, 7.33333, 4.68333], "rotation": 270, "texture": "#0"}
			}
		},
		{
			"from": [4.6687, 4.62219, 4.645],
			"to": [5.3313, 5.42219, 4.945],
			"rotation": {"angle": 0, "axis": "y", "origin": [5, 5.17219, 5.69496]},
			"faces": {
				"north": {"uv": [11.16667, 5.93333, 12.66667, 7.35], "rotation": 270, "texture": "#0"},
				"east": {"uv": [11.16667, 5.93333, 12.66667, 7.35], "rotation": 270, "texture": "#0"},
				"south": {"uv": [11.16667, 5.93333, 12.66667, 7.35], "rotation": 270, "texture": "#0"},
				"west": {"uv": [11.16667, 5.93333, 12.66667, 7.35], "rotation": 270, "texture": "#0"},
				"up": {"uv": [11.16667, 5.93333, 12.66667, 7.35], "rotation": 270, "texture": "#0"},
				"down": {"uv": [11.16667, 5.93333, 12.66667, 7.35], "rotation": 270, "texture": "#0"}
			}
		},
		{
			"from": [5.0687, 4.62219, 4.645],
			"to": [5.3313, 5.42219, 5.245],
			"rotation": {"angle": 0, "axis": "y", "origin": [5, 5.17219, 5.69496]},
			"faces": {
				"north": {"uv": [11.16667, 5.93333, 12.66667, 7.35], "rotation": 270, "texture": "#0"},
				"east": {"uv": [11.16667, 5.93333, 12.66667, 7.35], "rotation": 270, "texture": "#0"},
				"south": {"uv": [11.16667, 5.93333, 12.66667, 7.35], "rotation": 270, "texture": "#0"},
				"west": {"uv": [11.16667, 5.93333, 12.66667, 7.35], "rotation": 270, "texture": "#0"},
				"up": {"uv": [11.16667, 5.93333, 12.66667, 7.35], "rotation": 270, "texture": "#0"},
				"down": {"uv": [11.16667, 5.93333, 12.66667, 7.35], "rotation": 270, "texture": "#0"}
			}
		},
		{
			"from": [4.6687, 4.62219, 4.645],
			"to": [5.3313, 5.12219, 5.545],
			"rotation": {"angle": 0, "axis": "y", "origin": [5, 5.17219, 5.69496]},
			"faces": {
				"north": {"uv": [11.16667, 5.93333, 12.66667, 7.35], "rotation": 270, "texture": "#0"},
				"east": {"uv": [11.16667, 5.93333, 12.66667, 7.35], "rotation": 270, "texture": "#0"},
				"south": {"uv": [11.16667, 5.93333, 12.66667, 7.35], "rotation": 270, "texture": "#0"},
				"west": {"uv": [11.16667, 5.93333, 12.66667, 7.35], "rotation": 270, "texture": "#0"},
				"up": {"uv": [11.16667, 5.93333, 12.66667, 7.35], "rotation": 270, "texture": "#0"},
				"down": {"uv": [11.16667, 5.93333, 12.66667, 7.35], "rotation": 270, "texture": "#0"}
			}
		},
		{
			"from": [4.6687, 4.62219, 5.145],
			"to": [5.3313, 5.42219, 5.645],
			"rotation": {"angle": 0, "axis": "y", "origin": [5, 5.17219, 5.69496]},
			"faces": {
				"north": {"uv": [11.16667, 5.93333, 12.66667, 7.35], "rotation": 270, "texture": "#0"},
				"east": {"uv": [11.16667, 5.93333, 12.66667, 7.35], "rotation": 270, "texture": "#0"},
				"south": {"uv": [11.16667, 5.93333, 12.66667, 7.35], "rotation": 270, "texture": "#0"},
				"west": {"uv": [11.16667, 5.93333, 12.66667, 7.35], "rotation": 270, "texture": "#0"},
				"up": {"uv": [11.16667, 5.93333, 12.66667, 7.35], "rotation": 270, "texture": "#0"},
				"down": {"uv": [11.16667, 5.93333, 12.66667, 7.35], "rotation": 270, "texture": "#0"}
			}
		},
		{
			"from": [4.6687, 3.64398, 4.76001],
			"to": [5.3313, 4.84398, 5.76001],
			"rotation": {"angle": -22.5, "axis": "x", "origin": [5, 4.44398, 5.26001]},
			"faces": {
				"north": {"uv": [11.16667, 5.93333, 12.66667, 7.35], "rotation": 270, "texture": "#0"},
				"east": {"uv": [11.16667, 5.93333, 12.66667, 7.35], "rotation": 270, "texture": "#0"},
				"south": {"uv": [11.16667, 5.93333, 12.66667, 7.35], "rotation": 270, "texture": "#0"},
				"west": {"uv": [11.16667, 5.93333, 12.66667, 7.35], "rotation": 270, "texture": "#0"},
				"up": {"uv": [11.16667, 5.93333, 12.66667, 7.35], "rotation": 270, "texture": "#0"},
				"down": {"uv": [11.16667, 5.93333, 12.66667, 7.35], "rotation": 270, "texture": "#0"}
			}
		},
		{
			"from": [4.6687, 3.49622, 5.0281],
			"to": [5.3313, 3.89622, 6.0281],
			"rotation": {"angle": 0, "axis": "x", "origin": [5, 3.29622, 5.5281]},
			"faces": {
				"north": {"uv": [11.16667, 5.93333, 12.66667, 7.35], "rotation": 270, "texture": "#0"},
				"east": {"uv": [11.16667, 5.93333, 12.66667, 7.35], "rotation": 270, "texture": "#0"},
				"south": {"uv": [11.16667, 5.93333, 12.66667, 7.35], "rotation": 270, "texture": "#0"},
				"west": {"uv": [11.16667, 5.93333, 12.66667, 7.35], "rotation": 270, "texture": "#0"},
				"up": {"uv": [11.16667, 5.93333, 12.66667, 7.35], "rotation": 270, "texture": "#0"},
				"down": {"uv": [11.16667, 5.93333, 12.66667, 7.35], "rotation": 270, "texture": "#0"}
			}
		},
		{
			"from": [4.6687, 3.45576, 5.72875],
			"to": [5.3313, 3.55576, 6.02875],
			"rotation": {"angle": 22.5, "axis": "x", "origin": [4.98, 3.52764, 5.87875]},
			"faces": {
				"north": {"uv": [11.16667, 5.93333, 12.66667, 7.35], "texture": "#0"},
				"east": {"uv": [11.16667, 5.93333, 12.66667, 7.35], "texture": "#0"},
				"south": {"uv": [11.16667, 5.93333, 12.66667, 7.35], "texture": "#0"},
				"west": {"uv": [11.16667, 5.93333, 12.66667, 7.35], "texture": "#0"},
				"up": {"uv": [11.16667, 5.93333, 12.66667, 7.35], "texture": "#0"},
				"down": {"uv": [11.16667, 5.93333, 12.66667, 7.35], "texture": "#0"}
			}
		},
		{
			"from": [4.6687, 3.30098, 5.99672],
			"to": [5.3313, 3.40098, 6.29672],
			"rotation": {"angle": 45, "axis": "x", "origin": [4.98, 3.77285, 6.14672]},
			"faces": {
				"north": {"uv": [11.16667, 5.93333, 12.66667, 7.35], "texture": "#0"},
				"east": {"uv": [11.16667, 5.93333, 12.66667, 7.35], "texture": "#0"},
				"south": {"uv": [11.16667, 5.93333, 12.66667, 7.35], "texture": "#0"},
				"west": {"uv": [11.16667, 5.93333, 12.66667, 7.35], "texture": "#0"},
				"up": {"uv": [11.16667, 5.93333, 12.66667, 7.35], "texture": "#0"},
				"down": {"uv": [11.16667, 5.93333, 12.66667, 7.35], "texture": "#0"}
			}
		},
		{
			"from": [4.6687, 3.33312, 5.01912],
			"to": [5.3313, 3.73312, 5.91912],
			"rotation": {"angle": 0, "axis": "y", "origin": [4.98, 3.48312, 5.86912]},
			"faces": {
				"north": {"uv": [11.16667, 5.93333, 12.66667, 7.35], "rotation": 270, "texture": "#0"},
				"east": {"uv": [11.16667, 5.93333, 12.66667, 7.35], "rotation": 270, "texture": "#0"},
				"south": {"uv": [11.16667, 5.93333, 12.66667, 7.35], "rotation": 270, "texture": "#0"},
				"west": {"uv": [11.16667, 5.93333, 12.66667, 7.35], "rotation": 270, "texture": "#0"},
				"up": {"uv": [11.16667, 5.93333, 12.66667, 7.35], "rotation": 270, "texture": "#0"},
				"down": {"uv": [11.16667, 5.93333, 12.66667, 7.35], "rotation": 270, "texture": "#0"}
			}
		},
		{
			"from": [4.6587, 4.37963, 5.20328],
			"to": [5.3413, 4.61963, 5.30328],
			"rotation": {"angle": 0, "axis": "x", "origin": [5, 4.32963, 5.25328]},
			"faces": {
				"north": {"uv": [0.5, 3.26667, 2, 4.68333], "rotation": 270, "texture": "#0"},
				"east": {"uv": [0.5, 3.26667, 2, 4.68333], "rotation": 270, "texture": "#0"},
				"south": {"uv": [0.5, 3.26667, 2, 4.68333], "rotation": 270, "texture": "#0"},
				"west": {"uv": [0.5, 3.26667, 2, 4.68333], "rotation": 270, "texture": "#0"},
				"up": {"uv": [0.5, 3.26667, 2, 4.68333], "rotation": 270, "texture": "#0"},
				"down": {"uv": [0.5, 3.26667, 2, 4.68333], "rotation": 270, "texture": "#0"}
			}
		},
		{
			"from": [4.6587, 4.37963, 5.20328],
			"to": [5.3413, 4.61963, 5.30328],
			"rotation": {"angle": 45, "axis": "x", "origin": [5, 4.49963, 5.25328]},
			"faces": {
				"north": {"uv": [0.5, 3.26667, 2, 4.68333], "rotation": 270, "texture": "#0"},
				"east": {"uv": [0.5, 3.26667, 2, 4.68333], "rotation": 270, "texture": "#0"},
				"south": {"uv": [0.5, 3.26667, 2, 4.68333], "rotation": 270, "texture": "#0"},
				"west": {"uv": [0.5, 3.26667, 2, 4.68333], "rotation": 270, "texture": "#0"},
				"up": {"uv": [0.5, 3.26667, 2, 4.68333], "rotation": 270, "texture": "#0"},
				"down": {"uv": [0.5, 3.26667, 2, 4.68333], "rotation": 270, "texture": "#0"}
			}
		},
		{
			"from": [4.6587, 4.44963, 5.13328],
			"to": [5.3413, 4.54963, 5.37328],
			"rotation": {"angle": 0, "axis": "x", "origin": [5, 4.49963, 5.25328]},
			"faces": {
				"north": {"uv": [0.5, 3.26667, 2, 4.68333], "rotation": 180, "texture": "#0"},
				"east": {"uv": [0.5, 3.26667, 2, 4.68333], "rotation": 180, "texture": "#0"},
				"south": {"uv": [0.5, 3.26667, 2, 4.68333], "rotation": 180, "texture": "#0"},
				"west": {"uv": [0.5, 3.26667, 2, 4.68333], "rotation": 180, "texture": "#0"},
				"up": {"uv": [0.5, 3.26667, 2, 4.68333], "rotation": 180, "texture": "#0"},
				"down": {"uv": [0.5, 3.26667, 2, 4.68333], "rotation": 180, "texture": "#0"}
			}
		},
		{
			"from": [4.6587, 4.44963, 5.13328],
			"to": [5.3413, 4.54963, 5.37328],
			"rotation": {"angle": 45, "axis": "x", "origin": [5, 4.49963, 5.25328]},
			"faces": {
				"north": {"uv": [0.5, 3.26667, 2, 4.68333], "rotation": 180, "texture": "#0"},
				"east": {"uv": [0.5, 3.26667, 2, 4.68333], "rotation": 180, "texture": "#0"},
				"south": {"uv": [0.5, 3.26667, 2, 4.68333], "rotation": 180, "texture": "#0"},
				"west": {"uv": [0.5, 3.26667, 2, 4.68333], "rotation": 180, "texture": "#0"},
				"up": {"uv": [0.5, 3.26667, 2, 4.68333], "rotation": 180, "texture": "#0"},
				"down": {"uv": [0.5, 3.26667, 2, 4.68333], "rotation": 180, "texture": "#0"}
			}
		},
		{
			"from": [4.9406, 6.04789, 0.143],
			"to": [5.0594, 6.16669, 6.143],
			"rotation": {"angle": 0, "axis": "y", "origin": [4.69281, 5.99867, -12.52746]},
			"faces": {
				"north": {"uv": [11.16667, 0.6, 12.66667, 2.01667], "rotation": 270, "texture": "#0"},
				"east": {"uv": [11.16667, 0.6, 12.66667, 2.01667], "rotation": 270, "texture": "#0"},
				"south": {"uv": [11.16667, 0.6, 12.66667, 2.01667], "rotation": 270, "texture": "#0"},
				"west": {"uv": [11.16667, 0.6, 12.66667, 2.01667], "rotation": 270, "texture": "#0"},
				"up": {"uv": [11.16667, 0.6, 12.66667, 2.01667], "rotation": 270, "texture": "#0"},
				"down": {"uv": [11.16667, 0.6, 12.66667, 2.01667], "rotation": 270, "texture": "#0"}
			}
		},
		{
			"from": [5.02078, 6.03194, 0.143],
			"to": [5.13958, 6.15074, 6.143],
			"rotation": {"angle": -22.5, "axis": "z", "origin": [5.08018, 6.06164, 5.62993]},
			"faces": {
				"north": {"uv": [11.16667, 0.6, 12.66667, 2.01667], "rotation": 270, "texture": "#0"},
				"east": {"uv": [11.16667, 0.6, 12.66667, 2.01667], "rotation": 270, "texture": "#0"},
				"south": {"uv": [11.16667, 0.6, 12.66667, 2.01667], "rotation": 270, "texture": "#0"},
				"west": {"uv": [11.16667, 0.6, 12.66667, 2.01667], "rotation": 270, "texture": "#0"},
				"up": {"uv": [11.16667, 0.6, 12.66667, 2.01667], "rotation": 270, "texture": "#0"},
				"down": {"uv": [11.16667, 0.6, 12.66667, 2.01667], "rotation": 270, "texture": "#0"}
			}
		},
		{
			"from": [5.08991, 5.94812, 0.143],
			"to": [5.20871, 6.06692, 6.143],
			"rotation": {"angle": -45, "axis": "z", "origin": [5.19509, 5.99842, 5.62993]},
			"faces": {
				"north": {"uv": [11.16667, 0.6, 12.66667, 2.01667], "rotation": 270, "texture": "#0"},
				"east": {"uv": [11.16667, 0.6, 12.66667, 2.01667], "rotation": 270, "texture": "#0"},
				"south": {"uv": [11.16667, 0.6, 12.66667, 2.01667], "rotation": 270, "texture": "#0"},
				"west": {"uv": [11.16667, 0.6, 12.66667, 2.01667], "rotation": 270, "texture": "#0"},
				"up": {"uv": [11.16667, 0.6, 12.66667, 2.01667], "rotation": 270, "texture": "#0"},
				"down": {"uv": [11.16667, 0.6, 12.66667, 2.01667], "rotation": 270, "texture": "#0"}
			}
		},
		{
			"from": [5.14479, 5.89324, 0.143],
			"to": [5.26359, 6.01204, 6.143],
			"rotation": {"angle": 22.5, "axis": "z", "origin": [5.19509, 5.99842, 5.62993]},
			"faces": {
				"north": {"uv": [11.16667, 0.6, 12.66667, 2.01667], "rotation": 180, "texture": "#0"},
				"east": {"uv": [11.16667, 0.6, 12.66667, 2.01667], "rotation": 180, "texture": "#0"},
				"south": {"uv": [11.16667, 0.6, 12.66667, 2.01667], "rotation": 180, "texture": "#0"},
				"west": {"uv": [11.16667, 0.6, 12.66667, 2.01667], "rotation": 180, "texture": "#0"},
				"up": {"uv": [11.16667, 0.6, 12.66667, 2.01667], "rotation": 180, "texture": "#0"},
				"down": {"uv": [11.16667, 0.6, 12.66667, 2.01667], "rotation": 180, "texture": "#0"}
			}
		},
		{
			"from": [5.17982, 5.80867, 0.143],
			"to": [5.29862, 5.92747, 6.143],
			"rotation": {"angle": 0, "axis": "y", "origin": [5.18024, 5.74764, 5.62993]},
			"faces": {
				"north": {"uv": [11.16667, 0.6, 12.66667, 2.01667], "rotation": 180, "texture": "#0"},
				"east": {"uv": [11.16667, 0.6, 12.66667, 2.01667], "rotation": 180, "texture": "#0"},
				"south": {"uv": [11.16667, 0.6, 12.66667, 2.01667], "rotation": 180, "texture": "#0"},
				"west": {"uv": [11.16667, 0.6, 12.66667, 2.01667], "rotation": 180, "texture": "#0"},
				"up": {"uv": [11.16667, 0.6, 12.66667, 2.01667], "rotation": 180, "texture": "#0"},
				"down": {"uv": [11.16667, 0.6, 12.66667, 2.01667], "rotation": 180, "texture": "#0"}
			}
		},
		{
			"from": [5.14746, 5.73053, 0.143],
			"to": [5.26626, 5.84933, 6.143],
			"rotation": {"angle": -22.5, "axis": "z", "origin": [5.18024, 5.74764, 5.62993]},
			"faces": {
				"north": {"uv": [11.16667, 0.6, 12.66667, 2.01667], "rotation": 180, "texture": "#0"},
				"east": {"uv": [11.16667, 0.6, 12.66667, 2.01667], "rotation": 180, "texture": "#0"},
				"south": {"uv": [11.16667, 0.6, 12.66667, 2.01667], "rotation": 180, "texture": "#0"},
				"west": {"uv": [11.16667, 0.6, 12.66667, 2.01667], "rotation": 180, "texture": "#0"},
				"up": {"uv": [11.16667, 0.6, 12.66667, 2.01667], "rotation": 180, "texture": "#0"},
				"down": {"uv": [11.16667, 0.6, 12.66667, 2.01667], "rotation": 180, "texture": "#0"}
			}
		},
		{
			"from": [5.14746, 5.64595, 0.143],
			"to": [5.26626, 5.76475, 6.143],
			"rotation": {"angle": -45, "axis": "z", "origin": [5.18024, 5.74764, 5.62993]},
			"faces": {
				"north": {"uv": [11.16667, 0.6, 12.66667, 2.01667], "rotation": 180, "texture": "#0"},
				"east": {"uv": [11.16667, 0.6, 12.66667, 2.01667], "rotation": 180, "texture": "#0"},
				"south": {"uv": [11.16667, 0.6, 12.66667, 2.01667], "rotation": 180, "texture": "#0"},
				"west": {"uv": [11.16667, 0.6, 12.66667, 2.01667], "rotation": 180, "texture": "#0"},
				"up": {"uv": [11.16667, 0.6, 12.66667, 2.01667], "rotation": 180, "texture": "#0"},
				"down": {"uv": [11.16667, 0.6, 12.66667, 2.01667], "rotation": 180, "texture": "#0"}
			}
		},
		{
			"from": [5.00041, 5.62925, 0.143],
			"to": [5.11921, 5.74805, 6.143],
			"rotation": {"angle": 22.5, "axis": "z", "origin": [5.18024, 5.74764, 5.62993]},
			"faces": {
				"north": {"uv": [11.16667, 0.6, 12.66667, 2.01667], "rotation": 90, "texture": "#0"},
				"east": {"uv": [11.16667, 0.6, 12.66667, 2.01667], "rotation": 90, "texture": "#0"},
				"south": {"uv": [11.16667, 0.6, 12.66667, 2.01667], "rotation": 90, "texture": "#0"},
				"west": {"uv": [11.16667, 0.6, 12.66667, 2.01667], "rotation": 90, "texture": "#0"},
				"up": {"uv": [11.16667, 0.6, 12.66667, 2.01667], "rotation": 90, "texture": "#0"},
				"down": {"uv": [11.16667, 0.6, 12.66667, 2.01667], "rotation": 90, "texture": "#0"}
			}
		},
		{
			"from": [4.9406, 5.56944, 0.143],
			"to": [5.0594, 5.68824, 6.143],
			"rotation": {"angle": 0, "axis": "y", "origin": [4.84967, 5.83816, 5.62993]},
			"faces": {
				"north": {"uv": [11.16667, 0.6, 12.66667, 2.01667], "rotation": 90, "texture": "#0"},
				"east": {"uv": [11.16667, 0.6, 12.66667, 2.01667], "rotation": 90, "texture": "#0"},
				"south": {"uv": [11.16667, 0.6, 12.66667, 2.01667], "rotation": 90, "texture": "#0"},
				"west": {"uv": [11.16667, 0.6, 12.66667, 2.01667], "rotation": 90, "texture": "#0"},
				"up": {"uv": [11.16667, 0.6, 12.66667, 2.01667], "rotation": 90, "texture": "#0"},
				"down": {"uv": [11.16667, 0.6, 12.66667, 2.01667], "rotation": 90, "texture": "#0"}
			}
		},
		{
			"from": [4.91771, 5.6247, 0.143],
			"to": [5.03651, 5.7435, 6.143],
			"rotation": {"angle": -22.5, "axis": "z", "origin": [4.84967, 5.83816, 5.62993]},
			"faces": {
				"north": {"uv": [11.16667, 0.6, 12.66667, 2.01667], "rotation": 90, "texture": "#0"},
				"east": {"uv": [11.16667, 0.6, 12.66667, 2.01667], "rotation": 90, "texture": "#0"},
				"south": {"uv": [11.16667, 0.6, 12.66667, 2.01667], "rotation": 90, "texture": "#0"},
				"west": {"uv": [11.16667, 0.6, 12.66667, 2.01667], "rotation": 90, "texture": "#0"},
				"up": {"uv": [11.16667, 0.6, 12.66667, 2.01667], "rotation": 90, "texture": "#0"},
				"down": {"uv": [11.16667, 0.6, 12.66667, 2.01667], "rotation": 90, "texture": "#0"}
			}
		},
		{
			"from": [4.87542, 5.66698, 0.143],
			"to": [4.99422, 5.78578, 6.143],
			"rotation": {"angle": -45, "axis": "z", "origin": [4.84967, 5.83816, 5.62993]},
			"faces": {
				"north": {"uv": [11.16667, 0.6, 12.66667, 2.01667], "rotation": 90, "texture": "#0"},
				"east": {"uv": [11.16667, 0.6, 12.66667, 2.01667], "rotation": 90, "texture": "#0"},
				"south": {"uv": [11.16667, 0.6, 12.66667, 2.01667], "rotation": 90, "texture": "#0"},
				"west": {"uv": [11.16667, 0.6, 12.66667, 2.01667], "rotation": 90, "texture": "#0"},
				"up": {"uv": [11.16667, 0.6, 12.66667, 2.01667], "rotation": 90, "texture": "#0"},
				"down": {"uv": [11.16667, 0.6, 12.66667, 2.01667], "rotation": 90, "texture": "#0"}
			}
		},
		{
			"from": [4.70138, 5.74886, 0.143],
			"to": [4.82018, 5.86766, 6.143],
			"rotation": {"angle": 22.5, "axis": "z", "origin": [4.84967, 5.83816, 5.62993]},
			"faces": {
				"north": {"uv": [11.16667, 0.6, 12.66667, 2.01667], "texture": "#0"},
				"east": {"uv": [11.16667, 0.6, 12.66667, 2.01667], "texture": "#0"},
				"south": {"uv": [11.16667, 0.6, 12.66667, 2.01667], "texture": "#0"},
				"west": {"uv": [11.16667, 0.6, 12.66667, 2.01667], "texture": "#0"},
				"up": {"uv": [11.16667, 0.6, 12.66667, 2.01667], "texture": "#0"},
				"down": {"uv": [11.16667, 0.6, 12.66667, 2.01667], "texture": "#0"}
			}
		},
		{
			"from": [4.70138, 5.80867, 0.143],
			"to": [4.82018, 5.92747, 6.143],
			"rotation": {"angle": 0, "axis": "y", "origin": [4.84967, 5.83816, 5.62993]},
			"faces": {
				"north": {"uv": [11.16667, 0.6, 12.66667, 2.01667], "texture": "#0"},
				"east": {"uv": [11.16667, 0.6, 12.66667, 2.01667], "texture": "#0"},
				"south": {"uv": [11.16667, 0.6, 12.66667, 2.01667], "texture": "#0"},
				"west": {"uv": [11.16667, 0.6, 12.66667, 2.01667], "texture": "#0"},
				"up": {"uv": [11.16667, 0.6, 12.66667, 2.01667], "texture": "#0"},
				"down": {"uv": [11.16667, 0.6, 12.66667, 2.01667], "texture": "#0"}
			}
		},
		{
			"from": [4.67849, 5.86392, 0.143],
			"to": [4.79729, 5.98272, 6.143],
			"rotation": {"angle": -22.5, "axis": "z", "origin": [4.84967, 5.83816, 5.62993]},
			"faces": {
				"north": {"uv": [11.16667, 0.6, 12.66667, 2.01667], "texture": "#0"},
				"east": {"uv": [11.16667, 0.6, 12.66667, 2.01667], "texture": "#0"},
				"south": {"uv": [11.16667, 0.6, 12.66667, 2.01667], "texture": "#0"},
				"west": {"uv": [11.16667, 0.6, 12.66667, 2.01667], "texture": "#0"},
				"up": {"uv": [11.16667, 0.6, 12.66667, 2.01667], "texture": "#0"},
				"down": {"uv": [11.16667, 0.6, 12.66667, 2.01667], "texture": "#0"}
			}
		},
		{
			"from": [4.6362, 5.90621, 0.143],
			"to": [4.755, 6.02501, 6.143],
			"rotation": {"angle": -45, "axis": "z", "origin": [4.84967, 5.83816, 5.62993]},
			"faces": {
				"north": {"uv": [11.16667, 0.6, 12.66667, 2.01667], "texture": "#0"},
				"east": {"uv": [11.16667, 0.6, 12.66667, 2.01667], "texture": "#0"},
				"south": {"uv": [11.16667, 0.6, 12.66667, 2.01667], "texture": "#0"},
				"west": {"uv": [11.16667, 0.6, 12.66667, 2.01667], "texture": "#0"},
				"up": {"uv": [11.16667, 0.6, 12.66667, 2.01667], "texture": "#0"},
				"down": {"uv": [11.16667, 0.6, 12.66667, 2.01667], "texture": "#0"}
			}
		},
		{
			"from": [4.9406, 5.98808, 0.143],
			"to": [5.0594, 6.10688, 6.143],
			"rotation": {"angle": 22.5, "axis": "z", "origin": [4.84967, 5.83816, 5.62993]},
			"faces": {
				"north": {"uv": [11.16667, 0.6, 12.66667, 2.01667], "rotation": 270, "texture": "#0"},
				"east": {"uv": [11.16667, 0.6, 12.66667, 2.01667], "rotation": 270, "texture": "#0"},
				"south": {"uv": [11.16667, 0.6, 12.66667, 2.01667], "rotation": 270, "texture": "#0"},
				"west": {"uv": [11.16667, 0.6, 12.66667, 2.01667], "rotation": 270, "texture": "#0"},
				"up": {"uv": [11.16667, 0.6, 12.66667, 2.01667], "rotation": 270, "texture": "#0"},
				"down": {"uv": [11.16667, 0.6, 12.66667, 2.01667], "rotation": 270, "texture": "#0"}
			}
		},
		{
			"from": [4.93466, 6.06587, 3.193],
			"to": [5.06534, 6.19655, 4.193],
			"rotation": {"angle": 0, "axis": "y", "origin": [4.6621, 6.01173, -14.14451]},
			"faces": {
				"north": {"uv": [11.16667, 0.6, 12.66667, 2.01667], "rotation": 270, "texture": "#0"},
				"east": {"uv": [11.16667, 0.6, 12.66667, 2.01667], "rotation": 270, "texture": "#0"},
				"south": {"uv": [11.16667, 0.6, 12.66667, 2.01667], "rotation": 270, "texture": "#0"},
				"west": {"uv": [11.16667, 0.6, 12.66667, 2.01667], "rotation": 270, "texture": "#0"},
				"up": {"uv": [11.16667, 0.6, 12.66667, 2.01667], "rotation": 270, "texture": "#0"},
				"down": {"uv": [11.16667, 0.6, 12.66667, 2.01667], "rotation": 270, "texture": "#0"}
			}
		},
		{
			"from": [5.02286, 6.04833, 3.193],
			"to": [5.15354, 6.17901, 4.193],
			"rotation": {"angle": -22.5, "axis": "z", "origin": [5.0882, 6.081, 5.82862]},
			"faces": {
				"north": {"uv": [11.16667, 0.6, 12.66667, 2.01667], "rotation": 270, "texture": "#0"},
				"east": {"uv": [11.16667, 0.6, 12.66667, 2.01667], "rotation": 270, "texture": "#0"},
				"south": {"uv": [11.16667, 0.6, 12.66667, 2.01667], "rotation": 270, "texture": "#0"},
				"west": {"uv": [11.16667, 0.6, 12.66667, 2.01667], "rotation": 270, "texture": "#0"},
				"up": {"uv": [11.16667, 0.6, 12.66667, 2.01667], "rotation": 270, "texture": "#0"},
				"down": {"uv": [11.16667, 0.6, 12.66667, 2.01667], "rotation": 270, "texture": "#0"}
			}
		},
		{
			"from": [5.0989, 5.95613, 3.193],
			"to": [5.22958, 6.08681, 4.193],
			"rotation": {"angle": -45, "axis": "z", "origin": [5.21459, 6.01145, 5.82862]},
			"faces": {
				"north": {"uv": [11.16667, 0.6, 12.66667, 2.01667], "rotation": 270, "texture": "#0"},
				"east": {"uv": [11.16667, 0.6, 12.66667, 2.01667], "rotation": 270, "texture": "#0"},
				"south": {"uv": [11.16667, 0.6, 12.66667, 2.01667], "rotation": 270, "texture": "#0"},
				"west": {"uv": [11.16667, 0.6, 12.66667, 2.01667], "rotation": 270, "texture": "#0"},
				"up": {"uv": [11.16667, 0.6, 12.66667, 2.01667], "rotation": 270, "texture": "#0"},
				"down": {"uv": [11.16667, 0.6, 12.66667, 2.01667], "rotation": 270, "texture": "#0"}
			}
		},
		{
			"from": [5.15927, 5.89576, 3.193],
			"to": [5.28995, 6.02644, 4.193],
			"rotation": {"angle": 22.5, "axis": "z", "origin": [5.21459, 6.01145, 5.82862]},
			"faces": {
				"north": {"uv": [11.16667, 0.6, 12.66667, 2.01667], "rotation": 180, "texture": "#0"},
				"east": {"uv": [11.16667, 0.6, 12.66667, 2.01667], "rotation": 180, "texture": "#0"},
				"south": {"uv": [11.16667, 0.6, 12.66667, 2.01667], "rotation": 180, "texture": "#0"},
				"west": {"uv": [11.16667, 0.6, 12.66667, 2.01667], "rotation": 180, "texture": "#0"},
				"up": {"uv": [11.16667, 0.6, 12.66667, 2.01667], "rotation": 180, "texture": "#0"},
				"down": {"uv": [11.16667, 0.6, 12.66667, 2.01667], "rotation": 180, "texture": "#0"}
			}
		},
		{
			"from": [5.19781, 5.80273, 3.193],
			"to": [5.32849, 5.93341, 4.193],
			"rotation": {"angle": 0, "axis": "y", "origin": [5.19826, 5.73559, 5.82862]},
			"faces": {
				"north": {"uv": [11.16667, 0.6, 12.66667, 2.01667], "rotation": 180, "texture": "#0"},
				"east": {"uv": [11.16667, 0.6, 12.66667, 2.01667], "rotation": 180, "texture": "#0"},
				"south": {"uv": [11.16667, 0.6, 12.66667, 2.01667], "rotation": 180, "texture": "#0"},
				"west": {"uv": [11.16667, 0.6, 12.66667, 2.01667], "rotation": 180, "texture": "#0"},
				"up": {"uv": [11.16667, 0.6, 12.66667, 2.01667], "rotation": 180, "texture": "#0"},
				"down": {"uv": [11.16667, 0.6, 12.66667, 2.01667], "rotation": 180, "texture": "#0"}
			}
		},
		{
			"from": [5.1622, 5.71677, 3.193],
			"to": [5.29288, 5.84745, 4.193],
			"rotation": {"angle": -22.5, "axis": "z", "origin": [5.19826, 5.73559, 5.82862]},
			"faces": {
				"north": {"uv": [11.16667, 0.6, 12.66667, 2.01667], "rotation": 180, "texture": "#0"},
				"east": {"uv": [11.16667, 0.6, 12.66667, 2.01667], "rotation": 180, "texture": "#0"},
				"south": {"uv": [11.16667, 0.6, 12.66667, 2.01667], "rotation": 180, "texture": "#0"},
				"west": {"uv": [11.16667, 0.6, 12.66667, 2.01667], "rotation": 180, "texture": "#0"},
				"up": {"uv": [11.16667, 0.6, 12.66667, 2.01667], "rotation": 180, "texture": "#0"},
				"down": {"uv": [11.16667, 0.6, 12.66667, 2.01667], "rotation": 180, "texture": "#0"}
			}
		},
		{
			"from": [5.1622, 5.62373, 3.193],
			"to": [5.29288, 5.75441, 4.193],
			"rotation": {"angle": -45, "axis": "z", "origin": [5.19826, 5.73559, 5.82862]},
			"faces": {
				"north": {"uv": [11.16667, 0.6, 12.66667, 2.01667], "rotation": 180, "texture": "#0"},
				"east": {"uv": [11.16667, 0.6, 12.66667, 2.01667], "rotation": 180, "texture": "#0"},
				"south": {"uv": [11.16667, 0.6, 12.66667, 2.01667], "rotation": 180, "texture": "#0"},
				"west": {"uv": [11.16667, 0.6, 12.66667, 2.01667], "rotation": 180, "texture": "#0"},
				"up": {"uv": [11.16667, 0.6, 12.66667, 2.01667], "rotation": 180, "texture": "#0"},
				"down": {"uv": [11.16667, 0.6, 12.66667, 2.01667], "rotation": 180, "texture": "#0"}
			}
		},
		{
			"from": [5.00045, 5.60537, 3.193],
			"to": [5.13113, 5.73605, 4.193],
			"rotation": {"angle": 22.5, "axis": "z", "origin": [5.19826, 5.73559, 5.82862]},
			"faces": {
				"north": {"uv": [11.16667, 0.6, 12.66667, 2.01667], "rotation": 90, "texture": "#0"},
				"east": {"uv": [11.16667, 0.6, 12.66667, 2.01667], "rotation": 90, "texture": "#0"},
				"south": {"uv": [11.16667, 0.6, 12.66667, 2.01667], "rotation": 90, "texture": "#0"},
				"west": {"uv": [11.16667, 0.6, 12.66667, 2.01667], "rotation": 90, "texture": "#0"},
				"up": {"uv": [11.16667, 0.6, 12.66667, 2.01667], "rotation": 90, "texture": "#0"},
				"down": {"uv": [11.16667, 0.6, 12.66667, 2.01667], "rotation": 90, "texture": "#0"}
			}
		},
		{
			"from": [4.73466, 5.26, 3.193],
			"to": [5.26534, 5.79068, 4.193],
			"rotation": {"angle": 0, "axis": "y", "origin": [4.83463, 5.83517, 5.82862]},
			"faces": {
				"north": {"uv": [11.16667, 0.6, 12.66667, 2.01667], "rotation": 90, "texture": "#0"},
				"east": {"uv": [11.16667, 0.6, 12.66667, 2.01667], "rotation": 90, "texture": "#0"},
				"south": {"uv": [11.16667, 0.6, 12.66667, 2.01667], "rotation": 90, "texture": "#0"},
				"west": {"uv": [11.16667, 0.6, 12.66667, 2.01667], "rotation": 90, "texture": "#0"},
				"up": {"uv": [11.16667, 0.6, 12.66667, 2.01667], "rotation": 90, "texture": "#0"},
				"down": {"uv": [11.16667, 0.6, 12.66667, 2.01667], "rotation": 90, "texture": "#0"}
			}
		},
		{
			"from": [4.90948, 5.60036, 3.193],
			"to": [5.04016, 5.73104, 4.193],
			"rotation": {"angle": -22.5, "axis": "z", "origin": [4.83463, 5.83517, 5.82862]},
			"faces": {
				"north": {"uv": [11.16667, 0.6, 12.66667, 2.01667], "rotation": 90, "texture": "#0"},
				"east": {"uv": [11.16667, 0.6, 12.66667, 2.01667], "rotation": 90, "texture": "#0"},
				"south": {"uv": [11.16667, 0.6, 12.66667, 2.01667], "rotation": 90, "texture": "#0"},
				"west": {"uv": [11.16667, 0.6, 12.66667, 2.01667], "rotation": 90, "texture": "#0"},
				"up": {"uv": [11.16667, 0.6, 12.66667, 2.01667], "rotation": 90, "texture": "#0"},
				"down": {"uv": [11.16667, 0.6, 12.66667, 2.01667], "rotation": 90, "texture": "#0"}
			}
		},
		{
			"from": [4.86297, 5.64688, 3.193],
			"to": [4.99365, 5.77756, 4.193],
			"rotation": {"angle": -45, "axis": "z", "origin": [4.83463, 5.83517, 5.82862]},
			"faces": {
				"north": {"uv": [11.16667, 0.6, 12.66667, 2.01667], "rotation": 90, "texture": "#0"},
				"east": {"uv": [11.16667, 0.6, 12.66667, 2.01667], "rotation": 90, "texture": "#0"},
				"south": {"uv": [11.16667, 0.6, 12.66667, 2.01667], "rotation": 90, "texture": "#0"},
				"west": {"uv": [11.16667, 0.6, 12.66667, 2.01667], "rotation": 90, "texture": "#0"},
				"up": {"uv": [11.16667, 0.6, 12.66667, 2.01667], "rotation": 90, "texture": "#0"},
				"down": {"uv": [11.16667, 0.6, 12.66667, 2.01667], "rotation": 90, "texture": "#0"}
			}
		},
		{
			"from": [4.67151, 5.73694, 3.193],
			"to": [4.80219, 5.86762, 4.193],
			"rotation": {"angle": 22.5, "axis": "z", "origin": [4.83463, 5.83517, 5.82862]},
			"faces": {
				"north": {"uv": [11.16667, 0.6, 12.66667, 2.01667], "texture": "#0"},
				"east": {"uv": [11.16667, 0.6, 12.66667, 2.01667], "texture": "#0"},
				"south": {"uv": [11.16667, 0.6, 12.66667, 2.01667], "texture": "#0"},
				"west": {"uv": [11.16667, 0.6, 12.66667, 2.01667], "texture": "#0"},
				"up": {"uv": [11.16667, 0.6, 12.66667, 2.01667], "texture": "#0"},
				"down": {"uv": [11.16667, 0.6, 12.66667, 2.01667], "texture": "#0"}
			}
		},
		{
			"from": [4.67151, 5.80273, 3.193],
			"to": [4.80219, 5.93341, 4.193],
			"rotation": {"angle": 0, "axis": "y", "origin": [4.83463, 5.83517, 5.82862]},
			"faces": {
				"north": {"uv": [11.16667, 0.6, 12.66667, 2.01667], "texture": "#0"},
				"east": {"uv": [11.16667, 0.6, 12.66667, 2.01667], "texture": "#0"},
				"south": {"uv": [11.16667, 0.6, 12.66667, 2.01667], "texture": "#0"},
				"west": {"uv": [11.16667, 0.6, 12.66667, 2.01667], "texture": "#0"},
				"up": {"uv": [11.16667, 0.6, 12.66667, 2.01667], "texture": "#0"},
				"down": {"uv": [11.16667, 0.6, 12.66667, 2.01667], "texture": "#0"}
			}
		},
		{
			"from": [4.64634, 5.8635, 3.193],
			"to": [4.77702, 5.99418, 4.193],
			"rotation": {"angle": -22.5, "axis": "z", "origin": [4.83463, 5.83517, 5.82862]},
			"faces": {
				"north": {"uv": [11.16667, 0.6, 12.66667, 2.01667], "texture": "#0"},
				"east": {"uv": [11.16667, 0.6, 12.66667, 2.01667], "texture": "#0"},
				"south": {"uv": [11.16667, 0.6, 12.66667, 2.01667], "texture": "#0"},
				"west": {"uv": [11.16667, 0.6, 12.66667, 2.01667], "texture": "#0"},
				"up": {"uv": [11.16667, 0.6, 12.66667, 2.01667], "texture": "#0"},
				"down": {"uv": [11.16667, 0.6, 12.66667, 2.01667], "texture": "#0"}
			}
		},
		{
			"from": [4.59982, 5.91002, 3.193],
			"to": [4.7305, 6.0407, 4.193],
			"rotation": {"angle": -45, "axis": "z", "origin": [4.83463, 5.83517, 5.82862]},
			"faces": {
				"north": {"uv": [11.16667, 0.6, 12.66667, 2.01667], "texture": "#0"},
				"east": {"uv": [11.16667, 0.6, 12.66667, 2.01667], "texture": "#0"},
				"south": {"uv": [11.16667, 0.6, 12.66667, 2.01667], "texture": "#0"},
				"west": {"uv": [11.16667, 0.6, 12.66667, 2.01667], "texture": "#0"},
				"up": {"uv": [11.16667, 0.6, 12.66667, 2.01667], "texture": "#0"},
				"down": {"uv": [11.16667, 0.6, 12.66667, 2.01667], "texture": "#0"}
			}
		},
		{
			"from": [4.93466, 6.00009, 3.193],
			"to": [5.06534, 6.13077, 4.193],
			"rotation": {"angle": 22.5, "axis": "z", "origin": [4.83463, 5.83517, 5.82862]},
			"faces": {
				"north": {"uv": [11.16667, 0.6, 12.66667, 2.01667], "rotation": 270, "texture": "#0"},
				"east": {"uv": [11.16667, 0.6, 12.66667, 2.01667], "rotation": 270, "texture": "#0"},
				"south": {"uv": [11.16667, 0.6, 12.66667, 2.01667], "rotation": 270, "texture": "#0"},
				"west": {"uv": [11.16667, 0.6, 12.66667, 2.01667], "rotation": 270, "texture": "#0"},
				"up": {"uv": [11.16667, 0.6, 12.66667, 2.01667], "rotation": 270, "texture": "#0"},
				"down": {"uv": [11.16667, 0.6, 12.66667, 2.01667], "rotation": 270, "texture": "#0"}
			}
		},
		{
			"from": [4.92813, 6.0839, 3.668],
			"to": [5.07187, 6.22765, 4.188],
			"rotation": {"angle": 0, "axis": "y", "origin": [4.62831, 6.02434, -15.95326]},
			"faces": {
				"north": {"uv": [11.16667, 0.6, 12.66667, 2.01667], "rotation": 270, "texture": "#0"},
				"east": {"uv": [11.16667, 0.6, 12.66667, 2.01667], "rotation": 270, "texture": "#0"},
				"south": {"uv": [11.16667, 0.6, 12.66667, 2.01667], "rotation": 270, "texture": "#0"},
				"west": {"uv": [11.16667, 0.6, 12.66667, 2.01667], "rotation": 270, "texture": "#0"},
				"up": {"uv": [11.16667, 0.6, 12.66667, 2.01667], "rotation": 270, "texture": "#0"},
				"down": {"uv": [11.16667, 0.6, 12.66667, 2.01667], "rotation": 270, "texture": "#0"}
			}
		},
		{
			"from": [5.02515, 6.0646, 3.668],
			"to": [5.16889, 6.20835, 4.188],
			"rotation": {"angle": -22.5, "axis": "z", "origin": [5.09702, 6.10054, 6.01718]},
			"faces": {
				"north": {"uv": [11.16667, 0.6, 12.66667, 2.01667], "rotation": 270, "texture": "#0"},
				"east": {"uv": [11.16667, 0.6, 12.66667, 2.01667], "rotation": 270, "texture": "#0"},
				"south": {"uv": [11.16667, 0.6, 12.66667, 2.01667], "rotation": 270, "texture": "#0"},
				"west": {"uv": [11.16667, 0.6, 12.66667, 2.01667], "rotation": 270, "texture": "#0"},
				"up": {"uv": [11.16667, 0.6, 12.66667, 2.01667], "rotation": 270, "texture": "#0"},
				"down": {"uv": [11.16667, 0.6, 12.66667, 2.01667], "rotation": 270, "texture": "#0"}
			}
		},
		{
			"from": [5.10879, 5.96318, 3.668],
			"to": [5.25254, 6.10693, 4.188],
			"rotation": {"angle": -45, "axis": "z", "origin": [5.23605, 6.02404, 6.01718]},
			"faces": {
				"north": {"uv": [11.16667, 0.6, 12.66667, 2.01667], "rotation": 270, "texture": "#0"},
				"east": {"uv": [11.16667, 0.6, 12.66667, 2.01667], "rotation": 270, "texture": "#0"},
				"south": {"uv": [11.16667, 0.6, 12.66667, 2.01667], "rotation": 270, "texture": "#0"},
				"west": {"uv": [11.16667, 0.6, 12.66667, 2.01667], "rotation": 270, "texture": "#0"},
				"up": {"uv": [11.16667, 0.6, 12.66667, 2.01667], "rotation": 270, "texture": "#0"},
				"down": {"uv": [11.16667, 0.6, 12.66667, 2.01667], "rotation": 270, "texture": "#0"}
			}
		},
		{
			"from": [5.1752, 5.89678, 3.668],
			"to": [5.31894, 6.04053, 4.188],
			"rotation": {"angle": 22.5, "axis": "z", "origin": [5.23605, 6.02404, 6.01718]},
			"faces": {
				"north": {"uv": [11.16667, 0.6, 12.66667, 2.01667], "rotation": 180, "texture": "#0"},
				"east": {"uv": [11.16667, 0.6, 12.66667, 2.01667], "rotation": 180, "texture": "#0"},
				"south": {"uv": [11.16667, 0.6, 12.66667, 2.01667], "rotation": 180, "texture": "#0"},
				"west": {"uv": [11.16667, 0.6, 12.66667, 2.01667], "rotation": 180, "texture": "#0"},
				"up": {"uv": [11.16667, 0.6, 12.66667, 2.01667], "rotation": 180, "texture": "#0"},
				"down": {"uv": [11.16667, 0.6, 12.66667, 2.01667], "rotation": 180, "texture": "#0"}
			}
		},
		{
			"from": [5.21759, 5.79444, 3.668],
			"to": [5.36134, 5.93819, 4.188],
			"rotation": {"angle": 0, "axis": "y", "origin": [5.21808, 5.72059, 6.01718]},
			"faces": {
				"north": {"uv": [11.16667, 0.6, 12.66667, 2.01667], "rotation": 180, "texture": "#0"},
				"east": {"uv": [11.16667, 0.6, 12.66667, 2.01667], "rotation": 180, "texture": "#0"},
				"south": {"uv": [11.16667, 0.6, 12.66667, 2.01667], "rotation": 180, "texture": "#0"},
				"west": {"uv": [11.16667, 0.6, 12.66667, 2.01667], "rotation": 180, "texture": "#0"},
				"up": {"uv": [11.16667, 0.6, 12.66667, 2.01667], "rotation": 180, "texture": "#0"},
				"down": {"uv": [11.16667, 0.6, 12.66667, 2.01667], "rotation": 180, "texture": "#0"}
			}
		},
		{
			"from": [5.17842, 5.69989, 3.668],
			"to": [5.32217, 5.84364, 4.188],
			"rotation": {"angle": -22.5, "axis": "z", "origin": [5.21808, 5.72059, 6.01718]},
			"faces": {
				"north": {"uv": [11.16667, 0.6, 12.66667, 2.01667], "rotation": 180, "texture": "#0"},
				"east": {"uv": [11.16667, 0.6, 12.66667, 2.01667], "rotation": 180, "texture": "#0"},
				"south": {"uv": [11.16667, 0.6, 12.66667, 2.01667], "rotation": 180, "texture": "#0"},
				"west": {"uv": [11.16667, 0.6, 12.66667, 2.01667], "rotation": 180, "texture": "#0"},
				"up": {"uv": [11.16667, 0.6, 12.66667, 2.01667], "rotation": 180, "texture": "#0"},
				"down": {"uv": [11.16667, 0.6, 12.66667, 2.01667], "rotation": 180, "texture": "#0"}
			}
		},
		{
			"from": [5.17842, 5.59755, 3.668],
			"to": [5.32217, 5.7413, 4.188],
			"rotation": {"angle": -45, "axis": "z", "origin": [5.21808, 5.72059, 6.01718]},
			"faces": {
				"north": {"uv": [11.16667, 0.6, 12.66667, 2.01667], "rotation": 180, "texture": "#0"},
				"east": {"uv": [11.16667, 0.6, 12.66667, 2.01667], "rotation": 180, "texture": "#0"},
				"south": {"uv": [11.16667, 0.6, 12.66667, 2.01667], "rotation": 180, "texture": "#0"},
				"west": {"uv": [11.16667, 0.6, 12.66667, 2.01667], "rotation": 180, "texture": "#0"},
				"up": {"uv": [11.16667, 0.6, 12.66667, 2.01667], "rotation": 180, "texture": "#0"},
				"down": {"uv": [11.16667, 0.6, 12.66667, 2.01667], "rotation": 180, "texture": "#0"}
			}
		},
		{
			"from": [5.00049, 5.57734, 3.668],
			"to": [5.14424, 5.72109, 4.188],
			"rotation": {"angle": 22.5, "axis": "z", "origin": [5.21808, 5.72059, 6.01718]},
			"faces": {
				"north": {"uv": [11.16667, 0.6, 12.66667, 2.01667], "rotation": 90, "texture": "#0"},
				"east": {"uv": [11.16667, 0.6, 12.66667, 2.01667], "rotation": 90, "texture": "#0"},
				"south": {"uv": [11.16667, 0.6, 12.66667, 2.01667], "rotation": 90, "texture": "#0"},
				"west": {"uv": [11.16667, 0.6, 12.66667, 2.01667], "rotation": 90, "texture": "#0"},
				"up": {"uv": [11.16667, 0.6, 12.66667, 2.01667], "rotation": 90, "texture": "#0"},
				"down": {"uv": [11.16667, 0.6, 12.66667, 2.01667], "rotation": 90, "texture": "#0"}
			}
		},
		{
			"from": [4.90043, 5.57183, 3.668],
			"to": [5.04418, 5.71558, 4.188],
			"rotation": {"angle": -22.5, "axis": "z", "origin": [4.8181, 5.83013, 6.01719]},
			"faces": {
				"north": {"uv": [11.16667, 0.6, 12.66667, 2.01667], "rotation": 90, "texture": "#0"},
				"east": {"uv": [11.16667, 0.6, 12.66667, 2.01667], "rotation": 90, "texture": "#0"},
				"south": {"uv": [11.16667, 0.6, 12.66667, 2.01667], "rotation": 90, "texture": "#0"},
				"west": {"uv": [11.16667, 0.6, 12.66667, 2.01667], "rotation": 90, "texture": "#0"},
				"up": {"uv": [11.16667, 0.6, 12.66667, 2.01667], "rotation": 90, "texture": "#0"},
				"down": {"uv": [11.16667, 0.6, 12.66667, 2.01667], "rotation": 90, "texture": "#0"}
			}
		},
		{
			"from": [4.84926, 5.623, 3.668],
			"to": [4.99301, 5.76675, 4.188],
			"rotation": {"angle": -45, "axis": "z", "origin": [4.8181, 5.83013, 6.01719]},
			"faces": {
				"north": {"uv": [11.16667, 0.6, 12.66667, 2.01667], "rotation": 90, "texture": "#0"},
				"east": {"uv": [11.16667, 0.6, 12.66667, 2.01667], "rotation": 90, "texture": "#0"},
				"south": {"uv": [11.16667, 0.6, 12.66667, 2.01667], "rotation": 90, "texture": "#0"},
				"west": {"uv": [11.16667, 0.6, 12.66667, 2.01667], "rotation": 90, "texture": "#0"},
				"up": {"uv": [11.16667, 0.6, 12.66667, 2.01667], "rotation": 90, "texture": "#0"},
				"down": {"uv": [11.16667, 0.6, 12.66667, 2.01667], "rotation": 90, "texture": "#0"}
			}
		},
		{
			"from": [4.63866, 5.72207, 3.668],
			"to": [4.78241, 5.86582, 4.188],
			"rotation": {"angle": 22.5, "axis": "z", "origin": [4.8181, 5.83013, 6.01719]},
			"faces": {
				"north": {"uv": [11.16667, 0.6, 12.66667, 2.01667], "texture": "#0"},
				"east": {"uv": [11.16667, 0.6, 12.66667, 2.01667], "texture": "#0"},
				"south": {"uv": [11.16667, 0.6, 12.66667, 2.01667], "texture": "#0"},
				"west": {"uv": [11.16667, 0.6, 12.66667, 2.01667], "texture": "#0"},
				"up": {"uv": [11.16667, 0.6, 12.66667, 2.01667], "texture": "#0"},
				"down": {"uv": [11.16667, 0.6, 12.66667, 2.01667], "texture": "#0"}
			}
		},
		{
			"from": [4.63866, 5.79444, 3.668],
			"to": [4.78241, 5.93819, 4.188],
			"rotation": {"angle": 0, "axis": "y", "origin": [4.8181, 5.83013, 6.01719]},
			"faces": {
				"north": {"uv": [11.16667, 0.6, 12.66667, 2.01667], "texture": "#0"},
				"east": {"uv": [11.16667, 0.6, 12.66667, 2.01667], "texture": "#0"},
				"south": {"uv": [11.16667, 0.6, 12.66667, 2.01667], "texture": "#0"},
				"west": {"uv": [11.16667, 0.6, 12.66667, 2.01667], "texture": "#0"},
				"up": {"uv": [11.16667, 0.6, 12.66667, 2.01667], "texture": "#0"},
				"down": {"uv": [11.16667, 0.6, 12.66667, 2.01667], "texture": "#0"}
			}
		},
		{
			"from": [4.61097, 5.86129, 3.668],
			"to": [4.75472, 6.00504, 4.188],
			"rotation": {"angle": -22.5, "axis": "z", "origin": [4.8181, 5.83013, 6.01719]},
			"faces": {
				"north": {"uv": [11.16667, 0.6, 12.66667, 2.01667], "texture": "#0"},
				"east": {"uv": [11.16667, 0.6, 12.66667, 2.01667], "texture": "#0"},
				"south": {"uv": [11.16667, 0.6, 12.66667, 2.01667], "texture": "#0"},
				"west": {"uv": [11.16667, 0.6, 12.66667, 2.01667], "texture": "#0"},
				"up": {"uv": [11.16667, 0.6, 12.66667, 2.01667], "texture": "#0"},
				"down": {"uv": [11.16667, 0.6, 12.66667, 2.01667], "texture": "#0"}
			}
		},
		{
			"from": [4.5598, 5.91246, 3.668],
			"to": [4.70355, 6.05621, 4.188],
			"rotation": {"angle": -45, "axis": "z", "origin": [4.8181, 5.83013, 6.01719]},
			"faces": {
				"north": {"uv": [11.16667, 0.6, 12.66667, 2.01667], "texture": "#0"},
				"east": {"uv": [11.16667, 0.6, 12.66667, 2.01667], "texture": "#0"},
				"south": {"uv": [11.16667, 0.6, 12.66667, 2.01667], "texture": "#0"},
				"west": {"uv": [11.16667, 0.6, 12.66667, 2.01667], "texture": "#0"},
				"up": {"uv": [11.16667, 0.6, 12.66667, 2.01667], "texture": "#0"},
				"down": {"uv": [11.16667, 0.6, 12.66667, 2.01667], "texture": "#0"}
			}
		},
		{
			"from": [4.92813, 6.01153, 3.668],
			"to": [5.07187, 6.15528, 4.188],
			"rotation": {"angle": 22.5, "axis": "z", "origin": [4.8181, 5.83013, 6.01719]},
			"faces": {
				"north": {"uv": [11.16667, 0.6, 12.66667, 2.01667], "rotation": 270, "texture": "#0"},
				"east": {"uv": [11.16667, 0.6, 12.66667, 2.01667], "rotation": 270, "texture": "#0"},
				"south": {"uv": [11.16667, 0.6, 12.66667, 2.01667], "rotation": 270, "texture": "#0"},
				"west": {"uv": [11.16667, 0.6, 12.66667, 2.01667], "rotation": 270, "texture": "#0"},
				"up": {"uv": [11.16667, 0.6, 12.66667, 2.01667], "rotation": 270, "texture": "#0"},
				"down": {"uv": [11.16667, 0.6, 12.66667, 2.01667], "rotation": 270, "texture": "#0"}
			}
		},
		{
			"from": [4.9406, 6.04789, 0.343],
			"to": [5.0594, 6.31669, 0.643],
			"rotation": {"angle": 0, "axis": "y", "origin": [4.69281, 5.99867, -12.52746]},
			"faces": {
				"north": {"uv": [5.83333, 3.26667, 7.33333, 4.68333], "rotation": 270, "texture": "#0"},
				"east": {"uv": [5.83333, 3.26667, 7.33333, 4.68333], "rotation": 270, "texture": "#0"},
				"south": {"uv": [5.83333, 3.26667, 7.33333, 4.68333], "rotation": 270, "texture": "#0"},
				"west": {"uv": [5.83333, 3.26667, 7.33333, 4.68333], "rotation": 270, "texture": "#0"},
				"up": {"uv": [5.83333, 3.26667, 7.33333, 4.68333], "rotation": 270, "texture": "#0"},
				"down": {"uv": [5.83333, 3.26667, 7.33333, 4.68333], "rotation": 270, "texture": "#0"}
			}
		},
		{
			"from": [4.8218, 6.04789, 5.943],
			"to": [4.9406, 6.31669, 6.143],
			"rotation": {"angle": 0, "axis": "y", "origin": [4.57401, 5.99867, -12.52746]},
			"faces": {
				"north": {"uv": [5.83333, 3.26667, 7.33333, 4.68333], "rotation": 270, "texture": "#0"},
				"east": {"uv": [5.83333, 3.26667, 7.33333, 4.68333], "rotation": 270, "texture": "#0"},
				"south": {"uv": [5.83333, 3.26667, 7.33333, 4.68333], "rotation": 270, "texture": "#0"},
				"west": {"uv": [5.83333, 3.26667, 7.33333, 4.68333], "rotation": 270, "texture": "#0"},
				"up": {"uv": [5.83333, 3.26667, 7.33333, 4.68333], "rotation": 270, "texture": "#0"},
				"down": {"uv": [5.83333, 3.26667, 7.33333, 4.68333], "rotation": 270, "texture": "#0"}
			}
		},
		{
			"from": [5.0594, 6.04789, 5.943],
			"to": [5.1782, 6.31669, 6.143],
			"rotation": {"angle": 0, "axis": "y", "origin": [4.61161, 5.99867, -12.52746]},
			"faces": {
				"north": {"uv": [5.83333, 3.26667, 7.33333, 4.68333], "rotation": 270, "texture": "#0"},
				"east": {"uv": [5.83333, 3.26667, 7.33333, 4.68333], "rotation": 270, "texture": "#0"},
				"south": {"uv": [5.83333, 3.26667, 7.33333, 4.68333], "rotation": 270, "texture": "#0"},
				"west": {"uv": [5.83333, 3.26667, 7.33333, 4.68333], "rotation": 270, "texture": "#0"},
				"up": {"uv": [5.83333, 3.26667, 7.33333, 4.68333], "rotation": 270, "texture": "#0"},
				"down": {"uv": [5.83333, 3.26667, 7.33333, 4.68333], "rotation": 270, "texture": "#0"}
			}
		},
		{
			"from": [5.10805, 5.99924, 5.943],
			"to": [5.22685, 6.26804, 6.143],
			"rotation": {"angle": 0, "axis": "y", "origin": [4.66026, 5.25002, -12.52746]},
			"faces": {
				"north": {"uv": [5.83333, 3.26667, 7.33333, 4.68333], "rotation": 270, "texture": "#0"},
				"east": {"uv": [5.83333, 3.26667, 7.33333, 4.68333], "rotation": 270, "texture": "#0"},
				"south": {"uv": [5.83333, 3.26667, 7.33333, 4.68333], "rotation": 270, "texture": "#0"},
				"west": {"uv": [5.83333, 3.26667, 7.33333, 4.68333], "rotation": 270, "texture": "#0"},
				"up": {"uv": [5.83333, 3.26667, 7.33333, 4.68333], "rotation": 270, "texture": "#0"},
				"down": {"uv": [5.83333, 3.26667, 7.33333, 4.68333], "rotation": 270, "texture": "#0"}
			}
		},
		{
			"from": [4.77315, 5.99924, 5.943],
			"to": [4.89195, 6.26804, 6.143],
			"rotation": {"angle": 0, "axis": "y", "origin": [4.52537, 5.25002, -12.52746]},
			"faces": {
				"north": {"uv": [5.83333, 3.26667, 7.33333, 4.68333], "rotation": 270, "texture": "#0"},
				"east": {"uv": [5.83333, 3.26667, 7.33333, 4.68333], "rotation": 270, "texture": "#0"},
				"south": {"uv": [5.83333, 3.26667, 7.33333, 4.68333], "rotation": 270, "texture": "#0"},
				"west": {"uv": [5.83333, 3.26667, 7.33333, 4.68333], "rotation": 270, "texture": "#0"},
				"up": {"uv": [5.83333, 3.26667, 7.33333, 4.68333], "rotation": 270, "texture": "#0"},
				"down": {"uv": [5.83333, 3.26667, 7.33333, 4.68333], "rotation": 270, "texture": "#0"}
			}
		},
		{
			"from": [5.10112, 6.21596, 5.943],
			"to": [5.21992, 6.28476, 6.143],
			"rotation": {"angle": 45, "axis": "z", "origin": [5.16052, 6.25036, 6.043]},
			"faces": {
				"north": {"uv": [5.83333, 3.26667, 7.33333, 4.68333], "rotation": 270, "texture": "#0"},
				"east": {"uv": [5.83333, 3.26667, 7.33333, 4.68333], "rotation": 270, "texture": "#0"},
				"south": {"uv": [5.83333, 3.26667, 7.33333, 4.68333], "rotation": 270, "texture": "#0"},
				"west": {"uv": [5.83333, 3.26667, 7.33333, 4.68333], "rotation": 270, "texture": "#0"},
				"up": {"uv": [5.83333, 3.26667, 7.33333, 4.68333], "rotation": 270, "texture": "#0"},
				"down": {"uv": [5.83333, 3.26667, 7.33333, 4.68333], "rotation": 270, "texture": "#0"}
			}
		},
		{
			"from": [4.78008, 6.21596, 5.943],
			"to": [4.89888, 6.28476, 6.143],
			"rotation": {"angle": -45, "axis": "z", "origin": [4.83948, 6.25036, 6.043]},
			"faces": {
				"north": {"uv": [5.83333, 3.26667, 7.33333, 4.68333], "rotation": 270, "texture": "#0"},
				"east": {"uv": [5.83333, 3.26667, 7.33333, 4.68333], "rotation": 270, "texture": "#0"},
				"south": {"uv": [5.83333, 3.26667, 7.33333, 4.68333], "rotation": 270, "texture": "#0"},
				"west": {"uv": [5.83333, 3.26667, 7.33333, 4.68333], "rotation": 270, "texture": "#0"},
				"up": {"uv": [5.83333, 3.26667, 7.33333, 4.68333], "rotation": 270, "texture": "#0"},
				"down": {"uv": [5.83333, 3.26667, 7.33333, 4.68333], "rotation": 270, "texture": "#0"}
			}
		}
	],
	"display": {
		"thirdperson_righthand": {
			"translation": [4.25, 3.25, 5.5],
			"scale": [1.35, 1.35, 1.35]
		},
		"thirdperson_lefthand": {
			"translation": [-3, 2.75, 4.25]
		},
		"firstperson_righthand": {
			"translation": [-2.5, 6.75, 8]
		},
		"firstperson_lefthand": {
			"translation": [-8.25, 6.75, 8]
		},
		"ground": {
			"translation": [2.5, 4.75, 5]
		},
		"gui": {
			"rotation": [90, 45, -90],
			"translation": [9.75, -2.5, 0],
			"scale": [2, 2, 2]
		},
		"fixed": {
			"rotation": [90, 45, -90],
			"translation": [6.5, -0.75, -5.5],
			"scale": [1.35, 1.35, 1.35]
		}
	},
	"groups": [
		{
			"name": "base",
			"origin": [8, 8, 8],
			"color": 0,
			"children": [
				{
					"name": "ribs",
					"origin": [8, 8, 8],
					"color": 0,
					"children": [0, 1, 2, 3, 4, 5, 6, 7, 8, 9, 10, 11]
				},
				{
					"name": "grip_group",
					"origin": [8, 8, 8],
					"color": 0,
					"children": [
						{
							"name": "group",
							"origin": [5.19639, 6.04566, 4.438],
							"color": 0,
							"children": [12, 13, 14, 15]
						},
						{
							"name": "group",
							"origin": [5.19639, 6.04566, 4.438],
							"color": 0,
							"children": [16, 17, 18, 19, 20, 21]
						},
						{
							"name": "group",
							"origin": [5.19639, 6.04566, 4.438],
							"color": 0,
							"children": [
								22,
								23,
								24,
								25,
								26,
								{
									"name": "lock",
									"origin": [5.23493, 5.84685, 5.488],
									"color": 0,
									"children": [27, 28]
								}
							]
						},
						{
							"name": "group",
							"origin": [4.8181, 5.83013, 6.53719],
							"color": 0,
							"children": [29, 30, 31, 32, 33, 34, 35, 36, 37, 38, 39, 40, 41, 42, 43, 44, 45, 46, 47, 48]
						},
						{
							"name": "trigger_ring",
							"origin": [8, 8, 8],
							"color": 0,
							"children": [
								{
									"name": "group",
									"origin": [5, 4.59213, 4.46827],
									"color": 0,
									"children": [49, 50, 51, 52, 53]
								},
								54,
								55,
								56,
								57,
								58
							]
						},
						{
							"name": "trigger",
							"origin": [8, 8, 8],
							"color": 0,
							"children": [59, 60, 61, 62, 63, 64]
						},
						{
							"name": "lock",
							"origin": [8, 8, 8],
							"color": 0,
							"children": [65, 66]
						},
						{
							"name": "patch",
							"origin": [8, 8, 8],
							"color": 0,
							"children": [
								67,
								68,
								69,
								70,
								71,
								72,
								73,
								74,
								75,
								{
									"name": "bolt",
									"origin": [8, 8, 8],
									"color": 0,
									"children": [76, 77, 78, 79]
								}
							]
						}
					]
				},
				{
					"name": "barrel_group",
					"origin": [8, 8, 8],
					"color": 0,
					"children": [
						{
							"name": "barrel",
							"origin": [8, 8, 8],
							"color": 0,
							"children": [
								80,
								81,
								82,
								83,
								84,
								85,
								86,
								87,
								88,
								89,
								90,
								91,
								92,
								93,
								94,
								95,
								{
									"name": "barrel",
									"origin": [8, 8, 8],
									"color": 0,
									"children": [96, 97, 98, 99, 100, 101, 102, 103, 104, 105, 106, 107, 108, 109, 110, 111, 112, 113, 114, 115, 116, 117, 118, 119, 120, 121, 122, 123, 124, 125, 126]
								}
							]
						}
					]
				},
				{
					"name": "sight",
					"origin": [8, 8, 8],
					"color": 0,
					"children": [127, 128, 129, 130, 131, 132, 133]
				}
			]
		}
	]
}