{
    "textures": {
        "0": "gci:items/common/all_in_one",
        "particle": "gci:items/common/all_in_one"
    },
    "elements": [
        {
            "name": "octagon",
            "from": [
                7.15282,
                9.60282,
                7.84467
            ],
            "to": [
                8.85282,
                10.40282,
                8.15533
            ],
            "rotation": {
                "angle": 0,
                "axis": "y",
                "origin": [
                    8.02782,
                    6.07782,
                    8
                ]
            },
            "faces": {
                "north": {
                    "uv": [
                        5.25,
                        3.25,
                        5.375,
                        3.875
                    ],
                    "texture": "#0"
                },
                "east": {
                    "uv": [
                        5.25,
                        3.25,
                        5.375,
                        3.875
                    ],
                    "texture": "#0"
                },
                "south": {
                    "uv": [
                        5.25,
                        3.25,
                        5.375,
                        3.875
                    ],
                    "texture": "#0"
                },
                "west": {
                    "uv": [
                        5.25,
                        3.25,
                        5.375,
                        3.875
                    ],
                    "texture": "#0"
                },
                "up": {
                    "uv": [
                        5.25,
                        3.25,
                        5.375,
                        3.875
                    ],
                    "texture": "#0"
                },
                "down": {
                    "uv": [
                        5.25,
                        3.25,
                        5.375,
                        3.875
                    ],
                    "texture": "#0"
                }
            }
        },
        {
            "name": "octagon",
            "from": [
                8.43557,
                9.4091,
                7.84467
            ],
            "to": [
                9.53557,
                10.1591,
                8.15533
            ],
            "rotation": {
                "angle": -45,
                "axis": "z",
                "origin": [
                    8.93557,
                    9.7841,
                    8
                ]
            },
            "faces": {
                "north": {
                    "uv": [
                        5.25,
                        3.25,
                        5.375,
                        3.875
                    ],
                    "texture": "#0"
                },
                "east": {
                    "uv": [
                        5.25,
                        3.25,
                        5.375,
                        3.875
                    ],
                    "texture": "#0"
                },
                "south": {
                    "uv": [
                        5.25,
                        3.25,
                        5.375,
                        3.875
                    ],
                    "texture": "#0"
                },
                "west": {
                    "uv": [
                        5.25,
                        3.25,
                        5.375,
                        3.875
                    ],
                    "texture": "#0"
                },
                "up": {
                    "uv": [
                        5.25,
                        3.25,
                        5.375,
                        3.875
                    ],
                    "texture": "#0"
                },
                "down": {
                    "uv": [
                        5.25,
                        3.25,
                        5.375,
                        3.875
                    ],
                    "texture": "#0"
                }
            }
        },
        {
            "name": "octagon",
            "from": [
                6.46443,
                9.4091,
                7.84467
            ],
            "to": [
                7.56443,
                10.1591,
                8.15533
            ],
            "rotation": {
                "angle": 45,
                "axis": "z",
                "origin": [
                    7.06443,
                    9.7841,
                    8
                ]
            },
            "faces": {
                "north": {
                    "uv": [
                        5.25,
                        3.25,
                        5.375,
                        3.875
                    ],
                    "texture": "#0"
                },
                "east": {
                    "uv": [
                        5.25,
                        3.25,
                        5.375,
                        3.875
                    ],
                    "texture": "#0"
                },
                "south": {
                    "uv": [
                        5.25,
                        3.25,
                        5.375,
                        3.875
                    ],
                    "texture": "#0"
                },
                "west": {
                    "uv": [
                        5.25,
                        3.25,
                        5.375,
                        3.875
                    ],
                    "texture": "#0"
                },
                "up": {
                    "uv": [
                        5.25,
                        3.25,
                        5.375,
                        3.875
                    ],
                    "texture": "#0"
                },
                "down": {
                    "uv": [
                        5.25,
                        3.25,
                        5.375,
                        3.875
                    ],
                    "texture": "#0"
                }
            }
        },
        {
            "name": "octagon",
            "from": [
                6.625,
                7.875,
                7.84467
            ],
            "to": [
                9.375,
                9.625,
                8.15533
            ],
            "rotation": {
                "angle": 0,
                "axis": "y",
                "origin": [
                    8,
                    6,
                    8
                ]
            },
            "faces": {
                "north": {
                    "uv": [
                        5.25,
                        3.25,
                        5.375,
                        3.875
                    ],
                    "texture": "#0"
                },
                "east": {
                    "uv": [
                        5.25,
                        3.25,
                        5.375,
                        3.875
                    ],
                    "texture": "#0"
                },
                "south": {
                    "uv": [
                        5.25,
                        3.25,
                        5.375,
                        3.875
                    ],
                    "texture": "#0"
                },
                "west": {
                    "uv": [
                        5.25,
                        3.25,
                        5.375,
                        3.875
                    ],
                    "texture": "#0"
                },
                "up": {
                    "uv": [
                        5.25,
                        3.25,
                        5.375,
                        3.875
                    ],
                    "texture": "#0"
                },
                "down": {
                    "uv": [
                        5.25,
                        3.25,
                        5.375,
                        3.875
                    ],
                    "texture": "#0"
                }
            }
        },
        {
            "name": "octagon",
            "from": [
                6.46194,
                8.94474,
                7.84467
            ],
            "to": [
                7.21194,
                9.44474,
                8.15533
            ],
            "rotation": {
                "angle": 45,
                "axis": "z",
                "origin": [
                    6.83694,
                    9.19474,
                    8
                ]
            },
            "faces": {
                "north": {
                    "uv": [
                        5.25,
                        3.25,
                        5.375,
                        3.875
                    ],
                    "texture": "#0"
                },
                "east": {
                    "uv": [
                        5.25,
                        3.25,
                        5.375,
                        3.875
                    ],
                    "texture": "#0"
                },
                "south": {
                    "uv": [
                        5.25,
                        3.25,
                        5.375,
                        3.875
                    ],
                    "texture": "#0"
                },
                "west": {
                    "uv": [
                        5.25,
                        3.25,
                        5.375,
                        3.875
                    ],
                    "texture": "#0"
                },
                "up": {
                    "uv": [
                        5.25,
                        3.25,
                        5.375,
                        3.875
                    ],
                    "texture": "#0"
                },
                "down": {
                    "uv": [
                        5.25,
                        3.25,
                        5.375,
                        3.875
                    ],
                    "texture": "#0"
                }
            }
        },
        {
            "name": "octagon",
            "from": [
                6.58694,
                8.56974,
                7.84467
            ],
            "to": [
                7.08694,
                9.31974,
                8.15533
            ],
            "rotation": {
                "angle": -45,
                "axis": "z",
                "origin": [
                    6.83694,
                    8.94474,
                    8
                ]
            },
            "faces": {
                "north": {
                    "uv": [
                        5.25,
                        3.25,
                        5.375,
                        3.875
                    ],
                    "rotation": 90,
                    "texture": "#0"
                },
                "east": {
                    "uv": [
                        5.25,
                        3.25,
                        5.375,
                        3.875
                    ],
                    "rotation": 270,
                    "texture": "#0"
                },
                "south": {
                    "uv": [
                        5.25,
                        3.25,
                        5.375,
                        3.875
                    ],
                    "rotation": 270,
                    "texture": "#0"
                },
                "west": {
                    "uv": [
                        5.25,
                        3.25,
                        5.375,
                        3.875
                    ],
                    "rotation": 270,
                    "texture": "#0"
                },
                "up": {
                    "uv": [
                        5.25,
                        3.25,
                        5.375,
                        3.875
                    ],
                    "rotation": 270,
                    "texture": "#0"
                },
                "down": {
                    "uv": [
                        5.25,
                        3.25,
                        5.375,
                        3.875
                    ],
                    "rotation": 270,
                    "texture": "#0"
                }
            }
        },
        {
            "name": "octagon",
            "from": [
                6.46194,
                8.44474,
                7.84467
            ],
            "to": [
                7.21194,
                8.94474,
                8.15533
            ],
            "rotation": {
                "angle": 45,
                "axis": "z",
                "origin": [
                    6.83694,
                    8.69474,
                    8
                ]
            },
            "faces": {
                "north": {
                    "uv": [
                        5.25,
                        3.25,
                        5.375,
                        3.875
                    ],
                    "texture": "#0"
                },
                "east": {
                    "uv": [
                        5.25,
                        3.25,
                        5.375,
                        3.875
                    ],
                    "texture": "#0"
                },
                "south": {
                    "uv": [
                        5.25,
                        3.25,
                        5.375,
                        3.875
                    ],
                    "texture": "#0"
                },
                "west": {
                    "uv": [
                        5.25,
                        3.25,
                        5.375,
                        3.875
                    ],
                    "texture": "#0"
                },
                "up": {
                    "uv": [
                        5.25,
                        3.25,
                        5.375,
                        3.875
                    ],
                    "texture": "#0"
                },
                "down": {
                    "uv": [
                        5.25,
                        3.25,
                        5.375,
                        3.875
                    ],
                    "texture": "#0"
                }
            }
        },
        {
            "name": "octagon",
            "from": [
                6.46194,
                8.19474,
                7.84467
            ],
            "to": [
                7.21194,
                8.69474,
                8.15533
            ],
            "rotation": {
                "angle": 45,
                "axis": "z",
                "origin": [
                    6.83694,
                    8.44474,
                    8
                ]
            },
            "faces": {
                "north": {
                    "uv": [
                        5.25,
                        3.25,
                        5.375,
                        3.875
                    ],
                    "texture": "#0"
                },
                "east": {
                    "uv": [
                        5.25,
                        3.25,
                        5.375,
                        3.875
                    ],
                    "texture": "#0"
                },
                "south": {
                    "uv": [
                        5.25,
                        3.25,
                        5.375,
                        3.875
                    ],
                    "texture": "#0"
                },
                "west": {
                    "uv": [
                        5.25,
                        3.25,
                        5.375,
                        3.875
                    ],
                    "texture": "#0"
                },
                "up": {
                    "uv": [
                        5.25,
                        3.25,
                        5.375,
                        3.875
                    ],
                    "texture": "#0"
                },
                "down": {
                    "uv": [
                        5.25,
                        3.25,
                        5.375,
                        3.875
                    ],
                    "texture": "#0"
                }
            }
        },
        {
            "name": "octagon",
            "from": [
                6.46194,
                7.94474,
                7.84467
            ],
            "to": [
                7.21194,
                8.44474,
                8.15533
            ],
            "rotation": {
                "angle": 45,
                "axis": "z",
                "origin": [
                    6.83694,
                    8.19474,
                    8
                ]
            },
            "faces": {
                "north": {
                    "uv": [
                        5.25,
                        3.25,
                        5.375,
                        3.875
                    ],
                    "texture": "#0"
                },
                "east": {
                    "uv": [
                        5.25,
                        3.25,
                        5.375,
                        3.875
                    ],
                    "texture": "#0"
                },
                "south": {
                    "uv": [
                        5.25,
                        3.25,
                        5.375,
                        3.875
                    ],
                    "texture": "#0"
                },
                "west": {
                    "uv": [
                        5.25,
                        3.25,
                        5.375,
                        3.875
                    ],
                    "texture": "#0"
                },
                "up": {
                    "uv": [
                        5.25,
                        3.25,
                        5.375,
                        3.875
                    ],
                    "texture": "#0"
                },
                "down": {
                    "uv": [
                        5.25,
                        3.25,
                        5.375,
                        3.875
                    ],
                    "texture": "#0"
                }
            }
        },
        {
            "name": "octagon",
            "from": [
                6.46194,
                7.69474,
                7.84467
            ],
            "to": [
                7.21194,
                8.19474,
                8.15533
            ],
            "rotation": {
                "angle": 45,
                "axis": "z",
                "origin": [
                    6.83694,
                    7.94474,
                    8
                ]
            },
            "faces": {
                "north": {
                    "uv": [
                        5.25,
                        3.25,
                        5.375,
                        3.875
                    ],
                    "texture": "#0"
                },
                "east": {
                    "uv": [
                        5.25,
                        3.25,
                        5.375,
                        3.875
                    ],
                    "texture": "#0"
                },
                "south": {
                    "uv": [
                        5.25,
                        3.25,
                        5.375,
                        3.875
                    ],
                    "texture": "#0"
                },
                "west": {
                    "uv": [
                        5.25,
                        3.25,
                        5.375,
                        3.875
                    ],
                    "texture": "#0"
                },
                "up": {
                    "uv": [
                        5.25,
                        3.25,
                        5.375,
                        3.875
                    ],
                    "texture": "#0"
                },
                "down": {
                    "uv": [
                        5.25,
                        3.25,
                        5.375,
                        3.875
                    ],
                    "texture": "#0"
                }
            }
        },
        {
            "name": "octagon",
            "from": [
                6.46194,
                9.19474,
                7.84467
            ],
            "to": [
                7.21194,
                9.69474,
                8.15533
            ],
            "rotation": {
                "angle": 45,
                "axis": "z",
                "origin": [
                    6.83694,
                    9.44474,
                    8
                ]
            },
            "faces": {
                "north": {
                    "uv": [
                        5.25,
                        3.25,
                        5.375,
                        3.875
                    ],
                    "texture": "#0"
                },
                "east": {
                    "uv": [
                        5.25,
                        3.25,
                        5.375,
                        3.875
                    ],
                    "texture": "#0"
                },
                "south": {
                    "uv": [
                        5.25,
                        3.25,
                        5.375,
                        3.875
                    ],
                    "texture": "#0"
                },
                "west": {
                    "uv": [
                        5.25,
                        3.25,
                        5.375,
                        3.875
                    ],
                    "texture": "#0"
                },
                "up": {
                    "uv": [
                        5.25,
                        3.25,
                        5.375,
                        3.875
                    ],
                    "texture": "#0"
                },
                "down": {
                    "uv": [
                        5.25,
                        3.25,
                        5.375,
                        3.875
                    ],
                    "texture": "#0"
                }
            }
        },
        {
            "name": "octagon",
            "from": [
                8.78806,
                9.19474,
                7.84467
            ],
            "to": [
                9.53806,
                9.69474,
                8.15533
            ],
            "rotation": {
                "angle": -45,
                "axis": "z",
                "origin": [
                    9.16306,
                    9.44474,
                    8
                ]
            },
            "faces": {
                "north": {
                    "uv": [
                        5.375,
                        3.25,
                        5.25,
                        3.875
                    ],
                    "texture": "#0"
                },
                "east": {
                    "uv": [
                        5.375,
                        3.25,
                        5.25,
                        3.875
                    ],
                    "texture": "#0"
                },
                "south": {
                    "uv": [
                        5.375,
                        3.25,
                        5.25,
                        3.875
                    ],
                    "texture": "#0"
                },
                "west": {
                    "uv": [
                        5.375,
                        3.25,
                        5.25,
                        3.875
                    ],
                    "texture": "#0"
                },
                "up": {
                    "uv": [
                        5.375,
                        3.25,
                        5.25,
                        3.875
                    ],
                    "texture": "#0"
                },
                "down": {
                    "uv": [
                        5.375,
                        3.25,
                        5.25,
                        3.875
                    ],
                    "texture": "#0"
                }
            }
        },
        {
            "name": "octagon",
            "from": [
                8.78806,
                7.69474,
                7.84467
            ],
            "to": [
                9.53806,
                8.19474,
                8.15533
            ],
            "rotation": {
                "angle": -45,
                "axis": "z",
                "origin": [
                    9.16306,
                    7.94474,
                    8
                ]
            },
            "faces": {
                "north": {
                    "uv": [
                        5.375,
                        3.25,
                        5.25,
                        3.875
                    ],
                    "texture": "#0"
                },
                "east": {
                    "uv": [
                        5.375,
                        3.25,
                        5.25,
                        3.875
                    ],
                    "texture": "#0"
                },
                "south": {
                    "uv": [
                        5.375,
                        3.25,
                        5.25,
                        3.875
                    ],
                    "texture": "#0"
                },
                "west": {
                    "uv": [
                        5.375,
                        3.25,
                        5.25,
                        3.875
                    ],
                    "texture": "#0"
                },
                "up": {
                    "uv": [
                        5.375,
                        3.25,
                        5.25,
                        3.875
                    ],
                    "texture": "#0"
                },
                "down": {
                    "uv": [
                        5.375,
                        3.25,
                        5.25,
                        3.875
                    ],
                    "texture": "#0"
                }
            }
        },
        {
            "name": "octagon",
            "from": [
                8.78806,
                7.94474,
                7.84467
            ],
            "to": [
                9.53806,
                8.44474,
                8.15533
            ],
            "rotation": {
                "angle": -45,
                "axis": "z",
                "origin": [
                    9.16306,
                    8.19474,
                    8
                ]
            },
            "faces": {
                "north": {
                    "uv": [
                        5.375,
                        3.25,
                        5.25,
                        3.875
                    ],
                    "texture": "#0"
                },
                "east": {
                    "uv": [
                        5.375,
                        3.25,
                        5.25,
                        3.875
                    ],
                    "texture": "#0"
                },
                "south": {
                    "uv": [
                        5.375,
                        3.25,
                        5.25,
                        3.875
                    ],
                    "texture": "#0"
                },
                "west": {
                    "uv": [
                        5.375,
                        3.25,
                        5.25,
                        3.875
                    ],
                    "texture": "#0"
                },
                "up": {
                    "uv": [
                        5.375,
                        3.25,
                        5.25,
                        3.875
                    ],
                    "texture": "#0"
                },
                "down": {
                    "uv": [
                        5.375,
                        3.25,
                        5.25,
                        3.875
                    ],
                    "texture": "#0"
                }
            }
        },
        {
            "name": "octagon",
            "from": [
                8.78806,
                8.19474,
                7.84467
            ],
            "to": [
                9.53806,
                8.69474,
                8.15533
            ],
            "rotation": {
                "angle": -45,
                "axis": "z",
                "origin": [
                    9.16306,
                    8.44474,
                    8
                ]
            },
            "faces": {
                "north": {
                    "uv": [
                        5.375,
                        3.25,
                        5.25,
                        3.875
                    ],
                    "texture": "#0"
                },
                "east": {
                    "uv": [
                        5.375,
                        3.25,
                        5.25,
                        3.875
                    ],
                    "texture": "#0"
                },
                "south": {
                    "uv": [
                        5.375,
                        3.25,
                        5.25,
                        3.875
                    ],
                    "texture": "#0"
                },
                "west": {
                    "uv": [
                        5.375,
                        3.25,
                        5.25,
                        3.875
                    ],
                    "texture": "#0"
                },
                "up": {
                    "uv": [
                        5.375,
                        3.25,
                        5.25,
                        3.875
                    ],
                    "texture": "#0"
                },
                "down": {
                    "uv": [
                        5.375,
                        3.25,
                        5.25,
                        3.875
                    ],
                    "texture": "#0"
                }
            }
        },
        {
            "name": "octagon",
            "from": [
                8.78806,
                8.44474,
                7.84467
            ],
            "to": [
                9.53806,
                8.94474,
                8.15533
            ],
            "rotation": {
                "angle": -45,
                "axis": "z",
                "origin": [
                    9.16306,
                    8.69474,
                    8
                ]
            },
            "faces": {
                "north": {
                    "uv": [
                        5.375,
                        3.25,
                        5.25,
                        3.875
                    ],
                    "texture": "#0"
                },
                "east": {
                    "uv": [
                        5.375,
                        3.25,
                        5.25,
                        3.875
                    ],
                    "texture": "#0"
                },
                "south": {
                    "uv": [
                        5.375,
                        3.25,
                        5.25,
                        3.875
                    ],
                    "texture": "#0"
                },
                "west": {
                    "uv": [
                        5.375,
                        3.25,
                        5.25,
                        3.875
                    ],
                    "texture": "#0"
                },
                "up": {
                    "uv": [
                        5.375,
                        3.25,
                        5.25,
                        3.875
                    ],
                    "texture": "#0"
                },
                "down": {
                    "uv": [
                        5.375,
                        3.25,
                        5.25,
                        3.875
                    ],
                    "texture": "#0"
                }
            }
        },
        {
            "name": "octagon",
            "from": [
                8.91306,
                8.56974,
                7.84467
            ],
            "to": [
                9.41306,
                9.31974,
                8.15533
            ],
            "rotation": {
                "angle": 45,
                "axis": "z",
                "origin": [
                    9.16306,
                    8.94474,
                    8
                ]
            },
            "faces": {
                "north": {
                    "uv": [
                        5.25,
                        3.875,
                        5.375,
                        3.25
                    ],
                    "rotation": 90,
                    "texture": "#0"
                },
                "east": {
                    "uv": [
                        5.25,
                        3.875,
                        5.375,
                        3.25
                    ],
                    "rotation": 270,
                    "texture": "#0"
                },
                "south": {
                    "uv": [
                        5.25,
                        3.875,
                        5.375,
                        3.25
                    ],
                    "rotation": 270,
                    "texture": "#0"
                },
                "west": {
                    "uv": [
                        5.25,
                        3.875,
                        5.375,
                        3.25
                    ],
                    "rotation": 270,
                    "texture": "#0"
                },
                "up": {
                    "uv": [
                        5.25,
                        3.875,
                        5.375,
                        3.25
                    ],
                    "rotation": 270,
                    "texture": "#0"
                },
                "down": {
                    "uv": [
                        5.25,
                        3.875,
                        5.375,
                        3.25
                    ],
                    "rotation": 270,
                    "texture": "#0"
                }
            }
        },
        {
            "name": "octagon",
            "from": [
                8.78806,
                8.94474,
                7.84467
            ],
            "to": [
                9.53806,
                9.44474,
                8.15533
            ],
            "rotation": {
                "angle": -45,
                "axis": "z",
                "origin": [
                    9.16306,
                    9.19474,
                    8
                ]
            },
            "faces": {
                "north": {
                    "uv": [
                        5.375,
                        3.25,
                        5.25,
                        3.875
                    ],
                    "texture": "#0"
                },
                "east": {
                    "uv": [
                        5.375,
                        3.25,
                        5.25,
                        3.875
                    ],
                    "texture": "#0"
                },
                "south": {
                    "uv": [
                        5.375,
                        3.25,
                        5.25,
                        3.875
                    ],
                    "texture": "#0"
                },
                "west": {
                    "uv": [
                        5.375,
                        3.25,
                        5.25,
                        3.875
                    ],
                    "texture": "#0"
                },
                "up": {
                    "uv": [
                        5.375,
                        3.25,
                        5.25,
                        3.875
                    ],
                    "texture": "#0"
                },
                "down": {
                    "uv": [
                        5.375,
                        3.25,
                        5.25,
                        3.875
                    ],
                    "texture": "#0"
                }
            }
        },
        {
            "name": "octagon",
            "from": [
                6.375,
                6.875,
                7.84467
            ],
            "to": [
                9.625,
                7.875,
                8.15533
            ],
            "rotation": {
                "angle": 0,
                "axis": "y",
                "origin": [
                    8,
                    6,
                    8
                ]
            },
            "faces": {
                "north": {
                    "uv": [
                        5.25,
                        3.25,
                        5.375,
                        3.875
                    ],
                    "texture": "#0"
                },
                "east": {
                    "uv": [
                        5.25,
                        3.25,
                        5.375,
                        3.875
                    ],
                    "texture": "#0"
                },
                "south": {
                    "uv": [
                        5.25,
                        3.25,
                        5.375,
                        3.875
                    ],
                    "texture": "#0"
                },
                "west": {
                    "uv": [
                        5.25,
                        3.25,
                        5.375,
                        3.875
                    ],
                    "texture": "#0"
                },
                "up": {
                    "uv": [
                        5.25,
                        3.25,
                        5.375,
                        3.875
                    ],
                    "texture": "#0"
                },
                "down": {
                    "uv": [
                        5.25,
                        3.25,
                        5.375,
                        3.875
                    ],
                    "texture": "#0"
                }
            }
        },
        {
            "name": "octagon",
            "from": [
                6.375,
                6.875,
                7.74467
            ],
            "to": [
                9.625,
                7.125,
                8.25533
            ],
            "rotation": {
                "angle": 0,
                "axis": "y",
                "origin": [
                    8,
                    6,
                    8
                ]
            },
            "faces": {
                "north": {
                    "uv": [
                        5.25,
                        3.25,
                        5.375,
                        3.875
                    ],
                    "texture": "#0"
                },
                "east": {
                    "uv": [
                        5.25,
                        3.25,
                        5.375,
                        3.875
                    ],
                    "texture": "#0"
                },
                "south": {
                    "uv": [
                        5.25,
                        3.25,
                        5.375,
                        3.875
                    ],
                    "texture": "#0"
                },
                "west": {
                    "uv": [
                        5.25,
                        3.25,
                        5.375,
                        3.875
                    ],
                    "texture": "#0"
                },
                "up": {
                    "uv": [
                        5.25,
                        3.25,
                        5.375,
                        3.875
                    ],
                    "texture": "#0"
                },
                "down": {
                    "uv": [
                        5.25,
                        3.25,
                        5.375,
                        3.875
                    ],
                    "texture": "#0"
                }
            }
        },
        {
            "name": "octagon",
            "from": [
                6.925,
                6.875,
                7.74467
            ],
            "to": [
                7.875,
                7.025,
                8.25533
            ],
            "rotation": {
                "angle": -22.5,
                "axis": "z",
                "origin": [
                    7,
                    7,
                    8
                ]
            },
            "faces": {
                "north": {
                    "uv": [
                        5.25,
                        3.25,
                        5.375,
                        3.875
                    ],
                    "texture": "#0"
                },
                "east": {
                    "uv": [
                        5.25,
                        3.25,
                        5.375,
                        3.875
                    ],
                    "texture": "#0"
                },
                "south": {
                    "uv": [
                        5.25,
                        3.25,
                        5.375,
                        3.875
                    ],
                    "texture": "#0"
                },
                "west": {
                    "uv": [
                        5.25,
                        3.25,
                        5.375,
                        3.875
                    ],
                    "texture": "#0"
                },
                "up": {
                    "uv": [
                        5.25,
                        3.25,
                        5.375,
                        3.875
                    ],
                    "texture": "#0"
                },
                "down": {
                    "uv": [
                        5.25,
                        3.25,
                        5.375,
                        3.875
                    ],
                    "texture": "#0"
                }
            }
        },
        {
            "name": "octagon",
            "from": [
                7.325,
                6.975,
                7.74467
            ],
            "to": [
                7.875,
                7.225,
                8.25533
            ],
            "rotation": {
                "angle": -22.5,
                "axis": "z",
                "origin": [
                    7,
                    7,
                    8
                ]
            },
            "faces": {
                "north": {
                    "uv": [
                        5.25,
                        3.25,
                        5.375,
                        3.875
                    ],
                    "texture": "#0"
                },
                "east": {
                    "uv": [
                        5.25,
                        3.25,
                        5.375,
                        3.875
                    ],
                    "texture": "#0"
                },
                "south": {
                    "uv": [
                        5.25,
                        3.25,
                        5.375,
                        3.875
                    ],
                    "texture": "#0"
                },
                "west": {
                    "uv": [
                        5.25,
                        3.25,
                        5.375,
                        3.875
                    ],
                    "texture": "#0"
                },
                "up": {
                    "uv": [
                        5.25,
                        3.25,
                        5.375,
                        3.875
                    ],
                    "texture": "#0"
                },
                "down": {
                    "uv": [
                        5.25,
                        3.25,
                        5.375,
                        3.875
                    ],
                    "texture": "#0"
                }
            }
        },
        {
            "name": "octagon",
            "from": [
                8.12542,
                6.72573,
                7.74467
            ],
            "to": [
                9.07542,
                6.87573,
                8.25533
            ],
            "rotation": {
                "angle": 22.5,
                "axis": "z",
                "origin": [
                    8.60042,
                    6.80073,
                    8
                ]
            },
            "faces": {
                "north": {
                    "uv": [
                        5.25,
                        3.25,
                        5.375,
                        3.875
                    ],
                    "texture": "#0"
                },
                "east": {
                    "uv": [
                        5.25,
                        3.25,
                        5.375,
                        3.875
                    ],
                    "texture": "#0"
                },
                "south": {
                    "uv": [
                        5.25,
                        3.25,
                        5.375,
                        3.875
                    ],
                    "texture": "#0"
                },
                "west": {
                    "uv": [
                        5.25,
                        3.25,
                        5.375,
                        3.875
                    ],
                    "texture": "#0"
                },
                "up": {
                    "uv": [
                        5.25,
                        3.25,
                        5.375,
                        3.875
                    ],
                    "texture": "#0"
                },
                "down": {
                    "uv": [
                        5.25,
                        3.25,
                        5.375,
                        3.875
                    ],
                    "texture": "#0"
                }
            }
        },
        {
            "name": "octagon",
            "from": [
                8.12542,
                6.82573,
                7.74467
            ],
            "to": [
                8.67542,
                7.07573,
                8.25533
            ],
            "rotation": {
                "angle": 22.5,
                "axis": "z",
                "origin": [
                    8.60042,
                    6.80073,
                    8
                ]
            },
            "faces": {
                "north": {
                    "uv": [
                        5.25,
                        3.25,
                        5.375,
                        3.875
                    ],
                    "texture": "#0"
                },
                "east": {
                    "uv": [
                        5.25,
                        3.25,
                        5.375,
                        3.875
                    ],
                    "texture": "#0"
                },
                "south": {
                    "uv": [
                        5.25,
                        3.25,
                        5.375,
                        3.875
                    ],
                    "texture": "#0"
                },
                "west": {
                    "uv": [
                        5.25,
                        3.25,
                        5.375,
                        3.875
                    ],
                    "texture": "#0"
                },
                "up": {
                    "uv": [
                        5.25,
                        3.25,
                        5.375,
                        3.875
                    ],
                    "texture": "#0"
                },
                "down": {
                    "uv": [
                        5.25,
                        3.25,
                        5.375,
                        3.875
                    ],
                    "texture": "#0"
                }
            }
        },
        {
            "name": "octagon",
            "from": [
                7.625,
                6.875,
                7.54467
            ],
            "to": [
                8.375,
                7.375,
                8.45533
            ],
            "rotation": {
                "angle": 0,
                "axis": "y",
                "origin": [
                    8,
                    6,
                    8
                ]
            },
            "faces": {
                "north": {
                    "uv": [
                        5.25,
                        3.25,
                        5.375,
                        3.875
                    ],
                    "texture": "#0"
                },
                "east": {
                    "uv": [
                        5.25,
                        3.25,
                        5.375,
                        3.875
                    ],
                    "texture": "#0"
                },
                "south": {
                    "uv": [
                        5.25,
                        3.25,
                        5.375,
                        3.875
                    ],
                    "texture": "#0"
                },
                "west": {
                    "uv": [
                        5.25,
                        3.25,
                        5.375,
                        3.875
                    ],
                    "texture": "#0"
                },
                "up": {
                    "uv": [
                        5.25,
                        3.25,
                        5.375,
                        3.875
                    ],
                    "texture": "#0"
                },
                "down": {
                    "uv": [
                        5.25,
                        3.25,
                        5.375,
                        3.875
                    ],
                    "texture": "#0"
                }
            }
        },
        {
            "name": "octagon",
            "from": [
                7.625,
                7.27739,
                7.62471
            ],
            "to": [
                8.375,
                8.07739,
                8.03537
            ],
            "rotation": {
                "angle": 22.5,
                "axis": "x",
                "origin": [
                    8,
                    7.52739,
                    7.83004
                ]
            },
            "faces": {
                "north": {
                    "uv": [
                        5.25,
                        3.25,
                        5.375,
                        3.875
                    ],
                    "texture": "#0"
                },
                "east": {
                    "uv": [
                        5.25,
                        3.25,
                        5.375,
                        3.875
                    ],
                    "texture": "#0"
                },
                "south": {
                    "uv": [
                        5.25,
                        3.25,
                        5.375,
                        3.875
                    ],
                    "texture": "#0"
                },
                "west": {
                    "uv": [
                        5.25,
                        3.25,
                        5.375,
                        3.875
                    ],
                    "texture": "#0"
                },
                "up": {
                    "uv": [
                        5.25,
                        3.25,
                        5.375,
                        3.875
                    ],
                    "texture": "#0"
                },
                "down": {
                    "uv": [
                        5.25,
                        3.25,
                        5.375,
                        3.875
                    ],
                    "texture": "#0"
                }
            }
        },
        {
            "name": "octagon",
            "from": [
                7.625,
                7.26598,
                7.90723
            ],
            "to": [
                8.375,
                8.06598,
                8.31789
            ],
            "rotation": {
                "angle": -22.5,
                "axis": "x",
                "origin": [
                    8,
                    7.66598,
                    8.11256
                ]
            },
            "faces": {
                "north": {
                    "uv": [
                        5.25,
                        3.25,
                        5.375,
                        3.875
                    ],
                    "texture": "#0"
                },
                "east": {
                    "uv": [
                        5.25,
                        3.25,
                        5.375,
                        3.875
                    ],
                    "texture": "#0"
                },
                "south": {
                    "uv": [
                        5.25,
                        3.25,
                        5.375,
                        3.875
                    ],
                    "texture": "#0"
                },
                "west": {
                    "uv": [
                        5.25,
                        3.25,
                        5.375,
                        3.875
                    ],
                    "texture": "#0"
                },
                "up": {
                    "uv": [
                        5.25,
                        3.25,
                        5.375,
                        3.875
                    ],
                    "texture": "#0"
                },
                "down": {
                    "uv": [
                        5.25,
                        3.25,
                        5.375,
                        3.875
                    ],
                    "texture": "#0"
                }
            }
        }
    ],
    "display": {
        "thirdperson_righthand": {
            "rotation": [
                68,
                -85.84,
                61.27
            ],
            "translation": [
                0,
                8.5,
                2.5
            ],
            "scale": [
                1.5,
                1.5,
                1.5
            ]
        },
        "thirdperson_lefthand": {
            "rotation": [
                68,
                -85.84,
                61.2696
            ],
            "translation": [
                0,
                8,
                2.5
            ],
            "scale": [
                1.5,
                1.5,
                1.5
            ]
        },
        "firstperson_righthand": {
            "rotation": [
                -45,
                -85.25,
                0
            ],
            "translation": [
                -1.5,
                5.75,
                0
            ],
            "scale": [
                1.5,
                1.5,
                1.5
            ]
        },
        "firstperson_lefthand": {
            "rotation": [
                -45,
                -85.25,
                0
            ],
            "translation": [
                -1.5,
                5.75,
                0
            ],
            "scale": [
                1.5,
                1.5,
                1.5
            ]
        },
        "ground": {
            "rotation": [
                0,
                0,
                45
            ],
            "translation": [
                -1.25,
                1.5,
                -0.75
            ]
        },
        "gui": {
            "rotation": [
                0,
                0,
                -45
            ],
            "translation": [
                2.25,
                2.5,
                0
            ],
            "scale": [
                1.5,
                1.5,
                1.5
            ]
        },
        "fixed": {
            "rotation": [
                0,
                0,
                45
            ],
            "translation": [
                -2,
                2.5,
                0
            ],
            "scale": [
                1.5,
                1.5,
                1.5
            ]
        }
    }
}