{
	"credit": "Made with Blockbench",
	"textures": {
		"0": "gci:items/gun_mdr/all_in_one",
		"particle": "gci:items/gun_mdr/all_in_one"
	},
	"elements": [
		{
			"from": [7.999, 8.66968, 11.28971],
			"to": [8.639, 10.72568, 13.69971],
			"rotation": {"angle": 0, "axis": "y", "origin": [8.319, 10.03368, 10.71871]},
			"faces": {
				"north": {"uv": [3.75, 2.75, 4.25, 3.625], "rotation": 90, "texture": "#0"},
				"east": {"uv": [3.75, 2.75, 4.25, 3.625], "rotation": 90, "texture": "#0"},
				"south": {"uv": [3.5, 3.75, 4.625, 3.75], "rotation": 90, "texture": "#0"},
				"west": {"uv": [3.75, 2.75, 4.25, 3.625], "rotation": 90, "texture": "#0"},
				"up": {"uv": [3.75, 2.75, 4.25, 3.625], "rotation": 90, "texture": "#0"},
				"down": {"uv": [3.75, 3, 4.125, 3], "rotation": 90, "texture": "#0"}
			}
		}
	],
	"display": {
		"thirdperson_righthand": {
			"rotation": [0, 0, 7],
			"translation": [-0.75, -2.25, 2],
			"scale": [1.14, 1, 1]
		},
		"thirdperson_lefthand": {
			"rotation": [0, 0, 7],
			"translation": [-0.25, -1.75, 2.75],
			"scale": [1.14, 1, 1]
		},
		"firstperson_righthand": {
			"translation": [-5, 0.75, 2.75],
			"scale": [1.25, 1.19, 1.14]
		},
		"firstperson_lefthand": {
			"translation": [-5.25, 0.75, 2.75],
			"scale": [1.25, 1.19, 1.14]
		},
		"gui": {
			"rotation": [23, 38, -16],
			"translation": [-0.5, -2.75, 0],
			"scale": [1.64, 1.41461, 1.27094]
		},
		"head": {
			"rotation": [0, -139.5, 90],
			"translation": [-2.5, 6.5, 2.5],
			"scale": [1.89781, 1.89781, 1.89781]
		},
		"fixed": {
			"rotation": [0, 90, 0],
			"translation": [0, 0, -1.25],
			"scale": [1.22, 1.22, 1.22]
		}
	}
}