{
	"credit": "Made with Blockbench",
	"textures": {
		"0": "gci:items/gun_mdr/all_in_one",
		"particle": "gci:items/gun_mdr/all_in_one"
	},
	"elements": [
		{
			"from": [7.992, 12.41892, 3.784],
			"to": [8.68, 12.83492, 4.484],
			"rotation": {"angle": 0, "axis": "y", "origin": [8.323, 12.72959, 5.286]},
			"faces": {
				"north": {"uv": [3.875, 3.125, 3.875, 3.125], "rotation": 270, "texture": "#0"},
				"east": {"uv": [3.875, 3.125, 3.875, 3.125], "rotation": 270, "texture": "#0"},
				"south": {"uv": [3.875, 3.125, 3.875, 3.125], "rotation": 270, "texture": "#0"},
				"west": {"uv": [3.875, 3.125, 3.875, 3.125], "rotation": 270, "texture": "#0"},
				"up": {"uv": [3.875, 3.125, 3.875, 3.125], "rotation": 270, "texture": "#0"},
				"down": {"uv": [3.875, 3.125, 3.875, 3.125], "rotation": 270, "texture": "#0"}
			}
		},
		{
			"from": [7.992, 12.73892, 3.784],
			"to": [8.168, 13.37892, 4.484],
			"rotation": {"angle": 0, "axis": "y", "origin": [8.323, 13.04959, 5.286]},
			"faces": {
				"north": {"uv": [3.875, 3.125, 3.875, 3.125], "rotation": 270, "texture": "#0"},
				"east": {"uv": [3.875, 3.125, 3.875, 3.125], "rotation": 270, "texture": "#0"},
				"south": {"uv": [3.875, 3.125, 3.875, 3.125], "rotation": 270, "texture": "#0"},
				"west": {"uv": [3.875, 3.125, 3.875, 3.125], "rotation": 270, "texture": "#0"},
				"up": {"uv": [3.875, 3.125, 3.875, 3.125], "rotation": 270, "texture": "#0"},
				"down": {"uv": [3.875, 3.125, 3.875, 3.125], "rotation": 270, "texture": "#0"}
			}
		},
		{
			"from": [8.504, 12.73892, 3.784],
			"to": [8.68, 13.37892, 4.484],
			"rotation": {"angle": 0, "axis": "y", "origin": [8.323, 13.04959, 5.286]},
			"faces": {
				"north": {"uv": [3.875, 3.125, 3.875, 3.125], "rotation": 270, "texture": "#0"},
				"east": {"uv": [3.875, 3.125, 3.875, 3.125], "rotation": 270, "texture": "#0"},
				"south": {"uv": [3.875, 3.125, 3.875, 3.125], "rotation": 270, "texture": "#0"},
				"west": {"uv": [3.875, 3.125, 3.875, 3.125], "rotation": 270, "texture": "#0"},
				"up": {"uv": [3.875, 3.125, 3.875, 3.125], "rotation": 270, "texture": "#0"},
				"down": {"uv": [3.875, 3.125, 3.875, 3.125], "rotation": 270, "texture": "#0"}
			}
		},
		{
			"from": [7.992, 12.41892, 5.8],
			"to": [8.68, 12.83492, 6.5],
			"rotation": {"angle": 0, "axis": "y", "origin": [8.323, 12.72959, 7.302]},
			"faces": {
				"north": {"uv": [3.875, 3.125, 3.875, 3.125], "rotation": 270, "texture": "#0"},
				"east": {"uv": [3.875, 3.125, 3.875, 3.125], "rotation": 270, "texture": "#0"},
				"south": {"uv": [3.875, 3.125, 3.875, 3.125], "rotation": 270, "texture": "#0"},
				"west": {"uv": [3.875, 3.125, 3.875, 3.125], "rotation": 270, "texture": "#0"},
				"up": {"uv": [3.875, 3.125, 3.875, 3.125], "rotation": 270, "texture": "#0"},
				"down": {"uv": [3.875, 3.125, 3.875, 3.125], "rotation": 270, "texture": "#0"}
			}
		},
		{
			"from": [7.992, 12.41892, 3.784],
			"to": [8.68, 12.73892, 6.5],
			"rotation": {"angle": 0, "axis": "y", "origin": [8.323, 12.72959, 7.302]},
			"faces": {
				"north": {"uv": [3.875, 3.125, 3.875, 3.125], "rotation": 270, "texture": "#0"},
				"east": {"uv": [3.875, 3.125, 3.875, 3.125], "rotation": 270, "texture": "#0"},
				"south": {"uv": [3.875, 3.125, 3.875, 3.125], "rotation": 270, "texture": "#0"},
				"west": {"uv": [3.875, 3.125, 3.875, 3.125], "rotation": 270, "texture": "#0"},
				"up": {"uv": [3.875, 3.125, 3.875, 3.125], "rotation": 270, "texture": "#0"},
				"down": {"uv": [3.875, 3.125, 3.875, 3.125], "rotation": 270, "texture": "#0"}
			}
		},
		{
			"from": [7.992, 12.73892, 5.8],
			"to": [8.168, 13.37892, 6.5],
			"rotation": {"angle": 0, "axis": "y", "origin": [8.323, 13.04959, 7.302]},
			"faces": {
				"north": {"uv": [3.875, 3.125, 3.875, 3.125], "rotation": 270, "texture": "#0"},
				"east": {"uv": [3.875, 3.125, 3.875, 3.125], "rotation": 270, "texture": "#0"},
				"south": {"uv": [3.875, 3.125, 3.875, 3.125], "rotation": 270, "texture": "#0"},
				"west": {"uv": [3.875, 3.125, 3.875, 3.125], "rotation": 270, "texture": "#0"},
				"up": {"uv": [3.875, 3.125, 3.875, 3.125], "rotation": 270, "texture": "#0"},
				"down": {"uv": [3.875, 3.125, 3.875, 3.125], "rotation": 270, "texture": "#0"}
			}
		},
		{
			"from": [8.504, 12.73892, 5.8],
			"to": [8.68, 13.37892, 6.5],
			"rotation": {"angle": 0, "axis": "y", "origin": [8.323, 13.04959, 7.302]},
			"faces": {
				"north": {"uv": [3.875, 3.125, 3.875, 3.125], "rotation": 270, "texture": "#0"},
				"east": {"uv": [3.875, 3.125, 3.875, 3.125], "rotation": 270, "texture": "#0"},
				"south": {"uv": [3.875, 3.125, 3.875, 3.125], "rotation": 270, "texture": "#0"},
				"west": {"uv": [3.875, 3.125, 3.875, 3.125], "rotation": 270, "texture": "#0"},
				"up": {"uv": [3.875, 3.125, 3.875, 3.125], "rotation": 270, "texture": "#0"},
				"down": {"uv": [3.875, 3.125, 3.875, 3.125], "rotation": 270, "texture": "#0"}
			}
		},
		{
			"from": [7.96, 12.51692, 4.07],
			"to": [8.712, 12.64092, 4.198],
			"rotation": {"angle": -45, "axis": "x", "origin": [8.336, 12.57892, 4.134]},
			"faces": {
				"north": {"uv": [2.875, 1, 2.875, 1.25], "texture": "#0"},
				"east": {"uv": [2.875, 1, 2.875, 1.25], "texture": "#0"},
				"south": {"uv": [2.875, 1, 2.875, 1.25], "texture": "#0"},
				"west": {"uv": [2.875, 1, 2.875, 1.25], "texture": "#0"},
				"up": {"uv": [2.875, 1, 2.875, 1.25], "texture": "#0"},
				"down": {"uv": [2.875, 1, 2.875, 1.25], "texture": "#0"}
			}
		},
		{
			"from": [7.96, 12.51692, 6.086],
			"to": [8.712, 12.64092, 6.214],
			"rotation": {"angle": -45, "axis": "x", "origin": [8.336, 12.57892, 6.15]},
			"faces": {
				"north": {"uv": [2.875, 1, 2.875, 1.25], "texture": "#0"},
				"east": {"uv": [2.875, 1, 2.875, 1.25], "texture": "#0"},
				"south": {"uv": [2.875, 1, 2.875, 1.25], "texture": "#0"},
				"west": {"uv": [2.875, 1, 2.875, 1.25], "texture": "#0"},
				"up": {"uv": [2.875, 1, 2.875, 1.25], "texture": "#0"},
				"down": {"uv": [2.875, 1, 2.875, 1.25], "texture": "#0"}
			}
		},
		{
			"from": [8.54548, 13.70662, 3.288],
			"to": [8.68148, 13.93862, 7.424],
			"rotation": {"angle": 22.5, "axis": "z", "origin": [8.61348, 13.87062, 4.796]},
			"faces": {
				"north": {"uv": [3, 3.75, 3, 3.75], "rotation": 270, "texture": "#0"},
				"east": {"uv": [3, 3.75, 3, 3.75], "rotation": 270, "texture": "#0"},
				"south": {"uv": [3, 3.75, 3, 3.75], "rotation": 270, "texture": "#0"},
				"west": {"uv": [3, 3.75, 3, 3.75], "rotation": 270, "texture": "#0"},
				"up": {"uv": [3, 3.75, 3, 3.75], "rotation": 270, "texture": "#0"},
				"down": {"uv": [3, 3.75, 3, 3.75], "rotation": 270, "texture": "#0"}
			}
		},
		{
			"from": [8.0222, 13.45565, 3.288],
			"to": [8.1582, 13.68765, 7.424],
			"rotation": {"angle": 22.5, "axis": "z", "origin": [8.33489, 13.38728, 4.796]},
			"faces": {
				"north": {"uv": [3, 3.75, 3, 3.75], "rotation": 90, "texture": "#0"},
				"east": {"uv": [3, 3.75, 3, 3.75], "rotation": 90, "texture": "#0"},
				"south": {"uv": [3, 3.75, 3, 3.75], "rotation": 90, "texture": "#0"},
				"west": {"uv": [3, 3.75, 3, 3.75], "rotation": 90, "texture": "#0"},
				"up": {"uv": [3, 3.75, 3, 3.75], "rotation": 90, "texture": "#0"},
				"down": {"uv": [3, 3.75, 3, 3.75], "rotation": 90, "texture": "#0"}
			}
		},
		{
			"from": [8.40474, 13.8914, 3.288],
			"to": [8.63674, 14.0274, 7.424],
			"rotation": {"angle": -22.5, "axis": "z", "origin": [8.47274, 13.9594, 4.86]},
			"faces": {
				"north": {"uv": [3, 3.75, 3, 3.75], "texture": "#0"},
				"east": {"uv": [3, 3.75, 3, 3.75], "texture": "#0"},
				"south": {"uv": [3, 3.75, 3, 3.75], "texture": "#0"},
				"west": {"uv": [3, 3.75, 3, 3.75], "texture": "#0"},
				"up": {"uv": [3, 3.75, 3, 3.75], "texture": "#0"},
				"down": {"uv": [3, 3.75, 3, 3.75], "texture": "#0"}
			}
		},
		{
			"from": [8.06544, 13.21452, 3.288],
			"to": [8.29744, 13.35052, 7.424],
			"rotation": {"angle": -22.5, "axis": "z", "origin": [8.33489, 13.38728, 4.796]},
			"faces": {
				"north": {"uv": [3, 3.75, 3, 3.75], "rotation": 180, "texture": "#0"},
				"east": {"uv": [3, 3.75, 3, 3.75], "rotation": 180, "texture": "#0"},
				"south": {"uv": [3, 3.75, 3, 3.75], "rotation": 180, "texture": "#0"},
				"west": {"uv": [3, 3.75, 3, 3.75], "rotation": 180, "texture": "#0"},
				"up": {"uv": [3, 3.75, 3, 3.75], "rotation": 180, "texture": "#0"},
				"down": {"uv": [3, 3.75, 3, 3.75], "rotation": 180, "texture": "#0"}
			}
		},
		{
			"from": [8.23594, 13.91225, 3.288],
			"to": [8.43594, 14.04825, 7.424],
			"rotation": {"angle": 0, "axis": "y", "origin": [15.78794, 21.04825, 14.584]},
			"faces": {
				"north": {"uv": [3, 3.75, 3, 3.75], "texture": "#0"},
				"east": {"uv": [3, 3.75, 3, 3.75], "texture": "#0"},
				"south": {"uv": [3, 3.75, 3, 3.75], "texture": "#0"},
				"west": {"uv": [3, 3.75, 3, 3.75], "texture": "#0"},
				"up": {"uv": [3, 3.75, 3, 3.75], "texture": "#0"},
				"down": {"uv": [3, 3.75, 3, 3.75], "texture": "#0"}
			}
		},
		{
			"from": [8.60306, 13.54513, 3.032],
			"to": [8.73906, 13.74513, 7.424],
			"rotation": {"angle": 0, "axis": "y", "origin": [8.32178, 13.64583, 4.796]},
			"faces": {
				"north": {"uv": [3, 3.75, 3, 3.75], "rotation": 90, "texture": "#0"},
				"east": {"uv": [3, 3.75, 3, 3.75], "rotation": 90, "texture": "#0"},
				"south": {"uv": [3, 3.75, 3, 3.75], "rotation": 90, "texture": "#0"},
				"west": {"uv": [3, 3.75, 3, 3.75], "rotation": 90, "texture": "#0"},
				"up": {"uv": [3, 3.75, 3, 3.75], "rotation": 90, "texture": "#0"},
				"down": {"uv": [3, 3.75, 3, 3.75], "rotation": 90, "texture": "#0"}
			}
		},
		{
			"from": [8.23418, 13.242, 3.288],
			"to": [8.43418, 13.378, 7.424],
			"rotation": {"angle": 0, "axis": "y", "origin": [8.33489, 13.38728, 4.796]},
			"faces": {
				"north": {"uv": [3, 3.75, 3, 3.75], "rotation": 180, "texture": "#0"},
				"east": {"uv": [3, 3.75, 3, 3.75], "rotation": 180, "texture": "#0"},
				"south": {"uv": [3, 3.75, 3, 3.75], "rotation": 180, "texture": "#0"},
				"west": {"uv": [3, 3.75, 3, 3.75], "rotation": 180, "texture": "#0"},
				"up": {"uv": [3, 3.75, 3, 3.75], "rotation": 180, "texture": "#0"},
				"down": {"uv": [3, 3.75, 3, 3.75], "rotation": 180, "texture": "#0"}
			}
		},
		{
			"from": [7.93106, 13.54512, 3.288],
			"to": [8.06706, 13.74512, 7.424],
			"rotation": {"angle": 0, "axis": "y", "origin": [8.34834, 13.64442, 4.796]},
			"faces": {
				"north": {"uv": [3, 3.75, 3, 3.75], "rotation": 270, "texture": "#0"},
				"east": {"uv": [3, 3.75, 3, 3.75], "rotation": 270, "texture": "#0"},
				"south": {"uv": [3, 3.75, 3, 3.75], "rotation": 270, "texture": "#0"},
				"west": {"uv": [3, 3.75, 3, 3.75], "rotation": 270, "texture": "#0"},
				"up": {"uv": [3, 3.75, 3, 3.75], "rotation": 270, "texture": "#0"},
				"down": {"uv": [3, 3.75, 3, 3.75], "rotation": 270, "texture": "#0"}
			}
		},
		{
			"from": [8.08873, 13.82711, 3.288],
			"to": [8.32073, 13.96311, 7.424],
			"rotation": {"angle": 22.5, "axis": "z", "origin": [8.06346, 13.78814, 4.80667]},
			"faces": {
				"north": {"uv": [3, 3.75, 3, 3.75], "texture": "#0"},
				"east": {"uv": [3, 3.75, 3, 3.75], "texture": "#0"},
				"south": {"uv": [3, 3.75, 3, 3.75], "texture": "#0"},
				"west": {"uv": [3, 3.75, 3, 3.75], "texture": "#0"},
				"up": {"uv": [3, 3.75, 3, 3.75], "texture": "#0"},
				"down": {"uv": [3, 3.75, 3, 3.75], "texture": "#0"}
			}
		},
		{
			"from": [8.37265, 13.21439, 3.288],
			"to": [8.60465, 13.35039, 7.424],
			"rotation": {"angle": 22.5, "axis": "z", "origin": [8.33489, 13.38728, 4.796]},
			"faces": {
				"north": {"uv": [3, 3.75, 3, 3.75], "rotation": 180, "texture": "#0"},
				"east": {"uv": [3, 3.75, 3, 3.75], "rotation": 180, "texture": "#0"},
				"south": {"uv": [3, 3.75, 3, 3.75], "rotation": 180, "texture": "#0"},
				"west": {"uv": [3, 3.75, 3, 3.75], "rotation": 180, "texture": "#0"},
				"up": {"uv": [3, 3.75, 3, 3.75], "rotation": 180, "texture": "#0"},
				"down": {"uv": [3, 3.75, 3, 3.75], "rotation": 180, "texture": "#0"}
			}
		},
		{
			"from": [7.9576, 13.69773, 3.288],
			"to": [8.0936, 13.92973, 7.424],
			"rotation": {"angle": -22.5, "axis": "z", "origin": [8.06346, 13.78814, 4.80667]},
			"faces": {
				"north": {"uv": [3, 3.75, 3, 3.75], "rotation": 90, "texture": "#0"},
				"east": {"uv": [3, 3.75, 3, 3.75], "rotation": 90, "texture": "#0"},
				"south": {"uv": [3, 3.75, 3, 3.75], "rotation": 90, "texture": "#0"},
				"west": {"uv": [3, 3.75, 3, 3.75], "rotation": 90, "texture": "#0"},
				"up": {"uv": [3, 3.75, 3, 3.75], "rotation": 90, "texture": "#0"},
				"down": {"uv": [3, 3.75, 3, 3.75], "rotation": 90, "texture": "#0"}
			}
		},
		{
			"from": [8.51189, 13.45578, 3.288],
			"to": [8.64789, 13.68778, 7.424],
			"rotation": {"angle": -22.5, "axis": "z", "origin": [8.33489, 13.38728, 4.796]},
			"faces": {
				"north": {"uv": [3, 3.75, 3, 3.75], "rotation": 270, "texture": "#0"},
				"east": {"uv": [3, 3.75, 3, 3.75], "rotation": 270, "texture": "#0"},
				"south": {"uv": [3, 3.75, 3, 3.75], "rotation": 270, "texture": "#0"},
				"west": {"uv": [3, 3.75, 3, 3.75], "rotation": 270, "texture": "#0"},
				"up": {"uv": [3, 3.75, 3, 3.75], "rotation": 270, "texture": "#0"},
				"down": {"uv": [3, 3.75, 3, 3.75], "rotation": 270, "texture": "#0"}
			}
		},
		{
			"name": "hexadecagon",
			"from": [8.23594, 13.14425, 7.064],
			"to": [8.43485, 13.25625, 8.992],
			"rotation": {"angle": -45, "axis": "z", "origin": [8.3354, 13.64425, 7.564]},
			"faces": {
				"north": {"uv": [3.625, 3.625, 3.875, 3.625], "texture": "#0"},
				"east": {"uv": [3.625, 3.625, 3.875, 3.625], "texture": "#0"},
				"south": {"uv": [3.625, 3.625, 3.875, 3.625], "texture": "#0"},
				"west": {"uv": [3.625, 3.625, 3.875, 3.625], "texture": "#0"},
				"up": {"uv": [3.625, 3.625, 3.875, 3.625], "texture": "#0"},
				"down": {"uv": [3.625, 3.625, 3.875, 3.625], "texture": "#0"}
			}
		},
		{
			"name": "hexadecagon",
			"from": [8.23594, 13.14425, 7.064],
			"to": [8.43485, 13.25625, 8.992],
			"rotation": {"angle": -22.5, "axis": "z", "origin": [8.3354, 13.64425, 7.564]},
			"faces": {
				"north": {"uv": [3.625, 3.625, 3.875, 3.625], "texture": "#0"},
				"east": {"uv": [3.625, 3.625, 3.875, 3.625], "texture": "#0"},
				"south": {"uv": [3.625, 3.625, 3.875, 3.625], "texture": "#0"},
				"west": {"uv": [3.625, 3.625, 3.875, 3.625], "texture": "#0"},
				"up": {"uv": [3.625, 3.625, 3.875, 3.625], "texture": "#0"},
				"down": {"uv": [3.625, 3.625, 3.875, 3.625], "texture": "#0"}
			}
		},
		{
			"name": "hexadecagon",
			"from": [8.23594, 13.14425, 7.064],
			"to": [8.43485, 13.25625, 8.992],
			"rotation": {"angle": 0, "axis": "y", "origin": [8.3354, 13.64425, 7.564]},
			"faces": {
				"north": {"uv": [3.625, 3.625, 3.875, 3.625], "texture": "#0"},
				"east": {"uv": [3.625, 3.625, 3.875, 3.625], "texture": "#0"},
				"south": {"uv": [3.625, 3.625, 3.875, 3.625], "texture": "#0"},
				"west": {"uv": [3.625, 3.625, 3.875, 3.625], "texture": "#0"},
				"up": {"uv": [3.625, 3.625, 3.875, 3.625], "texture": "#0"},
				"down": {"uv": [3.625, 3.625, 3.875, 3.625], "texture": "#0"}
			}
		},
		{
			"name": "hexadecagon",
			"from": [8.04394, 13.27225, 7.672],
			"to": [8.65885, 14.02425, 8.928],
			"rotation": {"angle": 0, "axis": "y", "origin": [8.3354, 13.64425, 7.564]},
			"faces": {
				"north": {"uv": [3.75, 11.875, 3.75, 11.875], "texture": "#0"},
				"east": {"uv": [3.75, 11.875, 3.75, 11.875], "texture": "#0"},
				"south": {"uv": [3.75, 11.875, 3.75, 11.875], "texture": "#0"},
				"west": {"uv": [3.75, 11.875, 3.75, 11.875], "texture": "#0"},
				"up": {"uv": [3.75, 11.875, 3.75, 11.875], "texture": "#0"},
				"down": {"uv": [3.75, 11.875, 3.75, 11.875], "texture": "#0"}
			}
		},
		{
			"name": "hexadecagon",
			"from": [7.9634, 13.32079, 7.672],
			"to": [8.7014, 13.93571, 8.928],
			"rotation": {"angle": 0, "axis": "y", "origin": [8.3674, 13.64425, 7.564]},
			"faces": {
				"north": {"uv": [3.75, 11.875, 3.75, 11.875], "rotation": 90, "texture": "#0"},
				"east": {"uv": [3.75, 11.875, 3.75, 11.875], "rotation": 90, "texture": "#0"},
				"south": {"uv": [3.75, 11.875, 3.75, 11.875], "rotation": 90, "texture": "#0"},
				"west": {"uv": [3.75, 11.875, 3.75, 11.875], "rotation": 90, "texture": "#0"},
				"up": {"uv": [3.75, 11.875, 3.75, 11.875], "rotation": 90, "texture": "#0"},
				"down": {"uv": [3.75, 11.875, 3.75, 11.875], "rotation": 90, "texture": "#0"}
			}
		},
		{
			"name": "hexadecagon",
			"from": [7.9314, 13.48079, 7.672],
			"to": [8.7654, 13.87171, 8.928],
			"rotation": {"angle": 0, "axis": "y", "origin": [8.3674, 13.64425, 7.564]},
			"faces": {
				"north": {"uv": [3.75, 11.875, 3.75, 11.875], "rotation": 90, "texture": "#0"},
				"east": {"uv": [3.75, 11.875, 3.75, 11.875], "rotation": 90, "texture": "#0"},
				"south": {"uv": [3.75, 11.875, 3.75, 11.875], "rotation": 90, "texture": "#0"},
				"west": {"uv": [3.75, 11.875, 3.75, 11.875], "rotation": 90, "texture": "#0"},
				"up": {"uv": [3.75, 11.875, 3.75, 11.875], "rotation": 90, "texture": "#0"},
				"down": {"uv": [3.75, 11.875, 3.75, 11.875], "rotation": 90, "texture": "#0"}
			}
		},
		{
			"name": "hexadecagon",
			"from": [8.20394, 13.24625, 7.672],
			"to": [8.59485, 14.04825, 8.928],
			"rotation": {"angle": 0, "axis": "y", "origin": [8.3674, 13.64425, 7.564]},
			"faces": {
				"north": {"uv": [3.75, 11.875, 3.75, 11.875], "rotation": 180, "texture": "#0"},
				"east": {"uv": [3.75, 11.875, 3.75, 11.875], "rotation": 180, "texture": "#0"},
				"south": {"uv": [3.75, 11.875, 3.75, 11.875], "rotation": 180, "texture": "#0"},
				"west": {"uv": [3.75, 11.875, 3.75, 11.875], "rotation": 180, "texture": "#0"},
				"up": {"uv": [3.75, 11.875, 3.75, 11.875], "rotation": 180, "texture": "#0"},
				"down": {"uv": [3.75, 11.875, 3.75, 11.875], "rotation": 180, "texture": "#0"}
			}
		},
		{
			"name": "hexadecagon",
			"from": [7.97994, 13.30425, 1.16],
			"to": [8.69085, 13.99225, 2.416],
			"rotation": {"angle": 0, "axis": "y", "origin": [8.3354, 13.64425, 1.052]},
			"faces": {
				"north": {"uv": [3.75, 11.875, 4, 11.875], "texture": "#0"},
				"east": {"uv": [3.75, 11.875, 4, 11.875], "texture": "#0"},
				"south": {"uv": [3.75, 11.875, 4, 11.875], "texture": "#0"},
				"west": {"uv": [3.75, 11.875, 4, 11.875], "texture": "#0"},
				"up": {"uv": [3.75, 11.875, 4, 11.875], "texture": "#0"},
				"down": {"uv": [3.75, 11.875, 4, 11.875], "texture": "#0"}
			}
		},
		{
			"name": "hexadecagon",
			"from": [8.23594, 13.14425, 7.064],
			"to": [8.43485, 13.25625, 8.992],
			"rotation": {"angle": 22.5, "axis": "z", "origin": [8.3354, 13.64425, 7.564]},
			"faces": {
				"north": {"uv": [3.625, 3.625, 3.875, 3.625], "texture": "#0"},
				"east": {"uv": [3.625, 3.625, 3.875, 3.625], "texture": "#0"},
				"south": {"uv": [3.625, 3.625, 3.875, 3.625], "texture": "#0"},
				"west": {"uv": [3.625, 3.625, 3.875, 3.625], "texture": "#0"},
				"up": {"uv": [3.625, 3.625, 3.875, 3.625], "texture": "#0"},
				"down": {"uv": [3.625, 3.625, 3.875, 3.625], "texture": "#0"}
			}
		},
		{
			"name": "hexadecagon",
			"from": [8.23594, 13.14425, 7.064],
			"to": [8.43485, 13.25625, 8.992],
			"rotation": {"angle": 45, "axis": "z", "origin": [8.3354, 13.64425, 7.564]},
			"faces": {
				"north": {"uv": [3.625, 3.625, 3.875, 3.625], "texture": "#0"},
				"east": {"uv": [3.625, 3.625, 3.875, 3.625], "texture": "#0"},
				"south": {"uv": [3.625, 3.625, 3.875, 3.625], "texture": "#0"},
				"west": {"uv": [3.625, 3.625, 3.875, 3.625], "texture": "#0"},
				"up": {"uv": [3.625, 3.625, 3.875, 3.625], "texture": "#0"},
				"down": {"uv": [3.625, 3.625, 3.875, 3.625], "texture": "#0"}
			}
		},
		{
			"name": "hexadecagon",
			"from": [8.23594, 14.03225, 7.064],
			"to": [8.43485, 14.14425, 8.992],
			"rotation": {"angle": -45, "axis": "z", "origin": [8.3354, 13.64425, 7.564]},
			"faces": {
				"north": {"uv": [3.625, 3.625, 3.875, 3.625], "texture": "#0"},
				"east": {"uv": [3.625, 3.625, 3.875, 3.625], "texture": "#0"},
				"south": {"uv": [3.625, 3.625, 3.875, 3.625], "texture": "#0"},
				"west": {"uv": [3.625, 3.625, 3.875, 3.625], "texture": "#0"},
				"up": {"uv": [3.625, 3.625, 3.875, 3.625], "texture": "#0"},
				"down": {"uv": [3.625, 3.625, 3.875, 3.625], "texture": "#0"}
			}
		},
		{
			"name": "hexadecagon",
			"from": [8.23594, 14.03225, 7.064],
			"to": [8.43485, 14.14425, 8.992],
			"rotation": {"angle": -22.5, "axis": "z", "origin": [8.3354, 13.64425, 7.564]},
			"faces": {
				"north": {"uv": [3.625, 3.625, 3.875, 3.625], "texture": "#0"},
				"east": {"uv": [3.625, 3.625, 3.875, 3.625], "texture": "#0"},
				"south": {"uv": [3.625, 3.625, 3.875, 3.625], "texture": "#0"},
				"west": {"uv": [3.625, 3.625, 3.875, 3.625], "texture": "#0"},
				"up": {"uv": [3.625, 3.625, 3.875, 3.625], "texture": "#0"},
				"down": {"uv": [3.625, 3.625, 3.875, 3.625], "texture": "#0"}
			}
		},
		{
			"name": "hexadecagon",
			"from": [8.23594, 14.03225, 7.064],
			"to": [8.43485, 14.14425, 8.992],
			"rotation": {"angle": 0, "axis": "y", "origin": [8.3354, 13.64425, 7.564]},
			"faces": {
				"north": {"uv": [3.625, 3.625, 3.875, 3.625], "texture": "#0"},
				"east": {"uv": [3.625, 3.625, 3.875, 3.625], "texture": "#0"},
				"south": {"uv": [3.625, 3.625, 3.875, 3.625], "texture": "#0"},
				"west": {"uv": [3.625, 3.625, 3.875, 3.625], "texture": "#0"},
				"up": {"uv": [3.625, 3.625, 3.875, 3.625], "texture": "#0"},
				"down": {"uv": [3.625, 3.625, 3.875, 3.625], "texture": "#0"}
			}
		},
		{
			"name": "hexadecagon",
			"from": [8.23594, 14.03225, 7.064],
			"to": [8.43485, 14.14425, 8.992],
			"rotation": {"angle": 22.5, "axis": "z", "origin": [8.3354, 13.64425, 7.564]},
			"faces": {
				"north": {"uv": [3.625, 3.625, 3.875, 3.625], "texture": "#0"},
				"east": {"uv": [3.625, 3.625, 3.875, 3.625], "texture": "#0"},
				"south": {"uv": [3.625, 3.625, 3.875, 3.625], "texture": "#0"},
				"west": {"uv": [3.625, 3.625, 3.875, 3.625], "texture": "#0"},
				"up": {"uv": [3.625, 3.625, 3.875, 3.625], "texture": "#0"},
				"down": {"uv": [3.625, 3.625, 3.875, 3.625], "texture": "#0"}
			}
		},
		{
			"name": "hexadecagon",
			"from": [8.23594, 14.03225, 7.064],
			"to": [8.43485, 14.14425, 8.992],
			"rotation": {"angle": 45, "axis": "z", "origin": [8.3354, 13.64425, 7.564]},
			"faces": {
				"north": {"uv": [3.625, 3.625, 3.875, 3.625], "texture": "#0"},
				"east": {"uv": [3.625, 3.625, 3.875, 3.625], "texture": "#0"},
				"south": {"uv": [3.625, 3.625, 3.875, 3.625], "texture": "#0"},
				"west": {"uv": [3.625, 3.625, 3.875, 3.625], "texture": "#0"},
				"up": {"uv": [3.625, 3.625, 3.875, 3.625], "texture": "#0"},
				"down": {"uv": [3.625, 3.625, 3.875, 3.625], "texture": "#0"}
			}
		},
		{
			"name": "hexadecagon",
			"from": [7.8354, 13.54479, 7.064],
			"to": [7.9474, 13.74371, 8.992],
			"rotation": {"angle": -22.5, "axis": "z", "origin": [8.3354, 13.64425, 7.564]},
			"faces": {
				"north": {"uv": [3.625, 3.625, 3.875, 3.625], "texture": "#0"},
				"east": {"uv": [3.625, 3.625, 3.875, 3.625], "texture": "#0"},
				"south": {"uv": [3.625, 3.625, 3.875, 3.625], "texture": "#0"},
				"west": {"uv": [3.625, 3.625, 3.875, 3.625], "texture": "#0"},
				"up": {"uv": [3.625, 3.625, 3.875, 3.625], "texture": "#0"},
				"down": {"uv": [3.625, 3.625, 3.875, 3.625], "texture": "#0"}
			}
		},
		{
			"name": "hexadecagon",
			"from": [7.8354, 13.54479, 7.064],
			"to": [7.9474, 13.74371, 8.992],
			"rotation": {"angle": 0, "axis": "y", "origin": [8.3354, 13.64425, 7.564]},
			"faces": {
				"north": {"uv": [3.625, 3.625, 3.875, 3.625], "texture": "#0"},
				"east": {"uv": [3.625, 3.625, 3.875, 3.625], "texture": "#0"},
				"south": {"uv": [3.625, 3.625, 3.875, 3.625], "texture": "#0"},
				"west": {"uv": [3.625, 3.625, 3.875, 3.625], "texture": "#0"},
				"up": {"uv": [3.625, 3.625, 3.875, 3.625], "texture": "#0"},
				"down": {"uv": [3.625, 3.625, 3.875, 3.625], "texture": "#0"}
			}
		},
		{
			"name": "hexadecagon",
			"from": [7.8354, 13.54479, 7.064],
			"to": [7.9474, 13.74371, 8.992],
			"rotation": {"angle": 22.5, "axis": "z", "origin": [8.3354, 13.64425, 7.564]},
			"faces": {
				"north": {"uv": [3.625, 3.625, 3.875, 3.625], "texture": "#0"},
				"east": {"uv": [3.625, 3.625, 3.875, 3.625], "texture": "#0"},
				"south": {"uv": [3.625, 3.625, 3.875, 3.625], "texture": "#0"},
				"west": {"uv": [3.625, 3.625, 3.875, 3.625], "texture": "#0"},
				"up": {"uv": [3.625, 3.625, 3.875, 3.625], "texture": "#0"},
				"down": {"uv": [3.625, 3.625, 3.875, 3.625], "texture": "#0"}
			}
		},
		{
			"name": "hexadecagon",
			"from": [8.7234, 13.54479, 7.064],
			"to": [8.8354, 13.74371, 8.992],
			"rotation": {"angle": -22.5, "axis": "z", "origin": [8.3354, 13.64425, 7.564]},
			"faces": {
				"north": {"uv": [3.625, 3.625, 3.875, 3.625], "texture": "#0"},
				"east": {"uv": [3.625, 3.625, 3.875, 3.625], "texture": "#0"},
				"south": {"uv": [3.625, 3.625, 3.875, 3.625], "texture": "#0"},
				"west": {"uv": [3.625, 3.625, 3.875, 3.625], "texture": "#0"},
				"up": {"uv": [3.625, 3.625, 3.875, 3.625], "texture": "#0"},
				"down": {"uv": [3.625, 3.625, 3.875, 3.625], "texture": "#0"}
			}
		},
		{
			"name": "hexadecagon",
			"from": [8.7234, 13.54479, 7.064],
			"to": [8.8354, 13.74371, 8.992],
			"rotation": {"angle": 0, "axis": "y", "origin": [8.3354, 13.64425, 7.564]},
			"faces": {
				"north": {"uv": [3.625, 3.625, 3.875, 3.625], "texture": "#0"},
				"east": {"uv": [3.625, 3.625, 3.875, 3.625], "texture": "#0"},
				"south": {"uv": [3.625, 3.625, 3.875, 3.625], "texture": "#0"},
				"west": {"uv": [3.625, 3.625, 3.875, 3.625], "texture": "#0"},
				"up": {"uv": [3.625, 3.625, 3.875, 3.625], "texture": "#0"},
				"down": {"uv": [3.625, 3.625, 3.875, 3.625], "texture": "#0"}
			}
		},
		{
			"name": "hexadecagon",
			"from": [8.7234, 13.54479, 7.064],
			"to": [8.8354, 13.74371, 8.992],
			"rotation": {"angle": 22.5, "axis": "z", "origin": [8.3354, 13.64425, 7.564]},
			"faces": {
				"north": {"uv": [3.625, 3.625, 3.875, 3.625], "texture": "#0"},
				"east": {"uv": [3.625, 3.625, 3.875, 3.625], "texture": "#0"},
				"south": {"uv": [3.625, 3.625, 3.875, 3.625], "texture": "#0"},
				"west": {"uv": [3.625, 3.625, 3.875, 3.625], "texture": "#0"},
				"up": {"uv": [3.625, 3.625, 3.875, 3.625], "texture": "#0"},
				"down": {"uv": [3.625, 3.625, 3.875, 3.625], "texture": "#0"}
			}
		},
		{
			"name": "hexadecagon",
			"from": [8.23594, 13.14425, 1.016],
			"to": [8.43485, 13.32025, 3.616],
			"rotation": {"angle": -45, "axis": "z", "origin": [8.3354, 13.64425, 2.188]},
			"faces": {
				"north": {"uv": [4, 3.25, 4.5, 3.25], "texture": "#0"},
				"east": {"uv": [4, 3.25, 4.5, 3.25], "texture": "#0"},
				"south": {"uv": [4, 3.25, 4.5, 3.25], "texture": "#0"},
				"west": {"uv": [4, 3.25, 4.5, 3.25], "texture": "#0"},
				"up": {"uv": [4, 3.25, 4.5, 3.25], "texture": "#0"},
				"down": {"uv": [4, 3.25, 4.5, 3.25], "texture": "#0"}
			}
		},
		{
			"name": "hexadecagon",
			"from": [8.23594, 13.14425, 1.016],
			"to": [8.43485, 13.32025, 3.616],
			"rotation": {"angle": -22.5, "axis": "z", "origin": [8.3354, 13.64425, 2.188]},
			"faces": {
				"north": {"uv": [4, 3.25, 4.5, 3.25], "texture": "#0"},
				"east": {"uv": [4, 3.25, 4.5, 3.25], "texture": "#0"},
				"south": {"uv": [4, 3.25, 4.5, 3.25], "texture": "#0"},
				"west": {"uv": [4, 3.25, 4.5, 3.25], "texture": "#0"},
				"up": {"uv": [4, 3.25, 4.5, 3.25], "texture": "#0"},
				"down": {"uv": [4, 3.25, 4.5, 3.25], "texture": "#0"}
			}
		},
		{
			"name": "hexadecagon",
			"from": [8.23594, 13.14425, 1.016],
			"to": [8.43485, 13.32025, 3.616],
			"rotation": {"angle": 0, "axis": "y", "origin": [8.3354, 13.64425, 2.188]},
			"faces": {
				"north": {"uv": [4, 3.25, 4.5, 3.25], "texture": "#0"},
				"east": {"uv": [4, 3.25, 4.5, 3.25], "texture": "#0"},
				"south": {"uv": [4, 3.25, 4.5, 3.25], "texture": "#0"},
				"west": {"uv": [4, 3.25, 4.5, 3.25], "texture": "#0"},
				"up": {"uv": [4, 3.25, 4.5, 3.25], "texture": "#0"},
				"down": {"uv": [4, 3.25, 4.5, 3.25], "texture": "#0"}
			}
		},
		{
			"name": "hexadecagon",
			"from": [8.23594, 13.14425, 1.016],
			"to": [8.43485, 13.32025, 3.616],
			"rotation": {"angle": 22.5, "axis": "z", "origin": [8.3354, 13.64425, 2.188]},
			"faces": {
				"north": {"uv": [4, 3.25, 4.5, 3.25], "texture": "#0"},
				"east": {"uv": [4, 3.25, 4.5, 3.25], "texture": "#0"},
				"south": {"uv": [4, 3.25, 4.5, 3.25], "texture": "#0"},
				"west": {"uv": [4, 3.25, 4.5, 3.25], "texture": "#0"},
				"up": {"uv": [4, 3.25, 4.5, 3.25], "texture": "#0"},
				"down": {"uv": [4, 3.25, 4.5, 3.25], "texture": "#0"}
			}
		},
		{
			"name": "hexadecagon",
			"from": [8.23594, 13.14425, 1.016],
			"to": [8.43485, 13.32025, 3.616],
			"rotation": {"angle": 45, "axis": "z", "origin": [8.3354, 13.64425, 2.188]},
			"faces": {
				"north": {"uv": [4, 3.25, 4.5, 3.25], "texture": "#0"},
				"east": {"uv": [4, 3.25, 4.5, 3.25], "texture": "#0"},
				"south": {"uv": [4, 3.25, 4.5, 3.25], "texture": "#0"},
				"west": {"uv": [4, 3.25, 4.5, 3.25], "texture": "#0"},
				"up": {"uv": [4, 3.25, 4.5, 3.25], "texture": "#0"},
				"down": {"uv": [4, 3.25, 4.5, 3.25], "texture": "#0"}
			}
		},
		{
			"name": "hexadecagon",
			"from": [8.23594, 13.96825, 1.016],
			"to": [8.43485, 14.14425, 3.616],
			"rotation": {"angle": -45, "axis": "z", "origin": [8.3354, 13.64425, 2.188]},
			"faces": {
				"north": {"uv": [4, 3.25, 4.5, 3.25], "texture": "#0"},
				"east": {"uv": [4, 3.25, 4.5, 3.25], "texture": "#0"},
				"south": {"uv": [4, 3.25, 4.5, 3.25], "texture": "#0"},
				"west": {"uv": [4, 3.25, 4.5, 3.25], "texture": "#0"},
				"up": {"uv": [4, 3.25, 4.5, 3.25], "texture": "#0"},
				"down": {"uv": [4, 3.25, 4.5, 3.25], "texture": "#0"}
			}
		},
		{
			"name": "hexadecagon",
			"from": [8.23594, 13.96825, 1.016],
			"to": [8.43485, 14.14425, 3.616],
			"rotation": {"angle": -22.5, "axis": "z", "origin": [8.3354, 13.64425, 2.188]},
			"faces": {
				"north": {"uv": [4, 3.25, 4.5, 3.25], "texture": "#0"},
				"east": {"uv": [4, 3.25, 4.5, 3.25], "texture": "#0"},
				"south": {"uv": [4, 3.25, 4.5, 3.25], "texture": "#0"},
				"west": {"uv": [4, 3.25, 4.5, 3.25], "texture": "#0"},
				"up": {"uv": [4, 3.25, 4.5, 3.25], "texture": "#0"},
				"down": {"uv": [4, 3.25, 4.5, 3.25], "texture": "#0"}
			}
		},
		{
			"name": "hexadecagon",
			"from": [8.23594, 13.96825, 1.016],
			"to": [8.43485, 14.14425, 3.616],
			"rotation": {"angle": 0, "axis": "y", "origin": [8.3354, 13.64425, 2.188]},
			"faces": {
				"north": {"uv": [4, 3.25, 4.5, 3.25], "texture": "#0"},
				"east": {"uv": [4, 3.25, 4.5, 3.25], "texture": "#0"},
				"south": {"uv": [4, 3.25, 4.5, 3.25], "texture": "#0"},
				"west": {"uv": [4, 3.25, 4.5, 3.25], "texture": "#0"},
				"up": {"uv": [4, 3.25, 4.5, 3.25], "texture": "#0"},
				"down": {"uv": [4, 3.25, 4.5, 3.25], "texture": "#0"}
			}
		},
		{
			"name": "hexadecagon",
			"from": [8.23594, 13.96825, 1.016],
			"to": [8.43485, 14.14425, 3.616],
			"rotation": {"angle": 22.5, "axis": "z", "origin": [8.3354, 13.64425, 2.188]},
			"faces": {
				"north": {"uv": [4, 3.25, 4.5, 3.25], "texture": "#0"},
				"east": {"uv": [4, 3.25, 4.5, 3.25], "texture": "#0"},
				"south": {"uv": [4, 3.25, 4.5, 3.25], "texture": "#0"},
				"west": {"uv": [4, 3.25, 4.5, 3.25], "texture": "#0"},
				"up": {"uv": [4, 3.25, 4.5, 3.25], "texture": "#0"},
				"down": {"uv": [4, 3.25, 4.5, 3.25], "texture": "#0"}
			}
		},
		{
			"name": "hexadecagon",
			"from": [8.23594, 13.96825, 1.016],
			"to": [8.43485, 14.14425, 3.616],
			"rotation": {"angle": 45, "axis": "z", "origin": [8.3354, 13.64425, 2.188]},
			"faces": {
				"north": {"uv": [4, 3.25, 4.5, 3.25], "texture": "#0"},
				"east": {"uv": [4, 3.25, 4.5, 3.25], "texture": "#0"},
				"south": {"uv": [4, 3.25, 4.5, 3.25], "texture": "#0"},
				"west": {"uv": [4, 3.25, 4.5, 3.25], "texture": "#0"},
				"up": {"uv": [4, 3.25, 4.5, 3.25], "texture": "#0"},
				"down": {"uv": [4, 3.25, 4.5, 3.25], "texture": "#0"}
			}
		},
		{
			"name": "hexadecagon",
			"from": [7.8354, 13.54479, 1.016],
			"to": [8.0114, 13.74371, 3.616],
			"rotation": {"angle": -22.5, "axis": "z", "origin": [8.3354, 13.64425, 2.188]},
			"faces": {
				"north": {"uv": [4, 3.25, 4.5, 3.25], "texture": "#0"},
				"east": {"uv": [4, 3.25, 4.5, 3.25], "texture": "#0"},
				"south": {"uv": [4, 3.25, 4.5, 3.25], "texture": "#0"},
				"west": {"uv": [4, 3.25, 4.5, 3.25], "texture": "#0"},
				"up": {"uv": [4, 3.25, 4.5, 3.25], "texture": "#0"},
				"down": {"uv": [4, 3.25, 4.5, 3.25], "texture": "#0"}
			}
		},
		{
			"name": "hexadecagon",
			"from": [7.8354, 13.54479, 1.016],
			"to": [8.0114, 13.74371, 3.616],
			"rotation": {"angle": 0, "axis": "y", "origin": [8.3354, 13.64425, 2.188]},
			"faces": {
				"north": {"uv": [4, 3.25, 4.5, 3.25], "texture": "#0"},
				"east": {"uv": [4, 3.25, 4.5, 3.25], "texture": "#0"},
				"south": {"uv": [4, 3.25, 4.5, 3.25], "texture": "#0"},
				"west": {"uv": [4, 3.25, 4.5, 3.25], "texture": "#0"},
				"up": {"uv": [4, 3.25, 4.5, 3.25], "texture": "#0"},
				"down": {"uv": [4, 3.25, 4.5, 3.25], "texture": "#0"}
			}
		},
		{
			"name": "hexadecagon",
			"from": [7.8354, 13.54479, 1.016],
			"to": [8.0114, 13.74371, 3.616],
			"rotation": {"angle": 22.5, "axis": "z", "origin": [8.3354, 13.64425, 2.188]},
			"faces": {
				"north": {"uv": [4, 3.25, 4.5, 3.25], "texture": "#0"},
				"east": {"uv": [4, 3.25, 4.5, 3.25], "texture": "#0"},
				"south": {"uv": [4, 3.25, 4.5, 3.25], "texture": "#0"},
				"west": {"uv": [4, 3.25, 4.5, 3.25], "texture": "#0"},
				"up": {"uv": [4, 3.25, 4.5, 3.25], "texture": "#0"},
				"down": {"uv": [4, 3.25, 4.5, 3.25], "texture": "#0"}
			}
		},
		{
			"name": "hexadecagon",
			"from": [8.6594, 13.54479, 1.016],
			"to": [8.8354, 13.74371, 3.616],
			"rotation": {"angle": -22.5, "axis": "z", "origin": [8.3354, 13.64425, 2.188]},
			"faces": {
				"north": {"uv": [4, 3.25, 4.5, 3.25], "texture": "#0"},
				"east": {"uv": [4, 3.25, 4.5, 3.25], "texture": "#0"},
				"south": {"uv": [4, 3.25, 4.5, 3.25], "texture": "#0"},
				"west": {"uv": [4, 3.25, 4.5, 3.25], "texture": "#0"},
				"up": {"uv": [4, 3.25, 4.5, 3.25], "texture": "#0"},
				"down": {"uv": [4, 3.25, 4.5, 3.25], "texture": "#0"}
			}
		},
		{
			"name": "hexadecagon",
			"from": [8.6594, 13.54479, 1.016],
			"to": [8.8354, 13.74371, 3.616],
			"rotation": {"angle": 0, "axis": "y", "origin": [8.3354, 13.64425, 2.188]},
			"faces": {
				"north": {"uv": [4, 3.25, 4.5, 3.25], "texture": "#0"},
				"east": {"uv": [4, 3.25, 4.5, 3.25], "texture": "#0"},
				"south": {"uv": [4, 3.25, 4.5, 3.25], "texture": "#0"},
				"west": {"uv": [4, 3.25, 4.5, 3.25], "texture": "#0"},
				"up": {"uv": [4, 3.25, 4.5, 3.25], "texture": "#0"},
				"down": {"uv": [4, 3.25, 4.5, 3.25], "texture": "#0"}
			}
		},
		{
			"name": "hexadecagon",
			"from": [8.6594, 13.54479, 1.016],
			"to": [8.8354, 13.74371, 3.616],
			"rotation": {"angle": 22.5, "axis": "z", "origin": [8.3354, 13.64425, 2.188]},
			"faces": {
				"north": {"uv": [4, 3.25, 4.5, 3.25], "texture": "#0"},
				"east": {"uv": [4, 3.25, 4.5, 3.25], "texture": "#0"},
				"south": {"uv": [4, 3.25, 4.5, 3.25], "texture": "#0"},
				"west": {"uv": [4, 3.25, 4.5, 3.25], "texture": "#0"},
				"up": {"uv": [4, 3.25, 4.5, 3.25], "texture": "#0"},
				"down": {"uv": [4, 3.25, 4.5, 3.25], "texture": "#0"}
			}
		},
		{
			"name": "hexadecagon",
			"from": [8.23594, 13.14425, 5.816],
			"to": [8.43485, 13.32025, 6.496],
			"rotation": {"angle": -45, "axis": "z", "origin": [8.3354, 13.64425, 5.068]},
			"faces": {
				"north": {"uv": [4, 3.25, 4.75, 3.25], "texture": "#0"},
				"east": {"uv": [4, 3.25, 4.75, 3.25], "texture": "#0"},
				"south": {"uv": [4, 3.25, 4.75, 3.25], "texture": "#0"},
				"west": {"uv": [4, 3.25, 4.75, 3.25], "texture": "#0"},
				"up": {"uv": [4, 3.25, 4.75, 3.25], "texture": "#0"},
				"down": {"uv": [4, 3.25, 4.75, 3.25], "texture": "#0"}
			}
		},
		{
			"name": "hexadecagon",
			"from": [8.23594, 13.14425, 5.816],
			"to": [8.43485, 13.32025, 6.496],
			"rotation": {"angle": -22.5, "axis": "z", "origin": [8.3354, 13.64425, 5.068]},
			"faces": {
				"north": {"uv": [4, 3.25, 4.75, 3.25], "texture": "#0"},
				"east": {"uv": [4, 3.25, 4.75, 3.25], "texture": "#0"},
				"south": {"uv": [4, 3.25, 4.75, 3.25], "texture": "#0"},
				"west": {"uv": [4, 3.25, 4.75, 3.25], "texture": "#0"},
				"up": {"uv": [4, 3.25, 4.75, 3.25], "texture": "#0"},
				"down": {"uv": [4, 3.25, 4.75, 3.25], "texture": "#0"}
			}
		},
		{
			"name": "hexadecagon",
			"from": [8.23594, 13.14425, 5.816],
			"to": [8.43485, 13.32025, 6.496],
			"rotation": {"angle": 0, "axis": "y", "origin": [8.3354, 13.64425, 5.068]},
			"faces": {
				"north": {"uv": [4, 3.25, 4.75, 3.25], "texture": "#0"},
				"east": {"uv": [4, 3.25, 4.75, 3.25], "texture": "#0"},
				"south": {"uv": [4, 3.25, 4.75, 3.25], "texture": "#0"},
				"west": {"uv": [4, 3.25, 4.75, 3.25], "texture": "#0"},
				"up": {"uv": [4, 3.25, 4.75, 3.25], "texture": "#0"},
				"down": {"uv": [4, 3.25, 4.75, 3.25], "texture": "#0"}
			}
		},
		{
			"name": "hexadecagon",
			"from": [8.23594, 13.14425, 5.816],
			"to": [8.43485, 13.32025, 6.496],
			"rotation": {"angle": 22.5, "axis": "z", "origin": [8.3354, 13.64425, 5.068]},
			"faces": {
				"north": {"uv": [4, 3.25, 4.75, 3.25], "texture": "#0"},
				"east": {"uv": [4, 3.25, 4.75, 3.25], "texture": "#0"},
				"south": {"uv": [4, 3.25, 4.75, 3.25], "texture": "#0"},
				"west": {"uv": [4, 3.25, 4.75, 3.25], "texture": "#0"},
				"up": {"uv": [4, 3.25, 4.75, 3.25], "texture": "#0"},
				"down": {"uv": [4, 3.25, 4.75, 3.25], "texture": "#0"}
			}
		},
		{
			"name": "hexadecagon",
			"from": [8.23594, 13.14425, 5.816],
			"to": [8.43485, 13.32025, 6.496],
			"rotation": {"angle": 45, "axis": "z", "origin": [8.3354, 13.64425, 5.068]},
			"faces": {
				"north": {"uv": [4, 3.25, 4.75, 3.25], "texture": "#0"},
				"east": {"uv": [4, 3.25, 4.75, 3.25], "texture": "#0"},
				"south": {"uv": [4, 3.25, 4.75, 3.25], "texture": "#0"},
				"west": {"uv": [4, 3.25, 4.75, 3.25], "texture": "#0"},
				"up": {"uv": [4, 3.25, 4.75, 3.25], "texture": "#0"},
				"down": {"uv": [4, 3.25, 4.75, 3.25], "texture": "#0"}
			}
		},
		{
			"name": "hexadecagon",
			"from": [8.23594, 13.96825, 5.816],
			"to": [8.43485, 14.14425, 6.496],
			"rotation": {"angle": -45, "axis": "z", "origin": [8.3354, 13.64425, 5.068]},
			"faces": {
				"north": {"uv": [4, 3.25, 4.75, 3.25], "texture": "#0"},
				"east": {"uv": [4, 3.25, 4.75, 3.25], "texture": "#0"},
				"south": {"uv": [4, 3.25, 4.75, 3.25], "texture": "#0"},
				"west": {"uv": [4, 3.25, 4.75, 3.25], "texture": "#0"},
				"up": {"uv": [4, 3.25, 4.75, 3.25], "texture": "#0"},
				"down": {"uv": [4, 3.25, 4.75, 3.25], "texture": "#0"}
			}
		},
		{
			"name": "hexadecagon",
			"from": [8.23594, 13.96825, 5.816],
			"to": [8.43485, 14.14425, 6.496],
			"rotation": {"angle": -22.5, "axis": "z", "origin": [8.3354, 13.64425, 5.068]},
			"faces": {
				"north": {"uv": [4, 3.25, 4.75, 3.25], "texture": "#0"},
				"east": {"uv": [4, 3.25, 4.75, 3.25], "texture": "#0"},
				"south": {"uv": [4, 3.25, 4.75, 3.25], "texture": "#0"},
				"west": {"uv": [4, 3.25, 4.75, 3.25], "texture": "#0"},
				"up": {"uv": [4, 3.25, 4.75, 3.25], "texture": "#0"},
				"down": {"uv": [4, 3.25, 4.75, 3.25], "texture": "#0"}
			}
		},
		{
			"name": "hexadecagon",
			"from": [8.23594, 13.96825, 5.816],
			"to": [8.43485, 14.14425, 6.496],
			"rotation": {"angle": 0, "axis": "y", "origin": [8.3354, 13.64425, 5.068]},
			"faces": {
				"north": {"uv": [4, 3.25, 4.75, 3.25], "texture": "#0"},
				"east": {"uv": [4, 3.25, 4.75, 3.25], "texture": "#0"},
				"south": {"uv": [4, 3.25, 4.75, 3.25], "texture": "#0"},
				"west": {"uv": [4, 3.25, 4.75, 3.25], "texture": "#0"},
				"up": {"uv": [4, 3.25, 4.75, 3.25], "texture": "#0"},
				"down": {"uv": [4, 3.25, 4.75, 3.25], "texture": "#0"}
			}
		},
		{
			"name": "hexadecagon",
			"from": [8.23594, 13.96825, 5.816],
			"to": [8.43485, 14.14425, 6.496],
			"rotation": {"angle": 22.5, "axis": "z", "origin": [8.3354, 13.64425, 5.068]},
			"faces": {
				"north": {"uv": [4, 3.25, 4.75, 3.25], "texture": "#0"},
				"east": {"uv": [4, 3.25, 4.75, 3.25], "texture": "#0"},
				"south": {"uv": [4, 3.25, 4.75, 3.25], "texture": "#0"},
				"west": {"uv": [4, 3.25, 4.75, 3.25], "texture": "#0"},
				"up": {"uv": [4, 3.25, 4.75, 3.25], "texture": "#0"},
				"down": {"uv": [4, 3.25, 4.75, 3.25], "texture": "#0"}
			}
		},
		{
			"name": "hexadecagon",
			"from": [8.23594, 13.96825, 5.816],
			"to": [8.43485, 14.14425, 6.496],
			"rotation": {"angle": 45, "axis": "z", "origin": [8.3354, 13.64425, 5.068]},
			"faces": {
				"north": {"uv": [4, 3.25, 4.75, 3.25], "texture": "#0"},
				"east": {"uv": [4, 3.25, 4.75, 3.25], "texture": "#0"},
				"south": {"uv": [4, 3.25, 4.75, 3.25], "texture": "#0"},
				"west": {"uv": [4, 3.25, 4.75, 3.25], "texture": "#0"},
				"up": {"uv": [4, 3.25, 4.75, 3.25], "texture": "#0"},
				"down": {"uv": [4, 3.25, 4.75, 3.25], "texture": "#0"}
			}
		},
		{
			"name": "hexadecagon",
			"from": [7.8354, 13.54479, 5.816],
			"to": [8.0114, 13.74371, 6.496],
			"rotation": {"angle": -22.5, "axis": "z", "origin": [8.3354, 13.64425, 5.068]},
			"faces": {
				"north": {"uv": [4, 3.25, 4.75, 3.25], "texture": "#0"},
				"east": {"uv": [4, 3.25, 4.75, 3.25], "texture": "#0"},
				"south": {"uv": [4, 3.25, 4.75, 3.25], "texture": "#0"},
				"west": {"uv": [4, 3.25, 4.75, 3.25], "texture": "#0"},
				"up": {"uv": [4, 3.25, 4.75, 3.25], "texture": "#0"},
				"down": {"uv": [4, 3.25, 4.75, 3.25], "texture": "#0"}
			}
		},
		{
			"name": "hexadecagon",
			"from": [7.8354, 13.54479, 5.816],
			"to": [8.0114, 13.74371, 6.496],
			"rotation": {"angle": 0, "axis": "y", "origin": [8.3354, 13.64425, 5.068]},
			"faces": {
				"north": {"uv": [4, 3.25, 4.75, 3.25], "texture": "#0"},
				"east": {"uv": [4, 3.25, 4.75, 3.25], "texture": "#0"},
				"south": {"uv": [4, 3.25, 4.75, 3.25], "texture": "#0"},
				"west": {"uv": [4, 3.25, 4.75, 3.25], "texture": "#0"},
				"up": {"uv": [4, 3.25, 4.75, 3.25], "texture": "#0"},
				"down": {"uv": [4, 3.25, 4.75, 3.25], "texture": "#0"}
			}
		},
		{
			"name": "hexadecagon",
			"from": [7.8354, 13.54479, 5.816],
			"to": [8.0114, 13.74371, 6.496],
			"rotation": {"angle": 22.5, "axis": "z", "origin": [8.3354, 13.64425, 5.068]},
			"faces": {
				"north": {"uv": [4, 3.25, 4.75, 3.25], "texture": "#0"},
				"east": {"uv": [4, 3.25, 4.75, 3.25], "texture": "#0"},
				"south": {"uv": [4, 3.25, 4.75, 3.25], "texture": "#0"},
				"west": {"uv": [4, 3.25, 4.75, 3.25], "texture": "#0"},
				"up": {"uv": [4, 3.25, 4.75, 3.25], "texture": "#0"},
				"down": {"uv": [4, 3.25, 4.75, 3.25], "texture": "#0"}
			}
		},
		{
			"name": "hexadecagon",
			"from": [8.6594, 13.54479, 5.816],
			"to": [8.8354, 13.74371, 6.496],
			"rotation": {"angle": -22.5, "axis": "z", "origin": [8.3354, 13.64425, 5.068]},
			"faces": {
				"north": {"uv": [4, 3.25, 4.75, 3.25], "texture": "#0"},
				"east": {"uv": [4, 3.25, 4.75, 3.25], "texture": "#0"},
				"south": {"uv": [4, 3.25, 4.75, 3.25], "texture": "#0"},
				"west": {"uv": [4, 3.25, 4.75, 3.25], "texture": "#0"},
				"up": {"uv": [4, 3.25, 4.75, 3.25], "texture": "#0"},
				"down": {"uv": [4, 3.25, 4.75, 3.25], "texture": "#0"}
			}
		},
		{
			"name": "hexadecagon",
			"from": [8.6594, 13.54479, 5.816],
			"to": [8.8354, 13.74371, 6.496],
			"rotation": {"angle": 0, "axis": "y", "origin": [8.3354, 13.64425, 5.068]},
			"faces": {
				"north": {"uv": [4, 3.25, 4.75, 3.25], "texture": "#0"},
				"east": {"uv": [4, 3.25, 4.75, 3.25], "texture": "#0"},
				"south": {"uv": [4, 3.25, 4.75, 3.25], "texture": "#0"},
				"west": {"uv": [4, 3.25, 4.75, 3.25], "texture": "#0"},
				"up": {"uv": [4, 3.25, 4.75, 3.25], "texture": "#0"},
				"down": {"uv": [4, 3.25, 4.75, 3.25], "texture": "#0"}
			}
		},
		{
			"name": "hexadecagon",
			"from": [8.6594, 13.54479, 5.816],
			"to": [8.8354, 13.74371, 6.496],
			"rotation": {"angle": 22.5, "axis": "z", "origin": [8.3354, 13.64425, 5.068]},
			"faces": {
				"north": {"uv": [4, 3.25, 4.75, 3.25], "texture": "#0"},
				"east": {"uv": [4, 3.25, 4.75, 3.25], "texture": "#0"},
				"south": {"uv": [4, 3.25, 4.75, 3.25], "texture": "#0"},
				"west": {"uv": [4, 3.25, 4.75, 3.25], "texture": "#0"},
				"up": {"uv": [4, 3.25, 4.75, 3.25], "texture": "#0"},
				"down": {"uv": [4, 3.25, 4.75, 3.25], "texture": "#0"}
			}
		},
		{
			"name": "hexadecagon",
			"from": [8.23594, 13.14425, 3.8],
			"to": [8.43485, 13.32025, 4.48],
			"rotation": {"angle": -45, "axis": "z", "origin": [8.3354, 13.64425, 3.052]},
			"faces": {
				"north": {"uv": [4, 3.25, 4.75, 3.25], "texture": "#0"},
				"east": {"uv": [4, 3.25, 4.75, 3.25], "texture": "#0"},
				"south": {"uv": [4, 3.25, 4.75, 3.25], "texture": "#0"},
				"west": {"uv": [4, 3.25, 4.75, 3.25], "texture": "#0"},
				"up": {"uv": [4, 3.25, 4.75, 3.25], "texture": "#0"},
				"down": {"uv": [4, 3.25, 4.75, 3.25], "texture": "#0"}
			}
		},
		{
			"name": "hexadecagon",
			"from": [8.23594, 13.14425, 3.8],
			"to": [8.43485, 13.32025, 4.48],
			"rotation": {"angle": -22.5, "axis": "z", "origin": [8.3354, 13.64425, 3.052]},
			"faces": {
				"north": {"uv": [4, 3.25, 4.75, 3.25], "texture": "#0"},
				"east": {"uv": [4, 3.25, 4.75, 3.25], "texture": "#0"},
				"south": {"uv": [4, 3.25, 4.75, 3.25], "texture": "#0"},
				"west": {"uv": [4, 3.25, 4.75, 3.25], "texture": "#0"},
				"up": {"uv": [4, 3.25, 4.75, 3.25], "texture": "#0"},
				"down": {"uv": [4, 3.25, 4.75, 3.25], "texture": "#0"}
			}
		},
		{
			"name": "hexadecagon",
			"from": [8.23594, 13.14425, 3.8],
			"to": [8.43485, 13.32025, 4.48],
			"rotation": {"angle": 0, "axis": "y", "origin": [8.3354, 13.64425, 3.052]},
			"faces": {
				"north": {"uv": [4, 3.25, 4.75, 3.25], "texture": "#0"},
				"east": {"uv": [4, 3.25, 4.75, 3.25], "texture": "#0"},
				"south": {"uv": [4, 3.25, 4.75, 3.25], "texture": "#0"},
				"west": {"uv": [4, 3.25, 4.75, 3.25], "texture": "#0"},
				"up": {"uv": [4, 3.25, 4.75, 3.25], "texture": "#0"},
				"down": {"uv": [4, 3.25, 4.75, 3.25], "texture": "#0"}
			}
		},
		{
			"name": "hexadecagon",
			"from": [8.23594, 13.14425, 3.8],
			"to": [8.43485, 13.32025, 4.48],
			"rotation": {"angle": 22.5, "axis": "z", "origin": [8.3354, 13.64425, 3.052]},
			"faces": {
				"north": {"uv": [4, 3.25, 4.75, 3.25], "texture": "#0"},
				"east": {"uv": [4, 3.25, 4.75, 3.25], "texture": "#0"},
				"south": {"uv": [4, 3.25, 4.75, 3.25], "texture": "#0"},
				"west": {"uv": [4, 3.25, 4.75, 3.25], "texture": "#0"},
				"up": {"uv": [4, 3.25, 4.75, 3.25], "texture": "#0"},
				"down": {"uv": [4, 3.25, 4.75, 3.25], "texture": "#0"}
			}
		},
		{
			"name": "hexadecagon",
			"from": [8.23594, 13.14425, 3.8],
			"to": [8.43485, 13.32025, 4.48],
			"rotation": {"angle": 45, "axis": "z", "origin": [8.3354, 13.64425, 3.052]},
			"faces": {
				"north": {"uv": [4, 3.25, 4.75, 3.25], "texture": "#0"},
				"east": {"uv": [4, 3.25, 4.75, 3.25], "texture": "#0"},
				"south": {"uv": [4, 3.25, 4.75, 3.25], "texture": "#0"},
				"west": {"uv": [4, 3.25, 4.75, 3.25], "texture": "#0"},
				"up": {"uv": [4, 3.25, 4.75, 3.25], "texture": "#0"},
				"down": {"uv": [4, 3.25, 4.75, 3.25], "texture": "#0"}
			}
		},
		{
			"name": "hexadecagon",
			"from": [8.23594, 13.96825, 3.8],
			"to": [8.43485, 14.14425, 4.48],
			"rotation": {"angle": -45, "axis": "z", "origin": [8.3354, 13.64425, 3.052]},
			"faces": {
				"north": {"uv": [4, 3.25, 4.75, 3.25], "texture": "#0"},
				"east": {"uv": [4, 3.25, 4.75, 3.25], "texture": "#0"},
				"south": {"uv": [4, 3.25, 4.75, 3.25], "texture": "#0"},
				"west": {"uv": [4, 3.25, 4.75, 3.25], "texture": "#0"},
				"up": {"uv": [4, 3.25, 4.75, 3.25], "texture": "#0"},
				"down": {"uv": [4, 3.25, 4.75, 3.25], "texture": "#0"}
			}
		},
		{
			"name": "hexadecagon",
			"from": [8.23594, 13.96825, 3.8],
			"to": [8.43485, 14.14425, 4.48],
			"rotation": {"angle": -22.5, "axis": "z", "origin": [8.3354, 13.64425, 3.052]},
			"faces": {
				"north": {"uv": [4, 3.25, 4.75, 3.25], "texture": "#0"},
				"east": {"uv": [4, 3.25, 4.75, 3.25], "texture": "#0"},
				"south": {"uv": [4, 3.25, 4.75, 3.25], "texture": "#0"},
				"west": {"uv": [4, 3.25, 4.75, 3.25], "texture": "#0"},
				"up": {"uv": [4, 3.25, 4.75, 3.25], "texture": "#0"},
				"down": {"uv": [4, 3.25, 4.75, 3.25], "texture": "#0"}
			}
		},
		{
			"name": "hexadecagon",
			"from": [8.23594, 13.96825, 3.8],
			"to": [8.43485, 14.14425, 4.48],
			"rotation": {"angle": 0, "axis": "y", "origin": [8.3354, 13.64425, 3.052]},
			"faces": {
				"north": {"uv": [4, 3.25, 4.75, 3.25], "texture": "#0"},
				"east": {"uv": [4, 3.25, 4.75, 3.25], "texture": "#0"},
				"south": {"uv": [4, 3.25, 4.75, 3.25], "texture": "#0"},
				"west": {"uv": [4, 3.25, 4.75, 3.25], "texture": "#0"},
				"up": {"uv": [4, 3.25, 4.75, 3.25], "texture": "#0"},
				"down": {"uv": [4, 3.25, 4.75, 3.25], "texture": "#0"}
			}
		},
		{
			"name": "hexadecagon",
			"from": [8.23594, 13.96825, 3.8],
			"to": [8.43485, 14.14425, 4.48],
			"rotation": {"angle": 22.5, "axis": "z", "origin": [8.3354, 13.64425, 3.052]},
			"faces": {
				"north": {"uv": [4, 3.25, 4.75, 3.25], "texture": "#0"},
				"east": {"uv": [4, 3.25, 4.75, 3.25], "texture": "#0"},
				"south": {"uv": [4, 3.25, 4.75, 3.25], "texture": "#0"},
				"west": {"uv": [4, 3.25, 4.75, 3.25], "texture": "#0"},
				"up": {"uv": [4, 3.25, 4.75, 3.25], "texture": "#0"},
				"down": {"uv": [4, 3.25, 4.75, 3.25], "texture": "#0"}
			}
		},
		{
			"name": "hexadecagon",
			"from": [8.23594, 13.96825, 3.8],
			"to": [8.43485, 14.14425, 4.48],
			"rotation": {"angle": 45, "axis": "z", "origin": [8.3354, 13.64425, 3.052]},
			"faces": {
				"north": {"uv": [4, 3.25, 4.75, 3.25], "texture": "#0"},
				"east": {"uv": [4, 3.25, 4.75, 3.25], "texture": "#0"},
				"south": {"uv": [4, 3.25, 4.75, 3.25], "texture": "#0"},
				"west": {"uv": [4, 3.25, 4.75, 3.25], "texture": "#0"},
				"up": {"uv": [4, 3.25, 4.75, 3.25], "texture": "#0"},
				"down": {"uv": [4, 3.25, 4.75, 3.25], "texture": "#0"}
			}
		},
		{
			"name": "hexadecagon",
			"from": [7.8354, 13.54479, 3.8],
			"to": [8.0114, 13.74371, 4.48],
			"rotation": {"angle": -22.5, "axis": "z", "origin": [8.3354, 13.64425, 3.052]},
			"faces": {
				"north": {"uv": [4, 3.25, 4.75, 3.25], "texture": "#0"},
				"east": {"uv": [4, 3.25, 4.75, 3.25], "texture": "#0"},
				"south": {"uv": [4, 3.25, 4.75, 3.25], "texture": "#0"},
				"west": {"uv": [4, 3.25, 4.75, 3.25], "texture": "#0"},
				"up": {"uv": [4, 3.25, 4.75, 3.25], "texture": "#0"},
				"down": {"uv": [4, 3.25, 4.75, 3.25], "texture": "#0"}
			}
		},
		{
			"name": "hexadecagon",
			"from": [7.8354, 13.54479, 3.8],
			"to": [8.0114, 13.74371, 4.48],
			"rotation": {"angle": 0, "axis": "y", "origin": [8.3354, 13.64425, 3.052]},
			"faces": {
				"north": {"uv": [4, 3.25, 4.75, 3.25], "texture": "#0"},
				"east": {"uv": [4, 3.25, 4.75, 3.25], "texture": "#0"},
				"south": {"uv": [4, 3.25, 4.75, 3.25], "texture": "#0"},
				"west": {"uv": [4, 3.25, 4.75, 3.25], "texture": "#0"},
				"up": {"uv": [4, 3.25, 4.75, 3.25], "texture": "#0"},
				"down": {"uv": [4, 3.25, 4.75, 3.25], "texture": "#0"}
			}
		},
		{
			"name": "hexadecagon",
			"from": [7.8354, 13.54479, 3.8],
			"to": [8.0114, 13.74371, 4.48],
			"rotation": {"angle": 22.5, "axis": "z", "origin": [8.3354, 13.64425, 3.052]},
			"faces": {
				"north": {"uv": [4, 3.25, 4.75, 3.25], "texture": "#0"},
				"east": {"uv": [4, 3.25, 4.75, 3.25], "texture": "#0"},
				"south": {"uv": [4, 3.25, 4.75, 3.25], "texture": "#0"},
				"west": {"uv": [4, 3.25, 4.75, 3.25], "texture": "#0"},
				"up": {"uv": [4, 3.25, 4.75, 3.25], "texture": "#0"},
				"down": {"uv": [4, 3.25, 4.75, 3.25], "texture": "#0"}
			}
		},
		{
			"name": "hexadecagon",
			"from": [8.6594, 13.54479, 3.8],
			"to": [8.8354, 13.74371, 4.48],
			"rotation": {"angle": -22.5, "axis": "z", "origin": [8.3354, 13.64425, 3.052]},
			"faces": {
				"north": {"uv": [4, 3.25, 4.75, 3.25], "texture": "#0"},
				"east": {"uv": [4, 3.25, 4.75, 3.25], "texture": "#0"},
				"south": {"uv": [4, 3.25, 4.75, 3.25], "texture": "#0"},
				"west": {"uv": [4, 3.25, 4.75, 3.25], "texture": "#0"},
				"up": {"uv": [4, 3.25, 4.75, 3.25], "texture": "#0"},
				"down": {"uv": [4, 3.25, 4.75, 3.25], "texture": "#0"}
			}
		},
		{
			"name": "hexadecagon",
			"from": [8.6594, 13.54479, 3.8],
			"to": [8.8354, 13.74371, 4.48],
			"rotation": {"angle": 0, "axis": "y", "origin": [8.3354, 13.64425, 3.052]},
			"faces": {
				"north": {"uv": [4, 3.25, 4.75, 3.25], "texture": "#0"},
				"east": {"uv": [4, 3.25, 4.75, 3.25], "texture": "#0"},
				"south": {"uv": [4, 3.25, 4.75, 3.25], "texture": "#0"},
				"west": {"uv": [4, 3.25, 4.75, 3.25], "texture": "#0"},
				"up": {"uv": [4, 3.25, 4.75, 3.25], "texture": "#0"},
				"down": {"uv": [4, 3.25, 4.75, 3.25], "texture": "#0"}
			}
		},
		{
			"name": "hexadecagon",
			"from": [8.6594, 13.54479, 3.8],
			"to": [8.8354, 13.74371, 4.48],
			"rotation": {"angle": 22.5, "axis": "z", "origin": [8.3354, 13.64425, 3.052]},
			"faces": {
				"north": {"uv": [4, 3.25, 4.75, 3.25], "texture": "#0"},
				"east": {"uv": [4, 3.25, 4.75, 3.25], "texture": "#0"},
				"south": {"uv": [4, 3.25, 4.75, 3.25], "texture": "#0"},
				"west": {"uv": [4, 3.25, 4.75, 3.25], "texture": "#0"},
				"up": {"uv": [4, 3.25, 4.75, 3.25], "texture": "#0"},
				"down": {"uv": [4, 3.25, 4.75, 3.25], "texture": "#0"}
			}
		},
		{
			"name": "hexadecagon",
			"from": [8.23594, 13.49625, 4.632],
			"to": [8.43485, 14.40025, 5.632],
			"rotation": {"angle": -45, "axis": "y", "origin": [8.3354, 13.64425, 5.132]},
			"faces": {
				"north": {"uv": [3.875, 3, 4.125, 3.875], "texture": "#0"},
				"east": {"uv": [3.875, 3, 4.125, 3.875], "texture": "#0"},
				"south": {"uv": [3.875, 3, 4.125, 3.875], "texture": "#0"},
				"west": {"uv": [3.875, 3, 4.125, 3.875], "texture": "#0"},
				"up": {"uv": [3.875, 3, 4.125, 3.875], "texture": "#0"},
				"down": {"uv": [3.875, 3, 4.125, 3.875], "texture": "#0"}
			}
		},
		{
			"name": "hexadecagon",
			"from": [8.23594, 13.49625, 4.632],
			"to": [8.43485, 14.40025, 5.632],
			"rotation": {"angle": -22.5, "axis": "y", "origin": [8.3354, 13.64425, 5.132]},
			"faces": {
				"north": {"uv": [3.875, 3, 4.125, 3.875], "texture": "#0"},
				"east": {"uv": [3.875, 3, 4.125, 3.875], "texture": "#0"},
				"south": {"uv": [3.875, 3, 4.125, 3.875], "texture": "#0"},
				"west": {"uv": [3.875, 3, 4.125, 3.875], "texture": "#0"},
				"up": {"uv": [3.875, 3, 4.125, 3.875], "texture": "#0"},
				"down": {"uv": [3.875, 3, 4.125, 3.875], "texture": "#0"}
			}
		},
		{
			"name": "hexadecagon",
			"from": [8.23594, 13.49625, 4.632],
			"to": [8.43485, 14.40025, 5.632],
			"rotation": {"angle": 0, "axis": "y", "origin": [8.3354, 13.64425, 5.132]},
			"faces": {
				"north": {"uv": [3.875, 3, 4.125, 3.875], "texture": "#0"},
				"east": {"uv": [3.875, 3, 4.125, 3.875], "texture": "#0"},
				"south": {"uv": [3.875, 3, 4.125, 3.875], "texture": "#0"},
				"west": {"uv": [3.875, 3, 4.125, 3.875], "texture": "#0"},
				"up": {"uv": [3.875, 3, 4.125, 3.875], "texture": "#0"},
				"down": {"uv": [3.875, 3, 4.125, 3.875], "texture": "#0"}
			}
		},
		{
			"name": "hexadecagon",
			"from": [8.26794, 13.49625, 5.048],
			"to": [8.43485, 14.43225, 5.216],
			"rotation": {"angle": -45, "axis": "y", "origin": [8.3354, 13.64425, 5.132]},
			"faces": {
				"north": {"uv": [2.25, 2.875, 2.375, 3.75], "texture": "#0"},
				"east": {"uv": [2.25, 2.875, 2.375, 3.75], "texture": "#0"},
				"south": {"uv": [2.25, 2.875, 2.375, 3.75], "texture": "#0"},
				"west": {"uv": [2.25, 2.875, 2.375, 3.75], "texture": "#0"},
				"up": {"uv": [2.25, 2.875, 2.375, 3.75], "texture": "#0"},
				"down": {"uv": [2.25, 2.875, 2.375, 3.75], "texture": "#0"}
			}
		},
		{
			"name": "hexadecagon",
			"from": [8.23594, 13.49625, 4.632],
			"to": [8.43485, 14.40025, 5.632],
			"rotation": {"angle": 22.5, "axis": "y", "origin": [8.3354, 13.64425, 5.132]},
			"faces": {
				"north": {"uv": [3.875, 3, 4.125, 3.875], "texture": "#0"},
				"east": {"uv": [3.875, 3, 4.125, 3.875], "texture": "#0"},
				"south": {"uv": [3.875, 3, 4.125, 3.875], "texture": "#0"},
				"west": {"uv": [3.875, 3, 4.125, 3.875], "texture": "#0"},
				"up": {"uv": [3.875, 3, 4.125, 3.875], "texture": "#0"},
				"down": {"uv": [3.875, 3, 4.125, 3.875], "texture": "#0"}
			}
		},
		{
			"name": "hexadecagon",
			"from": [8.23594, 13.49625, 4.632],
			"to": [8.43485, 14.40025, 5.632],
			"rotation": {"angle": 45, "axis": "y", "origin": [8.3354, 13.64425, 5.132]},
			"faces": {
				"north": {"uv": [3.875, 3, 4.125, 3.875], "texture": "#0"},
				"east": {"uv": [3.875, 3, 4.125, 3.875], "texture": "#0"},
				"south": {"uv": [3.875, 3, 4.125, 3.875], "texture": "#0"},
				"west": {"uv": [3.875, 3, 4.125, 3.875], "texture": "#0"},
				"up": {"uv": [3.875, 3, 4.125, 3.875], "texture": "#0"},
				"down": {"uv": [3.875, 3, 4.125, 3.875], "texture": "#0"}
			}
		},
		{
			"name": "hexadecagon",
			"from": [7.8354, 13.49625, 5.03254],
			"to": [8.8354, 14.40025, 5.23146],
			"rotation": {"angle": -22.5, "axis": "y", "origin": [8.3354, 13.64425, 5.132]},
			"faces": {
				"north": {"uv": [3.875, 3, 4.125, 3.875], "texture": "#0"},
				"east": {"uv": [3.875, 3, 4.125, 3.875], "texture": "#0"},
				"south": {"uv": [3.875, 3, 4.125, 3.875], "texture": "#0"},
				"west": {"uv": [3.875, 3, 4.125, 3.875], "texture": "#0"},
				"up": {"uv": [3.875, 3, 4.125, 3.875], "rotation": 90, "texture": "#0"},
				"down": {"uv": [3.875, 3, 4.125, 3.875], "texture": "#0"}
			}
		},
		{
			"name": "hexadecagon",
			"from": [7.8354, 13.49625, 5.03254],
			"to": [8.8354, 14.40025, 5.23146],
			"rotation": {"angle": 0, "axis": "y", "origin": [8.3354, 13.64425, 5.132]},
			"faces": {
				"north": {"uv": [3.875, 3, 4.125, 3.875], "texture": "#0"},
				"east": {"uv": [3.875, 3, 4.125, 3.875], "texture": "#0"},
				"south": {"uv": [3.875, 3, 4.125, 3.875], "texture": "#0"},
				"west": {"uv": [3.875, 3, 4.125, 3.875], "texture": "#0"},
				"up": {"uv": [3.875, 3, 4.125, 3.875], "rotation": 90, "texture": "#0"},
				"down": {"uv": [3.875, 3, 4.125, 3.875], "texture": "#0"}
			}
		},
		{
			"name": "hexadecagon",
			"from": [7.8354, 13.49625, 5.03254],
			"to": [8.8354, 14.40025, 5.23146],
			"rotation": {"angle": 22.5, "axis": "y", "origin": [8.3354, 13.64425, 5.132]},
			"faces": {
				"north": {"uv": [3.875, 3, 4.125, 3.875], "texture": "#0"},
				"east": {"uv": [3.875, 3, 4.125, 3.875], "texture": "#0"},
				"south": {"uv": [3.875, 3, 4.125, 3.875], "texture": "#0"},
				"west": {"uv": [3.875, 3, 4.125, 3.875], "texture": "#0"},
				"up": {"uv": [3.875, 3, 4.125, 3.875], "rotation": 90, "texture": "#0"},
				"down": {"uv": [3.875, 3, 4.125, 3.875], "texture": "#0"}
			}
		},
		{
			"name": "hexadecagon",
			"from": [7.788, 13.59654, 4.62],
			"to": [8.884, 13.79546, 5.62],
			"rotation": {"angle": -45, "axis": "x", "origin": [8.352, 13.696, 5.12]},
			"faces": {
				"north": {"uv": [4, 2.75, 4.25, 2.875], "texture": "#0"},
				"east": {"uv": [4, 2.75, 4.25, 2.875], "texture": "#0"},
				"south": {"uv": [4, 2.75, 4.25, 2.875], "texture": "#0"},
				"west": {"uv": [4, 2.75, 4.25, 2.875], "texture": "#0"},
				"up": {"uv": [4, 2.75, 4.25, 2.875], "texture": "#0"},
				"down": {"uv": [4, 2.75, 4.25, 2.875], "texture": "#0"}
			}
		},
		{
			"name": "hexadecagon",
			"from": [7.788, 13.59654, 4.62],
			"to": [8.884, 13.79546, 5.62],
			"rotation": {"angle": -22.5, "axis": "x", "origin": [8.352, 13.696, 5.12]},
			"faces": {
				"north": {"uv": [4, 2.75, 4.25, 2.875], "texture": "#0"},
				"east": {"uv": [4, 2.75, 4.25, 2.875], "texture": "#0"},
				"south": {"uv": [4, 2.75, 4.25, 2.875], "texture": "#0"},
				"west": {"uv": [4, 2.75, 4.25, 2.875], "texture": "#0"},
				"up": {"uv": [4, 2.75, 4.25, 2.875], "texture": "#0"},
				"down": {"uv": [4, 2.75, 4.25, 2.875], "texture": "#0"}
			}
		},
		{
			"name": "hexadecagon",
			"from": [7.788, 13.59654, 4.62],
			"to": [8.884, 13.79546, 5.62],
			"rotation": {"angle": 0, "axis": "y", "origin": [8.352, 13.696, 5.12]},
			"faces": {
				"north": {"uv": [4, 2.75, 4.25, 2.875], "texture": "#0"},
				"east": {"uv": [4, 2.75, 4.25, 2.875], "texture": "#0"},
				"south": {"uv": [4, 2.75, 4.25, 2.875], "texture": "#0"},
				"west": {"uv": [4, 2.75, 4.25, 2.875], "texture": "#0"},
				"up": {"uv": [4, 2.75, 4.25, 2.875], "texture": "#0"},
				"down": {"uv": [4, 2.75, 4.25, 2.875], "texture": "#0"}
			}
		},
		{
			"name": "hexadecagon",
			"from": [7.788, 13.59654, 4.62],
			"to": [8.884, 13.79546, 5.62],
			"rotation": {"angle": 22.5, "axis": "x", "origin": [8.352, 13.696, 5.12]},
			"faces": {
				"north": {"uv": [4, 2.75, 4.25, 2.875], "texture": "#0"},
				"east": {"uv": [4, 2.75, 4.25, 2.875], "texture": "#0"},
				"south": {"uv": [4, 2.75, 4.25, 2.875], "texture": "#0"},
				"west": {"uv": [4, 2.75, 4.25, 2.875], "texture": "#0"},
				"up": {"uv": [4, 2.75, 4.25, 2.875], "texture": "#0"},
				"down": {"uv": [4, 2.75, 4.25, 2.875], "texture": "#0"}
			}
		},
		{
			"name": "hexadecagon",
			"from": [7.788, 13.59654, 4.62],
			"to": [8.884, 13.79546, 5.62],
			"rotation": {"angle": 45, "axis": "x", "origin": [8.352, 13.696, 5.12]},
			"faces": {
				"north": {"uv": [4, 2.75, 4.25, 2.875], "texture": "#0"},
				"east": {"uv": [4, 2.75, 4.25, 2.875], "texture": "#0"},
				"south": {"uv": [4, 2.75, 4.25, 2.875], "texture": "#0"},
				"west": {"uv": [4, 2.75, 4.25, 2.875], "texture": "#0"},
				"up": {"uv": [4, 2.75, 4.25, 2.875], "texture": "#0"},
				"down": {"uv": [4, 2.75, 4.25, 2.875], "texture": "#0"}
			}
		},
		{
			"name": "hexadecagon",
			"from": [7.788, 13.196, 5.02054],
			"to": [8.884, 14.196, 5.21946],
			"rotation": {"angle": -22.5, "axis": "x", "origin": [8.352, 13.696, 5.12]},
			"faces": {
				"north": {"uv": [4, 2.75, 4.25, 2.875], "texture": "#0"},
				"east": {"uv": [4, 2.75, 4.25, 2.875], "texture": "#0"},
				"south": {"uv": [4, 2.75, 4.25, 2.875], "texture": "#0"},
				"west": {"uv": [4, 2.75, 4.25, 2.875], "texture": "#0"},
				"up": {"uv": [4, 2.75, 4.25, 2.875], "texture": "#0"},
				"down": {"uv": [4, 2.75, 4.25, 2.875], "texture": "#0"}
			}
		},
		{
			"name": "hexadecagon",
			"from": [7.788, 13.196, 5.02054],
			"to": [8.884, 14.196, 5.21946],
			"rotation": {"angle": 0, "axis": "y", "origin": [8.352, 13.696, 5.12]},
			"faces": {
				"north": {"uv": [4, 2.75, 4.25, 2.875], "texture": "#0"},
				"east": {"uv": [4, 2.75, 4.25, 2.875], "texture": "#0"},
				"south": {"uv": [4, 2.75, 4.25, 2.875], "texture": "#0"},
				"west": {"uv": [4, 2.75, 4.25, 2.875], "texture": "#0"},
				"up": {"uv": [4, 2.75, 4.25, 2.875], "texture": "#0"},
				"down": {"uv": [4, 2.75, 4.25, 2.875], "texture": "#0"}
			}
		},
		{
			"name": "hexadecagon",
			"from": [7.788, 13.196, 5.02054],
			"to": [8.884, 14.196, 5.21946],
			"rotation": {"angle": 22.5, "axis": "x", "origin": [8.352, 13.696, 5.12]},
			"faces": {
				"north": {"uv": [4, 2.75, 4.25, 2.875], "texture": "#0"},
				"east": {"uv": [4, 2.75, 4.25, 2.875], "texture": "#0"},
				"south": {"uv": [4, 2.75, 4.25, 2.875], "texture": "#0"},
				"west": {"uv": [4, 2.75, 4.25, 2.875], "texture": "#0"},
				"up": {"uv": [4, 2.75, 4.25, 2.875], "texture": "#0"},
				"down": {"uv": [4, 2.75, 4.25, 2.875], "texture": "#0"}
			}
		}
	],
	"display": {
		"thirdperson_righthand": {
			"rotation": [0, 0, 7],
			"translation": [-0.75, -2.25, 2],
			"scale": [1.14, 1, 1]
		},
		"thirdperson_lefthand": {
			"rotation": [0, 0, 7],
			"translation": [-0.25, -1.75, 2.75],
			"scale": [1.14, 1, 1]
		},
		"firstperson_righthand": {
			"translation": [-5, 0.75, 2.75],
			"scale": [1.25, 1.19, 1.14]
		},
		"firstperson_lefthand": {
			"translation": [-5.25, 0.75, 2.75],
			"scale": [1.25, 1.19, 1.14]
		},
		"gui": {
			"rotation": [23, 38, -16],
			"translation": [-0.5, -2.75, 0],
			"scale": [1.64, 1.41461, 1.27094]
		},
		"head": {
			"rotation": [0, -139.5, 90],
			"translation": [-2.5, 6.5, 2.5],
			"scale": [1.89781, 1.89781, 1.89781]
		},
		"fixed": {
			"rotation": [0, 90, 0],
			"translation": [0, 0, -1.25],
			"scale": [1.22, 1.22, 1.22]
		}
	}
}