{
	"credit": "Made with Blockbench",
	"textures": {
		"0": "gci:items/gun_mdr/all_in_one",
		"particle": "gci:items/gun_mdr/all_in_one"
	},
	"elements": [
		{
			"from": [7.992, 12.41892, 4.328],
			"to": [8.68, 12.80292, 5.988],
			"rotation": {"angle": 0, "axis": "y", "origin": [8.323, 12.72959, 5.83]},
			"faces": {
				"north": {"uv": [2.875, 3, 2.875, 3.25], "rotation": 270, "texture": "#0"},
				"east": {"uv": [2.875, 3, 2.875, 3.25], "rotation": 270, "texture": "#0"},
				"south": {"uv": [2.875, 3, 2.875, 3.25], "rotation": 270, "texture": "#0"},
				"west": {"uv": [2.875, 3, 2.875, 3.25], "rotation": 270, "texture": "#0"},
				"up": {"uv": [2.875, 3, 2.875, 3.25], "rotation": 270, "texture": "#0"},
				"down": {"uv": [2.875, 3, 2.875, 3.25], "rotation": 270, "texture": "#0"}
			}
		},
		{
			"from": [7.96, 12.48492, 4.454],
			"to": [8.712, 12.60892, 4.582],
			"rotation": {"angle": -45, "axis": "x", "origin": [8.336, 12.54692, 4.518]},
			"faces": {
				"north": {"uv": [14.25, 6.625, 14.25, 6.625], "texture": "#0"},
				"east": {"uv": [14.25, 6.625, 14.25, 6.625], "texture": "#0"},
				"south": {"uv": [14.25, 6.625, 14.25, 6.625], "texture": "#0"},
				"west": {"uv": [14.25, 6.625, 14.25, 6.625], "texture": "#0"},
				"up": {"uv": [14.25, 6.625, 14.25, 6.625], "texture": "#0"},
				"down": {"uv": [14.25, 6.625, 14.25, 6.625], "texture": "#0"}
			}
		},
		{
			"from": [7.96, 12.48492, 5.766],
			"to": [8.712, 12.60892, 5.894],
			"rotation": {"angle": -45, "axis": "x", "origin": [8.336, 12.54692, 5.83]},
			"faces": {
				"north": {"uv": [14.25, 6.625, 14.25, 6.625], "texture": "#0"},
				"east": {"uv": [14.25, 6.625, 14.25, 6.625], "texture": "#0"},
				"south": {"uv": [14.25, 6.625, 14.25, 6.625], "texture": "#0"},
				"west": {"uv": [14.25, 6.625, 14.25, 6.625], "texture": "#0"},
				"up": {"uv": [14.25, 6.625, 14.25, 6.625], "texture": "#0"},
				"down": {"uv": [14.25, 6.625, 14.25, 6.625], "texture": "#0"}
			}
		},
		{
			"from": [7.96, 12.93292, 5.862],
			"to": [8.712, 13.05692, 5.99],
			"rotation": {"angle": -45, "axis": "x", "origin": [8.336, 12.99492, 5.926]},
			"faces": {
				"north": {"uv": [2.875, 1, 2.875, 1.25], "texture": "#0"},
				"east": {"uv": [2.875, 1, 2.875, 1.25], "texture": "#0"},
				"south": {"uv": [2.875, 1, 2.875, 1.25], "texture": "#0"},
				"west": {"uv": [2.875, 1, 2.875, 1.25], "texture": "#0"},
				"up": {"uv": [2.875, 1, 2.875, 1.25], "texture": "#0"},
				"down": {"uv": [2.875, 1, 2.875, 1.25], "texture": "#0"}
			}
		},
		{
			"from": [7.992, 12.86692, 4.328],
			"to": [8.68, 13.02692, 6.404],
			"rotation": {"angle": 0, "axis": "y", "origin": [8.323, 13.17759, 5.83]},
			"faces": {
				"north": {"uv": [2.875, 3, 2.875, 3.25], "rotation": 270, "texture": "#0"},
				"east": {"uv": [2.875, 3, 2.875, 3.25], "rotation": 270, "texture": "#0"},
				"south": {"uv": [2.875, 3, 2.875, 3.25], "rotation": 270, "texture": "#0"},
				"west": {"uv": [2.875, 3, 2.875, 3.25], "rotation": 270, "texture": "#0"},
				"up": {"uv": [2.875, 3, 2.875, 3.25], "rotation": 270, "texture": "#0"},
				"down": {"uv": [2.875, 3, 2.875, 3.25], "rotation": 270, "texture": "#0"}
			}
		},
		{
			"from": [8.28, 13.02692, 5.064],
			"to": [8.392, 13.12692, 5.176],
			"rotation": {"angle": -45, "axis": "y", "origin": [8.336, 13.09092, 5.12]},
			"faces": {
				"north": {"uv": [4.25, 3.125, 4.25, 3.375], "rotation": 270, "texture": "#0"},
				"east": {"uv": [4.25, 3.125, 4.25, 3.375], "rotation": 270, "texture": "#0"},
				"south": {"uv": [4.25, 3.125, 4.25, 3.375], "rotation": 270, "texture": "#0"},
				"west": {"uv": [4.25, 3.125, 4.25, 3.375], "rotation": 270, "texture": "#0"},
				"up": {"uv": [4.25, 3.125, 4.25, 3.375], "rotation": 270, "texture": "#0"},
				"down": {"uv": [4.25, 3.125, 4.25, 3.375], "rotation": 270, "texture": "#0"}
			}
		},
		{
			"from": [8.08614, 13.02692, 4.99153],
			"to": [8.81814, 13.12292, 5.29553],
			"rotation": {"angle": 45, "axis": "y", "origin": [8.36614, 13.05892, 5.27153]},
			"faces": {
				"north": {"uv": [14.25, 6.625, 14.25, 6.625], "rotation": 270, "texture": "#0"},
				"east": {"uv": [14.25, 6.625, 14.25, 6.625], "rotation": 270, "texture": "#0"},
				"south": {"uv": [14.25, 6.625, 14.25, 6.625], "rotation": 270, "texture": "#0"},
				"west": {"uv": [14.25, 6.625, 14.25, 6.625], "rotation": 270, "texture": "#0"},
				"up": {"uv": [14.25, 6.625, 14.25, 6.625], "rotation": 270, "texture": "#0"},
				"down": {"uv": [14.25, 6.625, 14.25, 6.625], "rotation": 270, "texture": "#0"}
			}
		},
		{
			"from": [7.97044, 13.02692, 4.96821],
			"to": [8.70244, 13.12292, 5.27221],
			"rotation": {"angle": 0, "axis": "y", "origin": [8.33644, 13.07492, 5.12021]},
			"faces": {
				"north": {"uv": [14.25, 6.625, 14.25, 6.625], "rotation": 270, "texture": "#0"},
				"east": {"uv": [14.25, 6.625, 14.25, 6.625], "rotation": 270, "texture": "#0"},
				"south": {"uv": [14.25, 6.625, 14.25, 6.625], "rotation": 270, "texture": "#0"},
				"west": {"uv": [14.25, 6.625, 14.25, 6.625], "rotation": 270, "texture": "#0"},
				"up": {"uv": [14.25, 6.625, 14.25, 6.625], "rotation": 270, "texture": "#0"},
				"down": {"uv": [14.25, 6.625, 14.25, 6.625], "rotation": 270, "texture": "#0"}
			}
		},
		{
			"from": [8.18444, 13.02692, 4.75421],
			"to": [8.48844, 13.12292, 5.48621],
			"rotation": {"angle": 45, "axis": "y", "origin": [8.33644, 13.07492, 5.12021]},
			"faces": {
				"north": {"uv": [14.25, 6.625, 14.25, 6.625], "texture": "#0"},
				"east": {"uv": [14.25, 6.625, 14.25, 6.625], "texture": "#0"},
				"south": {"uv": [14.25, 6.625, 14.25, 6.625], "texture": "#0"},
				"west": {"uv": [14.25, 6.625, 14.25, 6.625], "texture": "#0"},
				"up": {"uv": [14.25, 6.625, 14.25, 6.625], "texture": "#0"},
				"down": {"uv": [14.25, 6.625, 14.25, 6.625], "texture": "#0"}
			}
		},
		{
			"from": [8.18444, 13.02692, 4.75421],
			"to": [8.48844, 13.12292, 5.48621],
			"rotation": {"angle": 0, "axis": "y", "origin": [8.33644, 13.07492, 5.12021]},
			"faces": {
				"north": {"uv": [14.25, 6.625, 14.25, 6.625], "texture": "#0"},
				"east": {"uv": [14.25, 6.625, 14.25, 6.625], "texture": "#0"},
				"south": {"uv": [14.25, 6.625, 14.25, 6.625], "texture": "#0"},
				"west": {"uv": [14.25, 6.625, 14.25, 6.625], "texture": "#0"},
				"up": {"uv": [14.25, 6.625, 14.25, 6.625], "texture": "#0"},
				"down": {"uv": [14.25, 6.625, 14.25, 6.625], "texture": "#0"}
			}
		},
		{
			"from": [8.30556, 13.04089, 4.424],
			"to": [8.54556, 13.08889, 4.708],
			"rotation": {"angle": 22.5, "axis": "z", "origin": [8.6426, 13.37058, 4.566]},
			"faces": {
				"north": {"uv": [2.875, 3, 2.875, 3.25], "rotation": 90, "texture": "#0"},
				"east": {"uv": [2.875, 3, 2.875, 3.25], "rotation": 90, "texture": "#0"},
				"south": {"uv": [2.875, 3, 2.875, 3.25], "rotation": 90, "texture": "#0"},
				"west": {"uv": [2.875, 3, 2.875, 3.25], "rotation": 90, "texture": "#0"},
				"up": {"uv": [2.875, 3, 2.875, 3.25], "rotation": 90, "texture": "#0"},
				"down": {"uv": [2.875, 3, 2.875, 3.25], "rotation": 90, "texture": "#0"}
			}
		},
		{
			"from": [7.99565, 13.69632, 4.424],
			"to": [8.68365, 13.74432, 4.708],
			"rotation": {"angle": 0, "axis": "y", "origin": [8.32665, 13.33499, 5.894]},
			"faces": {
				"north": {"uv": [2.875, 3, 2.875, 3.25], "rotation": 270, "texture": "#0"},
				"east": {"uv": [2.875, 3, 2.875, 3.25], "rotation": 270, "texture": "#0"},
				"south": {"uv": [2.875, 3, 2.875, 3.25], "rotation": 270, "texture": "#0"},
				"west": {"uv": [2.875, 3, 2.875, 3.25], "rotation": 270, "texture": "#0"},
				"up": {"uv": [2.875, 3, 2.875, 3.25], "rotation": 270, "texture": "#0"},
				"down": {"uv": [2.875, 3, 2.875, 3.25], "rotation": 270, "texture": "#0"}
			}
		},
		{
			"from": [8.2977, 13.34432, 4.552],
			"to": [8.3777, 13.42432, 4.552],
			"rotation": {"angle": 0, "axis": "y", "origin": [8.67865, 13.62299, 5.894]},
			"faces": {
				"north": {"uv": [8.75, 7, 8.75, 7.125], "texture": "#0"},
				"east": {"uv": [8.75, 7, 8.75, 7.125], "texture": "#0"},
				"south": {"uv": [8.75, 7, 8.75, 7.125], "texture": "#0"},
				"west": {"uv": [8.75, 7, 8.75, 7.125], "texture": "#0"},
				"up": {"uv": [8.75, 7, 8.75, 7.125], "texture": "#0"},
				"down": {"uv": [8.75, 7, 8.75, 7.125], "texture": "#0"}
			}
		},
		{
			"from": [7.84443, 12.92725, 4.424],
			"to": [8.08443, 12.97525, 4.708],
			"rotation": {"angle": -22.5, "axis": "z", "origin": [8.17543, 12.59792, 5.894]},
			"faces": {
				"north": {"uv": [2.875, 3, 2.875, 3.25], "rotation": 270, "texture": "#0"},
				"east": {"uv": [2.875, 3, 2.875, 3.25], "rotation": 270, "texture": "#0"},
				"south": {"uv": [2.875, 3, 2.875, 3.25], "rotation": 270, "texture": "#0"},
				"west": {"uv": [2.875, 3, 2.875, 3.25], "rotation": 270, "texture": "#0"},
				"up": {"uv": [2.875, 3, 2.875, 3.25], "rotation": 270, "texture": "#0"},
				"down": {"uv": [2.875, 3, 2.875, 3.25], "rotation": 270, "texture": "#0"}
			}
		},
		{
			"from": [7.90381, 13.28258, 4.424],
			"to": [7.95181, 13.52258, 4.708],
			"rotation": {"angle": 0, "axis": "y", "origin": [7.98038, 13.3143, 4.566]},
			"faces": {
				"north": {"uv": [2.875, 3, 2.875, 3.25], "texture": "#0"},
				"east": {"uv": [2.875, 3, 2.875, 3.25], "rotation": 180, "texture": "#0"},
				"south": {"uv": [2.875, 3, 2.875, 3.25], "rotation": 180, "texture": "#0"},
				"west": {"uv": [2.875, 3, 2.875, 3.25], "rotation": 180, "texture": "#0"},
				"up": {"uv": [2.875, 3, 2.875, 3.25], "rotation": 180, "texture": "#0"},
				"down": {"uv": [2.875, 3, 2.875, 3.25], "rotation": 180, "texture": "#0"}
			}
		},
		{
			"from": [8.72296, 13.28258, 4.424],
			"to": [8.77096, 13.52258, 4.708],
			"rotation": {"angle": 0, "axis": "y", "origin": [8.6426, 13.40258, 4.566]},
			"faces": {
				"north": {"uv": [2.875, 3, 2.875, 3.25], "rotation": 180, "texture": "#0"},
				"east": {"uv": [2.875, 3, 2.875, 3.25], "texture": "#0"},
				"south": {"uv": [2.875, 3, 2.875, 3.25], "texture": "#0"},
				"west": {"uv": [2.875, 3, 2.875, 3.25], "texture": "#0"},
				"up": {"uv": [2.875, 3, 2.875, 3.25], "texture": "#0"},
				"down": {"uv": [2.875, 3, 2.875, 3.25], "texture": "#0"}
			}
		},
		{
			"from": [7.992, 12.96292, 4.424],
			"to": [8.68, 13.07492, 4.708],
			"rotation": {"angle": 0, "axis": "y", "origin": [8.323, 12.63359, 5.894]},
			"faces": {
				"north": {"uv": [2.875, 3, 2.875, 3.25], "rotation": 270, "texture": "#0"},
				"east": {"uv": [2.875, 3, 2.875, 3.25], "rotation": 270, "texture": "#0"},
				"south": {"uv": [2.875, 3, 2.875, 3.25], "rotation": 270, "texture": "#0"},
				"west": {"uv": [2.875, 3, 2.875, 3.25], "rotation": 270, "texture": "#0"},
				"up": {"uv": [2.875, 3, 2.875, 3.25], "rotation": 270, "texture": "#0"},
				"down": {"uv": [2.875, 3, 2.875, 3.25], "rotation": 270, "texture": "#0"}
			}
		},
		{
			"from": [7.992, 13.02692, 5.96],
			"to": [8.68, 13.17092, 6.404],
			"rotation": {"angle": 0, "axis": "y", "origin": [8.323, 12.69759, 7.59]},
			"faces": {
				"north": {"uv": [2.875, 3, 2.875, 3.25], "rotation": 270, "texture": "#0"},
				"east": {"uv": [2.875, 3, 2.875, 3.25], "rotation": 270, "texture": "#0"},
				"south": {"uv": [2.875, 3, 2.875, 3.25], "rotation": 270, "texture": "#0"},
				"west": {"uv": [2.875, 3, 2.875, 3.25], "rotation": 270, "texture": "#0"},
				"up": {"uv": [2.875, 3, 2.875, 3.25], "rotation": 270, "texture": "#0"},
				"down": {"uv": [2.875, 3, 2.875, 3.25], "rotation": 270, "texture": "#0"}
			}
		},
		{
			"from": [7.992, 12.93048, 5.50718],
			"to": [8.68, 13.07448, 6.07918],
			"rotation": {"angle": 0, "axis": "y", "origin": [8.323, 12.60115, 6.91318]},
			"faces": {
				"north": {"uv": [2.875, 3, 2.875, 3.25], "rotation": 270, "texture": "#0"},
				"east": {"uv": [2.875, 3, 2.875, 3.25], "rotation": 270, "texture": "#0"},
				"south": {"uv": [2.875, 3, 2.875, 3.25], "rotation": 270, "texture": "#0"},
				"west": {"uv": [2.875, 3, 2.875, 3.25], "rotation": 270, "texture": "#0"},
				"up": {"uv": [2.875, 3, 2.875, 3.25], "rotation": 270, "texture": "#0"},
				"down": {"uv": [2.875, 3, 2.875, 3.25], "rotation": 270, "texture": "#0"}
			}
		},
		{
			"from": [7.992, 13.51681, 5.79886],
			"to": [8.68, 13.66081, 6.05086],
			"rotation": {"angle": -22.5, "axis": "x", "origin": [8.323, 13.18748, 7.23686]},
			"faces": {
				"north": {"uv": [2.875, 3, 2.875, 3.25], "rotation": 270, "texture": "#0"},
				"east": {"uv": [2.875, 3, 2.875, 3.25], "rotation": 270, "texture": "#0"},
				"south": {"uv": [2.875, 3, 2.875, 3.25], "rotation": 270, "texture": "#0"},
				"west": {"uv": [2.875, 3, 2.875, 3.25], "rotation": 270, "texture": "#0"},
				"up": {"uv": [2.875, 3, 2.875, 3.25], "rotation": 270, "texture": "#0"},
				"down": {"uv": [2.875, 3, 2.875, 3.25], "rotation": 270, "texture": "#0"}
			}
		},
		{
			"from": [8.0569, 13.47622, 4.424],
			"to": [8.1049, 13.71622, 4.708],
			"rotation": {"angle": -22.5, "axis": "z", "origin": [8.0969, 13.88422, 4.566]},
			"faces": {
				"north": {"uv": [2.875, 3, 2.875, 3.25], "rotation": 180, "texture": "#0"},
				"east": {"uv": [2.875, 3, 2.875, 3.25], "texture": "#0"},
				"south": {"uv": [2.875, 3, 2.875, 3.25], "texture": "#0"},
				"west": {"uv": [2.875, 3, 2.875, 3.25], "texture": "#0"},
				"up": {"uv": [2.875, 3, 2.875, 3.25], "texture": "#0"},
				"down": {"uv": [2.875, 3, 2.875, 3.25], "texture": "#0"}
			}
		},
		{
			"from": [8.75911, 13.10084, 4.424],
			"to": [8.80711, 13.34084, 4.708],
			"rotation": {"angle": -22.5, "axis": "z", "origin": [8.6426, 13.40258, 4.566]},
			"faces": {
				"north": {"uv": [2.875, 3, 2.875, 3.25], "texture": "#0"},
				"east": {"uv": [2.875, 3, 2.875, 3.25], "rotation": 180, "texture": "#0"},
				"south": {"uv": [2.875, 3, 2.875, 3.25], "rotation": 180, "texture": "#0"},
				"west": {"uv": [2.875, 3, 2.875, 3.25], "rotation": 180, "texture": "#0"},
				"up": {"uv": [2.875, 3, 2.875, 3.25], "rotation": 180, "texture": "#0"},
				"down": {"uv": [2.875, 3, 2.875, 3.25], "rotation": 180, "texture": "#0"}
			}
		},
		{
			"from": [7.91012, 13.0743, 4.424],
			"to": [7.95812, 13.3143, 4.708],
			"rotation": {"angle": 22.5, "axis": "z", "origin": [7.98669, 13.28258, 4.566]},
			"faces": {
				"north": {"uv": [2.875, 3, 2.875, 3.25], "rotation": 180, "texture": "#0"},
				"east": {"uv": [2.875, 3, 2.875, 3.25], "texture": "#0"},
				"south": {"uv": [2.875, 3, 2.875, 3.25], "texture": "#0"},
				"west": {"uv": [2.875, 3, 2.875, 3.25], "texture": "#0"},
				"up": {"uv": [2.875, 3, 2.875, 3.25], "texture": "#0"},
				"down": {"uv": [2.875, 3, 2.875, 3.25], "texture": "#0"}
			}
		},
		{
			"from": [8.75911, 13.46433, 4.424],
			"to": [8.80711, 13.70433, 4.708],
			"rotation": {"angle": 22.5, "axis": "z", "origin": [8.6426, 13.40258, 4.566]},
			"faces": {
				"north": {"uv": [2.875, 3, 2.875, 3.25], "texture": "#0"},
				"east": {"uv": [2.875, 3, 2.875, 3.25], "rotation": 180, "texture": "#0"},
				"south": {"uv": [2.875, 3, 2.875, 3.25], "rotation": 180, "texture": "#0"},
				"west": {"uv": [2.875, 3, 2.875, 3.25], "rotation": 180, "texture": "#0"},
				"up": {"uv": [2.875, 3, 2.875, 3.25], "rotation": 180, "texture": "#0"},
				"down": {"uv": [2.875, 3, 2.875, 3.25], "rotation": 180, "texture": "#0"}
			}
		},
		{
			"from": [8.024, 12.77092, 4.36],
			"to": [8.648, 12.96292, 6.372],
			"rotation": {"angle": 0, "axis": "y", "origin": [8.323, 13.11359, 5.83]},
			"faces": {
				"north": {"uv": [1.625, 0.875, 1.625, 0.875], "rotation": 270, "texture": "#0"},
				"east": {"uv": [1.625, 0.875, 1.625, 0.875], "rotation": 270, "texture": "#0"},
				"south": {"uv": [1.625, 0.875, 1.625, 0.875], "rotation": 270, "texture": "#0"},
				"west": {"uv": [1.625, 0.875, 1.625, 0.875], "rotation": 270, "texture": "#0"},
				"up": {"uv": [1.625, 0.875, 1.625, 0.875], "rotation": 270, "texture": "#0"},
				"down": {"uv": [1.625, 0.875, 1.625, 0.875], "rotation": 270, "texture": "#0"}
			}
		}
	],
	"display": {
		"thirdperson_righthand": {
			"rotation": [0, 0, 7],
			"translation": [-0.75, -2.25, 2],
			"scale": [1.14, 1, 1]
		},
		"thirdperson_lefthand": {
			"rotation": [0, 0, 7],
			"translation": [-0.25, -1.75, 2.75],
			"scale": [1.14, 1, 1]
		},
		"firstperson_righthand": {
			"translation": [-5, 0.75, 2.75],
			"scale": [1.25, 1.19, 1.14]
		},
		"firstperson_lefthand": {
			"translation": [-5.25, 0.75, 2.75],
			"scale": [1.25, 1.19, 1.14]
		},
		"gui": {
			"rotation": [23, 38, -16],
			"translation": [-0.5, -2.75, 0],
			"scale": [1.64, 1.41461, 1.27094]
		},
		"head": {
			"rotation": [0, -139.5, 90],
			"translation": [-2.5, 6.5, 2.5],
			"scale": [1.89781, 1.89781, 1.89781]
		},
		"fixed": {
			"rotation": [0, 90, 0],
			"translation": [0, 0, -1.25],
			"scale": [1.22, 1.22, 1.22]
		}
	}
}