{
	"credit": "Made with Blockbench",
	"textures": {
		"0": "gci:items/common/mpz",
		"particle": "gci:items/common/mpz"
	},
	"elements": [
		{
			"name": "hexadecagon",
			"from": [6.88811, 0.07813, 7.4375],
			"to": [7.11189, 0.92188, 8.5625],
			"rotation": {"angle": -45, "axis": "y", "origin": [7, 1.20313, 8]},
			"faces": {
				"north": {"uv": [6, 0.33333, 7, 1.33333], "texture": "#0"},
				"east": {"uv": [6, 0.33333, 7, 1.33333], "texture": "#0"},
				"south": {"uv": [6, 0.33333, 7, 1.33333], "texture": "#0"},
				"west": {"uv": [6, 0.33333, 7, 1.33333], "texture": "#0"},
				"up": {"uv": [6, 0.33333, 7, 1.33333], "texture": "#0"},
				"down": {"uv": [6, 0.33333, 7, 1.33333], "texture": "#0"}
			}
		},
		{
			"name": "hexadecagon",
			"from": [6.88811, 0.07813, 7.4375],
			"to": [7.11189, 0.92188, 8.5625],
			"rotation": {"angle": -22.5, "axis": "y", "origin": [7, 1.20313, 8]},
			"faces": {
				"north": {"uv": [6, 0.33333, 7, 1.33333], "texture": "#0"},
				"east": {"uv": [6, 0.33333, 7, 1.33333], "texture": "#0"},
				"south": {"uv": [6, 0.33333, 7, 1.33333], "texture": "#0"},
				"west": {"uv": [6, 0.33333, 7, 1.33333], "texture": "#0"},
				"up": {"uv": [6, 0.33333, 7, 1.33333], "texture": "#0"},
				"down": {"uv": [6, 0.33333, 7, 1.33333], "texture": "#0"}
			}
		},
		{
			"name": "hexadecagon",
			"from": [6.88811, 0.07813, 7.4375],
			"to": [7.11189, 0.92188, 8.5625],
			"rotation": {"angle": 0, "axis": "y", "origin": [7, 1.20313, 8]},
			"faces": {
				"north": {"uv": [6, 0.33333, 7, 1.33333], "texture": "#0"},
				"east": {"uv": [6, 0.33333, 7, 1.33333], "texture": "#0"},
				"south": {"uv": [6, 0.33333, 7, 1.33333], "texture": "#0"},
				"west": {"uv": [6, 0.33333, 7, 1.33333], "texture": "#0"},
				"up": {"uv": [6, 0.33333, 7, 1.33333], "texture": "#0"},
				"down": {"uv": [6, 0.33333, 7, 1.33333], "texture": "#0"}
			}
		},
		{
			"name": "hexadecagon",
			"from": [6.88811, 0.07813, 7.4375],
			"to": [7.11189, 0.92188, 8.5625],
			"rotation": {"angle": 22.5, "axis": "y", "origin": [7, 1.20313, 8]},
			"faces": {
				"north": {"uv": [6, 0.33333, 7, 1.33333], "texture": "#0"},
				"east": {"uv": [6, 0.33333, 7, 1.33333], "texture": "#0"},
				"south": {"uv": [6, 0.33333, 7, 1.33333], "texture": "#0"},
				"west": {"uv": [6, 0.33333, 7, 1.33333], "texture": "#0"},
				"up": {"uv": [6, 0.33333, 7, 1.33333], "texture": "#0"},
				"down": {"uv": [6, 0.33333, 7, 1.33333], "texture": "#0"}
			}
		},
		{
			"name": "hexadecagon",
			"from": [6.88811, 0.07813, 7.4375],
			"to": [7.11189, 0.92188, 8.5625],
			"rotation": {"angle": 45, "axis": "y", "origin": [7, 1.20313, 8]},
			"faces": {
				"north": {"uv": [6, 0.33333, 7, 1.33333], "texture": "#0"},
				"east": {"uv": [6, 0.33333, 7, 1.33333], "texture": "#0"},
				"south": {"uv": [6, 0.33333, 7, 1.33333], "texture": "#0"},
				"west": {"uv": [6, 0.33333, 7, 1.33333], "texture": "#0"},
				"up": {"uv": [6, 0.33333, 7, 1.33333], "texture": "#0"},
				"down": {"uv": [6, 0.33333, 7, 1.33333], "texture": "#0"}
			}
		},
		{
			"name": "hexadecagon",
			"from": [6.4375, 0.07813, 7.88811],
			"to": [7.5625, 0.92188, 8.11189],
			"rotation": {"angle": -22.5, "axis": "y", "origin": [7, 1.20313, 8]},
			"faces": {
				"north": {"uv": [6, 0.33333, 7, 1.33333], "texture": "#0"},
				"east": {"uv": [6, 0.33333, 7, 1.33333], "texture": "#0"},
				"south": {"uv": [6, 0.33333, 7, 1.33333], "texture": "#0"},
				"west": {"uv": [6, 0.33333, 7, 1.33333], "texture": "#0"},
				"up": {"uv": [6, 0.33333, 7, 1.33333], "texture": "#0"},
				"down": {"uv": [6, 0.33333, 7, 1.33333], "texture": "#0"}
			}
		},
		{
			"name": "hexadecagon",
			"from": [6.4375, 0.07813, 7.88811],
			"to": [7.5625, 0.92188, 8.11189],
			"rotation": {"angle": 0, "axis": "y", "origin": [7, 1.20313, 8]},
			"faces": {
				"north": {"uv": [6, 0.33333, 7, 1.33333], "texture": "#0"},
				"east": {"uv": [6, 0.33333, 7, 1.33333], "texture": "#0"},
				"south": {"uv": [6, 0.33333, 7, 1.33333], "texture": "#0"},
				"west": {"uv": [6, 0.33333, 7, 1.33333], "texture": "#0"},
				"up": {"uv": [6, 0.33333, 7, 1.33333], "texture": "#0"},
				"down": {"uv": [6, 0.33333, 7, 1.33333], "texture": "#0"}
			}
		},
		{
			"name": "hexadecagon",
			"from": [6.4375, 0.07813, 7.88811],
			"to": [7.5625, 0.92188, 8.11189],
			"rotation": {"angle": 22.5, "axis": "y", "origin": [7, 1.20313, 8]},
			"faces": {
				"north": {"uv": [6, 0.33333, 7, 1.33333], "texture": "#0"},
				"east": {"uv": [6, 0.33333, 7, 1.33333], "texture": "#0"},
				"south": {"uv": [6, 0.33333, 7, 1.33333], "texture": "#0"},
				"west": {"uv": [6, 0.33333, 7, 1.33333], "texture": "#0"},
				"up": {"uv": [6, 0.33333, 7, 1.33333], "texture": "#0"},
				"down": {"uv": [6, 0.33333, 7, 1.33333], "texture": "#0"}
			}
		},
		{
			"name": "hexadecagon",
			"from": [6.92541, 0.96875, 7.625],
			"to": [7.07459, 9.03125, 8.375],
			"rotation": {"angle": -45, "axis": "y", "origin": [7, 1.71875, 8]},
			"faces": {
				"north": {"uv": [6.33333, 9.66667, 7.33333, 8.66667], "texture": "#0"},
				"east": {"uv": [6.33333, 9.66667, 7.33333, 8.66667], "texture": "#0"},
				"south": {"uv": [6.33333, 9.66667, 7.33333, 8.66667], "texture": "#0"},
				"west": {"uv": [6.33333, 9.66667, 7.33333, 8.66667], "texture": "#0"},
				"up": {"uv": [6.33333, 9.66667, 7.33333, 8.66667], "texture": "#0"},
				"down": {"uv": [6.33333, 9.66667, 7.33333, 8.66667], "texture": "#0"}
			}
		},
		{
			"name": "hexadecagon",
			"from": [6.92541, 0.96875, 7.625],
			"to": [7.07459, 9.03125, 8.375],
			"rotation": {"angle": -22.5, "axis": "y", "origin": [7, 1.71875, 8]},
			"faces": {
				"north": {"uv": [6.33333, 9.66667, 7.33333, 8.66667], "texture": "#0"},
				"east": {"uv": [6.33333, 9.66667, 7.33333, 8.66667], "texture": "#0"},
				"south": {"uv": [6.33333, 9.66667, 7.33333, 8.66667], "texture": "#0"},
				"west": {"uv": [6.33333, 9.66667, 7.33333, 8.66667], "texture": "#0"},
				"up": {"uv": [6.33333, 9.66667, 7.33333, 8.66667], "texture": "#0"},
				"down": {"uv": [6.33333, 9.66667, 7.33333, 8.66667], "texture": "#0"}
			}
		},
		{
			"name": "hexadecagon",
			"from": [6.92541, 0.96875, 7.625],
			"to": [7.07459, 9.03125, 8.375],
			"rotation": {"angle": 0, "axis": "y", "origin": [7, 1.71875, 8]},
			"faces": {
				"north": {"uv": [6.33333, 9.66667, 7.33333, 8.66667], "texture": "#0"},
				"east": {"uv": [6.33333, 9.66667, 7.33333, 8.66667], "texture": "#0"},
				"south": {"uv": [6.33333, 9.66667, 7.33333, 8.66667], "texture": "#0"},
				"west": {"uv": [6.33333, 9.66667, 7.33333, 8.66667], "texture": "#0"},
				"up": {"uv": [6.33333, 9.66667, 7.33333, 8.66667], "texture": "#0"},
				"down": {"uv": [6.33333, 9.66667, 7.33333, 8.66667], "texture": "#0"}
			}
		},
		{
			"name": "hexadecagon",
			"from": [6.92541, 0.96875, 7.625],
			"to": [7.07459, 9.03125, 8.375],
			"rotation": {"angle": 22.5, "axis": "y", "origin": [7, 1.71875, 8]},
			"faces": {
				"north": {"uv": [6.33333, 9.66667, 7.33333, 8.66667], "texture": "#0"},
				"east": {"uv": [6.33333, 9.66667, 7.33333, 8.66667], "texture": "#0"},
				"south": {"uv": [6.33333, 9.66667, 7.33333, 8.66667], "texture": "#0"},
				"west": {"uv": [6.33333, 9.66667, 7.33333, 8.66667], "texture": "#0"},
				"up": {"uv": [6.33333, 9.66667, 7.33333, 8.66667], "texture": "#0"},
				"down": {"uv": [6.33333, 9.66667, 7.33333, 8.66667], "texture": "#0"}
			}
		},
		{
			"name": "hexadecagon",
			"from": [6.92541, 0.96875, 7.625],
			"to": [7.07459, 9.03125, 8.375],
			"rotation": {"angle": 45, "axis": "y", "origin": [7, 1.71875, 8]},
			"faces": {
				"north": {"uv": [6.33333, 9.66667, 7.33333, 8.66667], "texture": "#0"},
				"east": {"uv": [6.33333, 9.66667, 7.33333, 8.66667], "texture": "#0"},
				"south": {"uv": [6.33333, 9.66667, 7.33333, 8.66667], "texture": "#0"},
				"west": {"uv": [6.33333, 9.66667, 7.33333, 8.66667], "texture": "#0"},
				"up": {"uv": [6.33333, 9.66667, 7.33333, 8.66667], "texture": "#0"},
				"down": {"uv": [6.33333, 9.66667, 7.33333, 8.66667], "texture": "#0"}
			}
		},
		{
			"name": "hexadecagon",
			"from": [6.625, 0.96875, 7.92541],
			"to": [7.375, 9.03125, 8.07459],
			"rotation": {"angle": -22.5, "axis": "y", "origin": [7, 1.71875, 8]},
			"faces": {
				"north": {"uv": [6.33333, 9.66667, 7.33333, 8.66667], "texture": "#0"},
				"east": {"uv": [6.33333, 9.66667, 7.33333, 8.66667], "texture": "#0"},
				"south": {"uv": [6.33333, 9.66667, 7.33333, 8.66667], "texture": "#0"},
				"west": {"uv": [6.33333, 9.66667, 7.33333, 8.66667], "texture": "#0"},
				"up": {"uv": [6.33333, 9.66667, 7.33333, 8.66667], "texture": "#0"},
				"down": {"uv": [6.33333, 9.66667, 7.33333, 8.66667], "texture": "#0"}
			}
		},
		{
			"name": "hexadecagon",
			"from": [6.625, 0.96875, 7.92541],
			"to": [7.375, 9.03125, 8.07459],
			"rotation": {"angle": 0, "axis": "y", "origin": [7, 1.71875, 8]},
			"faces": {
				"north": {"uv": [6.33333, 9.66667, 7.33333, 8.66667], "texture": "#0"},
				"east": {"uv": [6.33333, 9.66667, 7.33333, 8.66667], "texture": "#0"},
				"south": {"uv": [6.33333, 9.66667, 7.33333, 8.66667], "texture": "#0"},
				"west": {"uv": [6.33333, 9.66667, 7.33333, 8.66667], "texture": "#0"},
				"up": {"uv": [6.33333, 9.66667, 7.33333, 8.66667], "texture": "#0"},
				"down": {"uv": [6.33333, 9.66667, 7.33333, 8.66667], "texture": "#0"}
			}
		},
		{
			"name": "hexadecagon",
			"from": [6.625, 0.96875, 7.92541],
			"to": [7.375, 9.03125, 8.07459],
			"rotation": {"angle": 22.5, "axis": "y", "origin": [7, 1.71875, 8]},
			"faces": {
				"north": {"uv": [6.33333, 9.66667, 7.33333, 8.66667], "texture": "#0"},
				"east": {"uv": [6.33333, 9.66667, 7.33333, 8.66667], "texture": "#0"},
				"south": {"uv": [6.33333, 9.66667, 7.33333, 8.66667], "texture": "#0"},
				"west": {"uv": [6.33333, 9.66667, 7.33333, 8.66667], "texture": "#0"},
				"up": {"uv": [6.33333, 9.66667, 7.33333, 8.66667], "texture": "#0"},
				"down": {"uv": [6.33333, 9.66667, 7.33333, 8.66667], "texture": "#0"}
			}
		},
		{
			"name": "hexadecagon",
			"from": [6.91049, 6.8875, 7.55],
			"to": [7.08951, 7.8625, 8.45],
			"rotation": {"angle": -45, "axis": "y", "origin": [7, 1.7875, 8]},
			"faces": {
				"north": {"uv": [6, 3.33333, 7, 4.33333], "texture": "#0"},
				"east": {"uv": [6, 3.33333, 7, 4.33333], "texture": "#0"},
				"south": {"uv": [6, 3.33333, 7, 4.33333], "texture": "#0"},
				"west": {"uv": [6, 3.33333, 7, 4.33333], "texture": "#0"},
				"up": {"uv": [6, 3.33333, 7, 4.33333], "texture": "#0"},
				"down": {"uv": [6, 3.33333, 7, 4.33333], "texture": "#0"}
			}
		},
		{
			"name": "hexadecagon",
			"from": [6.91049, 6.8875, 7.55],
			"to": [7.08951, 7.8625, 8.45],
			"rotation": {"angle": -22.5, "axis": "y", "origin": [7, 1.7875, 8]},
			"faces": {
				"north": {"uv": [6, 3.33333, 7, 4.33333], "texture": "#0"},
				"east": {"uv": [6, 3.33333, 7, 4.33333], "texture": "#0"},
				"south": {"uv": [6, 3.33333, 7, 4.33333], "texture": "#0"},
				"west": {"uv": [6, 3.33333, 7, 4.33333], "texture": "#0"},
				"up": {"uv": [6, 3.33333, 7, 4.33333], "texture": "#0"},
				"down": {"uv": [6, 3.33333, 7, 4.33333], "texture": "#0"}
			}
		},
		{
			"name": "hexadecagon",
			"from": [6.91049, 6.8875, 7.55],
			"to": [7.08951, 7.8625, 8.45],
			"rotation": {"angle": 0, "axis": "y", "origin": [7, 1.7875, 8]},
			"faces": {
				"north": {"uv": [6, 3.33333, 7, 4.33333], "texture": "#0"},
				"east": {"uv": [6, 3.33333, 7, 4.33333], "texture": "#0"},
				"south": {"uv": [6, 3.33333, 7, 4.33333], "texture": "#0"},
				"west": {"uv": [6, 3.33333, 7, 4.33333], "texture": "#0"},
				"up": {"uv": [6, 3.33333, 7, 4.33333], "texture": "#0"},
				"down": {"uv": [6, 3.33333, 7, 4.33333], "texture": "#0"}
			}
		},
		{
			"name": "hexadecagon",
			"from": [6.91049, 6.8875, 7.55],
			"to": [7.08951, 7.8625, 8.45],
			"rotation": {"angle": 22.5, "axis": "y", "origin": [7, 1.7875, 8]},
			"faces": {
				"north": {"uv": [6, 3.33333, 7, 4.33333], "texture": "#0"},
				"east": {"uv": [6, 3.33333, 7, 4.33333], "texture": "#0"},
				"south": {"uv": [6, 3.33333, 7, 4.33333], "texture": "#0"},
				"west": {"uv": [6, 3.33333, 7, 4.33333], "texture": "#0"},
				"up": {"uv": [6, 3.33333, 7, 4.33333], "texture": "#0"},
				"down": {"uv": [6, 3.33333, 7, 4.33333], "texture": "#0"}
			}
		},
		{
			"name": "hexadecagon",
			"from": [6.91049, 6.8875, 7.55],
			"to": [7.08951, 7.8625, 8.45],
			"rotation": {"angle": 45, "axis": "y", "origin": [7, 1.7875, 8]},
			"faces": {
				"north": {"uv": [6, 3.33333, 7, 4.33333], "texture": "#0"},
				"east": {"uv": [6, 3.33333, 7, 4.33333], "texture": "#0"},
				"south": {"uv": [6, 3.33333, 7, 4.33333], "texture": "#0"},
				"west": {"uv": [6, 3.33333, 7, 4.33333], "texture": "#0"},
				"up": {"uv": [6, 3.33333, 7, 4.33333], "texture": "#0"},
				"down": {"uv": [6, 3.33333, 7, 4.33333], "texture": "#0"}
			}
		},
		{
			"name": "hexadecagon",
			"from": [6.55, 6.8875, 7.91049],
			"to": [7.45, 7.8625, 8.08951],
			"rotation": {"angle": -22.5, "axis": "y", "origin": [7, 1.7875, 8]},
			"faces": {
				"north": {"uv": [6, 3.33333, 7, 4.33333], "texture": "#0"},
				"east": {"uv": [6, 3.33333, 7, 4.33333], "texture": "#0"},
				"south": {"uv": [6, 3.33333, 7, 4.33333], "texture": "#0"},
				"west": {"uv": [6, 3.33333, 7, 4.33333], "texture": "#0"},
				"up": {"uv": [6, 3.33333, 7, 4.33333], "texture": "#0"},
				"down": {"uv": [6, 3.33333, 7, 4.33333], "texture": "#0"}
			}
		},
		{
			"name": "hexadecagon",
			"from": [6.55, 6.8875, 7.91049],
			"to": [7.45, 7.8625, 8.08951],
			"rotation": {"angle": 0, "axis": "y", "origin": [7, 1.7875, 8]},
			"faces": {
				"north": {"uv": [6, 3.33333, 7, 4.33333], "texture": "#0"},
				"east": {"uv": [6, 3.33333, 7, 4.33333], "texture": "#0"},
				"south": {"uv": [6, 3.33333, 7, 4.33333], "texture": "#0"},
				"west": {"uv": [6, 3.33333, 7, 4.33333], "texture": "#0"},
				"up": {"uv": [6, 3.33333, 7, 4.33333], "texture": "#0"},
				"down": {"uv": [6, 3.33333, 7, 4.33333], "texture": "#0"}
			}
		},
		{
			"name": "hexadecagon",
			"from": [6.55, 6.8875, 7.91049],
			"to": [7.45, 7.8625, 8.08951],
			"rotation": {"angle": 22.5, "axis": "y", "origin": [7, 1.7875, 8]},
			"faces": {
				"north": {"uv": [6, 3.33333, 7, 4.33333], "texture": "#0"},
				"east": {"uv": [6, 3.33333, 7, 4.33333], "texture": "#0"},
				"south": {"uv": [6, 3.33333, 7, 4.33333], "texture": "#0"},
				"west": {"uv": [6, 3.33333, 7, 4.33333], "texture": "#0"},
				"up": {"uv": [6, 3.33333, 7, 4.33333], "texture": "#0"},
				"down": {"uv": [6, 3.33333, 7, 4.33333], "texture": "#0"}
			}
		},
		{
			"name": "hexadecagon",
			"from": [6.92168, 6.76719, 7.60625],
			"to": [7.07832, 13.23281, 8.39375],
			"rotation": {"angle": -45, "axis": "y", "origin": [7, 7.55469, 8]},
			"faces": {
				"north": {"uv": [6.33333, 9.66667, 7.33333, 8.66667], "texture": "#0"},
				"east": {"uv": [6.33333, 9.66667, 7.33333, 8.66667], "texture": "#0"},
				"south": {"uv": [6.33333, 9.66667, 7.33333, 8.66667], "texture": "#0"},
				"west": {"uv": [6.33333, 9.66667, 7.33333, 8.66667], "texture": "#0"},
				"up": {"uv": [6.33333, 9.66667, 7.33333, 8.66667], "texture": "#0"},
				"down": {"uv": [6.33333, 9.66667, 7.33333, 8.66667], "texture": "#0"}
			}
		},
		{
			"name": "hexadecagon",
			"from": [6.92168, 6.76719, 7.60625],
			"to": [7.07832, 13.23281, 8.39375],
			"rotation": {"angle": -22.5, "axis": "y", "origin": [7, 7.55469, 8]},
			"faces": {
				"north": {"uv": [6.33333, 9.66667, 7.33333, 8.66667], "texture": "#0"},
				"east": {"uv": [6.33333, 9.66667, 7.33333, 8.66667], "texture": "#0"},
				"south": {"uv": [6.33333, 9.66667, 7.33333, 8.66667], "texture": "#0"},
				"west": {"uv": [6.33333, 9.66667, 7.33333, 8.66667], "texture": "#0"},
				"up": {"uv": [6.33333, 9.66667, 7.33333, 8.66667], "texture": "#0"},
				"down": {"uv": [6.33333, 9.66667, 7.33333, 8.66667], "texture": "#0"}
			}
		},
		{
			"name": "hexadecagon",
			"from": [6.92168, 6.76719, 7.60625],
			"to": [7.07832, 13.23281, 8.39375],
			"rotation": {"angle": 0, "axis": "y", "origin": [7, 7.55469, 8]},
			"faces": {
				"north": {"uv": [6.33333, 9.66667, 7.33333, 8.66667], "texture": "#0"},
				"east": {"uv": [6.33333, 9.66667, 7.33333, 8.66667], "texture": "#0"},
				"south": {"uv": [6.33333, 9.66667, 7.33333, 8.66667], "texture": "#0"},
				"west": {"uv": [6.33333, 9.66667, 7.33333, 8.66667], "texture": "#0"},
				"up": {"uv": [6.33333, 9.66667, 7.33333, 8.66667], "texture": "#0"},
				"down": {"uv": [6.33333, 9.66667, 7.33333, 8.66667], "texture": "#0"}
			}
		},
		{
			"name": "hexadecagon",
			"from": [6.92168, 6.76719, 7.60625],
			"to": [7.07832, 13.23281, 8.39375],
			"rotation": {"angle": 22.5, "axis": "y", "origin": [7, 7.55469, 8]},
			"faces": {
				"north": {"uv": [6.33333, 9.66667, 7.33333, 8.66667], "texture": "#0"},
				"east": {"uv": [6.33333, 9.66667, 7.33333, 8.66667], "texture": "#0"},
				"south": {"uv": [6.33333, 9.66667, 7.33333, 8.66667], "texture": "#0"},
				"west": {"uv": [6.33333, 9.66667, 7.33333, 8.66667], "texture": "#0"},
				"up": {"uv": [6.33333, 9.66667, 7.33333, 8.66667], "texture": "#0"},
				"down": {"uv": [6.33333, 9.66667, 7.33333, 8.66667], "texture": "#0"}
			}
		},
		{
			"name": "hexadecagon",
			"from": [6.92168, 6.76719, 7.60625],
			"to": [7.07832, 13.23281, 8.39375],
			"rotation": {"angle": 45, "axis": "y", "origin": [7, 7.55469, 8]},
			"faces": {
				"north": {"uv": [6.33333, 9.66667, 7.33333, 8.66667], "texture": "#0"},
				"east": {"uv": [6.33333, 9.66667, 7.33333, 8.66667], "texture": "#0"},
				"south": {"uv": [6.33333, 9.66667, 7.33333, 8.66667], "texture": "#0"},
				"west": {"uv": [6.33333, 9.66667, 7.33333, 8.66667], "texture": "#0"},
				"up": {"uv": [6.33333, 9.66667, 7.33333, 8.66667], "texture": "#0"},
				"down": {"uv": [6.33333, 9.66667, 7.33333, 8.66667], "texture": "#0"}
			}
		},
		{
			"name": "hexadecagon",
			"from": [6.60625, 6.76719, 7.92168],
			"to": [7.39375, 13.23281, 8.07832],
			"rotation": {"angle": -22.5, "axis": "y", "origin": [7, 7.55469, 8]},
			"faces": {
				"north": {"uv": [6.33333, 9.66667, 7.33333, 8.66667], "texture": "#0"},
				"east": {"uv": [6.33333, 9.66667, 7.33333, 8.66667], "texture": "#0"},
				"south": {"uv": [6.33333, 9.66667, 7.33333, 8.66667], "texture": "#0"},
				"west": {"uv": [6.33333, 9.66667, 7.33333, 8.66667], "texture": "#0"},
				"up": {"uv": [6.33333, 9.66667, 7.33333, 8.66667], "texture": "#0"},
				"down": {"uv": [6.33333, 9.66667, 7.33333, 8.66667], "texture": "#0"}
			}
		},
		{
			"name": "hexadecagon",
			"from": [6.60625, 6.76719, 7.92168],
			"to": [7.39375, 13.23281, 8.07832],
			"rotation": {"angle": 0, "axis": "y", "origin": [7, 7.55469, 8]},
			"faces": {
				"north": {"uv": [6.33333, 9.66667, 7.33333, 8.66667], "texture": "#0"},
				"east": {"uv": [6.33333, 9.66667, 7.33333, 8.66667], "texture": "#0"},
				"south": {"uv": [6.33333, 9.66667, 7.33333, 8.66667], "texture": "#0"},
				"west": {"uv": [6.33333, 9.66667, 7.33333, 8.66667], "texture": "#0"},
				"up": {"uv": [6.33333, 9.66667, 7.33333, 8.66667], "texture": "#0"},
				"down": {"uv": [6.33333, 9.66667, 7.33333, 8.66667], "texture": "#0"}
			}
		},
		{
			"name": "hexadecagon",
			"from": [6.60625, 6.76719, 7.92168],
			"to": [7.39375, 13.23281, 8.07832],
			"rotation": {"angle": 22.5, "axis": "y", "origin": [7, 7.55469, 8]},
			"faces": {
				"north": {"uv": [6.33333, 9.66667, 7.33333, 8.66667], "texture": "#0"},
				"east": {"uv": [6.33333, 9.66667, 7.33333, 8.66667], "texture": "#0"},
				"south": {"uv": [6.33333, 9.66667, 7.33333, 8.66667], "texture": "#0"},
				"west": {"uv": [6.33333, 9.66667, 7.33333, 8.66667], "texture": "#0"},
				"up": {"uv": [6.33333, 9.66667, 7.33333, 8.66667], "texture": "#0"},
				"down": {"uv": [6.33333, 9.66667, 7.33333, 8.66667], "texture": "#0"}
			}
		}
	],
	"display": {
		"thirdperson_righthand": {
			"rotation": [65, 0, 0],
			"translation": [1.25, -4.25, -5]
		},
		"thirdperson_lefthand": {
			"rotation": [65, 0, 0],
			"translation": [-1.25, -4.25, -5]
		},
		"firstperson_righthand": {
			"translation": [0, -2.25, 2]
		},
		"firstperson_lefthand": {
			"translation": [0, -2.25, 2]
		},
		"ground": {
			"rotation": [90, -45, 90],
			"translation": [0, 1, 0]
		},
		"gui": {
			"rotation": [90, -45, 90]
		},
		"fixed": {
			"rotation": [90, -45, 90]
		}
	},
	"groups": [
		{
			"name": "Cane_Ivory",
			"origin": [-8, -6, -8],
			"color": 0,
			"children": [
				{
					"name": "hexadecagon",
					"origin": [-8, -6, -8],
					"color": 0,
					"children": [0, 1, 2, 3, 4, 5, 6, 7]
				},
				{
					"name": "hexadecagon2",
					"origin": [-8, -6, -8],
					"color": 0,
					"children": [8, 9, 10, 11, 12, 13, 14, 15]
				},
				{
					"name": "hexadecagon2",
					"origin": [-8, -6, -8],
					"color": 0,
					"children": [16, 17, 18, 19, 20, 21, 22, 23]
				},
				{
					"name": "hexadecagon3",
					"origin": [-8, -6, -8],
					"color": 0,
					"children": [24, 25, 26, 27, 28, 29, 30, 31]
				}
			]
		}
	]
}