{
	"credit": "Made with Blockbench",
	"texture_size": [64, 64],
	"textures": {
		"0": "gci:items/common/pilesos",
		"particle": "gci:items/common/pilesos"
	},
	"elements": [
		{
			"from": [7.1, -1.5, 1],
			"to": [8.9, 1.5, 7],
			"rotation": {"angle": 0, "axis": "y", "origin": [7, -4.5, 12]},
			"faces": {
				"north": {"uv": [8.25, 8.75, 8.6875, 9.5], "texture": "#0"},
				"east": {"uv": [3.5, 2.5, 5, 3.25], "texture": "#0"},
				"south": {"uv": [8.75, 8.75, 9.1875, 9.5], "texture": "#0"},
				"west": {"uv": [3.5, 3.25, 5, 4], "texture": "#0"},
				"up": {"uv": [4.9375, 9, 4.5, 7.5], "texture": "#0"},
				"down": {"uv": [7.9375, 4.5, 7.5, 6], "texture": "#0"}
			}
		},
		{
			"from": [6.95, -1.65, 1.4],
			"to": [9.05, 1.65, 2.35],
			"rotation": {"angle": 0, "axis": "y", "origin": [7, -4.5, 12]},
			"faces": {
				"north": {"uv": [8.25, 7.75, 8.78125, 8.5625], "texture": "#0"},
				"east": {"uv": [8.5, 10, 8.75, 10.8125], "texture": "#0"},
				"south": {"uv": [8.5, 0.5, 9.03125, 1.3125], "texture": "#0"},
				"west": {"uv": [8.75, 10, 9, 10.8125], "texture": "#0"},
				"up": {"uv": [11.78125, 2.75, 11.25, 2.5], "texture": "#0"},
				"down": {"uv": [11.78125, 3.25, 11.25, 3.5], "texture": "#0"}
			}
		},
		{
			"from": [6.8, -1.95, 6],
			"to": [9.2, 1.7, 8],
			"rotation": {"angle": 0, "axis": "y", "origin": [7, -4.5, 12]},
			"faces": {
				"north": {"uv": [1.75, 7.75, 2.34375, 8.65625], "texture": "#0"},
				"east": {"uv": [3.5, 8.25, 4, 9.15625], "texture": "#0"},
				"south": {"uv": [7.75, 3.25, 8.34375, 4.15625], "texture": "#0"},
				"west": {"uv": [4, 8.25, 4.5, 9.15625], "texture": "#0"},
				"up": {"uv": [7.34375, 5, 6.75, 4.5], "texture": "#0"},
				"down": {"uv": [9.59375, 5.25, 9, 5.75], "texture": "#0"}
			}
		},
		{
			"from": [5.8, -5.2, 4.5],
			"to": [10.2, -0.8, 8.25],
			"rotation": {"angle": 0, "axis": "y", "origin": [7, -4.5, 12]},
			"faces": {
				"north": {"uv": [2.75, 0, 3.84375, 1.09375], "texture": "#0"},
				"east": {"uv": [4, 1, 4.9375, 2.09375], "texture": "#0"},
				"south": {"uv": [2.75, 1.25, 3.84375, 2.34375], "texture": "#0"},
				"west": {"uv": [3.5, 4, 4.4375, 5.09375], "texture": "#0"},
				"up": {"uv": [1.09375, 5.4375, 0, 4.5], "texture": "#0"},
				"down": {"uv": [5.59375, 4, 4.5, 4.9375], "texture": "#0"}
			}
		},
		{
			"from": [4.3, -2.2, 6],
			"to": [11.7, -1.8, 8],
			"rotation": {"angle": 0, "axis": "y", "origin": [7, -4.5, 12]},
			"faces": {
				"north": {"uv": [10.75, 1.25, 12.59375, 1.34375], "texture": "#0"},
				"east": {"uv": [12.25, 3.75, 12.75, 3.84375], "texture": "#0"},
				"south": {"uv": [10.75, 1.5, 12.59375, 1.59375], "texture": "#0"},
				"west": {"uv": [12.25, 4, 12.75, 4.09375], "texture": "#0"},
				"up": {"uv": [7.34375, 5.5, 5.5, 5], "texture": "#0"},
				"down": {"uv": [7.34375, 5.5, 5.5, 6], "texture": "#0"}
			}
		},
		{
			"from": [10.55, -1.8, 2],
			"to": [10.95, -0.65, 8],
			"rotation": {"angle": 0, "axis": "y", "origin": [7, -4.5, 12]},
			"faces": {
				"north": {"uv": [9, 12.5, 9.09375, 12.78125], "texture": "#0"},
				"east": {"uv": [8.5, 3.25, 10, 3.53125], "texture": "#0"},
				"south": {"uv": [9.25, 12.5, 9.34375, 12.78125], "texture": "#0"},
				"west": {"uv": [8.5, 3.75, 10, 4.03125], "texture": "#0"},
				"up": {"uv": [4.09375, 12.75, 4, 11.25], "texture": "#0"},
				"down": {"uv": [4.34375, 11.25, 4.25, 12.75], "texture": "#0"}
			}
		},
		{
			"from": [5.55, -1.6, 1.6],
			"to": [10.7, -0.85, 2.2],
			"rotation": {"angle": 0, "axis": "y", "origin": [7, -4.5, 12]},
			"faces": {
				"north": {"uv": [9.75, 8, 11.03125, 8.1875], "texture": "#0"},
				"east": {"uv": [12.5, 3.5, 12.65625, 3.6875], "texture": "#0"},
				"south": {"uv": [9.75, 8.25, 11.03125, 8.4375], "texture": "#0"},
				"west": {"uv": [5.25, 12.5, 5.40625, 12.6875], "texture": "#0"},
				"up": {"uv": [10.28125, 10.15625, 9, 10], "texture": "#0"},
				"down": {"uv": [11.28125, 9.5, 10, 9.65625], "texture": "#0"}
			}
		},
		{
			"from": [10.3, 1.52235, 3.44194],
			"to": [11.2, 5.02235, 4.59194],
			"rotation": {"angle": -22.5, "axis": "x", "origin": [7, -4.5, 12]},
			"faces": {
				"north": {"uv": [10.25, 5.75, 10.46875, 6.625], "texture": "#0"},
				"east": {"uv": [3.5, 9.75, 3.78125, 10.625], "texture": "#0"},
				"south": {"uv": [7, 10.25, 7.21875, 11.125], "texture": "#0"},
				"west": {"uv": [4, 9.75, 4.28125, 10.625], "texture": "#0"},
				"up": {"uv": [5.71875, 12.28125, 5.5, 12], "texture": "#0"},
				"down": {"uv": [12.21875, 6, 12, 6.28125], "texture": "#0"}
			}
		},
		{
			"from": [4.8, 1.52235, 3.44194],
			"to": [5.7, 5.02235, 4.59194],
			"rotation": {"angle": -22.5, "axis": "x", "origin": [7, -4.5, 12]},
			"faces": {
				"north": {"uv": [9, 10.25, 9.21875, 11.125], "texture": "#0"},
				"east": {"uv": [5.5, 9.75, 5.78125, 10.625], "texture": "#0"},
				"south": {"uv": [9.25, 10.25, 9.46875, 11.125], "texture": "#0"},
				"west": {"uv": [6, 9.75, 6.28125, 10.625], "texture": "#0"},
				"up": {"uv": [6.46875, 12.28125, 6.25, 12], "texture": "#0"},
				"down": {"uv": [6.71875, 12, 6.5, 12.28125], "texture": "#0"}
			}
		},
		{
			"from": [4.7, -8.99264, -0.74949],
			"to": [5.8, -6.49264, 0.40051],
			"rotation": {"angle": 45, "axis": "x", "origin": [7, -4.5, 12]},
			"faces": {
				"north": {"uv": [10.25, 10.25, 10.53125, 10.875], "texture": "#0"},
				"east": {"uv": [0.5, 10.5, 0.78125, 11.125], "texture": "#0"},
				"south": {"uv": [1, 10.5, 1.28125, 11.125], "texture": "#0"},
				"west": {"uv": [10.5, 3.75, 10.78125, 4.375], "texture": "#0"},
				"up": {"uv": [2.03125, 12.03125, 1.75, 11.75], "texture": "#0"},
				"down": {"uv": [2.53125, 11.75, 2.25, 12.03125], "texture": "#0"}
			}
		},
		{
			"from": [4.9, -6.99264, -0.64949],
			"to": [5.6, -3.49264, 0.30051],
			"rotation": {"angle": 45, "axis": "x", "origin": [7, -4.5, 12]},
			"faces": {
				"north": {"uv": [2, 10.75, 2.1875, 11.625], "texture": "#0"},
				"east": {"uv": [1.25, 4.5, 1.5, 5.375], "texture": "#0"},
				"south": {"uv": [2.25, 10.75, 2.4375, 11.625], "texture": "#0"},
				"west": {"uv": [4.25, 5.25, 4.5, 6.125], "texture": "#0"},
				"up": {"uv": [12.4375, 4.5, 12.25, 4.25], "texture": "#0"},
				"down": {"uv": [12.4375, 4.5, 12.25, 4.75], "texture": "#0"}
			}
		},
		{
			"from": [5.6, -3.99264, -0.64949],
			"to": [10.4, -3.49264, 0.30051],
			"rotation": {"angle": 45, "axis": "x", "origin": [7, -4.5, 12]},
			"faces": {
				"north": {"uv": [11.25, 0, 12.4375, 0.125], "texture": "#0"},
				"east": {"uv": [2.75, 12.5, 3, 12.625], "texture": "#0"},
				"south": {"uv": [11.25, 0.25, 12.4375, 0.375], "texture": "#0"},
				"west": {"uv": [3.25, 12.5, 3.5, 12.625], "texture": "#0"},
				"up": {"uv": [7.4375, 1, 6.25, 0.75], "texture": "#0"},
				"down": {"uv": [10.1875, 7.75, 9, 8], "texture": "#0"}
			}
		},
		{
			"from": [6.6, -4.09264, -0.74949],
			"to": [9.4, -3.39264, 0.40051],
			"rotation": {"angle": 45, "axis": "x", "origin": [7, -4.5, 12]},
			"faces": {
				"north": {"uv": [11.25, 3.5, 11.9375, 3.6875], "texture": "#0"},
				"east": {"uv": [12.25, 3, 12.53125, 3.1875], "texture": "#0"},
				"south": {"uv": [5.5, 11.25, 6.1875, 11.4375], "texture": "#0"},
				"west": {"uv": [12.25, 3.25, 12.53125, 3.4375], "texture": "#0"},
				"up": {"uv": [2.1875, 10.53125, 1.5, 10.25], "texture": "#0"},
				"down": {"uv": [2.9375, 10.25, 2.25, 10.53125], "texture": "#0"}
			}
		},
		{
			"from": [10.4, -6.99264, -0.64949],
			"to": [11.1, -3.49264, 0.30051],
			"rotation": {"angle": 45, "axis": "x", "origin": [7, -4.5, 12]},
			"faces": {
				"north": {"uv": [2.5, 10.75, 2.6875, 11.625], "texture": "#0"},
				"east": {"uv": [4.5, 9.75, 4.75, 10.625], "texture": "#0"},
				"south": {"uv": [2.75, 10.75, 2.9375, 11.625], "texture": "#0"},
				"west": {"uv": [6.5, 9.75, 6.75, 10.625], "texture": "#0"},
				"up": {"uv": [12.4375, 5, 12.25, 4.75], "texture": "#0"},
				"down": {"uv": [12.4375, 5, 12.25, 5.25], "texture": "#0"}
			}
		},
		{
			"from": [10.2, -8.99264, -0.74949],
			"to": [11.3, -6.49264, 0.40051],
			"rotation": {"angle": 45, "axis": "x", "origin": [7, -4.5, 12]},
			"faces": {
				"north": {"uv": [10.5, 4.5, 10.78125, 5.125], "texture": "#0"},
				"east": {"uv": [4.75, 10.5, 5.03125, 11.125], "texture": "#0"},
				"south": {"uv": [10.5, 5.75, 10.78125, 6.375], "texture": "#0"},
				"west": {"uv": [10.5, 6.5, 10.78125, 7.125], "texture": "#0"},
				"up": {"uv": [3.03125, 12.03125, 2.75, 11.75], "texture": "#0"},
				"down": {"uv": [12.03125, 2.75, 11.75, 3.03125], "texture": "#0"}
			}
		},
		{
			"from": [5.05, -1.8, 2],
			"to": [5.45, -0.65, 8],
			"rotation": {"angle": 0, "axis": "y", "origin": [7, -4.5, 12]},
			"faces": {
				"north": {"uv": [12.5, 9.25, 12.59375, 9.53125], "texture": "#0"},
				"east": {"uv": [8.5, 5.75, 10, 6.03125], "texture": "#0"},
				"south": {"uv": [12.5, 9.75, 12.59375, 10.03125], "texture": "#0"},
				"west": {"uv": [8.5, 6.25, 10, 6.53125], "texture": "#0"},
				"up": {"uv": [4.84375, 12.75, 4.75, 11.25], "texture": "#0"},
				"down": {"uv": [5.09375, 11.25, 5, 12.75], "texture": "#0"}
			}
		},
		{
			"from": [4.3, -6.35, 6],
			"to": [11.7, -5.95, 8],
			"rotation": {"angle": 0, "axis": "y", "origin": [7, -4.5, 12]},
			"faces": {
				"north": {"uv": [10.75, 1.75, 12.59375, 1.84375], "texture": "#0"},
				"east": {"uv": [12.25, 5.25, 12.75, 5.34375], "texture": "#0"},
				"south": {"uv": [10.75, 2, 12.59375, 2.09375], "texture": "#0"},
				"west": {"uv": [12.25, 5.5, 12.75, 5.59375], "texture": "#0"},
				"up": {"uv": [1.84375, 6.25, 0, 5.75], "texture": "#0"},
				"down": {"uv": [7.59375, 4, 5.75, 4.5], "texture": "#0"}
			}
		},
		{
			"from": [11.3, -5.95, 6],
			"to": [11.7, -2.2, 8],
			"rotation": {"angle": 0, "axis": "y", "origin": [7, -4.5, 12]},
			"faces": {
				"north": {"uv": [8.75, 11.5, 8.84375, 12.4375], "texture": "#0"},
				"east": {"uv": [2.25, 3.5, 2.75, 4.4375], "texture": "#0"},
				"south": {"uv": [9, 11.5, 9.09375, 12.4375], "texture": "#0"},
				"west": {"uv": [8, 6.75, 8.5, 7.6875], "texture": "#0"},
				"up": {"uv": [12.34375, 6.25, 12.25, 5.75], "texture": "#0"},
				"down": {"uv": [6.09375, 12.25, 6, 12.75], "texture": "#0"}
			}
		},
		{
			"from": [10.3, -9.35, 7],
			"to": [10.7, -7.6, 8],
			"rotation": {"angle": 0, "axis": "y", "origin": [7, -4.5, 12]},
			"faces": {
				"north": {"uv": [9.5, 12.25, 9.59375, 12.6875], "texture": "#0"},
				"east": {"uv": [3.25, 4.75, 3.5, 5.1875], "texture": "#0"},
				"south": {"uv": [9.75, 12.25, 9.84375, 12.6875], "texture": "#0"},
				"west": {"uv": [4.75, 9, 5, 9.4375], "texture": "#0"},
				"up": {"uv": [12.59375, 8, 12.5, 7.75], "texture": "#0"},
				"down": {"uv": [10.34375, 12.5, 10.25, 12.75], "texture": "#0"}
			}
		},
		{
			"from": [5.2, -9.6, 6],
			"to": [10.8, -9.35, 8.1],
			"rotation": {"angle": 0, "axis": "y", "origin": [7, -4.5, 12]},
			"faces": {
				"north": {"uv": [11.5, 7.5, 12.90625, 7.5625], "texture": "#0"},
				"east": {"uv": [1.25, 12.5, 1.78125, 12.5625], "texture": "#0"},
				"south": {"uv": [11.5, 8, 12.90625, 8.0625], "texture": "#0"},
				"west": {"uv": [2, 12.5, 2.53125, 12.5625], "texture": "#0"},
				"up": {"uv": [2.40625, 7.53125, 1, 7], "texture": "#0"},
				"down": {"uv": [8.40625, 6, 7, 6.53125], "texture": "#0"}
			}
		},
		{
			"from": [10.4, -9.35, 6.2],
			"to": [10.6, -7.35, 7.5],
			"rotation": {"angle": 0, "axis": "y", "origin": [7, -4.5, 12]},
			"faces": {
				"north": {"uv": [3.75, 12.5, 3.8125, 13], "texture": "#0"},
				"east": {"uv": [11, 4.75, 11.3125, 5.25], "texture": "#0"},
				"south": {"uv": [12.5, 4.25, 12.5625, 4.75], "texture": "#0"},
				"west": {"uv": [11, 5.75, 11.3125, 6.25], "texture": "#0"},
				"up": {"uv": [12.5625, 12.8125, 12.5, 12.5], "texture": "#0"},
				"down": {"uv": [0.0625, 12.75, 0, 13.0625], "texture": "#0"}
			}
		},
		{
			"from": [10.3, -7.6, 6],
			"to": [10.7, -6.35, 8],
			"rotation": {"angle": 0, "axis": "y", "origin": [7, -4.5, 12]},
			"faces": {
				"north": {"uv": [5.5, 12.5, 5.59375, 12.8125], "texture": "#0"},
				"east": {"uv": [11, 6.25, 11.5, 6.5625], "texture": "#0"},
				"south": {"uv": [5.75, 12.5, 5.84375, 12.8125], "texture": "#0"},
				"west": {"uv": [11, 6.75, 11.5, 7.0625], "texture": "#0"},
				"up": {"uv": [12.34375, 6.75, 12.25, 6.25], "texture": "#0"},
				"down": {"uv": [12.34375, 6.75, 12.25, 7.25], "texture": "#0"}
			}
		},
		{
			"from": [5.4, -9.35, 6.2],
			"to": [5.6, -7.35, 7.5],
			"rotation": {"angle": 0, "axis": "y", "origin": [7, -4.5, 12]},
			"faces": {
				"north": {"uv": [4.5, 12.5, 4.5625, 13], "texture": "#0"},
				"east": {"uv": [11, 7.25, 11.3125, 7.75], "texture": "#0"},
				"south": {"uv": [12.5, 4.75, 12.5625, 5.25], "texture": "#0"},
				"west": {"uv": [8.5, 11, 8.8125, 11.5], "texture": "#0"},
				"up": {"uv": [0.3125, 13.0625, 0.25, 12.75], "texture": "#0"},
				"down": {"uv": [12.8125, 0.25, 12.75, 0.5625], "texture": "#0"}
			}
		},
		{
			"from": [5.3, -9.35, 7],
			"to": [5.7, -7.6, 8],
			"rotation": {"angle": 0, "axis": "y", "origin": [7, -4.5, 12]},
			"faces": {
				"north": {"uv": [10, 12.25, 10.09375, 12.6875], "texture": "#0"},
				"east": {"uv": [8, 9, 8.25, 9.4375], "texture": "#0"},
				"south": {"uv": [12.25, 10.25, 12.34375, 10.6875], "texture": "#0"},
				"west": {"uv": [11.25, 8, 11.5, 8.4375], "texture": "#0"},
				"up": {"uv": [12.59375, 10.5, 12.5, 10.25], "texture": "#0"},
				"down": {"uv": [10.59375, 12.5, 10.5, 12.75], "texture": "#0"}
			}
		},
		{
			"from": [5.3, -7.6, 6],
			"to": [5.7, -6.35, 8],
			"rotation": {"angle": 0, "axis": "y", "origin": [7, -4.5, 12]},
			"faces": {
				"north": {"uv": [12.5, 5.75, 12.59375, 6.0625], "texture": "#0"},
				"east": {"uv": [10.25, 11, 10.75, 11.3125], "texture": "#0"},
				"south": {"uv": [6.25, 12.5, 6.34375, 12.8125], "texture": "#0"},
				"west": {"uv": [10.75, 11, 11.25, 11.3125], "texture": "#0"},
				"up": {"uv": [7.59375, 12.75, 7.5, 12.25], "texture": "#0"},
				"down": {"uv": [7.84375, 12.25, 7.75, 12.75], "texture": "#0"}
			}
		},
		{
			"from": [4.3, -5.95, 6],
			"to": [4.7, -2.2, 8],
			"rotation": {"angle": 0, "axis": "y", "origin": [7, -4.5, 12]},
			"faces": {
				"north": {"uv": [9.25, 11.5, 9.34375, 12.4375], "texture": "#0"},
				"east": {"uv": [2.5, 8.25, 3, 9.1875], "texture": "#0"},
				"south": {"uv": [10.25, 11.5, 10.34375, 12.4375], "texture": "#0"},
				"west": {"uv": [3, 8.25, 3.5, 9.1875], "texture": "#0"},
				"up": {"uv": [8.09375, 12.75, 8, 12.25], "texture": "#0"},
				"down": {"uv": [8.59375, 12.25, 8.5, 12.75], "texture": "#0"}
			}
		},
		{
			"from": [6.05, -4.95, 6.5],
			"to": [9.95, -0.9, 9],
			"rotation": {"angle": 0, "axis": "y", "origin": [7, -4.5, 12]},
			"faces": {
				"north": {"uv": [2.25, 4.75, 3.21875, 5.75], "texture": "#0"},
				"east": {"uv": [5, 7.5, 5.625, 8.5], "texture": "#0"},
				"south": {"uv": [5, 1, 5.96875, 2], "texture": "#0"},
				"west": {"uv": [1, 7.75, 1.625, 8.75], "texture": "#0"},
				"up": {"uv": [8.71875, 2.375, 7.75, 1.75], "texture": "#0"},
				"down": {"uv": [8.71875, 2.5, 7.75, 3.125], "texture": "#0"}
			}
		},
		{
			"from": [5.45, -5.55, 7.65],
			"to": [10.55, -2.7, 8.15],
			"rotation": {"angle": 0, "axis": "y", "origin": [7, -4.5, 12]},
			"faces": {
				"north": {"uv": [6, 1, 7.28125, 1.71875], "texture": "#0"},
				"east": {"uv": [8.25, 11.25, 8.375, 11.96875], "texture": "#0"},
				"south": {"uv": [5.5, 6, 6.78125, 6.71875], "texture": "#0"},
				"west": {"uv": [10, 11.25, 10.125, 11.96875], "texture": "#0"},
				"up": {"uv": [12.03125, 8.625, 10.75, 8.5], "texture": "#0"},
				"down": {"uv": [12.03125, 8.75, 10.75, 8.875], "texture": "#0"}
			}
		},
		{
			"from": [5.45, -5.55, 6.9],
			"to": [10.55, -2.7, 7.4],
			"rotation": {"angle": 0, "axis": "y", "origin": [7, -4.5, 12]},
			"faces": {
				"north": {"uv": [0, 6.25, 1.28125, 6.96875], "texture": "#0"},
				"east": {"uv": [1, 11.5, 1.125, 12.21875], "texture": "#0"},
				"south": {"uv": [6.25, 0, 7.53125, 0.71875], "texture": "#0"},
				"west": {"uv": [6, 11.5, 6.125, 12.21875], "texture": "#0"},
				"up": {"uv": [12.03125, 9.125, 10.75, 9], "texture": "#0"},
				"down": {"uv": [12.03125, 9.25, 10.75, 9.375], "texture": "#0"}
			}
		},
		{
			"from": [5.45, -5.55, 5.4],
			"to": [10.55, -2.7, 5.9],
			"rotation": {"angle": 0, "axis": "y", "origin": [7, -4.5, 12]},
			"faces": {
				"north": {"uv": [1.5, 6.25, 2.78125, 6.96875], "texture": "#0"},
				"east": {"uv": [11.5, 6, 11.625, 6.71875], "texture": "#0"},
				"south": {"uv": [6.25, 1.75, 7.53125, 2.46875], "texture": "#0"},
				"west": {"uv": [11.5, 6.75, 11.625, 7.46875], "texture": "#0"},
				"up": {"uv": [12.03125, 10.375, 10.75, 10.25], "texture": "#0"},
				"down": {"uv": [12.03125, 10.5, 10.75, 10.625], "texture": "#0"}
			}
		},
		{
			"from": [5.45, -5.55, 4.65],
			"to": [10.55, -2.7, 5.15],
			"rotation": {"angle": 0, "axis": "y", "origin": [7, -4.5, 12]},
			"faces": {
				"north": {"uv": [6.25, 2.5, 7.53125, 3.21875], "texture": "#0"},
				"east": {"uv": [7.5, 11.5, 7.625, 12.21875], "texture": "#0"},
				"south": {"uv": [6.25, 3.25, 7.53125, 3.96875], "texture": "#0"},
				"west": {"uv": [7.75, 11.5, 7.875, 12.21875], "texture": "#0"},
				"up": {"uv": [12.03125, 10.875, 10.75, 10.75], "texture": "#0"},
				"down": {"uv": [12.28125, 0.5, 11, 0.625], "texture": "#0"}
			}
		},
		{
			"from": [5.45, -5.55, 6.15],
			"to": [10.55, -2.7, 6.65],
			"rotation": {"angle": 0, "axis": "y", "origin": [7, -4.5, 12]},
			"faces": {
				"north": {"uv": [3, 6.5, 4.28125, 7.21875], "texture": "#0"},
				"east": {"uv": [8, 11.5, 8.125, 12.21875], "texture": "#0"},
				"south": {"uv": [4.5, 6.75, 5.78125, 7.46875], "texture": "#0"},
				"west": {"uv": [8.5, 11.5, 8.625, 12.21875], "texture": "#0"},
				"up": {"uv": [12.28125, 0.875, 11, 0.75], "texture": "#0"},
				"down": {"uv": [12.28125, 1, 11, 1.125], "texture": "#0"}
			}
		},
		{
			"from": [6.3, -4.45, 0.75],
			"to": [9.7, -1.05, 5.25],
			"rotation": {"angle": 0, "axis": "y", "origin": [7, -4.5, 12]},
			"faces": {
				"north": {"uv": [7, 6.75, 7.84375, 7.59375], "texture": "#0"},
				"east": {"uv": [5, 2, 6.125, 2.84375], "texture": "#0"},
				"south": {"uv": [2.5, 7.25, 3.34375, 8.09375], "texture": "#0"},
				"west": {"uv": [5, 3, 6.125, 3.84375], "texture": "#0"},
				"up": {"uv": [5.34375, 6.125, 4.5, 5], "texture": "#0"},
				"down": {"uv": [4.09375, 5.25, 3.25, 6.375], "texture": "#0"}
			}
		},
		{
			"from": [6.4, -4.35, -1.75],
			"to": [9.6, -1.15, 5.25],
			"rotation": {"angle": 0, "axis": "y", "origin": [7, -4.5, 12]},
			"faces": {
				"north": {"uv": [3.5, 7.25, 4.3125, 8.0625], "texture": "#0"},
				"east": {"uv": [0, 0, 1.75, 0.8125], "texture": "#0"},
				"south": {"uv": [7.5, 0.75, 8.3125, 1.5625], "texture": "#0"},
				"west": {"uv": [0, 1, 1.75, 1.8125], "texture": "#0"},
				"up": {"uv": [2.5625, 1.75, 1.75, 0], "texture": "#0"},
				"down": {"uv": [2.5625, 1.75, 1.75, 3.5], "texture": "#0"}
			}
		},
		{
			"from": [9.2, -4.55, -2.75],
			"to": [9.8, -0.95, -1.25],
			"rotation": {"angle": 0, "axis": "y", "origin": [7, -4.5, 12]},
			"faces": {
				"north": {"uv": [7.25, 11, 7.40625, 11.90625], "texture": "#0"},
				"east": {"uv": [0.5, 8.75, 0.875, 9.65625], "texture": "#0"},
				"south": {"uv": [1.25, 11.25, 1.40625, 12.15625], "texture": "#0"},
				"west": {"uv": [1, 8.75, 1.375, 9.65625], "texture": "#0"},
				"up": {"uv": [7.15625, 12.375, 7, 12], "texture": "#0"},
				"down": {"uv": [12.15625, 7, 12, 7.375], "texture": "#0"}
			}
		},
		{
			"from": [6.8, -1.55, -2.75],
			"to": [9.2, -0.95, -1.25],
			"rotation": {"angle": 0, "axis": "y", "origin": [7, -4.5, 12]},
			"faces": {
				"north": {"uv": [11.5, 4.75, 12.09375, 4.90625], "texture": "#0"},
				"east": {"uv": [12, 7.75, 12.375, 7.90625], "texture": "#0"},
				"south": {"uv": [11.5, 5, 12.09375, 5.15625], "texture": "#0"},
				"west": {"uv": [12, 8.25, 12.375, 8.40625], "texture": "#0"},
				"up": {"uv": [10.59375, 1.625, 10, 1.25], "texture": "#0"},
				"down": {"uv": [10.59375, 1.75, 10, 2.125], "texture": "#0"}
			}
		},
		{
			"from": [6.8, -4.55, -2.75],
			"to": [9.2, -3.95, -1.25],
			"rotation": {"angle": 0, "axis": "y", "origin": [7, -4.5, 12]},
			"faces": {
				"north": {"uv": [5.25, 11.5, 5.84375, 11.65625], "texture": "#0"},
				"east": {"uv": [12, 9.5, 12.375, 9.65625], "texture": "#0"},
				"south": {"uv": [11.5, 5.75, 12.09375, 5.90625], "texture": "#0"},
				"west": {"uv": [12, 10, 12.375, 10.15625], "texture": "#0"},
				"up": {"uv": [10.59375, 2.625, 10, 2.25], "texture": "#0"},
				"down": {"uv": [10.59375, 3.25, 10, 3.625], "texture": "#0"}
			}
		},
		{
			"from": [6.2, -4.55, -2.75],
			"to": [6.8, -0.95, -1.25],
			"rotation": {"angle": 0, "axis": "y", "origin": [7, -4.5, 12]},
			"faces": {
				"north": {"uv": [3.5, 11.25, 3.65625, 12.15625], "texture": "#0"},
				"east": {"uv": [1.5, 8.75, 1.875, 9.65625], "texture": "#0"},
				"south": {"uv": [3.75, 11.25, 3.90625, 12.15625], "texture": "#0"},
				"west": {"uv": [8.75, 1.75, 9.125, 2.65625], "texture": "#0"},
				"up": {"uv": [7.40625, 12.375, 7.25, 12], "texture": "#0"},
				"down": {"uv": [8.40625, 12, 8.25, 12.375], "texture": "#0"}
			}
		},
		{
			"from": [6.3, -3.45, -0.75],
			"to": [9.7, -1.05, 0.75],
			"rotation": {"angle": 0, "axis": "y", "origin": [7, -4.5, 12]},
			"faces": {
				"north": {"uv": [8, 4.25, 8.84375, 4.84375], "texture": "#0"},
				"east": {"uv": [10, 3.75, 10.375, 4.34375], "texture": "#0"},
				"south": {"uv": [8, 5, 8.84375, 5.59375], "texture": "#0"},
				"west": {"uv": [10, 4.5, 10.375, 5.09375], "texture": "#0"},
				"up": {"uv": [9.84375, 4.625, 9, 4.25], "texture": "#0"},
				"down": {"uv": [9.84375, 4.75, 9, 5.125], "texture": "#0"}
			}
		},
		{
			"from": [6.2, -4.55, 3.5],
			"to": [9.8, -0.95, 5],
			"rotation": {"angle": 0, "axis": "y", "origin": [7, -4.5, 12]},
			"faces": {
				"north": {"uv": [6, 6.75, 6.90625, 7.65625], "texture": "#0"},
				"east": {"uv": [2, 8.75, 2.375, 9.65625], "texture": "#0"},
				"south": {"uv": [0, 7, 0.90625, 7.90625], "texture": "#0"},
				"west": {"uv": [5.5, 8.75, 5.875, 9.65625], "texture": "#0"},
				"up": {"uv": [9.65625, 3.125, 8.75, 2.75], "texture": "#0"},
				"down": {"uv": [6.90625, 8.75, 6, 9.125], "texture": "#0"}
			}
		},
		{
			"from": [6.1, -4.65, 2.25],
			"to": [9.9, -2.85, 3],
			"rotation": {"angle": 0, "axis": "y", "origin": [7, -4.5, 12]},
			"faces": {
				"north": {"uv": [4.5, 6.25, 5.4375, 6.6875], "texture": "#0"},
				"east": {"uv": [0.25, 11.75, 0.4375, 12.1875], "texture": "#0"},
				"south": {"uv": [8.5, 6.75, 9.4375, 7.1875], "texture": "#0"},
				"west": {"uv": [0.5, 11.75, 0.6875, 12.1875], "texture": "#0"},
				"up": {"uv": [11.1875, 7.9375, 10.25, 7.75], "texture": "#0"},
				"down": {"uv": [11.4375, 10, 10.5, 10.1875], "texture": "#0"}
			}
		},
		{
			"from": [7.55, 0.5, 6],
			"to": [8.45, 1.5, 11.65],
			"rotation": {"angle": 0, "axis": "y", "origin": [7, -4.5, 12]},
			"faces": {
				"north": {"uv": [6, 1.75, 6.21875, 2], "texture": "#0"},
				"east": {"uv": [0, 5.5, 1.40625, 5.75], "texture": "#0"},
				"south": {"uv": [4.25, 6.25, 4.46875, 6.5], "texture": "#0"},
				"west": {"uv": [8.5, 1.5, 9.90625, 1.75], "texture": "#0"},
				"up": {"uv": [1.71875, 3.40625, 1.5, 2], "texture": "#0"},
				"down": {"uv": [7.21875, 8.75, 7, 10.15625], "texture": "#0"}
			}
		},
		{
			"from": [7.3, -1.2, 8],
			"to": [8.7, 0.7, 12],
			"rotation": {"angle": 0, "axis": "y", "origin": [7, -4.5, 12]},
			"faces": {
				"north": {"uv": [7.5, 10.75, 7.84375, 11.21875], "texture": "#0"},
				"east": {"uv": [2, 5.75, 3, 6.21875], "texture": "#0"},
				"south": {"uv": [8, 10.75, 8.34375, 11.21875], "texture": "#0"},
				"west": {"uv": [5.75, 4.5, 6.75, 4.96875], "texture": "#0"},
				"up": {"uv": [5.34375, 9.5, 5, 8.5], "texture": "#0"},
				"down": {"uv": [0.34375, 8.75, 0, 9.75], "texture": "#0"}
			}
		},
		{
			"from": [7.35, -1.4512, 13.26286],
			"to": [8.65, 1.1988, 14.01286],
			"rotation": {"angle": -22.5, "axis": "x", "origin": [7, -4.5, 12]},
			"faces": {
				"north": {"uv": [7.5, 10, 7.8125, 10.65625], "texture": "#0"},
				"east": {"uv": [3, 5.75, 3.1875, 6.40625], "texture": "#0"},
				"south": {"uv": [8, 10, 8.3125, 10.65625], "texture": "#0"},
				"west": {"uv": [6.25, 11.25, 6.4375, 11.90625], "texture": "#0"},
				"up": {"uv": [10.8125, 12.1875, 10.5, 12], "texture": "#0"},
				"down": {"uv": [11.3125, 12, 11, 12.1875], "texture": "#0"}
			}
		},
		{
			"from": [7.4, -2.11818, 10.90198],
			"to": [8.6, -0.71818, 11.95198],
			"rotation": {"angle": 0, "axis": "y", "origin": [7, -4.5, 12]},
			"faces": {
				"north": {"uv": [9.5, 11.25, 9.8125, 11.59375], "texture": "#0"},
				"east": {"uv": [11.5, 11.5, 11.75, 11.84375], "texture": "#0"},
				"south": {"uv": [11.25, 11, 11.5625, 11.34375], "texture": "#0"},
				"west": {"uv": [0, 11.75, 0.25, 12.09375], "texture": "#0"},
				"up": {"uv": [11.8125, 8.5, 11.5, 8.25], "texture": "#0"},
				"down": {"uv": [11.8125, 9.5, 11.5, 9.75], "texture": "#0"}
			}
		},
		{
			"from": [7.4, -3.13938, 12.90779],
			"to": [8.6, -2.03938, 13.95779],
			"rotation": {"angle": -45, "axis": "x", "origin": [7, -4.5, 12]},
			"faces": {
				"north": {"uv": [10.5, 11.5, 10.8125, 11.78125], "texture": "#0"},
				"east": {"uv": [12, 2.25, 12.25, 2.53125], "texture": "#0"},
				"south": {"uv": [11, 11.5, 11.3125, 11.78125], "texture": "#0"},
				"west": {"uv": [12, 3.25, 12.25, 3.53125], "texture": "#0"},
				"up": {"uv": [11.8125, 10.25, 11.5, 10], "texture": "#0"},
				"down": {"uv": [12.0625, 3.75, 11.75, 4], "texture": "#0"}
			}
		},
		{
			"from": [7.65, -1.77157, 11.53883],
			"to": [8.35, -0.67157, 12.58883],
			"rotation": {"angle": -22.5, "axis": "x", "origin": [7, -4.5, 12]},
			"faces": {
				"north": {"uv": [3, 12.25, 3.1875, 12.53125], "texture": "#0"},
				"east": {"uv": [12, 4.25, 12.25, 4.53125], "texture": "#0"},
				"south": {"uv": [3.5, 12.25, 3.6875, 12.53125], "texture": "#0"},
				"west": {"uv": [4.5, 12, 4.75, 12.28125], "texture": "#0"},
				"up": {"uv": [12.4375, 7.5, 12.25, 7.25], "texture": "#0"},
				"down": {"uv": [12.4375, 8.5, 12.25, 8.75], "texture": "#0"}
			}
		},
		{
			"from": [7.4, -5.60353, 11.37226],
			"to": [8.6, -2.15353, 12.42226],
			"rotation": {"angle": 0, "axis": "y", "origin": [7, -4.5, 12]},
			"faces": {
				"north": {"uv": [9.25, 8.5, 9.5625, 9.375], "texture": "#0"},
				"east": {"uv": [10, 5.75, 10.25, 6.625], "texture": "#0"},
				"south": {"uv": [4.75, 9.5, 5.0625, 10.375], "texture": "#0"},
				"west": {"uv": [7.25, 10, 7.5, 10.875], "texture": "#0"},
				"up": {"uv": [12.0625, 4.25, 11.75, 4], "texture": "#0"},
				"down": {"uv": [5.5625, 11.75, 5.25, 12], "texture": "#0"}
			}
		},
		{
			"from": [6.9, -5.80353, 4.37226],
			"to": [9.1, -4.80353, 14.42226],
			"rotation": {"angle": 0, "axis": "y", "origin": [7, -4.5, 12]},
			"faces": {
				"north": {"uv": [7.75, 0.5, 8.3125, 0.75], "texture": "#0"},
				"east": {"uv": [7.75, 0, 10.25, 0.25], "texture": "#0"},
				"south": {"uv": [11.25, 2.25, 11.8125, 2.5], "texture": "#0"},
				"west": {"uv": [7.75, 0.25, 10.25, 0.5], "texture": "#0"},
				"up": {"uv": [0.5625, 4.5, 0, 2], "texture": "#0"},
				"down": {"uv": [1.3125, 2, 0.75, 4.5], "texture": "#0"}
			}
		},
		{
			"from": [6.9, -4.7853, 4.45405],
			"to": [9.1, -2.7853, 6.50405],
			"rotation": {"angle": -22.5, "axis": "x", "origin": [7, -4.5, 12]},
			"faces": {
				"north": {"uv": [7.25, 9, 7.8125, 9.5], "texture": "#0"},
				"east": {"uv": [1, 9.75, 1.5, 10.25], "texture": "#0"},
				"south": {"uv": [9, 8, 9.5625, 8.5], "texture": "#0"},
				"west": {"uv": [1.5, 9.75, 2, 10.25], "texture": "#0"},
				"up": {"uv": [9.8125, 1, 9.25, 0.5], "texture": "#0"},
				"down": {"uv": [9.8125, 1, 9.25, 1.5], "texture": "#0"}
			}
		},
		{
			"from": [6.9, -7.65129, 5.13763],
			"to": [9.1, -5.65129, 13.63763],
			"rotation": {"angle": 0, "axis": "y", "origin": [7, -4.5, 12]},
			"faces": {
				"north": {"uv": [9.25, 1.75, 9.8125, 2.25], "texture": "#0"},
				"east": {"uv": [4, 0, 6.125, 0.5], "texture": "#0"},
				"south": {"uv": [9.25, 2.25, 9.8125, 2.75], "texture": "#0"},
				"west": {"uv": [4, 0.5, 6.125, 1], "texture": "#0"},
				"up": {"uv": [3.3125, 4.625, 2.75, 2.5], "texture": "#0"},
				"down": {"uv": [2.0625, 3.5, 1.5, 5.625], "texture": "#0"}
			}
		},
		{
			"from": [6.8, -7.75129, 8.13763],
			"to": [9.2, -6.55129, 11.63763],
			"rotation": {"angle": 0, "axis": "y", "origin": [7, -4.5, 12]},
			"faces": {
				"north": {"uv": [10.25, 7.25, 10.84375, 7.5625], "texture": "#0"},
				"east": {"uv": [9.5, 6.75, 10.375, 7.0625], "texture": "#0"},
				"south": {"uv": [9.5, 10.25, 10.09375, 10.5625], "texture": "#0"},
				"west": {"uv": [7.25, 9.5, 8.125, 9.8125], "texture": "#0"},
				"up": {"uv": [6.34375, 8.625, 5.75, 7.75], "texture": "#0"},
				"down": {"uv": [7.09375, 7.75, 6.5, 8.625], "texture": "#0"}
			}
		},
		{
			"from": [6.6, -8.31657, 8.67472],
			"to": [6.8, -5.86657, 9.17472],
			"rotation": {"angle": -22.5, "axis": "x", "origin": [7, -4.5, 12]},
			"faces": {
				"north": {"uv": [11, 12.25, 11.0625, 12.875], "texture": "#0"},
				"east": {"uv": [3.25, 11.75, 3.375, 12.375], "texture": "#0"},
				"south": {"uv": [11.25, 12.25, 11.3125, 12.875], "texture": "#0"},
				"west": {"uv": [5.75, 11.75, 5.875, 12.375], "texture": "#0"},
				"up": {"uv": [12.8125, 6.125, 12.75, 6], "texture": "#0"},
				"down": {"uv": [6.5625, 12.75, 6.5, 12.875], "texture": "#0"}
			}
		},
		{
			"from": [6.8, -8.2856, 8.67039],
			"to": [9.2, -8.0856, 9.17039],
			"rotation": {"angle": -22.5, "axis": "x", "origin": [7, -4.5, 12]},
			"faces": {
				"north": {"uv": [0, 12.5, 0.59375, 12.5625], "texture": "#0"},
				"east": {"uv": [12.75, 6.5, 12.875, 6.5625], "texture": "#0"},
				"south": {"uv": [12.5, 0, 13.09375, 0.0625], "texture": "#0"},
				"west": {"uv": [6.75, 12.75, 6.875, 12.8125], "texture": "#0"},
				"up": {"uv": [12.34375, 11.625, 11.75, 11.5], "texture": "#0"},
				"down": {"uv": [12.34375, 11.75, 11.75, 11.875], "texture": "#0"}
			}
		},
		{
			"from": [9.2, -8.31657, 8.67472],
			"to": [9.4, -5.86657, 9.17472],
			"rotation": {"angle": -22.5, "axis": "x", "origin": [7, -4.5, 12]},
			"faces": {
				"north": {"uv": [11.5, 12.25, 11.5625, 12.875], "texture": "#0"},
				"east": {"uv": [11.75, 6, 11.875, 6.625], "texture": "#0"},
				"south": {"uv": [11.75, 12.25, 11.8125, 12.875], "texture": "#0"},
				"west": {"uv": [11.75, 6.75, 11.875, 7.375], "texture": "#0"},
				"up": {"uv": [12.8125, 6.875, 12.75, 6.75], "texture": "#0"},
				"down": {"uv": [12.8125, 7, 12.75, 7.125], "texture": "#0"}
			}
		},
		{
			"from": [6.9, -6.77735, 12.68672],
			"to": [9.1, -4.77735, 14.73672],
			"rotation": {"angle": 22.5, "axis": "x", "origin": [7, -4.5, 12]},
			"faces": {
				"north": {"uv": [2.5, 9.25, 3.0625, 9.75], "texture": "#0"},
				"east": {"uv": [2, 9.75, 2.5, 10.25], "texture": "#0"},
				"south": {"uv": [3.25, 9.25, 3.8125, 9.75], "texture": "#0"},
				"west": {"uv": [2.5, 9.75, 3, 10.25], "texture": "#0"},
				"up": {"uv": [4.5625, 9.75, 4, 9.25], "texture": "#0"},
				"down": {"uv": [6.5625, 9.25, 6, 9.75], "texture": "#0"}
			}
		},
		{
			"from": [7.55, -3.08687, 13.30883],
			"to": [8.45, -2.03687, 14.10883],
			"rotation": {"angle": -45, "axis": "x", "origin": [7, -4.5, 12]},
			"faces": {
				"north": {"uv": [5.75, 7.5, 5.96875, 7.75], "texture": "#0"},
				"east": {"uv": [12.25, 8.75, 12.4375, 9], "texture": "#0"},
				"south": {"uv": [7.75, 4.25, 7.96875, 4.5], "texture": "#0"},
				"west": {"uv": [12.25, 9, 12.4375, 9.25], "texture": "#0"},
				"up": {"uv": [12.46875, 9.4375, 12.25, 9.25], "texture": "#0"},
				"down": {"uv": [12.46875, 9.75, 12.25, 9.9375], "texture": "#0"}
			}
		},
		{
			"from": [7.55, -5.6096, 11.69194],
			"to": [8.45, -2.0096, 12.49194],
			"rotation": {"angle": 0, "axis": "y", "origin": [7, -4.5, 12]},
			"faces": {
				"north": {"uv": [0, 10.25, 0.21875, 11.15625], "texture": "#0"},
				"east": {"uv": [1.5, 10.75, 1.6875, 11.65625], "texture": "#0"},
				"south": {"uv": [0.25, 10.25, 0.46875, 11.15625], "texture": "#0"},
				"west": {"uv": [1.75, 10.75, 1.9375, 11.65625], "texture": "#0"},
				"up": {"uv": [10.71875, 12.4375, 10.5, 12.25], "texture": "#0"},
				"down": {"uv": [10.96875, 12.25, 10.75, 12.4375], "texture": "#0"}
			}
		},
		{
			"from": [7.55, -1.62069, 11.05303],
			"to": [8.45, -0.72069, 12.10303],
			"rotation": {"angle": 0, "axis": "y", "origin": [7, -4.5, 12]},
			"faces": {
				"north": {"uv": [12.25, 3.5, 12.46875, 3.71875], "texture": "#0"},
				"east": {"uv": [5.5, 8.5, 5.75, 8.71875], "texture": "#0"},
				"south": {"uv": [3.75, 12.25, 3.96875, 12.46875], "texture": "#0"},
				"west": {"uv": [4.5, 9, 4.75, 9.21875], "texture": "#0"},
				"up": {"uv": [9.21875, 8.75, 9, 8.5], "texture": "#0"},
				"down": {"uv": [10.21875, 12, 10, 12.25], "texture": "#0"}
			}
		},
		{
			"from": [9, 0.4, 4.1],
			"to": [9.5, 0.9, 12.15],
			"rotation": {"angle": 0, "axis": "y", "origin": [7, -4.5, 12]},
			"faces": {
				"north": {"uv": [12.5, 10.5, 12.625, 10.625], "texture": "#0"},
				"east": {"uv": [9.75, 2.75, 11.75, 2.875], "texture": "#0"},
				"south": {"uv": [12.5, 12, 12.625, 12.125], "texture": "#0"},
				"west": {"uv": [9.75, 3, 11.75, 3.125], "texture": "#0"},
				"up": {"uv": [6.875, 11.25, 6.75, 9.25], "texture": "#0"},
				"down": {"uv": [5.375, 9.5, 5.25, 11.5], "texture": "#0"}
			}
		},
		{
			"from": [7.55, 1.2, 5.85],
			"to": [8.45, 2.3, 8.15],
			"rotation": {"angle": 0, "axis": "y", "origin": [7, -4.5, 12]},
			"faces": {
				"north": {"uv": [12, 6.5, 12.21875, 6.78125], "texture": "#0"},
				"east": {"uv": [9.5, 10.75, 10.0625, 11.03125], "texture": "#0"},
				"south": {"uv": [6.75, 12, 6.96875, 12.28125], "texture": "#0"},
				"west": {"uv": [11, 3.75, 11.5625, 4.03125], "texture": "#0"},
				"up": {"uv": [6.96875, 11.8125, 6.75, 11.25], "texture": "#0"},
				"down": {"uv": [7.21875, 11.25, 7, 11.8125], "texture": "#0"}
			}
		},
		{
			"from": [7.5, 1.15, 6.1],
			"to": [8.5, 2.35, 6.4],
			"rotation": {"angle": 0, "axis": "y", "origin": [7, -4.5, 12]},
			"faces": {
				"north": {"uv": [11.75, 5.25, 12, 5.5625], "texture": "#0"},
				"east": {"uv": [0.5, 12.75, 0.5625, 13.0625], "texture": "#0"},
				"south": {"uv": [9.5, 11.75, 9.75, 12.0625], "texture": "#0"},
				"west": {"uv": [0.75, 12.75, 0.8125, 13.0625], "texture": "#0"},
				"up": {"uv": [1.5, 12.8125, 1.25, 12.75], "texture": "#0"},
				"down": {"uv": [13, 1.25, 12.75, 1.3125], "texture": "#0"}
			}
		},
		{
			"from": [7.5, 1.15, 7.6],
			"to": [8.5, 2.35, 7.9],
			"rotation": {"angle": 0, "axis": "y", "origin": [7, -4.5, 12]},
			"faces": {
				"north": {"uv": [9.75, 11.75, 10, 12.0625], "texture": "#0"},
				"east": {"uv": [12.75, 0.75, 12.8125, 1.0625], "texture": "#0"},
				"south": {"uv": [11.75, 11, 12, 11.3125], "texture": "#0"},
				"west": {"uv": [1, 12.75, 1.0625, 13.0625], "texture": "#0"},
				"up": {"uv": [1.75, 12.8125, 1.5, 12.75], "texture": "#0"},
				"down": {"uv": [13, 1.5, 12.75, 1.5625], "texture": "#0"}
			}
		},
		{
			"from": [6.15, 0.15, 6.1],
			"to": [9.85, 1.15, 6.4],
			"rotation": {"angle": 0, "axis": "y", "origin": [7, -4.5, 12]},
			"faces": {
				"north": {"uv": [4, 2.25, 4.9375, 2.5], "texture": "#0"},
				"east": {"uv": [1.75, 12.75, 1.8125, 13], "texture": "#0"},
				"south": {"uv": [9.75, 8.5, 10.6875, 8.75], "texture": "#0"},
				"west": {"uv": [12.75, 1.75, 12.8125, 2], "texture": "#0"},
				"up": {"uv": [12.9375, 11.0625, 12, 11], "texture": "#0"},
				"down": {"uv": [12.9375, 11.25, 12, 11.3125], "texture": "#0"}
			}
		},
		{
			"from": [6.15, 0.15, 7.6],
			"to": [9.85, 1.15, 7.9],
			"rotation": {"angle": 0, "axis": "y", "origin": [7, -4.5, 12]},
			"faces": {
				"north": {"uv": [9.75, 8.75, 10.6875, 9], "texture": "#0"},
				"east": {"uv": [2, 12.75, 2.0625, 13], "texture": "#0"},
				"south": {"uv": [9.75, 9, 10.6875, 9.25], "texture": "#0"},
				"west": {"uv": [12.75, 2, 12.8125, 2.25], "texture": "#0"},
				"up": {"uv": [12.4375, 12.0625, 11.5, 12], "texture": "#0"},
				"down": {"uv": [0.9375, 12.25, 0, 12.3125], "texture": "#0"}
			}
		},
		{
			"from": [7.75, 1.75, 7.1],
			"to": [8.25, 2.25, 12.15],
			"rotation": {"angle": 0, "axis": "y", "origin": [7, -4.5, 12]},
			"faces": {
				"north": {"uv": [2.25, 12.75, 2.375, 12.875], "texture": "#0"},
				"east": {"uv": [11, 9.75, 12.25, 9.875], "texture": "#0"},
				"south": {"uv": [2.5, 12.75, 2.625, 12.875], "texture": "#0"},
				"west": {"uv": [0, 11.25, 1.25, 11.375], "texture": "#0"},
				"up": {"uv": [4.625, 12, 4.5, 10.75], "texture": "#0"},
				"down": {"uv": [6.625, 10.75, 6.5, 12], "texture": "#0"}
			}
		},
		{
			"from": [6.75, 2.25, 10],
			"to": [9.25, 2.45, 11.8],
			"rotation": {"angle": 0, "axis": "y", "origin": [7, -4.5, 12]},
			"faces": {
				"north": {"uv": [12.25, 10.75, 12.875, 10.8125], "texture": "#0"},
				"east": {"uv": [12.5, 6.25, 12.9375, 6.3125], "texture": "#0"},
				"south": {"uv": [12, 12.25, 12.625, 12.3125], "texture": "#0"},
				"west": {"uv": [6.5, 12.5, 6.9375, 12.5625], "texture": "#0"},
				"up": {"uv": [10.125, 7.6875, 9.5, 7.25], "texture": "#0"},
				"down": {"uv": [8.875, 9.5, 8.25, 9.9375], "texture": "#0"}
			}
		},
		{
			"from": [11.53838, -0.44007, 10],
			"to": [11.73838, 1.05993, 11.8],
			"rotation": {"angle": 22.5, "axis": "z", "origin": [7, -4.5, 12]},
			"faces": {
				"north": {"uv": [10.75, 12.5, 10.8125, 12.875], "texture": "#0"},
				"east": {"uv": [10.75, 2.25, 11.1875, 2.625], "texture": "#0"},
				"south": {"uv": [12.5, 11.5, 12.5625, 11.875], "texture": "#0"},
				"west": {"uv": [10.75, 3.25, 11.1875, 3.625], "texture": "#0"},
				"up": {"uv": [12.5625, 6.9375, 12.5, 6.5], "texture": "#0"},
				"down": {"uv": [7.0625, 12.5, 7, 12.9375], "texture": "#0"}
			}
		},
		{
			"from": [4.10938, 0.32529, 10],
			"to": [4.30938, 1.82529, 11.8],
			"rotation": {"angle": -22.5, "axis": "z", "origin": [7, -4.5, 12]},
			"faces": {
				"north": {"uv": [12, 12.5, 12.0625, 12.875], "texture": "#0"},
				"east": {"uv": [3.5, 10.75, 3.9375, 11.125], "texture": "#0"},
				"south": {"uv": [12.25, 12.5, 12.3125, 12.875], "texture": "#0"},
				"west": {"uv": [4, 10.75, 4.4375, 11.125], "texture": "#0"},
				"up": {"uv": [12.5625, 7.4375, 12.5, 7], "texture": "#0"},
				"down": {"uv": [7.3125, 12.5, 7.25, 12.9375], "texture": "#0"}
			}
		},
		{
			"from": [6.17597, 0.06418, 10],
			"to": [6.37597, 1.06418, 11.8],
			"rotation": {"angle": 0, "axis": "y", "origin": [7, -4.5, 12]},
			"faces": {
				"north": {"uv": [2.75, 12.75, 2.8125, 13], "texture": "#0"},
				"east": {"uv": [2.25, 4.5, 2.6875, 4.75], "texture": "#0"},
				"south": {"uv": [3, 12.75, 3.0625, 13], "texture": "#0"},
				"west": {"uv": [2.5, 7, 2.9375, 7.25], "texture": "#0"},
				"up": {"uv": [8.3125, 12.9375, 8.25, 12.5], "texture": "#0"},
				"down": {"uv": [12.5625, 8.25, 12.5, 8.6875], "texture": "#0"}
			}
		},
		{
			"from": [9.62403, 0.06418, 10],
			"to": [9.82403, 1.06418, 11.8],
			"rotation": {"angle": 0, "axis": "y", "origin": [7, -4.5, 12]},
			"faces": {
				"north": {"uv": [12.75, 3, 12.8125, 3.25], "texture": "#0"},
				"east": {"uv": [8, 5.75, 8.4375, 6], "texture": "#0"},
				"south": {"uv": [3.25, 12.75, 3.3125, 13], "texture": "#0"},
				"west": {"uv": [9, 11.25, 9.4375, 11.5], "texture": "#0"},
				"up": {"uv": [8.8125, 12.9375, 8.75, 12.5], "texture": "#0"},
				"down": {"uv": [12.5625, 8.75, 12.5, 9.1875], "texture": "#0"}
			}
		},
		{
			"from": [6.5, 0.4, 4.1],
			"to": [7, 0.9, 12.15],
			"rotation": {"angle": 0, "axis": "y", "origin": [7, -4.5, 12]},
			"faces": {
				"north": {"uv": [12.75, 3.25, 12.875, 3.375], "texture": "#0"},
				"east": {"uv": [9.75, 5.25, 11.75, 5.375], "texture": "#0"},
				"south": {"uv": [3.5, 12.75, 3.625, 12.875], "texture": "#0"},
				"west": {"uv": [9.75, 5.5, 11.75, 5.625], "texture": "#0"},
				"up": {"uv": [3.125, 11.75, 3, 9.75], "texture": "#0"},
				"down": {"uv": [3.375, 9.75, 3.25, 11.75], "texture": "#0"}
			}
		},
		{
			"from": [7.65, 0.65, 10.1],
			"to": [8.35, 2.35, 11.65],
			"rotation": {"angle": 0, "axis": "y", "origin": [7, -4.5, 12]},
			"faces": {
				"north": {"uv": [0.75, 11.75, 0.9375, 12.1875], "texture": "#0"},
				"east": {"uv": [5.5, 10.75, 5.875, 11.1875], "texture": "#0"},
				"south": {"uv": [1.5, 11.75, 1.6875, 12.1875], "texture": "#0"},
				"west": {"uv": [6, 10.75, 6.375, 11.1875], "texture": "#0"},
				"up": {"uv": [5.4375, 12.375, 5.25, 12], "texture": "#0"},
				"down": {"uv": [12.1875, 5.25, 12, 5.625], "texture": "#0"}
			}
		},
		{
			"from": [6.25, 0.3, 10.35],
			"to": [9.6, 1, 11.65],
			"rotation": {"angle": 0, "axis": "y", "origin": [7, -4.5, 12]},
			"faces": {
				"north": {"uv": [11, 4.25, 11.84375, 4.4375], "texture": "#0"},
				"east": {"uv": [1, 12.25, 1.3125, 12.4375], "texture": "#0"},
				"south": {"uv": [11, 4.5, 11.84375, 4.6875], "texture": "#0"},
				"west": {"uv": [1.5, 12.25, 1.8125, 12.4375], "texture": "#0"},
				"up": {"uv": [9.84375, 9.8125, 9, 9.5], "texture": "#0"},
				"down": {"uv": [0.84375, 9.75, 0, 10.0625], "texture": "#0"}
			}
		},
		{
			"from": [8.9, 0.3, 12.1],
			"to": [9.6, 1, 12.3],
			"rotation": {"angle": 0, "axis": "y", "origin": [7, -4.5, 12]},
			"faces": {
				"north": {"uv": [12.5, 0.25, 12.6875, 0.4375], "texture": "#0"},
				"east": {"uv": [4.25, 12.75, 4.3125, 12.9375], "texture": "#0"},
				"south": {"uv": [12.5, 0.5, 12.6875, 0.6875], "texture": "#0"},
				"west": {"uv": [12.75, 4.25, 12.8125, 4.4375], "texture": "#0"},
				"up": {"uv": [12.9375, 4.5625, 12.75, 4.5], "texture": "#0"},
				"down": {"uv": [4.9375, 12.75, 4.75, 12.8125], "texture": "#0"}
			}
		},
		{
			"from": [7.65, 1.65, 12.1],
			"to": [8.35, 2.35, 12.3],
			"rotation": {"angle": 0, "axis": "y", "origin": [7, -4.5, 12]},
			"faces": {
				"north": {"uv": [0.75, 12.5, 0.9375, 12.6875], "texture": "#0"},
				"east": {"uv": [12.75, 4.75, 12.8125, 4.9375], "texture": "#0"},
				"south": {"uv": [12.5, 0.75, 12.6875, 0.9375], "texture": "#0"},
				"west": {"uv": [5, 12.75, 5.0625, 12.9375], "texture": "#0"},
				"up": {"uv": [12.9375, 5.0625, 12.75, 5], "texture": "#0"},
				"down": {"uv": [5.4375, 12.75, 5.25, 12.8125], "texture": "#0"}
			}
		},
		{
			"from": [6.4, 0.3, 12.1],
			"to": [7.1, 1, 12.3],
			"rotation": {"angle": 0, "axis": "y", "origin": [7, -4.5, 12]},
			"faces": {
				"north": {"uv": [1, 12.5, 1.1875, 12.6875], "texture": "#0"},
				"east": {"uv": [12.75, 5.25, 12.8125, 5.4375], "texture": "#0"},
				"south": {"uv": [12.5, 1, 12.6875, 1.1875], "texture": "#0"},
				"west": {"uv": [12.75, 5.5, 12.8125, 5.6875], "texture": "#0"},
				"up": {"uv": [12.9375, 5.8125, 12.75, 5.75], "texture": "#0"},
				"down": {"uv": [6.1875, 12.75, 6, 12.8125], "texture": "#0"}
			}
		},
		{
			"from": [6.2, 0.2, 5.85],
			"to": [9.8, 1.1, 8.15],
			"rotation": {"angle": 0, "axis": "y", "origin": [7, -4.5, 12]},
			"faces": {
				"north": {"uv": [10, 9.75, 10.90625, 9.96875], "texture": "#0"},
				"east": {"uv": [7.5, 11.25, 8.0625, 11.46875], "texture": "#0"},
				"south": {"uv": [10.25, 0, 11.15625, 0.21875], "texture": "#0"},
				"west": {"uv": [11.25, 7.75, 11.8125, 7.96875], "texture": "#0"},
				"up": {"uv": [8.15625, 8.3125, 7.25, 7.75], "texture": "#0"},
				"down": {"uv": [0.90625, 8, 0, 8.5625], "texture": "#0"}
			}
		},
		{
			"from": [6.2, 0.2, 2.85],
			"to": [9.8, 1.1, 4.65],
			"rotation": {"angle": 0, "axis": "y", "origin": [7, -4.5, 12]},
			"faces": {
				"north": {"uv": [10.25, 0.25, 11.15625, 0.46875], "texture": "#0"},
				"east": {"uv": [0, 11.5, 0.4375, 11.71875], "texture": "#0"},
				"south": {"uv": [0.5, 10.25, 1.40625, 10.46875], "texture": "#0"},
				"west": {"uv": [0.5, 11.5, 0.9375, 11.71875], "texture": "#0"},
				"up": {"uv": [8.15625, 8.9375, 7.25, 8.5], "texture": "#0"},
				"down": {"uv": [9.40625, 7.25, 8.5, 7.6875], "texture": "#0"}
			}
		},
		{
			"from": [6.15, 0.15, 3.1],
			"to": [9.85, 1.15, 3.4],
			"rotation": {"angle": 0, "axis": "y", "origin": [7, -4.5, 12]},
			"faces": {
				"north": {"uv": [9.75, 9.25, 10.6875, 9.5], "texture": "#0"},
				"east": {"uv": [12.75, 3.5, 12.8125, 3.75], "texture": "#0"},
				"south": {"uv": [10, 0.5, 10.9375, 0.75], "texture": "#0"},
				"west": {"uv": [12.75, 3.75, 12.8125, 4], "texture": "#0"},
				"up": {"uv": [2.9375, 12.3125, 2, 12.25], "texture": "#0"},
				"down": {"uv": [13.1875, 2.25, 12.25, 2.3125], "texture": "#0"}
			}
		},
		{
			"from": [6.15, 0.15, 4.1],
			"to": [9.85, 1.15, 4.4],
			"rotation": {"angle": 0, "axis": "y", "origin": [7, -4.5, 12]},
			"faces": {
				"north": {"uv": [10, 0.75, 10.9375, 1], "texture": "#0"},
				"east": {"uv": [4, 12.75, 4.0625, 13], "texture": "#0"},
				"south": {"uv": [10, 1, 10.9375, 1.25], "texture": "#0"},
				"west": {"uv": [12.75, 4, 12.8125, 4.25], "texture": "#0"},
				"up": {"uv": [13.1875, 2.5625, 12.25, 2.5], "texture": "#0"},
				"down": {"uv": [13.1875, 2.75, 12.25, 2.8125], "texture": "#0"}
			}
		}
	],
	"display": {
		"thirdperson_righthand": {
			"translation": [0.25, 9, -1.5]
		},
		"thirdperson_lefthand": {
			"translation": [0.25, 9, -1.5]
		},
		"firstperson_righthand": {
			"translation": [-2.25, 10.75, 5.25]
		},
		"firstperson_lefthand": {
			"translation": [-2.25, 10.75, 5.25]
		},
		"ground": {
			"translation": [0, 15.25, 0]
		},
		"gui": {
			"rotation": [90, 59.5, -90],
			"translation": [5.25, 6.75, 0],
			"scale": [1, 0.83203, 0.83789]
		},
		"fixed": {
			"rotation": [90, 51.75, -90],
			"translation": [7.5, 8, -2.75]
		}
	},
	"groups": [
		{
			"name": "group",
			"origin": [8, 8, 8],
			"color": 0,
			"children": [
				0,
				1,
				2,
				3,
				4,
				5,
				6,
				7,
				8,
				9,
				10,
				11,
				12,
				13,
				14,
				15,
				16,
				17,
				18,
				19,
				20,
				21,
				22,
				23,
				24,
				25,
				26,
				27,
				28,
				29,
				30,
				31,
				32,
				33,
				34,
				35,
				36,
				37,
				38,
				39,
				40,
				41,
				42,
				43,
				44,
				45,
				46,
				47,
				48,
				49,
				50,
				51,
				52,
				53,
				54,
				55,
				56,
				57,
				58,
				59,
				60,
				61,
				62,
				63,
				64,
				65,
				66,
				67,
				68,
				69,
				70,
				71,
				72,
				73,
				74,
				75,
				76,
				77,
				78,
				79,
				80
			]
		}
	]
}