{
    "textures": {
        "0": "gci:items/common/mpz",
        "particle": "gci:items/common/mpz"
    },
    "elements": [
        {
            "from": [
                4.77284,
                4.26219,
                7.00949
            ],
            "to": [
                5.22716,
                4.96149,
                7.72949
            ],
            "rotation": {
                "angle": 0,
                "axis": "y",
                "origin": [
                    5,
                    6.23184,
                    7.68449
                ]
            },
            "faces": {
                "north": {
                    "uv": [
                        6.33333,
                        3.33333,
                        7,
                        4.33333
                    ],
                    "rotation": 270,
                    "texture": "#0"
                },
                "east": {
                    "uv": [
                        6.33333,
                        3.33333,
                        7,
                        4.33333
                    ],
                    "rotation": 270,
                    "texture": "#0"
                },
                "south": {
                    "uv": [
                        6.33333,
                        3.33333,
                        7,
                        4.33333
                    ],
                    "rotation": 270,
                    "texture": "#0"
                },
                "west": {
                    "uv": [
                        6.33333,
                        3.33333,
                        7,
                        4.33333
                    ],
                    "rotation": 270,
                    "texture": "#0"
                },
                "up": {
                    "uv": [
                        6.33333,
                        3.33333,
                        7,
                        4.33333
                    ],
                    "rotation": 270,
                    "texture": "#0"
                },
                "down": {
                    "uv": [
                        6.33333,
                        3.33333,
                        7,
                        4.33333
                    ],
                    "rotation": 270,
                    "texture": "#0"
                }
            }
        },
        {
            "from": [
                4.77284,
                4.26219,
                6.80949
            ],
            "to": [
                5.22716,
                4.33219,
                7.62949
            ],
            "rotation": {
                "angle": 0,
                "axis": "y",
                "origin": [
                    5,
                    6.23184,
                    7.68449
                ]
            },
            "faces": {
                "north": {
                    "uv": [
                        6.33333,
                        3.33333,
                        7,
                        4.33333
                    ],
                    "rotation": 270,
                    "texture": "#0"
                },
                "east": {
                    "uv": [
                        6.33333,
                        3.33333,
                        7,
                        4.33333
                    ],
                    "rotation": 270,
                    "texture": "#0"
                },
                "south": {
                    "uv": [
                        6.33333,
                        3.33333,
                        7,
                        4.33333
                    ],
                    "rotation": 270,
                    "texture": "#0"
                },
                "west": {
                    "uv": [
                        6.33333,
                        3.33333,
                        7,
                        4.33333
                    ],
                    "rotation": 270,
                    "texture": "#0"
                },
                "up": {
                    "uv": [
                        6.33333,
                        3.33333,
                        7,
                        4.33333
                    ],
                    "rotation": 270,
                    "texture": "#0"
                },
                "down": {
                    "uv": [
                        6.33333,
                        3.33333,
                        7,
                        4.33333
                    ],
                    "rotation": 270,
                    "texture": "#0"
                }
            }
        },
        {
            "from": [
                4.77284,
                4.41658,
                8.2348
            ],
            "to": [
                5.22716,
                4.53658,
                8.3048
            ],
            "rotation": {
                "angle": 22.5,
                "axis": "x",
                "origin": [
                    5,
                    4.82658,
                    8.2698
                ]
            },
            "faces": {
                "north": {
                    "uv": [
                        6.33333,
                        3.33333,
                        7,
                        4.33333
                    ],
                    "rotation": 270,
                    "texture": "#0"
                },
                "east": {
                    "uv": [
                        6.33333,
                        3.33333,
                        7,
                        4.33333
                    ],
                    "rotation": 270,
                    "texture": "#0"
                },
                "south": {
                    "uv": [
                        6.33333,
                        3.33333,
                        7,
                        4.33333
                    ],
                    "rotation": 270,
                    "texture": "#0"
                },
                "west": {
                    "uv": [
                        6.33333,
                        3.33333,
                        7,
                        4.33333
                    ],
                    "rotation": 270,
                    "texture": "#0"
                },
                "up": {
                    "uv": [
                        6.33333,
                        3.33333,
                        7,
                        4.33333
                    ],
                    "rotation": 270,
                    "texture": "#0"
                },
                "down": {
                    "uv": [
                        6.33333,
                        3.33333,
                        7,
                        4.33333
                    ],
                    "rotation": 270,
                    "texture": "#0"
                }
            }
        },
        {
            "from": [
                4.77284,
                4.33538,
                7.64744
            ],
            "to": [
                5.22716,
                4.85468,
                8.09744
            ],
            "rotation": {
                "angle": -22.5,
                "axis": "x",
                "origin": [
                    5,
                    4.50503,
                    7.87244
                ]
            },
            "faces": {
                "north": {
                    "uv": [
                        6.33333,
                        3.33333,
                        7,
                        4.33333
                    ],
                    "rotation": 270,
                    "texture": "#0"
                },
                "east": {
                    "uv": [
                        6.33333,
                        3.33333,
                        7,
                        4.33333
                    ],
                    "rotation": 270,
                    "texture": "#0"
                },
                "south": {
                    "uv": [
                        6.33333,
                        3.33333,
                        7,
                        4.33333
                    ],
                    "rotation": 270,
                    "texture": "#0"
                },
                "west": {
                    "uv": [
                        6.33333,
                        3.33333,
                        7,
                        4.33333
                    ],
                    "rotation": 270,
                    "texture": "#0"
                },
                "up": {
                    "uv": [
                        6.33333,
                        3.33333,
                        7,
                        4.33333
                    ],
                    "rotation": 270,
                    "texture": "#0"
                },
                "down": {
                    "uv": [
                        6.33333,
                        3.33333,
                        7,
                        4.33333
                    ],
                    "rotation": 270,
                    "texture": "#0"
                }
            }
        },
        {
            "from": [
                4.87284,
                4.23971,
                8.11647
            ],
            "to": [
                5.12716,
                4.27971,
                8.16647
            ],
            "rotation": {
                "angle": -22.5,
                "axis": "x",
                "origin": [
                    5,
                    4.40936,
                    7.64147
                ]
            },
            "faces": {
                "north": {
                    "uv": [
                        6.33333,
                        3.33333,
                        7,
                        4.33333
                    ],
                    "rotation": 270,
                    "texture": "#0"
                },
                "east": {
                    "uv": [
                        6.33333,
                        3.33333,
                        7,
                        4.33333
                    ],
                    "rotation": 270,
                    "texture": "#0"
                },
                "south": {
                    "uv": [
                        6.33333,
                        3.33333,
                        7,
                        4.33333
                    ],
                    "rotation": 270,
                    "texture": "#0"
                },
                "west": {
                    "uv": [
                        6.33333,
                        3.33333,
                        7,
                        4.33333
                    ],
                    "rotation": 270,
                    "texture": "#0"
                },
                "up": {
                    "uv": [
                        6.33333,
                        3.33333,
                        7,
                        4.33333
                    ],
                    "rotation": 270,
                    "texture": "#0"
                },
                "down": {
                    "uv": [
                        6.33333,
                        3.33333,
                        7,
                        4.33333
                    ],
                    "rotation": 270,
                    "texture": "#0"
                }
            }
        },
        {
            "from": [
                4.77284,
                4.26219,
                7.00949
            ],
            "to": [
                5.22716,
                4.96149,
                7.72949
            ],
            "rotation": {
                "angle": 0,
                "axis": "y",
                "origin": [
                    5,
                    6.23184,
                    7.68449
                ]
            },
            "faces": {
                "north": {
                    "uv": [
                        6.33333,
                        3.33333,
                        7,
                        4.33333
                    ],
                    "rotation": 270,
                    "texture": "#0"
                },
                "east": {
                    "uv": [
                        6.33333,
                        3.33333,
                        7,
                        4.33333
                    ],
                    "rotation": 270,
                    "texture": "#0"
                },
                "south": {
                    "uv": [
                        6.33333,
                        3.33333,
                        7,
                        4.33333
                    ],
                    "rotation": 270,
                    "texture": "#0"
                },
                "west": {
                    "uv": [
                        6.33333,
                        3.33333,
                        7,
                        4.33333
                    ],
                    "rotation": 270,
                    "texture": "#0"
                },
                "up": {
                    "uv": [
                        6.33333,
                        3.33333,
                        7,
                        4.33333
                    ],
                    "rotation": 270,
                    "texture": "#0"
                },
                "down": {
                    "uv": [
                        6.33333,
                        3.33333,
                        7,
                        4.33333
                    ],
                    "rotation": 270,
                    "texture": "#0"
                }
            }
        },
        {
            "from": [
                4.77284,
                4.26219,
                6.80949
            ],
            "to": [
                5.22716,
                4.33219,
                7.62949
            ],
            "rotation": {
                "angle": 0,
                "axis": "y",
                "origin": [
                    5,
                    6.23184,
                    7.68449
                ]
            },
            "faces": {
                "north": {
                    "uv": [
                        6.33333,
                        3.33333,
                        7,
                        4.33333
                    ],
                    "rotation": 270,
                    "texture": "#0"
                },
                "east": {
                    "uv": [
                        6.33333,
                        3.33333,
                        7,
                        4.33333
                    ],
                    "rotation": 270,
                    "texture": "#0"
                },
                "south": {
                    "uv": [
                        6.33333,
                        3.33333,
                        7,
                        4.33333
                    ],
                    "rotation": 270,
                    "texture": "#0"
                },
                "west": {
                    "uv": [
                        6.33333,
                        3.33333,
                        7,
                        4.33333
                    ],
                    "rotation": 270,
                    "texture": "#0"
                },
                "up": {
                    "uv": [
                        6.33333,
                        3.33333,
                        7,
                        4.33333
                    ],
                    "rotation": 270,
                    "texture": "#0"
                },
                "down": {
                    "uv": [
                        6.33333,
                        3.33333,
                        7,
                        4.33333
                    ],
                    "rotation": 270,
                    "texture": "#0"
                }
            }
        },
        {
            "from": [
                4.77284,
                4.41658,
                8.2348
            ],
            "to": [
                5.22716,
                4.53658,
                8.3048
            ],
            "rotation": {
                "angle": 22.5,
                "axis": "x",
                "origin": [
                    5,
                    4.82658,
                    8.2698
                ]
            },
            "faces": {
                "north": {
                    "uv": [
                        6.33333,
                        3.33333,
                        7,
                        4.33333
                    ],
                    "rotation": 270,
                    "texture": "#0"
                },
                "east": {
                    "uv": [
                        6.33333,
                        3.33333,
                        7,
                        4.33333
                    ],
                    "rotation": 270,
                    "texture": "#0"
                },
                "south": {
                    "uv": [
                        6.33333,
                        3.33333,
                        7,
                        4.33333
                    ],
                    "rotation": 270,
                    "texture": "#0"
                },
                "west": {
                    "uv": [
                        6.33333,
                        3.33333,
                        7,
                        4.33333
                    ],
                    "rotation": 270,
                    "texture": "#0"
                },
                "up": {
                    "uv": [
                        6.33333,
                        3.33333,
                        7,
                        4.33333
                    ],
                    "rotation": 270,
                    "texture": "#0"
                },
                "down": {
                    "uv": [
                        6.33333,
                        3.33333,
                        7,
                        4.33333
                    ],
                    "rotation": 270,
                    "texture": "#0"
                }
            }
        },
        {
            "from": [
                4.77284,
                4.33538,
                7.64744
            ],
            "to": [
                5.22716,
                4.85468,
                8.09744
            ],
            "rotation": {
                "angle": -22.5,
                "axis": "x",
                "origin": [
                    5,
                    4.50503,
                    7.87244
                ]
            },
            "faces": {
                "north": {
                    "uv": [
                        6.33333,
                        3.33333,
                        7,
                        4.33333
                    ],
                    "rotation": 270,
                    "texture": "#0"
                },
                "east": {
                    "uv": [
                        6.33333,
                        3.33333,
                        7,
                        4.33333
                    ],
                    "rotation": 270,
                    "texture": "#0"
                },
                "south": {
                    "uv": [
                        6.33333,
                        3.33333,
                        7,
                        4.33333
                    ],
                    "rotation": 270,
                    "texture": "#0"
                },
                "west": {
                    "uv": [
                        6.33333,
                        3.33333,
                        7,
                        4.33333
                    ],
                    "rotation": 270,
                    "texture": "#0"
                },
                "up": {
                    "uv": [
                        6.33333,
                        3.33333,
                        7,
                        4.33333
                    ],
                    "rotation": 270,
                    "texture": "#0"
                },
                "down": {
                    "uv": [
                        6.33333,
                        3.33333,
                        7,
                        4.33333
                    ],
                    "rotation": 270,
                    "texture": "#0"
                }
            }
        },
        {
            "from": [
                4.87284,
                4.23971,
                8.11647
            ],
            "to": [
                5.12716,
                4.27971,
                8.16647
            ],
            "rotation": {
                "angle": -22.5,
                "axis": "x",
                "origin": [
                    5,
                    4.40936,
                    7.64147
                ]
            },
            "faces": {
                "north": {
                    "uv": [
                        6.33333,
                        3.33333,
                        7,
                        4.33333
                    ],
                    "rotation": 270,
                    "texture": "#0"
                },
                "east": {
                    "uv": [
                        6.33333,
                        3.33333,
                        7,
                        4.33333
                    ],
                    "rotation": 270,
                    "texture": "#0"
                },
                "south": {
                    "uv": [
                        6.33333,
                        3.33333,
                        7,
                        4.33333
                    ],
                    "rotation": 270,
                    "texture": "#0"
                },
                "west": {
                    "uv": [
                        6.33333,
                        3.33333,
                        7,
                        4.33333
                    ],
                    "rotation": 270,
                    "texture": "#0"
                },
                "up": {
                    "uv": [
                        6.33333,
                        3.33333,
                        7,
                        4.33333
                    ],
                    "rotation": 270,
                    "texture": "#0"
                },
                "down": {
                    "uv": [
                        6.33333,
                        3.33333,
                        7,
                        4.33333
                    ],
                    "rotation": 270,
                    "texture": "#0"
                }
            }
        },
        {
            "from": [
                4.87284,
                4.44779,
                8.46839
            ],
            "to": [
                5.12716,
                4.48279,
                8.50339
            ],
            "rotation": {
                "angle": 22.5,
                "axis": "x",
                "origin": [
                    5,
                    5.35779,
                    8.20339
                ]
            },
            "faces": {
                "north": {
                    "uv": [
                        6.33333,
                        3.33333,
                        7,
                        4.33333
                    ],
                    "rotation": 270,
                    "texture": "#0"
                },
                "east": {
                    "uv": [
                        6.33333,
                        3.33333,
                        7,
                        4.33333
                    ],
                    "rotation": 270,
                    "texture": "#0"
                },
                "south": {
                    "uv": [
                        6.33333,
                        3.33333,
                        7,
                        4.33333
                    ],
                    "rotation": 270,
                    "texture": "#0"
                },
                "west": {
                    "uv": [
                        6.33333,
                        3.33333,
                        7,
                        4.33333
                    ],
                    "rotation": 270,
                    "texture": "#0"
                },
                "up": {
                    "uv": [
                        6.33333,
                        3.33333,
                        7,
                        4.33333
                    ],
                    "rotation": 270,
                    "texture": "#0"
                },
                "down": {
                    "uv": [
                        6.33333,
                        3.33333,
                        7,
                        4.33333
                    ],
                    "rotation": 270,
                    "texture": "#0"
                }
            }
        },
        {
            "from": [
                4.87284,
                4.39819,
                8.37678
            ],
            "to": [
                5.12716,
                4.43319,
                8.41178
            ],
            "rotation": {
                "angle": 22.5,
                "axis": "x",
                "origin": [
                    5,
                    5.20819,
                    8.21178
                ]
            },
            "faces": {
                "north": {
                    "uv": [
                        6.33333,
                        3.33333,
                        7,
                        4.33333
                    ],
                    "rotation": 270,
                    "texture": "#0"
                },
                "east": {
                    "uv": [
                        6.33333,
                        3.33333,
                        7,
                        4.33333
                    ],
                    "rotation": 270,
                    "texture": "#0"
                },
                "south": {
                    "uv": [
                        6.33333,
                        3.33333,
                        7,
                        4.33333
                    ],
                    "rotation": 270,
                    "texture": "#0"
                },
                "west": {
                    "uv": [
                        6.33333,
                        3.33333,
                        7,
                        4.33333
                    ],
                    "rotation": 270,
                    "texture": "#0"
                },
                "up": {
                    "uv": [
                        6.33333,
                        3.33333,
                        7,
                        4.33333
                    ],
                    "rotation": 270,
                    "texture": "#0"
                },
                "down": {
                    "uv": [
                        6.33333,
                        3.33333,
                        7,
                        4.33333
                    ],
                    "rotation": 270,
                    "texture": "#0"
                }
            }
        },
        {
            "from": [
                4.87284,
                4.37164,
                8.36931
            ],
            "to": [
                5.12716,
                4.40664,
                8.40431
            ],
            "rotation": {
                "angle": 22.5,
                "axis": "x",
                "origin": [
                    5,
                    5.28164,
                    8.20431
                ]
            },
            "faces": {
                "north": {
                    "uv": [
                        6.33333,
                        3.33333,
                        7,
                        4.33333
                    ],
                    "rotation": 270,
                    "texture": "#0"
                },
                "east": {
                    "uv": [
                        6.33333,
                        3.33333,
                        7,
                        4.33333
                    ],
                    "rotation": 270,
                    "texture": "#0"
                },
                "south": {
                    "uv": [
                        6.33333,
                        3.33333,
                        7,
                        4.33333
                    ],
                    "rotation": 270,
                    "texture": "#0"
                },
                "west": {
                    "uv": [
                        6.33333,
                        3.33333,
                        7,
                        4.33333
                    ],
                    "rotation": 270,
                    "texture": "#0"
                },
                "up": {
                    "uv": [
                        6.33333,
                        3.33333,
                        7,
                        4.33333
                    ],
                    "rotation": 270,
                    "texture": "#0"
                },
                "down": {
                    "uv": [
                        6.33333,
                        3.33333,
                        7,
                        4.33333
                    ],
                    "rotation": 270,
                    "texture": "#0"
                }
            }
        },
        {
            "from": [
                4.87284,
                4.47511,
                8.30815
            ],
            "to": [
                5.12716,
                4.51011,
                8.34315
            ],
            "rotation": {
                "angle": 22.5,
                "axis": "x",
                "origin": [
                    5,
                    5.28511,
                    7.84315
                ]
            },
            "faces": {
                "north": {
                    "uv": [
                        6.33333,
                        3.33333,
                        7,
                        4.33333
                    ],
                    "rotation": 270,
                    "texture": "#0"
                },
                "east": {
                    "uv": [
                        6.33333,
                        3.33333,
                        7,
                        4.33333
                    ],
                    "rotation": 270,
                    "texture": "#0"
                },
                "south": {
                    "uv": [
                        6.33333,
                        3.33333,
                        7,
                        4.33333
                    ],
                    "rotation": 270,
                    "texture": "#0"
                },
                "west": {
                    "uv": [
                        6.33333,
                        3.33333,
                        7,
                        4.33333
                    ],
                    "rotation": 270,
                    "texture": "#0"
                },
                "up": {
                    "uv": [
                        6.33333,
                        3.33333,
                        7,
                        4.33333
                    ],
                    "rotation": 270,
                    "texture": "#0"
                },
                "down": {
                    "uv": [
                        6.33333,
                        3.33333,
                        7,
                        4.33333
                    ],
                    "rotation": 270,
                    "texture": "#0"
                }
            }
        },
        {
            "from": [
                4.87284,
                4.44856,
                8.30069
            ],
            "to": [
                5.12716,
                4.48356,
                8.33569
            ],
            "rotation": {
                "angle": 22.5,
                "axis": "x",
                "origin": [
                    5,
                    5.35856,
                    7.83569
                ]
            },
            "faces": {
                "north": {
                    "uv": [
                        6.33333,
                        3.33333,
                        7,
                        4.33333
                    ],
                    "rotation": 270,
                    "texture": "#0"
                },
                "east": {
                    "uv": [
                        6.33333,
                        3.33333,
                        7,
                        4.33333
                    ],
                    "rotation": 270,
                    "texture": "#0"
                },
                "south": {
                    "uv": [
                        6.33333,
                        3.33333,
                        7,
                        4.33333
                    ],
                    "rotation": 270,
                    "texture": "#0"
                },
                "west": {
                    "uv": [
                        6.33333,
                        3.33333,
                        7,
                        4.33333
                    ],
                    "rotation": 270,
                    "texture": "#0"
                },
                "up": {
                    "uv": [
                        6.33333,
                        3.33333,
                        7,
                        4.33333
                    ],
                    "rotation": 270,
                    "texture": "#0"
                },
                "down": {
                    "uv": [
                        6.33333,
                        3.33333,
                        7,
                        4.33333
                    ],
                    "rotation": 270,
                    "texture": "#0"
                }
            }
        },
        {
            "from": [
                4.87284,
                4.39896,
                8.20908
            ],
            "to": [
                5.12716,
                4.43396,
                8.24408
            ],
            "rotation": {
                "angle": 22.5,
                "axis": "x",
                "origin": [
                    5,
                    5.20896,
                    7.84408
                ]
            },
            "faces": {
                "north": {
                    "uv": [
                        6.33333,
                        3.33333,
                        7,
                        4.33333
                    ],
                    "rotation": 270,
                    "texture": "#0"
                },
                "east": {
                    "uv": [
                        6.33333,
                        3.33333,
                        7,
                        4.33333
                    ],
                    "rotation": 270,
                    "texture": "#0"
                },
                "south": {
                    "uv": [
                        6.33333,
                        3.33333,
                        7,
                        4.33333
                    ],
                    "rotation": 270,
                    "texture": "#0"
                },
                "west": {
                    "uv": [
                        6.33333,
                        3.33333,
                        7,
                        4.33333
                    ],
                    "rotation": 270,
                    "texture": "#0"
                },
                "up": {
                    "uv": [
                        6.33333,
                        3.33333,
                        7,
                        4.33333
                    ],
                    "rotation": 270,
                    "texture": "#0"
                },
                "down": {
                    "uv": [
                        6.33333,
                        3.33333,
                        7,
                        4.33333
                    ],
                    "rotation": 270,
                    "texture": "#0"
                }
            }
        },
        {
            "from": [
                4.87284,
                4.3724,
                8.20162
            ],
            "to": [
                5.12716,
                4.4074,
                8.23662
            ],
            "rotation": {
                "angle": 22.5,
                "axis": "x",
                "origin": [
                    5,
                    5.2824,
                    7.83662
                ]
            },
            "faces": {
                "north": {
                    "uv": [
                        6.33333,
                        3.33333,
                        7,
                        4.33333
                    ],
                    "rotation": 270,
                    "texture": "#0"
                },
                "east": {
                    "uv": [
                        6.33333,
                        3.33333,
                        7,
                        4.33333
                    ],
                    "rotation": 270,
                    "texture": "#0"
                },
                "south": {
                    "uv": [
                        6.33333,
                        3.33333,
                        7,
                        4.33333
                    ],
                    "rotation": 270,
                    "texture": "#0"
                },
                "west": {
                    "uv": [
                        6.33333,
                        3.33333,
                        7,
                        4.33333
                    ],
                    "rotation": 270,
                    "texture": "#0"
                },
                "up": {
                    "uv": [
                        6.33333,
                        3.33333,
                        7,
                        4.33333
                    ],
                    "rotation": 270,
                    "texture": "#0"
                },
                "down": {
                    "uv": [
                        6.33333,
                        3.33333,
                        7,
                        4.33333
                    ],
                    "rotation": 270,
                    "texture": "#0"
                }
            }
        },
        {
            "from": [
                4.77284,
                4.26219,
                7.00949
            ],
            "to": [
                5.22716,
                4.96149,
                7.72949
            ],
            "rotation": {
                "angle": 0,
                "axis": "y",
                "origin": [
                    5,
                    6.23184,
                    7.68449
                ]
            },
            "faces": {
                "north": {
                    "uv": [
                        6.33333,
                        3.33333,
                        7,
                        4.33333
                    ],
                    "rotation": 270,
                    "texture": "#0"
                },
                "east": {
                    "uv": [
                        6.33333,
                        3.33333,
                        7,
                        4.33333
                    ],
                    "rotation": 270,
                    "texture": "#0"
                },
                "south": {
                    "uv": [
                        6.33333,
                        3.33333,
                        7,
                        4.33333
                    ],
                    "rotation": 270,
                    "texture": "#0"
                },
                "west": {
                    "uv": [
                        6.33333,
                        3.33333,
                        7,
                        4.33333
                    ],
                    "rotation": 270,
                    "texture": "#0"
                },
                "up": {
                    "uv": [
                        6.33333,
                        3.33333,
                        7,
                        4.33333
                    ],
                    "rotation": 270,
                    "texture": "#0"
                },
                "down": {
                    "uv": [
                        6.33333,
                        3.33333,
                        7,
                        4.33333
                    ],
                    "rotation": 270,
                    "texture": "#0"
                }
            }
        },
        {
            "from": [
                4.77284,
                4.26219,
                6.80949
            ],
            "to": [
                5.22716,
                4.33219,
                7.62949
            ],
            "rotation": {
                "angle": 0,
                "axis": "y",
                "origin": [
                    5,
                    6.23184,
                    7.68449
                ]
            },
            "faces": {
                "north": {
                    "uv": [
                        6.33333,
                        3.33333,
                        7,
                        4.33333
                    ],
                    "rotation": 270,
                    "texture": "#0"
                },
                "east": {
                    "uv": [
                        6.33333,
                        3.33333,
                        7,
                        4.33333
                    ],
                    "rotation": 270,
                    "texture": "#0"
                },
                "south": {
                    "uv": [
                        6.33333,
                        3.33333,
                        7,
                        4.33333
                    ],
                    "rotation": 270,
                    "texture": "#0"
                },
                "west": {
                    "uv": [
                        6.33333,
                        3.33333,
                        7,
                        4.33333
                    ],
                    "rotation": 270,
                    "texture": "#0"
                },
                "up": {
                    "uv": [
                        6.33333,
                        3.33333,
                        7,
                        4.33333
                    ],
                    "rotation": 270,
                    "texture": "#0"
                },
                "down": {
                    "uv": [
                        6.33333,
                        3.33333,
                        7,
                        4.33333
                    ],
                    "rotation": 270,
                    "texture": "#0"
                }
            }
        },
        {
            "from": [
                4.77284,
                4.41658,
                8.2348
            ],
            "to": [
                5.22716,
                4.53658,
                8.3048
            ],
            "rotation": {
                "angle": 22.5,
                "axis": "x",
                "origin": [
                    5,
                    4.82658,
                    8.2698
                ]
            },
            "faces": {
                "north": {
                    "uv": [
                        6.33333,
                        3.33333,
                        7,
                        4.33333
                    ],
                    "rotation": 270,
                    "texture": "#0"
                },
                "east": {
                    "uv": [
                        6.33333,
                        3.33333,
                        7,
                        4.33333
                    ],
                    "rotation": 270,
                    "texture": "#0"
                },
                "south": {
                    "uv": [
                        6.33333,
                        3.33333,
                        7,
                        4.33333
                    ],
                    "rotation": 270,
                    "texture": "#0"
                },
                "west": {
                    "uv": [
                        6.33333,
                        3.33333,
                        7,
                        4.33333
                    ],
                    "rotation": 270,
                    "texture": "#0"
                },
                "up": {
                    "uv": [
                        6.33333,
                        3.33333,
                        7,
                        4.33333
                    ],
                    "rotation": 270,
                    "texture": "#0"
                },
                "down": {
                    "uv": [
                        6.33333,
                        3.33333,
                        7,
                        4.33333
                    ],
                    "rotation": 270,
                    "texture": "#0"
                }
            }
        },
        {
            "from": [
                4.77284,
                4.33538,
                7.64744
            ],
            "to": [
                5.22716,
                4.85468,
                8.09744
            ],
            "rotation": {
                "angle": -22.5,
                "axis": "x",
                "origin": [
                    5,
                    4.50503,
                    7.87244
                ]
            },
            "faces": {
                "north": {
                    "uv": [
                        6.33333,
                        3.33333,
                        7,
                        4.33333
                    ],
                    "rotation": 270,
                    "texture": "#0"
                },
                "east": {
                    "uv": [
                        6.33333,
                        3.33333,
                        7,
                        4.33333
                    ],
                    "rotation": 270,
                    "texture": "#0"
                },
                "south": {
                    "uv": [
                        6.33333,
                        3.33333,
                        7,
                        4.33333
                    ],
                    "rotation": 270,
                    "texture": "#0"
                },
                "west": {
                    "uv": [
                        6.33333,
                        3.33333,
                        7,
                        4.33333
                    ],
                    "rotation": 270,
                    "texture": "#0"
                },
                "up": {
                    "uv": [
                        6.33333,
                        3.33333,
                        7,
                        4.33333
                    ],
                    "rotation": 270,
                    "texture": "#0"
                },
                "down": {
                    "uv": [
                        6.33333,
                        3.33333,
                        7,
                        4.33333
                    ],
                    "rotation": 270,
                    "texture": "#0"
                }
            }
        },
        {
            "from": [
                4.87284,
                4.23971,
                8.11647
            ],
            "to": [
                5.12716,
                4.27971,
                8.16647
            ],
            "rotation": {
                "angle": -22.5,
                "axis": "x",
                "origin": [
                    5,
                    4.40936,
                    7.64147
                ]
            },
            "faces": {
                "north": {
                    "uv": [
                        6.33333,
                        3.33333,
                        7,
                        4.33333
                    ],
                    "rotation": 270,
                    "texture": "#0"
                },
                "east": {
                    "uv": [
                        6.33333,
                        3.33333,
                        7,
                        4.33333
                    ],
                    "rotation": 270,
                    "texture": "#0"
                },
                "south": {
                    "uv": [
                        6.33333,
                        3.33333,
                        7,
                        4.33333
                    ],
                    "rotation": 270,
                    "texture": "#0"
                },
                "west": {
                    "uv": [
                        6.33333,
                        3.33333,
                        7,
                        4.33333
                    ],
                    "rotation": 270,
                    "texture": "#0"
                },
                "up": {
                    "uv": [
                        6.33333,
                        3.33333,
                        7,
                        4.33333
                    ],
                    "rotation": 270,
                    "texture": "#0"
                },
                "down": {
                    "uv": [
                        6.33333,
                        3.33333,
                        7,
                        4.33333
                    ],
                    "rotation": 270,
                    "texture": "#0"
                }
            }
        },
        {
            "from": [
                4.87284,
                4.47434,
                8.47585
            ],
            "to": [
                5.12716,
                4.50934,
                8.51085
            ],
            "rotation": {
                "angle": 22.5,
                "axis": "x",
                "origin": [
                    5,
                    5.28434,
                    8.21085
                ]
            },
            "faces": {
                "north": {
                    "uv": [
                        6.33333,
                        3.33333,
                        7,
                        4.33333
                    ],
                    "rotation": 270,
                    "texture": "#0"
                },
                "east": {
                    "uv": [
                        6.33333,
                        3.33333,
                        7,
                        4.33333
                    ],
                    "rotation": 270,
                    "texture": "#0"
                },
                "south": {
                    "uv": [
                        6.33333,
                        3.33333,
                        7,
                        4.33333
                    ],
                    "rotation": 270,
                    "texture": "#0"
                },
                "west": {
                    "uv": [
                        6.33333,
                        3.33333,
                        7,
                        4.33333
                    ],
                    "rotation": 270,
                    "texture": "#0"
                },
                "up": {
                    "uv": [
                        6.33333,
                        3.33333,
                        7,
                        4.33333
                    ],
                    "rotation": 270,
                    "texture": "#0"
                },
                "down": {
                    "uv": [
                        6.33333,
                        3.33333,
                        7,
                        4.33333
                    ],
                    "rotation": 270,
                    "texture": "#0"
                }
            }
        },
        {
            "from": [
                4.87284,
                4.44779,
                8.46839
            ],
            "to": [
                5.12716,
                4.48279,
                8.50339
            ],
            "rotation": {
                "angle": 22.5,
                "axis": "x",
                "origin": [
                    5,
                    5.35779,
                    8.20339
                ]
            },
            "faces": {
                "north": {
                    "uv": [
                        6.33333,
                        3.33333,
                        7,
                        4.33333
                    ],
                    "rotation": 270,
                    "texture": "#0"
                },
                "east": {
                    "uv": [
                        6.33333,
                        3.33333,
                        7,
                        4.33333
                    ],
                    "rotation": 270,
                    "texture": "#0"
                },
                "south": {
                    "uv": [
                        6.33333,
                        3.33333,
                        7,
                        4.33333
                    ],
                    "rotation": 270,
                    "texture": "#0"
                },
                "west": {
                    "uv": [
                        6.33333,
                        3.33333,
                        7,
                        4.33333
                    ],
                    "rotation": 270,
                    "texture": "#0"
                },
                "up": {
                    "uv": [
                        6.33333,
                        3.33333,
                        7,
                        4.33333
                    ],
                    "rotation": 270,
                    "texture": "#0"
                },
                "down": {
                    "uv": [
                        6.33333,
                        3.33333,
                        7,
                        4.33333
                    ],
                    "rotation": 270,
                    "texture": "#0"
                }
            }
        },
        {
            "from": [
                4.87284,
                4.39819,
                8.37678
            ],
            "to": [
                5.12716,
                4.43319,
                8.41178
            ],
            "rotation": {
                "angle": 22.5,
                "axis": "x",
                "origin": [
                    5,
                    5.20819,
                    8.21178
                ]
            },
            "faces": {
                "north": {
                    "uv": [
                        6.33333,
                        3.33333,
                        7,
                        4.33333
                    ],
                    "rotation": 270,
                    "texture": "#0"
                },
                "east": {
                    "uv": [
                        6.33333,
                        3.33333,
                        7,
                        4.33333
                    ],
                    "rotation": 270,
                    "texture": "#0"
                },
                "south": {
                    "uv": [
                        6.33333,
                        3.33333,
                        7,
                        4.33333
                    ],
                    "rotation": 270,
                    "texture": "#0"
                },
                "west": {
                    "uv": [
                        6.33333,
                        3.33333,
                        7,
                        4.33333
                    ],
                    "rotation": 270,
                    "texture": "#0"
                },
                "up": {
                    "uv": [
                        6.33333,
                        3.33333,
                        7,
                        4.33333
                    ],
                    "rotation": 270,
                    "texture": "#0"
                },
                "down": {
                    "uv": [
                        6.33333,
                        3.33333,
                        7,
                        4.33333
                    ],
                    "rotation": 270,
                    "texture": "#0"
                }
            }
        },
        {
            "from": [
                4.87284,
                4.37164,
                8.36931
            ],
            "to": [
                5.12716,
                4.40664,
                8.40431
            ],
            "rotation": {
                "angle": 22.5,
                "axis": "x",
                "origin": [
                    5,
                    5.28164,
                    8.20431
                ]
            },
            "faces": {
                "north": {
                    "uv": [
                        6.33333,
                        3.33333,
                        7,
                        4.33333
                    ],
                    "rotation": 270,
                    "texture": "#0"
                },
                "east": {
                    "uv": [
                        6.33333,
                        3.33333,
                        7,
                        4.33333
                    ],
                    "rotation": 270,
                    "texture": "#0"
                },
                "south": {
                    "uv": [
                        6.33333,
                        3.33333,
                        7,
                        4.33333
                    ],
                    "rotation": 270,
                    "texture": "#0"
                },
                "west": {
                    "uv": [
                        6.33333,
                        3.33333,
                        7,
                        4.33333
                    ],
                    "rotation": 270,
                    "texture": "#0"
                },
                "up": {
                    "uv": [
                        6.33333,
                        3.33333,
                        7,
                        4.33333
                    ],
                    "rotation": 270,
                    "texture": "#0"
                },
                "down": {
                    "uv": [
                        6.33333,
                        3.33333,
                        7,
                        4.33333
                    ],
                    "rotation": 270,
                    "texture": "#0"
                }
            }
        },
        {
            "from": [
                4.87284,
                4.47511,
                8.30815
            ],
            "to": [
                5.12716,
                4.51011,
                8.34315
            ],
            "rotation": {
                "angle": 22.5,
                "axis": "x",
                "origin": [
                    5,
                    5.28511,
                    7.84315
                ]
            },
            "faces": {
                "north": {
                    "uv": [
                        6.33333,
                        3.33333,
                        7,
                        4.33333
                    ],
                    "rotation": 270,
                    "texture": "#0"
                },
                "east": {
                    "uv": [
                        6.33333,
                        3.33333,
                        7,
                        4.33333
                    ],
                    "rotation": 270,
                    "texture": "#0"
                },
                "south": {
                    "uv": [
                        6.33333,
                        3.33333,
                        7,
                        4.33333
                    ],
                    "rotation": 270,
                    "texture": "#0"
                },
                "west": {
                    "uv": [
                        6.33333,
                        3.33333,
                        7,
                        4.33333
                    ],
                    "rotation": 270,
                    "texture": "#0"
                },
                "up": {
                    "uv": [
                        6.33333,
                        3.33333,
                        7,
                        4.33333
                    ],
                    "rotation": 270,
                    "texture": "#0"
                },
                "down": {
                    "uv": [
                        6.33333,
                        3.33333,
                        7,
                        4.33333
                    ],
                    "rotation": 270,
                    "texture": "#0"
                }
            }
        },
        {
            "from": [
                4.87284,
                4.44856,
                8.30069
            ],
            "to": [
                5.12716,
                4.48356,
                8.33569
            ],
            "rotation": {
                "angle": 22.5,
                "axis": "x",
                "origin": [
                    5,
                    5.35856,
                    7.83569
                ]
            },
            "faces": {
                "north": {
                    "uv": [
                        6.33333,
                        3.33333,
                        7,
                        4.33333
                    ],
                    "rotation": 270,
                    "texture": "#0"
                },
                "east": {
                    "uv": [
                        6.33333,
                        3.33333,
                        7,
                        4.33333
                    ],
                    "rotation": 270,
                    "texture": "#0"
                },
                "south": {
                    "uv": [
                        6.33333,
                        3.33333,
                        7,
                        4.33333
                    ],
                    "rotation": 270,
                    "texture": "#0"
                },
                "west": {
                    "uv": [
                        6.33333,
                        3.33333,
                        7,
                        4.33333
                    ],
                    "rotation": 270,
                    "texture": "#0"
                },
                "up": {
                    "uv": [
                        6.33333,
                        3.33333,
                        7,
                        4.33333
                    ],
                    "rotation": 270,
                    "texture": "#0"
                },
                "down": {
                    "uv": [
                        6.33333,
                        3.33333,
                        7,
                        4.33333
                    ],
                    "rotation": 270,
                    "texture": "#0"
                }
            }
        },
        {
            "from": [
                4.87284,
                4.39896,
                8.20908
            ],
            "to": [
                5.12716,
                4.43396,
                8.24408
            ],
            "rotation": {
                "angle": 22.5,
                "axis": "x",
                "origin": [
                    5,
                    5.20896,
                    7.84408
                ]
            },
            "faces": {
                "north": {
                    "uv": [
                        6.33333,
                        3.33333,
                        7,
                        4.33333
                    ],
                    "rotation": 270,
                    "texture": "#0"
                },
                "east": {
                    "uv": [
                        6.33333,
                        3.33333,
                        7,
                        4.33333
                    ],
                    "rotation": 270,
                    "texture": "#0"
                },
                "south": {
                    "uv": [
                        6.33333,
                        3.33333,
                        7,
                        4.33333
                    ],
                    "rotation": 270,
                    "texture": "#0"
                },
                "west": {
                    "uv": [
                        6.33333,
                        3.33333,
                        7,
                        4.33333
                    ],
                    "rotation": 270,
                    "texture": "#0"
                },
                "up": {
                    "uv": [
                        6.33333,
                        3.33333,
                        7,
                        4.33333
                    ],
                    "rotation": 270,
                    "texture": "#0"
                },
                "down": {
                    "uv": [
                        6.33333,
                        3.33333,
                        7,
                        4.33333
                    ],
                    "rotation": 270,
                    "texture": "#0"
                }
            }
        },
        {
            "from": [
                4.87284,
                4.3724,
                8.20162
            ],
            "to": [
                5.12716,
                4.4074,
                8.23662
            ],
            "rotation": {
                "angle": 22.5,
                "axis": "x",
                "origin": [
                    5,
                    5.2824,
                    7.83662
                ]
            },
            "faces": {
                "north": {
                    "uv": [
                        6.33333,
                        3.33333,
                        7,
                        4.33333
                    ],
                    "rotation": 270,
                    "texture": "#0"
                },
                "east": {
                    "uv": [
                        6.33333,
                        3.33333,
                        7,
                        4.33333
                    ],
                    "rotation": 270,
                    "texture": "#0"
                },
                "south": {
                    "uv": [
                        6.33333,
                        3.33333,
                        7,
                        4.33333
                    ],
                    "rotation": 270,
                    "texture": "#0"
                },
                "west": {
                    "uv": [
                        6.33333,
                        3.33333,
                        7,
                        4.33333
                    ],
                    "rotation": 270,
                    "texture": "#0"
                },
                "up": {
                    "uv": [
                        6.33333,
                        3.33333,
                        7,
                        4.33333
                    ],
                    "rotation": 270,
                    "texture": "#0"
                },
                "down": {
                    "uv": [
                        6.33333,
                        3.33333,
                        7,
                        4.33333
                    ],
                    "rotation": 270,
                    "texture": "#0"
                }
            }
        }
    ],
    "display": {
        "thirdperson_righthand": {
            "translation": [
                4,
                4.75,
                2
            ],
            "scale": [
                1.3,
                1.7,
                1
            ]
        },
        "thirdperson_lefthand": {
            "translation": [
                -4,
                4.5,
                2
            ],
            "scale": [
                1.3,
                1.7,
                1
            ]
        },
        "firstperson_righthand": {
            "translation": [
                -1.25,
                9,
                6.75
            ],
            "scale": [
                1.3,
                1.7,
                1
            ]
        },
        "firstperson_lefthand": {
            "translation": [
                -9.25,
                9,
                6.75
            ],
            "scale": [
                1.3,
                1.7,
                1
            ]
        },
        "ground": {
            "translation": [
                3.25,
                5.25,
                2.75
            ],
            "scale": [
                1.3,
                1.7,
                1
            ]
        },
        "gui": {
            "rotation": [
                90,
                45,
                -90
            ],
            "translation": [
                8.25,
                4.5,
                0
            ],
            "scale": [
                2.6,
                3.4,
                2
            ]
        },
        "fixed": {
            "rotation": [
                90,
                45,
                -90
            ],
            "translation": [
                4.5,
                2.5,
                -4.75
            ],
            "scale": [
                1.45,
                2.05,
                1.5
            ]
        }
    }
}