{
    "textures": {
        "6": "gci:items/common/mpz",
        "7": "gci:items/common/all_in_one",
        "particle": "gci:items/gun_sar/texture"
    },
    "elements": [
        {
            "from": [
                7.8514,
                7.66144,
                4.41859
            ],
            "to": [
                8.20497,
                9.00071,
                9.55423
            ],
            "rotation": {
                "angle": 0,
                "axis": "y",
                "origin": [
                    17.7513,
                    16.63456,
                    9.55423
                ]
            },
            "faces": {
                "north": {
                    "uv": [
                        9.375,
                        12.25,
                        9.5,
                        12.375
                    ],
                    "texture": "#7"
                },
                "east": {
                    "uv": [
                        9.375,
                        12.25,
                        9.5,
                        12.375
                    ],
                    "texture": "#7"
                },
                "south": {
                    "uv": [
                        9.375,
                        12.25,
                        9.5,
                        12.375
                    ],
                    "texture": "#7"
                },
                "west": {
                    "uv": [
                        9.375,
                        12.25,
                        9.5,
                        12.375
                    ],
                    "texture": "#7"
                },
                "up": {
                    "uv": [
                        9.375,
                        12.25,
                        9.5,
                        12.375
                    ],
                    "texture": "#7"
                },
                "down": {
                    "uv": [
                        9.375,
                        12.25,
                        9.5,
                        12.375
                    ],
                    "texture": "#7"
                }
            }
        }
    ],
    "display": {
        "thirdperson_righthand": {
            "rotation": [
                0,
                -0.5,
                4.5
            ],
            "translation": [
                -0.75,
                2,
                1
            ]
        },
        "thirdperson_lefthand": {
            "rotation": [
                0,
                -0.5,
                4.5
            ],
            "translation": [
                -0.75,
                2,
                1
            ]
        },
        "firstperson_righthand": {
            "rotation": [
                0,
                5.25,
                0.5
            ],
            "translation": [
                -3.75,
                5.5,
                2.25
            ]
        },
        "firstperson_lefthand": {
            "rotation": [
                0,
                5.25,
                0.5
            ],
            "translation": [
                -3.75,
                5.5,
                2.25
            ]
        },
        "ground": {
            "rotation": [
                0,
                0,
                -90
            ],
            "translation": [
                3.5,
                -2.5,
                0
            ]
        },
        "gui": {
            "rotation": [
                23,
                31,
                -13
            ],
            "translation": [
                1,
                2.25,
                0
            ],
            "scale": [
                1.4043,
                1.49805,
                1.39063
            ]
        },
        "head": {
            "rotation": [
                0,
                0,
                90
            ],
            "translation": [
                -0.5,
                9.25,
                0
            ],
            "scale": [
                1.5,
                1.5,
                1.5
            ]
        },
        "fixed": {
            "rotation": [
                90,
                45,
                -90
            ],
            "translation": [
                0,
                0,
                -1.5
            ]
        }
    }
}