{
    "textures": {
        "6": "gci:items/common/mpz",
        "7": "gci:items/common/all_in_one"
    },
    "elements": [
        {
            "from": [
                7.95517,
                5.7389,
                -5.6359
            ],
            "to": [
                8.08767,
                5.9389,
                -1.3359
            ],
            "rotation": {
                "angle": 0,
                "axis": "y",
                "origin": [
                    8.05517,
                    6.0514,
                    -2.3859
                ]
            },
            "faces": {
                "north": {
                    "uv": [
                        3.125,
                        9.875,
                        3.243,
                        10.021
                    ],
                    "rotation": 180,
                    "texture": "#7"
                },
                "east": {
                    "uv": [
                        3.125,
                        9.875,
                        3.243,
                        10.021
                    ],
                    "rotation": 180,
                    "texture": "#7"
                },
                "south": {
                    "uv": [
                        3.125,
                        9.875,
                        3.243,
                        10.021
                    ],
                    "rotation": 180,
                    "texture": "#7"
                },
                "west": {
                    "uv": [
                        3.125,
                        9.875,
                        3.243,
                        10.021
                    ],
                    "rotation": 180,
                    "texture": "#7"
                },
                "up": {
                    "uv": [
                        3.125,
                        9.875,
                        3.243,
                        10.021
                    ],
                    "rotation": 180,
                    "texture": "#7"
                },
                "down": {
                    "uv": [
                        3.125,
                        9.875,
                        3.243,
                        10.021
                    ],
                    "rotation": 180,
                    "texture": "#7"
                }
            }
        },
        {
            "from": [
                7.95517,
                5.5389,
                -3.4359
            ],
            "to": [
                8.08767,
                5.7389,
                -1.3359
            ],
            "rotation": {
                "angle": 0,
                "axis": "y",
                "origin": [
                    8.05517,
                    5.8514,
                    -2.3859
                ]
            },
            "faces": {
                "north": {
                    "uv": [
                        9.75,
                        9.875,
                        9.868,
                        10.021
                    ],
                    "rotation": 180,
                    "texture": "#7"
                },
                "east": {
                    "uv": [
                        9.75,
                        9.875,
                        9.868,
                        10.021
                    ],
                    "rotation": 180,
                    "texture": "#7"
                },
                "south": {
                    "uv": [
                        9.75,
                        9.875,
                        9.868,
                        10.021
                    ],
                    "rotation": 180,
                    "texture": "#7"
                },
                "west": {
                    "uv": [
                        9.75,
                        9.875,
                        9.868,
                        10.021
                    ],
                    "rotation": 180,
                    "texture": "#7"
                },
                "up": {
                    "uv": [
                        9.75,
                        9.875,
                        9.868,
                        10.021
                    ],
                    "rotation": 180,
                    "texture": "#7"
                },
                "down": {
                    "uv": [
                        9.75,
                        9.875,
                        9.868,
                        10.021
                    ],
                    "rotation": 180,
                    "texture": "#7"
                }
            }
        },
        {
            "from": [
                7.95517,
                5.3389,
                -5.6359
            ],
            "to": [
                8.08767,
                5.5389,
                -1.3359
            ],
            "rotation": {
                "angle": 0,
                "axis": "y",
                "origin": [
                    8.05517,
                    5.6514,
                    -2.3859
                ]
            },
            "faces": {
                "north": {
                    "uv": [
                        3.125,
                        9.875,
                        3.243,
                        10.021
                    ],
                    "rotation": 180,
                    "texture": "#7"
                },
                "east": {
                    "uv": [
                        3.125,
                        9.875,
                        3.243,
                        10.021
                    ],
                    "rotation": 180,
                    "texture": "#7"
                },
                "south": {
                    "uv": [
                        3.125,
                        9.875,
                        3.243,
                        10.021
                    ],
                    "rotation": 180,
                    "texture": "#7"
                },
                "west": {
                    "uv": [
                        3.125,
                        9.875,
                        3.243,
                        10.021
                    ],
                    "rotation": 180,
                    "texture": "#7"
                },
                "up": {
                    "uv": [
                        3.125,
                        9.875,
                        3.243,
                        10.021
                    ],
                    "rotation": 180,
                    "texture": "#7"
                },
                "down": {
                    "uv": [
                        3.125,
                        9.875,
                        3.243,
                        10.021
                    ],
                    "rotation": 180,
                    "texture": "#7"
                }
            }
        },
        {
            "from": [
                7.97017,
                5.5389,
                -5.8359
            ],
            "to": [
                8.07017,
                5.7389,
                -3.4359
            ],
            "rotation": {
                "angle": 0,
                "axis": "y",
                "origin": [
                    8.05517,
                    5.8514,
                    -2.3859
                ]
            },
            "faces": {
                "north": {
                    "uv": [
                        9.75,
                        9.875,
                        9.868,
                        10.021
                    ],
                    "rotation": 180,
                    "texture": "#7"
                },
                "east": {
                    "uv": [
                        9.75,
                        9.875,
                        9.868,
                        10.021
                    ],
                    "rotation": 180,
                    "texture": "#7"
                },
                "south": {
                    "uv": [
                        9.75,
                        9.875,
                        9.868,
                        10.021
                    ],
                    "rotation": 180,
                    "texture": "#7"
                },
                "west": {
                    "uv": [
                        9.75,
                        9.875,
                        9.868,
                        10.021
                    ],
                    "rotation": 180,
                    "texture": "#7"
                },
                "up": {
                    "uv": [
                        9.75,
                        9.875,
                        9.868,
                        10.021
                    ],
                    "rotation": 180,
                    "texture": "#7"
                },
                "down": {
                    "uv": [
                        9.75,
                        9.875,
                        9.868,
                        10.021
                    ],
                    "rotation": 180,
                    "texture": "#7"
                }
            }
        },
        {
            "from": [
                7.95517,
                5.63171,
                -6.0748
            ],
            "to": [
                8.08767,
                5.83171,
                -5.5748
            ],
            "rotation": {
                "angle": -22.5,
                "axis": "x",
                "origin": [
                    8.02142,
                    5.73171,
                    -5.8748
                ]
            },
            "faces": {
                "north": {
                    "uv": [
                        3.125,
                        9.875,
                        3.243,
                        10.021
                    ],
                    "rotation": 180,
                    "texture": "#7"
                },
                "east": {
                    "uv": [
                        3.125,
                        9.875,
                        3.243,
                        10.021
                    ],
                    "rotation": 180,
                    "texture": "#7"
                },
                "south": {
                    "uv": [
                        3.125,
                        9.875,
                        3.243,
                        10.021
                    ],
                    "rotation": 180,
                    "texture": "#7"
                },
                "west": {
                    "uv": [
                        3.125,
                        9.875,
                        3.243,
                        10.021
                    ],
                    "rotation": 180,
                    "texture": "#7"
                },
                "up": {
                    "uv": [
                        3.125,
                        9.875,
                        3.243,
                        10.021
                    ],
                    "rotation": 180,
                    "texture": "#7"
                },
                "down": {
                    "uv": [
                        3.125,
                        9.875,
                        3.243,
                        10.021
                    ],
                    "rotation": 180,
                    "texture": "#7"
                }
            }
        },
        {
            "from": [
                7.95517,
                5.44609,
                -6.0748
            ],
            "to": [
                8.08767,
                5.64609,
                -5.5748
            ],
            "rotation": {
                "angle": 22.5,
                "axis": "x",
                "origin": [
                    8.02142,
                    5.54609,
                    -5.8748
                ]
            },
            "faces": {
                "north": {
                    "uv": [
                        3.125,
                        9.875,
                        3.243,
                        10.021
                    ],
                    "rotation": 180,
                    "texture": "#7"
                },
                "east": {
                    "uv": [
                        3.125,
                        9.875,
                        3.243,
                        10.021
                    ],
                    "rotation": 180,
                    "texture": "#7"
                },
                "south": {
                    "uv": [
                        3.125,
                        9.875,
                        3.243,
                        10.021
                    ],
                    "rotation": 180,
                    "texture": "#7"
                },
                "west": {
                    "uv": [
                        3.125,
                        9.875,
                        3.243,
                        10.021
                    ],
                    "rotation": 180,
                    "texture": "#7"
                },
                "up": {
                    "uv": [
                        3.125,
                        9.875,
                        3.243,
                        10.021
                    ],
                    "rotation": 180,
                    "texture": "#7"
                },
                "down": {
                    "uv": [
                        3.125,
                        9.875,
                        3.243,
                        10.021
                    ],
                    "rotation": 180,
                    "texture": "#7"
                }
            }
        },
        {
            "from": [
                7.95517,
                5.4326,
                -6.14043
            ],
            "to": [
                8.08767,
                5.5866,
                -5.98643
            ],
            "rotation": {
                "angle": -45,
                "axis": "x",
                "origin": [
                    8.02142,
                    5.5326,
                    -6.23643
                ]
            },
            "faces": {
                "north": {
                    "uv": [
                        3.125,
                        9.875,
                        3.243,
                        10.021
                    ],
                    "rotation": 180,
                    "texture": "#7"
                },
                "east": {
                    "uv": [
                        3.125,
                        9.875,
                        3.243,
                        10.021
                    ],
                    "rotation": 180,
                    "texture": "#7"
                },
                "south": {
                    "uv": [
                        3.125,
                        9.875,
                        3.243,
                        10.021
                    ],
                    "rotation": 180,
                    "texture": "#7"
                },
                "west": {
                    "uv": [
                        3.125,
                        9.875,
                        3.243,
                        10.021
                    ],
                    "rotation": 180,
                    "texture": "#7"
                },
                "up": {
                    "uv": [
                        3.125,
                        9.875,
                        3.243,
                        10.021
                    ],
                    "rotation": 180,
                    "texture": "#7"
                },
                "down": {
                    "uv": [
                        3.125,
                        9.875,
                        3.243,
                        10.021
                    ],
                    "rotation": 180,
                    "texture": "#7"
                }
            }
        },
        {
            "from": [
                7.85517,
                5.3389,
                -1.2359
            ],
            "to": [
                8.18767,
                5.8639,
                1.0641
            ],
            "rotation": {
                "angle": 0,
                "axis": "y",
                "origin": [
                    8.05517,
                    5.9514,
                    0.0141
                ]
            },
            "faces": {
                "north": {
                    "uv": [
                        7.125,
                        9.875,
                        7.368,
                        10.021
                    ],
                    "rotation": 180,
                    "texture": "#7"
                },
                "east": {
                    "uv": [
                        7.125,
                        9.875,
                        7.368,
                        10.021
                    ],
                    "rotation": 180,
                    "texture": "#7"
                },
                "south": {
                    "uv": [
                        7.125,
                        9.875,
                        7.368,
                        10.021
                    ],
                    "rotation": 180,
                    "texture": "#7"
                },
                "west": {
                    "uv": [
                        7.125,
                        9.875,
                        7.368,
                        10.021
                    ],
                    "rotation": 180,
                    "texture": "#7"
                },
                "up": {
                    "uv": [
                        7.125,
                        9.875,
                        7.368,
                        10.021
                    ],
                    "rotation": 180,
                    "texture": "#7"
                },
                "down": {
                    "uv": [
                        7.125,
                        9.875,
                        7.368,
                        10.021
                    ],
                    "rotation": 180,
                    "texture": "#7"
                }
            }
        },
        {
            "from": [
                8.06696,
                5.3389,
                1.0141
            ],
            "to": [
                8.16696,
                5.8639,
                1.1141
            ],
            "rotation": {
                "angle": 45,
                "axis": "y",
                "origin": [
                    8.11696,
                    5.6014,
                    1.0641
                ]
            },
            "faces": {
                "north": {
                    "uv": [
                        7.125,
                        9.875,
                        7.368,
                        10.021
                    ],
                    "rotation": 180,
                    "texture": "#7"
                },
                "east": {
                    "uv": [
                        7.125,
                        9.875,
                        7.368,
                        10.021
                    ],
                    "rotation": 180,
                    "texture": "#7"
                },
                "south": {
                    "uv": [
                        7.125,
                        9.875,
                        7.368,
                        10.021
                    ],
                    "rotation": 180,
                    "texture": "#7"
                },
                "west": {
                    "uv": [
                        7.125,
                        9.875,
                        7.368,
                        10.021
                    ],
                    "rotation": 180,
                    "texture": "#7"
                },
                "up": {
                    "uv": [
                        7.125,
                        9.875,
                        7.368,
                        10.021
                    ],
                    "rotation": 180,
                    "texture": "#7"
                },
                "down": {
                    "uv": [
                        7.125,
                        9.875,
                        7.368,
                        10.021
                    ],
                    "rotation": 180,
                    "texture": "#7"
                }
            }
        },
        {
            "from": [
                7.87588,
                5.3389,
                1.0141
            ],
            "to": [
                7.97588,
                5.8639,
                1.1141
            ],
            "rotation": {
                "angle": 45,
                "axis": "y",
                "origin": [
                    7.92588,
                    5.6014,
                    1.0641
                ]
            },
            "faces": {
                "north": {
                    "uv": [
                        7.125,
                        9.875,
                        7.368,
                        10.021
                    ],
                    "rotation": 180,
                    "texture": "#7"
                },
                "east": {
                    "uv": [
                        7.125,
                        9.875,
                        7.368,
                        10.021
                    ],
                    "rotation": 180,
                    "texture": "#7"
                },
                "south": {
                    "uv": [
                        7.125,
                        9.875,
                        7.368,
                        10.021
                    ],
                    "rotation": 180,
                    "texture": "#7"
                },
                "west": {
                    "uv": [
                        7.125,
                        9.875,
                        7.368,
                        10.021
                    ],
                    "rotation": 180,
                    "texture": "#7"
                },
                "up": {
                    "uv": [
                        7.125,
                        9.875,
                        7.368,
                        10.021
                    ],
                    "rotation": 180,
                    "texture": "#7"
                },
                "down": {
                    "uv": [
                        7.125,
                        9.875,
                        7.368,
                        10.021
                    ],
                    "rotation": 180,
                    "texture": "#7"
                }
            }
        },
        {
            "from": [
                7.88624,
                5.7889,
                -1.2359
            ],
            "to": [
                7.98624,
                5.8889,
                1.0641
            ],
            "rotation": {
                "angle": -45,
                "axis": "z",
                "origin": [
                    7.96124,
                    5.8639,
                    -0.0859
                ]
            },
            "faces": {
                "north": {
                    "uv": [
                        7.125,
                        9.875,
                        7.368,
                        10.021
                    ],
                    "rotation": 180,
                    "texture": "#7"
                },
                "east": {
                    "uv": [
                        7.125,
                        9.875,
                        7.368,
                        10.021
                    ],
                    "rotation": 180,
                    "texture": "#7"
                },
                "south": {
                    "uv": [
                        7.125,
                        9.875,
                        7.368,
                        10.021
                    ],
                    "rotation": 180,
                    "texture": "#7"
                },
                "west": {
                    "uv": [
                        7.125,
                        9.875,
                        7.368,
                        10.021
                    ],
                    "rotation": 180,
                    "texture": "#7"
                },
                "up": {
                    "uv": [
                        7.125,
                        9.875,
                        7.368,
                        10.021
                    ],
                    "rotation": 180,
                    "texture": "#7"
                },
                "down": {
                    "uv": [
                        7.125,
                        9.875,
                        7.368,
                        10.021
                    ],
                    "rotation": 180,
                    "texture": "#7"
                }
            }
        },
        {
            "from": [
                7.92588,
                5.83461,
                -1.2359
            ],
            "to": [
                8.11588,
                5.93461,
                1.0641
            ],
            "rotation": {
                "angle": 0,
                "axis": "y",
                "origin": [
                    7.97588,
                    5.88461,
                    -0.0859
                ]
            },
            "faces": {
                "north": {
                    "uv": [
                        7.125,
                        9.875,
                        7.368,
                        10.021
                    ],
                    "rotation": 180,
                    "texture": "#7"
                },
                "east": {
                    "uv": [
                        7.125,
                        9.875,
                        7.368,
                        10.021
                    ],
                    "rotation": 180,
                    "texture": "#7"
                },
                "south": {
                    "uv": [
                        7.125,
                        9.875,
                        7.368,
                        10.021
                    ],
                    "rotation": 180,
                    "texture": "#7"
                },
                "west": {
                    "uv": [
                        7.125,
                        9.875,
                        7.368,
                        10.021
                    ],
                    "rotation": 180,
                    "texture": "#7"
                },
                "up": {
                    "uv": [
                        7.125,
                        9.875,
                        7.368,
                        10.021
                    ],
                    "rotation": 180,
                    "texture": "#7"
                },
                "down": {
                    "uv": [
                        7.125,
                        9.875,
                        7.368,
                        10.021
                    ],
                    "rotation": 180,
                    "texture": "#7"
                }
            }
        },
        {
            "from": [
                7.92696,
                5.3389,
                1.03481
            ],
            "to": [
                8.11696,
                5.8639,
                1.13481
            ],
            "rotation": {
                "angle": 0,
                "axis": "y",
                "origin": [
                    7.97696,
                    5.7889,
                    -0.01519
                ]
            },
            "faces": {
                "north": {
                    "uv": [
                        7.125,
                        9.875,
                        7.368,
                        10.021
                    ],
                    "rotation": 180,
                    "texture": "#7"
                },
                "east": {
                    "uv": [
                        7.125,
                        9.875,
                        7.368,
                        10.021
                    ],
                    "rotation": 180,
                    "texture": "#7"
                },
                "south": {
                    "uv": [
                        7.125,
                        9.875,
                        7.368,
                        10.021
                    ],
                    "rotation": 180,
                    "texture": "#7"
                },
                "west": {
                    "uv": [
                        7.125,
                        9.875,
                        7.368,
                        10.021
                    ],
                    "rotation": 180,
                    "texture": "#7"
                },
                "up": {
                    "uv": [
                        7.125,
                        9.875,
                        7.368,
                        10.021
                    ],
                    "rotation": 180,
                    "texture": "#7"
                },
                "down": {
                    "uv": [
                        7.125,
                        9.875,
                        7.368,
                        10.021
                    ],
                    "rotation": 180,
                    "texture": "#7"
                }
            }
        },
        {
            "from": [
                7.92588,
                5.8139,
                1.0141
            ],
            "to": [
                8.11588,
                5.9139,
                1.1141
            ],
            "rotation": {
                "angle": -45,
                "axis": "x",
                "origin": [
                    8.02088,
                    5.8639,
                    1.0641
                ]
            },
            "faces": {
                "north": {
                    "uv": [
                        7.125,
                        9.875,
                        7.368,
                        10.021
                    ],
                    "rotation": 180,
                    "texture": "#7"
                },
                "east": {
                    "uv": [
                        7.125,
                        9.875,
                        7.368,
                        10.021
                    ],
                    "rotation": 180,
                    "texture": "#7"
                },
                "south": {
                    "uv": [
                        7.125,
                        9.875,
                        7.368,
                        10.021
                    ],
                    "rotation": 180,
                    "texture": "#7"
                },
                "west": {
                    "uv": [
                        7.125,
                        9.875,
                        7.368,
                        10.021
                    ],
                    "rotation": 180,
                    "texture": "#7"
                },
                "up": {
                    "uv": [
                        7.125,
                        9.875,
                        7.368,
                        10.021
                    ],
                    "rotation": 180,
                    "texture": "#7"
                },
                "down": {
                    "uv": [
                        7.125,
                        9.875,
                        7.368,
                        10.021
                    ],
                    "rotation": 180,
                    "texture": "#7"
                }
            }
        },
        {
            "from": [
                7.73388,
                5.19861,
                -0.5399
            ],
            "to": [
                8.33988,
                6.45461,
                0.3921
            ],
            "rotation": {
                "angle": 0,
                "axis": "y",
                "origin": [
                    8.02088,
                    5.98461,
                    0.2461
                ]
            },
            "faces": {
                "north": {
                    "uv": [
                        7.125,
                        9.875,
                        7.368,
                        10.021
                    ],
                    "rotation": 180,
                    "texture": "#7"
                },
                "east": {
                    "uv": [
                        7.125,
                        9.875,
                        7.368,
                        10.021
                    ],
                    "rotation": 180,
                    "texture": "#7"
                },
                "south": {
                    "uv": [
                        7.125,
                        9.875,
                        7.368,
                        10.021
                    ],
                    "rotation": 180,
                    "texture": "#7"
                },
                "west": {
                    "uv": [
                        7.125,
                        9.875,
                        7.368,
                        10.021
                    ],
                    "rotation": 180,
                    "texture": "#7"
                },
                "up": {
                    "uv": [
                        7.125,
                        9.875,
                        7.368,
                        10.021
                    ],
                    "rotation": 180,
                    "texture": "#7"
                },
                "down": {
                    "uv": [
                        7.125,
                        9.875,
                        7.368,
                        10.021
                    ],
                    "rotation": 180,
                    "texture": "#7"
                }
            }
        },
        {
            "from": [
                7.70188,
                6.09461,
                -0.4759
            ],
            "to": [
                8.37188,
                6.19861,
                -0.3759
            ],
            "rotation": {
                "angle": 45,
                "axis": "x",
                "origin": [
                    8.03688,
                    6.09861,
                    -0.3779
                ]
            },
            "faces": {
                "north": {
                    "uv": [
                        3.125,
                        9.875,
                        3.243,
                        10.021
                    ],
                    "rotation": 180,
                    "texture": "#7"
                },
                "east": {
                    "uv": [
                        3.125,
                        9.875,
                        3.243,
                        10.021
                    ],
                    "rotation": 180,
                    "texture": "#7"
                },
                "south": {
                    "uv": [
                        3.125,
                        9.875,
                        3.243,
                        10.021
                    ],
                    "rotation": 180,
                    "texture": "#7"
                },
                "west": {
                    "uv": [
                        3.125,
                        9.875,
                        3.243,
                        10.021
                    ],
                    "rotation": 180,
                    "texture": "#7"
                },
                "up": {
                    "uv": [
                        3.125,
                        9.875,
                        3.243,
                        10.021
                    ],
                    "rotation": 180,
                    "texture": "#7"
                },
                "down": {
                    "uv": [
                        3.125,
                        9.875,
                        3.243,
                        10.021
                    ],
                    "rotation": 180,
                    "texture": "#7"
                }
            }
        },
        {
            "from": [
                7.70188,
                6.09461,
                0.1641
            ],
            "to": [
                8.37188,
                6.19861,
                0.2641
            ],
            "rotation": {
                "angle": 45,
                "axis": "x",
                "origin": [
                    8.03688,
                    6.09861,
                    0.2621
                ]
            },
            "faces": {
                "north": {
                    "uv": [
                        3.125,
                        9.875,
                        3.243,
                        10.021
                    ],
                    "rotation": 180,
                    "texture": "#7"
                },
                "east": {
                    "uv": [
                        3.125,
                        9.875,
                        3.243,
                        10.021
                    ],
                    "rotation": 180,
                    "texture": "#7"
                },
                "south": {
                    "uv": [
                        3.125,
                        9.875,
                        3.243,
                        10.021
                    ],
                    "rotation": 180,
                    "texture": "#7"
                },
                "west": {
                    "uv": [
                        3.125,
                        9.875,
                        3.243,
                        10.021
                    ],
                    "rotation": 180,
                    "texture": "#7"
                },
                "up": {
                    "uv": [
                        3.125,
                        9.875,
                        3.243,
                        10.021
                    ],
                    "rotation": 180,
                    "texture": "#7"
                },
                "down": {
                    "uv": [
                        3.125,
                        9.875,
                        3.243,
                        10.021
                    ],
                    "rotation": 180,
                    "texture": "#7"
                }
            }
        },
        {
            "from": [
                7.92696,
                5.2889,
                1.0141
            ],
            "to": [
                8.11696,
                5.3889,
                1.1141
            ],
            "rotation": {
                "angle": -45,
                "axis": "x",
                "origin": [
                    8.02196,
                    5.3389,
                    1.0641
                ]
            },
            "faces": {
                "north": {
                    "uv": [
                        7.125,
                        9.875,
                        7.368,
                        10.021
                    ],
                    "rotation": 180,
                    "texture": "#7"
                },
                "east": {
                    "uv": [
                        7.125,
                        9.875,
                        7.368,
                        10.021
                    ],
                    "rotation": 180,
                    "texture": "#7"
                },
                "south": {
                    "uv": [
                        7.125,
                        9.875,
                        7.368,
                        10.021
                    ],
                    "rotation": 180,
                    "texture": "#7"
                },
                "west": {
                    "uv": [
                        7.125,
                        9.875,
                        7.368,
                        10.021
                    ],
                    "rotation": 180,
                    "texture": "#7"
                },
                "up": {
                    "uv": [
                        7.125,
                        9.875,
                        7.368,
                        10.021
                    ],
                    "rotation": 180,
                    "texture": "#7"
                },
                "down": {
                    "uv": [
                        7.125,
                        9.875,
                        7.368,
                        10.021
                    ],
                    "rotation": 180,
                    "texture": "#7"
                }
            }
        },
        {
            "from": [
                7.92588,
                5.26819,
                -1.2359
            ],
            "to": [
                8.11588,
                5.36819,
                1.0641
            ],
            "rotation": {
                "angle": 0,
                "axis": "y",
                "origin": [
                    7.97588,
                    5.31819,
                    -0.0859
                ]
            },
            "faces": {
                "north": {
                    "uv": [
                        7.125,
                        9.875,
                        7.368,
                        10.021
                    ],
                    "rotation": 180,
                    "texture": "#7"
                },
                "east": {
                    "uv": [
                        7.125,
                        9.875,
                        7.368,
                        10.021
                    ],
                    "rotation": 180,
                    "texture": "#7"
                },
                "south": {
                    "uv": [
                        7.125,
                        9.875,
                        7.368,
                        10.021
                    ],
                    "rotation": 180,
                    "texture": "#7"
                },
                "west": {
                    "uv": [
                        7.125,
                        9.875,
                        7.368,
                        10.021
                    ],
                    "rotation": 180,
                    "texture": "#7"
                },
                "up": {
                    "uv": [
                        7.125,
                        9.875,
                        7.368,
                        10.021
                    ],
                    "rotation": 180,
                    "texture": "#7"
                },
                "down": {
                    "uv": [
                        7.125,
                        9.875,
                        7.368,
                        10.021
                    ],
                    "rotation": 180,
                    "texture": "#7"
                }
            }
        },
        {
            "from": [
                8.07731,
                5.7889,
                -1.2359
            ],
            "to": [
                8.17731,
                5.8889,
                1.0641
            ],
            "rotation": {
                "angle": -45,
                "axis": "z",
                "origin": [
                    8.15231,
                    5.8639,
                    -0.0859
                ]
            },
            "faces": {
                "north": {
                    "uv": [
                        7.125,
                        9.875,
                        7.368,
                        10.021
                    ],
                    "rotation": 180,
                    "texture": "#7"
                },
                "east": {
                    "uv": [
                        7.125,
                        9.875,
                        7.368,
                        10.021
                    ],
                    "rotation": 180,
                    "texture": "#7"
                },
                "south": {
                    "uv": [
                        7.125,
                        9.875,
                        7.368,
                        10.021
                    ],
                    "rotation": 180,
                    "texture": "#7"
                },
                "west": {
                    "uv": [
                        7.125,
                        9.875,
                        7.368,
                        10.021
                    ],
                    "rotation": 180,
                    "texture": "#7"
                },
                "up": {
                    "uv": [
                        7.125,
                        9.875,
                        7.368,
                        10.021
                    ],
                    "rotation": 180,
                    "texture": "#7"
                },
                "down": {
                    "uv": [
                        7.125,
                        9.875,
                        7.368,
                        10.021
                    ],
                    "rotation": 180,
                    "texture": "#7"
                }
            }
        },
        {
            "from": [
                8.07731,
                5.2639,
                -1.2359
            ],
            "to": [
                8.17731,
                5.3639,
                1.0641
            ],
            "rotation": {
                "angle": -45,
                "axis": "z",
                "origin": [
                    8.15231,
                    5.3389,
                    -0.0859
                ]
            },
            "faces": {
                "north": {
                    "uv": [
                        7.125,
                        9.875,
                        7.368,
                        10.021
                    ],
                    "rotation": 180,
                    "texture": "#7"
                },
                "east": {
                    "uv": [
                        7.125,
                        9.875,
                        7.368,
                        10.021
                    ],
                    "rotation": 180,
                    "texture": "#7"
                },
                "south": {
                    "uv": [
                        7.125,
                        9.875,
                        7.368,
                        10.021
                    ],
                    "rotation": 180,
                    "texture": "#7"
                },
                "west": {
                    "uv": [
                        7.125,
                        9.875,
                        7.368,
                        10.021
                    ],
                    "rotation": 180,
                    "texture": "#7"
                },
                "up": {
                    "uv": [
                        7.125,
                        9.875,
                        7.368,
                        10.021
                    ],
                    "rotation": 180,
                    "texture": "#7"
                },
                "down": {
                    "uv": [
                        7.125,
                        9.875,
                        7.368,
                        10.021
                    ],
                    "rotation": 180,
                    "texture": "#7"
                }
            }
        },
        {
            "from": [
                7.88624,
                5.2639,
                -1.2359
            ],
            "to": [
                7.98624,
                5.3639,
                1.0641
            ],
            "rotation": {
                "angle": -45,
                "axis": "z",
                "origin": [
                    7.96124,
                    5.3389,
                    -0.0859
                ]
            },
            "faces": {
                "north": {
                    "uv": [
                        7.125,
                        9.875,
                        7.368,
                        10.021
                    ],
                    "rotation": 180,
                    "texture": "#7"
                },
                "east": {
                    "uv": [
                        7.125,
                        9.875,
                        7.368,
                        10.021
                    ],
                    "rotation": 180,
                    "texture": "#7"
                },
                "south": {
                    "uv": [
                        7.125,
                        9.875,
                        7.368,
                        10.021
                    ],
                    "rotation": 180,
                    "texture": "#7"
                },
                "west": {
                    "uv": [
                        7.125,
                        9.875,
                        7.368,
                        10.021
                    ],
                    "rotation": 180,
                    "texture": "#7"
                },
                "up": {
                    "uv": [
                        7.125,
                        9.875,
                        7.368,
                        10.021
                    ],
                    "rotation": 180,
                    "texture": "#7"
                },
                "down": {
                    "uv": [
                        7.125,
                        9.875,
                        7.368,
                        10.021
                    ],
                    "rotation": 180,
                    "texture": "#7"
                }
            }
        },
        {
            "from": [
                7.75517,
                5.088,
                -1.3359
            ],
            "to": [
                8.28767,
                6.013,
                -1.2359
            ],
            "rotation": {
                "angle": 0,
                "axis": "y",
                "origin": [
                    8.05517,
                    6.0514,
                    -2.2859
                ]
            },
            "faces": {
                "north": {
                    "uv": [
                        7.125,
                        9.875,
                        7.368,
                        10.021
                    ],
                    "rotation": 180,
                    "texture": "#7"
                },
                "east": {
                    "uv": [
                        7.125,
                        9.875,
                        7.368,
                        10.021
                    ],
                    "rotation": 180,
                    "texture": "#7"
                },
                "south": {
                    "uv": [
                        7.125,
                        9.875,
                        7.368,
                        10.021
                    ],
                    "rotation": 180,
                    "texture": "#7"
                },
                "west": {
                    "uv": [
                        7.125,
                        9.875,
                        7.368,
                        10.021
                    ],
                    "rotation": 180,
                    "texture": "#7"
                },
                "up": {
                    "uv": [
                        7.125,
                        9.875,
                        7.368,
                        10.021
                    ],
                    "rotation": 180,
                    "texture": "#7"
                },
                "down": {
                    "uv": [
                        7.125,
                        9.875,
                        7.368,
                        10.021
                    ],
                    "rotation": 180,
                    "texture": "#7"
                }
            }
        },
        {
            "from": [
                7.75517,
                4.452,
                -1.3359
            ],
            "to": [
                8.28767,
                5.088,
                -1.2359
            ],
            "rotation": {
                "angle": 0,
                "axis": "y",
                "origin": [
                    8.05517,
                    5.4154,
                    -2.2859
                ]
            },
            "faces": {
                "north": {
                    "uv": [
                        7.125,
                        9.875,
                        7.368,
                        10.021
                    ],
                    "rotation": 180,
                    "texture": "#7"
                },
                "east": {
                    "uv": [
                        7.125,
                        9.875,
                        7.368,
                        10.021
                    ],
                    "rotation": 180,
                    "texture": "#7"
                },
                "south": {
                    "uv": [
                        7.125,
                        9.875,
                        7.368,
                        10.021
                    ],
                    "rotation": 180,
                    "texture": "#7"
                },
                "west": {
                    "uv": [
                        7.125,
                        9.875,
                        7.368,
                        10.021
                    ],
                    "rotation": 180,
                    "texture": "#7"
                },
                "up": {
                    "uv": [
                        7.125,
                        9.875,
                        7.368,
                        10.021
                    ],
                    "rotation": 180,
                    "texture": "#7"
                },
                "down": {
                    "uv": [
                        7.125,
                        9.875,
                        7.368,
                        10.021
                    ],
                    "rotation": 180,
                    "texture": "#7"
                }
            }
        }
    ],
    "display": {
        "thirdperson_righthand": {
            "rotation": [
                0,
                -0.5,
                4.5
            ],
            "translation": [
                -0.75,
                2,
                1
            ]
        },
        "thirdperson_lefthand": {
            "rotation": [
                0,
                -0.5,
                4.5
            ],
            "translation": [
                -0.75,
                2,
                1
            ]
        },
        "firstperson_righthand": {
            "rotation": [
                0,
                5.25,
                0.5
            ],
            "translation": [
                -3.75,
                5.5,
                2.25
            ]
        },
        "firstperson_lefthand": {
            "rotation": [
                0,
                5.25,
                0.5
            ],
            "translation": [
                -3.75,
                5.5,
                2.25
            ]
        },
        "ground": {
            "rotation": [
                0,
                0,
                -90
            ],
            "translation": [
                3.5,
                -2.5,
                0
            ]
        },
        "gui": {
            "rotation": [
                23,
                31,
                -13
            ],
            "translation": [
                1,
                2.25,
                0
            ],
            "scale": [
                1.4043,
                1.49805,
                1.39063
            ]
        },
        "head": {
            "rotation": [
                0,
                0,
                90
            ],
            "translation": [
                -0.5,
                9.25,
                0
            ],
            "scale": [
                1.5,
                1.5,
                1.5
            ]
        },
        "fixed": {
            "rotation": [
                90,
                45,
                -90
            ],
            "translation": [
                0,
                0,
                -1.5
            ]
        }
    }
}
