{
	"credit": "Made with Blockbench",
	"texture_size": [512, 512],
	"textures": {
		"1": "gci:items/gun_traumat/nakladka",
		"5": "gci:items/gun_traumat/dulo",
		"6": "gci:items/gun_traumat/plastik"
	},
	"elements": [
		{
			"from": [7.86776, 9.02882, 5.72821],
			"to": [8.06776, 9.22882, 5.82821],
			"rotation": {"angle": 0, "axis": "y", "origin": [7.86776, 9.02882, 5.62821]},
			"faces": {
				"north": {"uv": [0, 0, 16, 16], "texture": "#6"},
				"east": {"uv": [0, 0, 16, 16], "texture": "#6"},
				"south": {"uv": [0, 0, 16, 16], "texture": "#6"},
				"west": {"uv": [0, 0, 16, 16], "texture": "#6"},
				"up": {"uv": [0, 0, 16, 16], "texture": "#6"},
				"down": {"uv": [0, 0, 16, 16], "texture": "#6"}
			}
		},
		{
			"from": [7.81776, 9.12882, 9.02821],
			"to": [7.91776, 9.22882, 9.52821],
			"rotation": {"angle": 0, "axis": "y", "origin": [7.76776, 9.12882, 8.52821]},
			"faces": {
				"north": {"uv": [0, 0, 16, 16], "texture": "#6"},
				"east": {"uv": [0, 0, 16, 16], "texture": "#6"},
				"south": {"uv": [0, 0, 16, 16], "texture": "#6"},
				"west": {"uv": [0, 0, 16, 16], "texture": "#6"},
				"up": {"uv": [0, 0, 16, 16], "texture": "#6"},
				"down": {"uv": [0, 0, 16, 16], "texture": "#6"}
			}
		},
		{
			"from": [8.01776, 9.12882, 9.02821],
			"to": [8.11776, 9.22882, 9.52821],
			"rotation": {"angle": 0, "axis": "y", "origin": [8.06776, 9.12882, 8.52821]},
			"faces": {
				"north": {"uv": [0, 0, 16, 16], "texture": "#6"},
				"east": {"uv": [0, 0, 16, 16], "texture": "#6"},
				"south": {"uv": [0, 0, 16, 16], "texture": "#6"},
				"west": {"uv": [0, 0, 16, 16], "texture": "#6"},
				"up": {"uv": [0, 0, 16, 16], "texture": "#6"},
				"down": {"uv": [0, 0, 16, 16], "texture": "#6"}
			}
		},
		{
			"name": "Dulo",
			"from": [7.76776, 8.72882, 5.57821],
			"to": [8.11776, 9.07882, 9.57821],
			"rotation": {"angle": 0, "axis": "y", "origin": [7.36776, 8.32882, 7.72821]},
			"faces": {
				"north": {"uv": [0, 0, 16, 16], "texture": "#5"},
				"east": {"uv": [0, 0, 16, 16], "texture": "#5"},
				"south": {"uv": [0, 0, 16, 16], "texture": "#5"},
				"west": {"uv": [0, 0, 16, 16], "texture": "#5"},
				"up": {"uv": [0, 0, 16, 16], "texture": "#5"},
				"down": {"uv": [0, 0, 16, 16], "texture": "#5"}
			}
		},
		{
			"name": "DuloKonch",
			"from": [7.79, 8.75, 5.578],
			"to": [8.09, 9.05, 5.678],
			"rotation": {"angle": 0, "axis": "y", "origin": [7.36776, 8.32882, 3.72821]},
			"faces": {
				"north": {"uv": [0, 0, 16, 16], "texture": "#6"},
				"east": {"uv": [0, 0, 16, 16], "texture": "#6"},
				"south": {"uv": [0, 0, 16, 16], "texture": "#6"},
				"west": {"uv": [0, 0, 16, 16], "texture": "#6"},
				"up": {"uv": [0, 0, 16, 16], "texture": "#6"},
				"down": {"uv": [0, 0, 16, 16], "texture": "#6"}
			}
		},
		{
			"name": "Vzvod Soldat",
			"from": [7.76776, 9.22882, 8.82821],
			"to": [8.16776, 9.32882, 9.22821],
			"rotation": {"angle": -22.5, "axis": "x", "origin": [7.76776, 10.12882, 9.82821]},
			"faces": {
				"north": {"uv": [0, 0, 16, 16], "texture": "#6"},
				"east": {"uv": [0, 0, 16, 16], "texture": "#6"},
				"south": {"uv": [0, 0, 16, 16], "texture": "#6"},
				"west": {"uv": [0, 0, 16, 16], "texture": "#6"},
				"up": {"uv": [0, 0, 16, 16], "texture": "#6"},
				"down": {"uv": [0, 0, 16, 16], "texture": "#6"}
			}
		},
		{
			"name": "Ствол4",
			"from": [7.46776, 8.42882, 8.72821],
			"to": [8.46776, 9.32882, 9.17821],
			"rotation": {"angle": -22.5, "axis": "x", "origin": [8.06776, 10.12882, 9.82821]},
			"faces": {
				"north": {"uv": [0, 0, 16, 16], "texture": "#6"},
				"east": {"uv": [0, 0, 16, 16], "texture": "#6"},
				"south": {"uv": [0, 0, 16, 16], "texture": "#6"},
				"west": {"uv": [0, 0, 16, 16], "texture": "#6"},
				"up": {"uv": [0, 0, 16, 16], "texture": "#6"},
				"down": {"uv": [0, 0, 16, 16], "texture": "#6"}
			}
		},
		{
			"name": "Ствол5",
			"from": [7.46776, 8.42882, 8.72821],
			"to": [8.46776, 9.12882, 9.27821],
			"rotation": {"angle": -22.5, "axis": "x", "origin": [8.06776, 10.12882, 9.82821]},
			"faces": {
				"north": {"uv": [0, 0, 16, 16], "texture": "#6"},
				"east": {"uv": [0, 0, 16, 16], "texture": "#6"},
				"south": {"uv": [0, 0, 16, 16], "texture": "#6"},
				"west": {"uv": [0, 0, 16, 16], "texture": "#6"},
				"up": {"uv": [0, 0, 16, 16], "texture": "#6"},
				"down": {"uv": [0, 0, 16, 16], "texture": "#6"}
			}
		},
		{
			"name": "Ствол5",
			"from": [7.46776, 8.42882, 8.72821],
			"to": [7.66776, 9.32882, 9.27821],
			"rotation": {"angle": -22.5, "axis": "x", "origin": [8.06776, 10.12882, 9.82821]},
			"faces": {
				"north": {"uv": [0, 0, 16, 16], "texture": "#6"},
				"east": {"uv": [0, 0, 16, 16], "texture": "#6"},
				"south": {"uv": [0, 0, 16, 16], "texture": "#6"},
				"west": {"uv": [0, 0, 16, 16], "texture": "#6"},
				"up": {"uv": [0, 0, 16, 16], "texture": "#6"},
				"down": {"uv": [0, 0, 16, 16], "texture": "#6"}
			}
		},
		{
			"name": "Ствол6",
			"from": [8.26776, 8.42882, 8.72821],
			"to": [8.46776, 9.32882, 9.27821],
			"rotation": {"angle": -22.5, "axis": "x", "origin": [8.86776, 10.12882, 9.82821]},
			"faces": {
				"north": {"uv": [0, 0, 16, 16], "texture": "#6"},
				"east": {"uv": [0, 0, 16, 16], "texture": "#6"},
				"south": {"uv": [0, 0, 16, 16], "texture": "#6"},
				"west": {"uv": [0, 0, 16, 16], "texture": "#6"},
				"up": {"uv": [0, 0, 16, 16], "texture": "#6"},
				"down": {"uv": [0, 0, 16, 16], "texture": "#6"}
			}
		},
		{
			"name": "Ствол3",
			"from": [7.46776, 8.22882, 8.61821],
			"to": [8.46776, 9.12882, 9.55821],
			"rotation": {"angle": 0, "axis": "y", "origin": [7.46776, 9.02882, 9.72821]},
			"faces": {
				"north": {"uv": [0, 0, 16, 16], "texture": "#6"},
				"east": {"uv": [0, 0, 16, 16], "texture": "#6"},
				"south": {"uv": [0, 0, 16, 16], "texture": "#6"},
				"west": {"uv": [0, 0, 16, 16], "texture": "#6"},
				"up": {"uv": [0, 0, 16, 16], "texture": "#6"},
				"down": {"uv": [0, 0, 16, 16], "texture": "#6"}
			}
		},
		{
			"name": "Ствол4",
			"from": [7.46776, 8.22882, 7.61821],
			"to": [8.46776, 8.92882, 8.61821],
			"rotation": {"angle": 0, "axis": "y", "origin": [7.46776, 9.02882, 8.72821]},
			"faces": {
				"north": {"uv": [0, 0, 16, 16], "texture": "#6"},
				"east": {"uv": [0, 0, 16, 16], "texture": "#6"},
				"south": {"uv": [0, 0, 16, 16], "texture": "#6"},
				"west": {"uv": [0, 0, 16, 16], "texture": "#6"},
				"up": {"uv": [0, 0, 16, 16], "texture": "#6"},
				"down": {"uv": [0, 0, 16, 16], "texture": "#6"}
			}
		},
		{
			"name": "Ствол6",
			"from": [7.61776, 8.42882, 5.61821],
			"to": [8.31776, 9.12882, 7.71821],
			"rotation": {"angle": 0, "axis": "y", "origin": [7.46776, 9.02882, 7.72821]},
			"faces": {
				"north": {"uv": [0, 0, 16, 16], "texture": "#6"},
				"east": {"uv": [0, 0, 16, 16], "texture": "#6"},
				"south": {"uv": [0, 0, 16, 16], "texture": "#6"},
				"west": {"uv": [0, 0, 16, 16], "texture": "#6"},
				"up": {"uv": [0, 0, 16, 16], "texture": "#6"},
				"down": {"uv": [0, 0, 16, 16], "texture": "#6"}
			}
		},
		{
			"name": "Ствол4.1",
			"from": [7.56776, 8.02882, 6.01821],
			"to": [8.36776, 8.92882, 7.81821],
			"rotation": {"angle": 0, "axis": "y", "origin": [7.56776, 9.02882, 7.72821]},
			"faces": {
				"north": {"uv": [0, 0, 16, 16], "texture": "#6"},
				"east": {"uv": [0, 0, 16, 16], "texture": "#6"},
				"south": {"uv": [0, 0, 16, 16], "texture": "#6"},
				"west": {"uv": [0, 0, 16, 16], "texture": "#6"},
				"up": {"uv": [0, 0, 16, 16], "texture": "#6"},
				"down": {"uv": [0, 0, 16, 16], "texture": "#6"}
			}
		},
		{
			"from": [7.62, 11.32, -1.955],
			"to": [8.32, 11.88, -1.655],
			"rotation": {"angle": -45, "axis": "x", "origin": [15.5, 19.3, 6]},
			"faces": {
				"north": {"uv": [0, 0, 16, 16], "texture": "#6"},
				"east": {"uv": [0, 0, 16, 16], "texture": "#6"},
				"south": {"uv": [0, 0, 16, 16], "texture": "#6"},
				"west": {"uv": [0, 0, 16, 16], "texture": "#6"},
				"up": {"uv": [0, 0, 16, 16], "texture": "#6"},
				"down": {"uv": [0, 0, 16, 16], "texture": "#6"}
			}
		},
		{
			"name": "Kurok1",
			"from": [7.91776, 7.52882, 7.4],
			"to": [8.01776, 7.62882, 8],
			"rotation": {"angle": -45, "axis": "x", "origin": [7.86776, 7.52882, 7.12821]},
			"faces": {
				"north": {"uv": [0, 0, 16, 16], "texture": "#5"},
				"east": {"uv": [0, 0, 16, 16], "texture": "#5"},
				"south": {"uv": [0, 0, 16, 16], "texture": "#5"},
				"west": {"uv": [0, 0, 16, 16], "texture": "#5"},
				"up": {"uv": [0, 0, 16, 16], "texture": "#5"},
				"down": {"uv": [0, 0, 16, 16], "texture": "#5"}
			}
		},
		{
			"name": "Kurok2",
			"from": [7.91776, 7.435, 7.1],
			"to": [8.01776, 7.535, 7.38],
			"rotation": {"angle": -22.5, "axis": "x", "origin": [7.86776, 7.42882, 6.62821]},
			"faces": {
				"north": {"uv": [0, 0, 16, 16], "texture": "#5"},
				"east": {"uv": [0, 0, 16, 16], "texture": "#5"},
				"south": {"uv": [0, 0, 16, 16], "texture": "#5"},
				"west": {"uv": [0, 0, 16, 16], "texture": "#5"},
				"up": {"uv": [0, 0, 16, 16], "texture": "#5"},
				"down": {"uv": [0, 0, 16, 16], "texture": "#5"}
			}
		},
		{
			"from": [7.81776, 7.32882, 6.95],
			"to": [8.11776, 7.42882, 7.75],
			"rotation": {"angle": 0, "axis": "y", "origin": [7.96776, 7.32882, 6.72821]},
			"faces": {
				"north": {"uv": [0, 0, 16, 16], "texture": "#6"},
				"east": {"uv": [0, 0, 16, 16], "texture": "#6"},
				"south": {"uv": [0, 0, 16, 16], "texture": "#6"},
				"west": {"uv": [0, 0, 16, 16], "texture": "#6"},
				"up": {"uv": [0, 0, 16, 16], "texture": "#6"},
				"down": {"uv": [0, 0, 16, 16], "texture": "#6"}
			}
		},
		{
			"from": [7.81776, 7.522, 6.95],
			"to": [8.11776, 7.612, 7],
			"rotation": {"angle": 45, "axis": "x", "origin": [7.96776, 7.52882, 6.72821]},
			"faces": {
				"north": {"uv": [0, 0, 16, 16], "texture": "#6"},
				"east": {"uv": [0, 0, 16, 16], "texture": "#6"},
				"south": {"uv": [0, 0, 16, 16], "texture": "#6"},
				"west": {"uv": [0, 0, 16, 16], "texture": "#6"},
				"up": {"uv": [0, 0, 16, 16], "texture": "#6"},
				"down": {"uv": [0, 0, 16, 16], "texture": "#6"}
			}
		},
		{
			"from": [7.81776, 7.329, 6.917],
			"to": [8.11776, 7.419, 6.967],
			"rotation": {"angle": 0, "axis": "y", "origin": [7.96776, 7.42882, 6.72821]},
			"faces": {
				"north": {"uv": [0, 0, 16, 16], "texture": "#6"},
				"east": {"uv": [0, 0, 16, 16], "texture": "#6"},
				"south": {"uv": [0, 0, 16, 16], "texture": "#6"},
				"west": {"uv": [0, 0, 16, 16], "texture": "#6"},
				"up": {"uv": [0, 0, 16, 16], "texture": "#6"},
				"down": {"uv": [0, 0, 16, 16], "texture": "#6"}
			}
		},
		{
			"from": [7.81776, 6.8, 6.858],
			"to": [8.11776, 7.1, 6.958],
			"rotation": {"angle": -45, "axis": "x", "origin": [7.96776, 7.12882, 6.22821]},
			"faces": {
				"north": {"uv": [0, 0, 16, 16], "texture": "#6"},
				"east": {"uv": [0, 0, 16, 16], "texture": "#6"},
				"south": {"uv": [0, 0, 16, 16], "texture": "#6"},
				"west": {"uv": [0, 0, 16, 16], "texture": "#6"},
				"up": {"uv": [0, 0, 16, 16], "texture": "#6"},
				"down": {"uv": [0, 0, 16, 16], "texture": "#6"}
			}
		},
		{
			"from": [7.81776, 7.33, 6.614],
			"to": [8.11776, 7.63, 6.714],
			"rotation": {"angle": -22.5, "axis": "x", "origin": [7.96776, 7.62882, 6.02821]},
			"faces": {
				"north": {"uv": [0, 0, 16, 16], "texture": "#6"},
				"east": {"uv": [0, 0, 16, 16], "texture": "#6"},
				"south": {"uv": [0, 0, 16, 16], "texture": "#6"},
				"west": {"uv": [0, 0, 16, 16], "texture": "#6"},
				"up": {"uv": [0, 0, 16, 16], "texture": "#6"},
				"down": {"uv": [0, 0, 16, 16], "texture": "#6"}
			}
		},
		{
			"from": [7.81776, 7.3, 6.614],
			"to": [8.11776, 7.4, 6.714],
			"rotation": {"angle": -22.5, "axis": "x", "origin": [7.96776, 7.62882, 6.02821]},
			"faces": {
				"north": {"uv": [0, 0, 16, 16], "texture": "#6"},
				"east": {"uv": [0, 0, 16, 16], "texture": "#6"},
				"south": {"uv": [0, 0, 16, 16], "texture": "#6"},
				"west": {"uv": [0, 0, 16, 16], "texture": "#6"},
				"up": {"uv": [0, 0, 16, 16], "texture": "#6"},
				"down": {"uv": [0, 0, 16, 16], "texture": "#6"}
			}
		},
		{
			"from": [7.81776, 7.85, 6.57],
			"to": [8.11776, 8.15, 6.67],
			"rotation": {"angle": 0, "axis": "y", "origin": [7.96776, 8.02882, 6.02821]},
			"faces": {
				"north": {"uv": [0, 0, 16, 16], "texture": "#6"},
				"east": {"uv": [0, 0, 16, 16], "texture": "#6"},
				"south": {"uv": [0, 0, 16, 16], "texture": "#6"},
				"west": {"uv": [0, 0, 16, 16], "texture": "#6"},
				"up": {"uv": [0, 0, 16, 16], "texture": "#6"},
				"down": {"uv": [0, 0, 16, 16], "texture": "#6"}
			}
		},
		{
			"name": "Рукоятка1",
			"from": [7.46776, 7.57882, 8.42821],
			"to": [8.46776, 8.57882, 9.42821],
			"rotation": {"angle": 22.5, "axis": "x", "origin": [7.46776, 8.07882, 8.62821]},
			"faces": {
				"north": {"uv": [0, 0, 16, 16], "texture": "#6"},
				"east": {"uv": [0, 0, 16, 16], "texture": "#6"},
				"south": {"uv": [0, 0, 16, 16], "texture": "#6"},
				"west": {"uv": [0, 0, 16, 16], "texture": "#6"},
				"up": {"uv": [0, 0, 16, 16], "texture": "#6"},
				"down": {"uv": [0, 0, 16, 16], "texture": "#6"}
			}
		},
		{
			"name": "Рукоятка2",
			"from": [7.46776, 6.37882, 8.371],
			"to": [8.46776, 7.07882, 9.371],
			"rotation": {"angle": 22.5, "axis": "x", "origin": [7.46776, 6.57882, 8.52821]},
			"faces": {
				"north": {"uv": [0, 0, 16, 16], "texture": "#6"},
				"east": {"uv": [0, 0, 16, 16], "texture": "#6"},
				"south": {"uv": [0, 0, 16, 16], "texture": "#6"},
				"west": {"uv": [0, 0, 16, 16], "texture": "#6"},
				"up": {"uv": [0, 0, 16, 16], "texture": "#6"},
				"down": {"uv": [0, 0, 16, 16], "texture": "#6"}
			}
		},
		{
			"name": "Рукоятка2",
			"from": [7.46776, 6.02882, 7.7282],
			"to": [8.46776, 8.61882, 8.6282],
			"rotation": {"angle": 0, "axis": "y", "origin": [7.46776, 7.02882, 7.72821]},
			"faces": {
				"north": {"uv": [0, 0, 16, 16], "texture": "#6"},
				"east": {"uv": [0, 0, 16, 16], "texture": "#6"},
				"south": {"uv": [0, 0, 16, 16], "texture": "#6"},
				"west": {"uv": [0, 0, 16, 16], "texture": "#6"},
				"up": {"uv": [0, 0, 16, 16], "texture": "#6"},
				"down": {"uv": [0, 0, 16, 16], "texture": "#6"}
			}
		},
		{
			"name": "Рукоятка3",
			"from": [7.46776, 6.02882, 8.32821],
			"to": [8.46776, 6.32882, 9.32821],
			"rotation": {"angle": 0, "axis": "y", "origin": [7.46776, 7.02882, 8.32821]},
			"faces": {
				"north": {"uv": [0, 0, 16, 16], "texture": "#6"},
				"east": {"uv": [0, 0, 16, 16], "texture": "#6"},
				"south": {"uv": [0, 0, 16, 16], "texture": "#6"},
				"west": {"uv": [0, 0, 16, 16], "texture": "#6"},
				"up": {"uv": [0, 0, 16, 16], "texture": "#6"},
				"down": {"uv": [0, 0, 16, 16], "texture": "#6"}
			}
		},
		{
			"name": "Рукоятка3",
			"from": [7.46776, 6.67882, 8.865],
			"to": [8.46776, 7.47882, 9.865],
			"rotation": {"angle": -22.5, "axis": "x", "origin": [7.46776, 5.92882, 8.82821]},
			"faces": {
				"north": {"uv": [0, 0, 16, 16], "texture": "#6"},
				"east": {"uv": [0, 0, 16, 16], "texture": "#6"},
				"south": {"uv": [0, 0, 16, 16], "texture": "#6"},
				"west": {"uv": [0, 0, 16, 16], "texture": "#6"},
				"up": {"uv": [0, 0, 16, 16], "texture": "#6"},
				"down": {"uv": [0, 0, 16, 16], "texture": "#6"}
			}
		},
		{
			"name": "Рукоятка4",
			"from": [7.46776, 6.72, 8.5],
			"to": [8.46776, 7.02, 9.5],
			"rotation": {"angle": 0, "axis": "y", "origin": [7.46776, 6.02882, 7.72821]},
			"faces": {
				"north": {"uv": [0, 0, 16, 16], "texture": "#6"},
				"east": {"uv": [0, 0, 16, 16], "texture": "#6"},
				"south": {"uv": [0, 0, 16, 16], "texture": "#6"},
				"west": {"uv": [0, 0, 16, 16], "texture": "#6"},
				"up": {"uv": [0, 0, 16, 16], "texture": "#6"},
				"down": {"uv": [0, 0, 16, 16], "texture": "#6"}
			}
		},
		{
			"name": "Накладка2",
			"from": [8.46776, 6.32882, 8.02821],
			"to": [8.47776, 8.02882, 9.02821],
			"rotation": {"angle": 0, "axis": "y", "origin": [8.46776, 7.02882, 8.02821]},
			"faces": {
				"north": {"uv": [0, 0, 16, 16], "texture": "#1"},
				"east": {"uv": [0, 0, 16, 16], "texture": "#1"},
				"south": {"uv": [0, 0, 16, 16], "texture": "#1"},
				"west": {"uv": [0, 0, 16, 16], "texture": "#1"},
				"up": {"uv": [0, 0, 16, 16], "texture": "#1"},
				"down": {"uv": [0, 0, 16, 16], "texture": "#1"}
			}
		},
		{
			"name": "Накладка1",
			"from": [7.45876, 6.32882, 8.02821],
			"to": [7.46876, 8.02882, 9.02821],
			"rotation": {"angle": 0, "axis": "y", "origin": [7.36776, 7.02882, 8.02821]},
			"faces": {
				"north": {"uv": [0, 0, 16, 16], "texture": "#1"},
				"east": {"uv": [0, 0, 16, 16], "texture": "#1"},
				"south": {"uv": [0, 0, 16, 16], "texture": "#1"},
				"west": {"uv": [0, 0, 16, 16], "texture": "#1"},
				"up": {"uv": [0, 0, 16, 16], "texture": "#1"},
				"down": {"uv": [0, 0, 16, 16], "texture": "#1"}
			}
		},
		{
			"name": "Основа",
			"from": [7.51776, 5.72882, 7.82821],
			"to": [8.41776, 6.02882, 8.82821],
			"rotation": {"angle": 0, "axis": "y", "origin": [7.46776, 6.02882, 8.72821]},
			"faces": {
				"north": {"uv": [0, 0, 16, 16], "texture": "#6"},
				"east": {"uv": [0, 0, 16, 16], "texture": "#6"},
				"south": {"uv": [0, 0, 16, 16], "texture": "#6"},
				"west": {"uv": [0, 0, 16, 16], "texture": "#6"},
				"up": {"uv": [0, 0, 16, 16], "texture": "#6"},
				"down": {"uv": [0, 0, 16, 16], "texture": "#6"}
			}
		},
		{
			"name": "Стержень",
			"from": [7.61776, 6.02882, 7.92821],
			"to": [8.31776, 8.02882, 8.62821],
			"rotation": {"angle": 0, "axis": "y", "origin": [7.46776, 6.02882, 8.72821]},
			"faces": {
				"north": {"uv": [0, 0, 16, 16], "texture": "#6"},
				"east": {"uv": [0, 0, 16, 16], "texture": "#6"},
				"south": {"uv": [0, 0, 16, 16], "texture": "#6"},
				"west": {"uv": [0, 0, 16, 16], "texture": "#6"},
				"up": {"uv": [0, 0, 16, 16], "texture": "#6"},
				"down": {"uv": [0, 0, 16, 16], "texture": "#6"}
			}
		}
	],
	"display": {
		"thirdperson_righthand": {
			"translation": [0, -0.5, 1.5],
			"scale": [1.5, 1.5, 1.5]
		},
		"thirdperson_lefthand": {
			"translation": [0, 0.5, 1.75],
			"scale": [1.5, 1.5, 1.5]
		},
		"firstperson_righthand": {
			"rotation": [0, 10, -4],
			"translation": [-7, 5.75, 5.25]
		},
		"firstperson_lefthand": {
			"rotation": [0, 10, -4],
			"translation": [-7, 5.75, 5.25]
		},
		"ground": {
			"rotation": [90, 90, 0],
			"translation": [0, -3.25, 0]
		},
		"gui": {
			"rotation": [0, -90, 0],
			"translation": [-0.25, 1, 1],
			"scale": [2, 2, 2]
		},
		"head": {
			"rotation": [58, 90, 44],
			"translation": [-0.25, 6.5, 0.75],
			"scale": [4, 4, 4]
		},
		"fixed": {
			"rotation": [90, 45, -90],
			"translation": [0.25, 1, -1.5],
			"scale": [1.5, 1.5, 1.5]
		}
	},
	"groups": [
		{
			"name": "bone",
			"origin": [0, 0, 0],
			"children": [
				{
					"name": "Celik",
					"origin": [0, 4, -1],
					"children": [0, 1, 2]
				},
				{
					"name": "Stvol",
					"origin": [0, 6, -1],
					"children": [3, 4, 5, 6, 7, 8, 9, 10, 11, 12, 13, 14]
				},
				{
					"name": "Kurki",
					"origin": [0, 7, 1],
					"children": [15, 16,
						{
							"name": "group",
							"origin": [7.96776, 7.32882, 6.72821],
							"children": [17, 18, 19, 20, 21, 22, 23]
						}
					]
				},
				{
					"name": "Grip",
					"origin": [0, 7, 1],
					"children": [24, 25, 26, 27, 28, 29]
				},
				{
					"name": "Nakladka",
					"origin": [7.46776, 8.07882, 8.62821],
					"children": [30, 31]
				},
				{
					"name": "Mag",
					"origin": [0, 7, 1],
					"children": [32, 33]
				}
			]
		}
	]
}