{
    "textures": {
        "1": "gci:items/common/mpz", 
        "0": "gci:items/common/all_in_one", 
        "particle": "gci:items/common/all_in_one"
    }, 
    "elements": [
        {
            "to": [
                8.13783, 
                9.84435, 
                1.52974
            ], 
            "rotation": {
                "origin": [
                    7.85854, 
                    9.66935, 
                    1.4423
                ], 
                "angle": 0, 
                "axis": "y"
            }, 
            "from": [
                7.86783, 
                9.64435, 
                -2.47026
            ], 
            "faces": {
                "north": {
                    "rotation": 180, 
                    "uv": [
                        9, 
                        0.5, 
                        9.88, 
                        1.714
                    ], 
                    "texture": "#1"
                }, 
                "west": {
                    "rotation": 180, 
                    "uv": [
                        9, 
                        0.5, 
                        9.88, 
                        1.714
                    ], 
                    "texture": "#1"
                }, 
                "up": {
                    "rotation": 180, 
                    "uv": [
                        9, 
                        0.5, 
                        9.88, 
                        1.714
                    ], 
                    "texture": "#1"
                }, 
                "down": {
                    "rotation": 180, 
                    "uv": [
                        9, 
                        0.5, 
                        9.88, 
                        1.714
                    ], 
                    "texture": "#1"
                }, 
                "east": {
                    "rotation": 180, 
                    "uv": [
                        9, 
                        0.5, 
                        9.88, 
                        1.714
                    ], 
                    "texture": "#1"
                }, 
                "south": {
                    "rotation": 180, 
                    "uv": [
                        9, 
                        0.5, 
                        9.88, 
                        1.714
                    ], 
                    "texture": "#1"
                }
            }
        }, 
        {
            "to": [
                8.13783, 
                9.39252, 
                1.52974
            ], 
            "rotation": {
                "origin": [
                    7.85854, 
                    9.2275, 
                    1.4423
                ], 
                "angle": 0, 
                "axis": "y"
            }, 
            "from": [
                7.86783, 
                9.19252, 
                -2.47026
            ], 
            "faces": {
                "north": {
                    "rotation": 180, 
                    "uv": [
                        9, 
                        0.5, 
                        9.88, 
                        1.714
                    ], 
                    "texture": "#1"
                }, 
                "west": {
                    "rotation": 180, 
                    "uv": [
                        9, 
                        0.5, 
                        9.88, 
                        1.714
                    ], 
                    "texture": "#1"
                }, 
                "up": {
                    "rotation": 180, 
                    "uv": [
                        9, 
                        0.5, 
                        9.88, 
                        1.714
                    ], 
                    "texture": "#1"
                }, 
                "down": {
                    "rotation": 180, 
                    "uv": [
                        9, 
                        0.5, 
                        9.88, 
                        1.714
                    ], 
                    "texture": "#1"
                }, 
                "east": {
                    "rotation": 180, 
                    "uv": [
                        9, 
                        0.5, 
                        9.88, 
                        1.714
                    ], 
                    "texture": "#1"
                }, 
                "south": {
                    "rotation": 180, 
                    "uv": [
                        9, 
                        0.5, 
                        9.88, 
                        1.714
                    ], 
                    "texture": "#1"
                }
            }
        }, 
        {
            "to": [
                7.87691, 
                9.65343, 
                1.52974
            ], 
            "rotation": {
                "origin": [
                    7.85191, 
                    9.37914, 
                    1.4423
                ], 
                "angle": 0, 
                "axis": "y"
            }, 
            "from": [
                7.67691, 
                9.38343, 
                -2.47026
            ], 
            "faces": {
                "north": {
                    "rotation": 270, 
                    "uv": [
                        9, 
                        0.5, 
                        9.88, 
                        1.714
                    ], 
                    "texture": "#1"
                }, 
                "west": {
                    "rotation": 270, 
                    "uv": [
                        9, 
                        0.5, 
                        9.88, 
                        1.714
                    ], 
                    "texture": "#1"
                }, 
                "up": {
                    "rotation": 270, 
                    "uv": [
                        9, 
                        0.5, 
                        9.88, 
                        1.714
                    ], 
                    "texture": "#1"
                }, 
                "down": {
                    "rotation": 270, 
                    "uv": [
                        9, 
                        0.5, 
                        9.88, 
                        1.714
                    ], 
                    "texture": "#1"
                }, 
                "east": {
                    "rotation": 270, 
                    "uv": [
                        9, 
                        0.5, 
                        9.88, 
                        1.714
                    ], 
                    "texture": "#1"
                }, 
                "south": {
                    "rotation": 270, 
                    "uv": [
                        9, 
                        0.5, 
                        9.88, 
                        1.714
                    ], 
                    "texture": "#1"
                }
            }
        }, 
        {
            "to": [
                8.32875, 
                9.65343, 
                1.52974
            ], 
            "rotation": {
                "origin": [
                    8.30375, 
                    9.37914, 
                    1.4423
                ], 
                "angle": 0, 
                "axis": "y"
            }, 
            "from": [
                8.12875, 
                9.38343, 
                -2.47026
            ], 
            "faces": {
                "north": {
                    "rotation": 270, 
                    "uv": [
                        9, 
                        0.5, 
                        9.88, 
                        1.714
                    ], 
                    "texture": "#1"
                }, 
                "west": {
                    "rotation": 270, 
                    "uv": [
                        9, 
                        0.5, 
                        9.88, 
                        1.714
                    ], 
                    "texture": "#1"
                }, 
                "up": {
                    "rotation": 270, 
                    "uv": [
                        9, 
                        0.5, 
                        9.88, 
                        1.714
                    ], 
                    "texture": "#1"
                }, 
                "down": {
                    "rotation": 270, 
                    "uv": [
                        9, 
                        0.5, 
                        9.88, 
                        1.714
                    ], 
                    "texture": "#1"
                }, 
                "east": {
                    "rotation": 270, 
                    "uv": [
                        9, 
                        0.5, 
                        9.88, 
                        1.714
                    ], 
                    "texture": "#1"
                }, 
                "south": {
                    "rotation": 270, 
                    "uv": [
                        9, 
                        0.5, 
                        9.88, 
                        1.714
                    ], 
                    "texture": "#1"
                }
            }
        }, 
        {
            "to": [
                8.06898, 
                9.70873, 
                1.52974
            ], 
            "rotation": {
                "origin": [
                    7.80469, 
                    9.53373, 
                    1.4423
                ], 
                "angle": 45, 
                "axis": "z"
            }, 
            "from": [
                7.79898, 
                9.50873, 
                -2.47026
            ], 
            "faces": {
                "north": {
                    "rotation": 180, 
                    "uv": [
                        9, 
                        0.5, 
                        9.88, 
                        1.714
                    ], 
                    "texture": "#1"
                }, 
                "west": {
                    "rotation": 180, 
                    "uv": [
                        9, 
                        0.5, 
                        9.88, 
                        1.714
                    ], 
                    "texture": "#1"
                }, 
                "up": {
                    "rotation": 180, 
                    "uv": [
                        9, 
                        0.5, 
                        9.88, 
                        1.714
                    ], 
                    "texture": "#1"
                }, 
                "down": {
                    "rotation": 180, 
                    "uv": [
                        9, 
                        0.5, 
                        9.88, 
                        1.714
                    ], 
                    "texture": "#1"
                }, 
                "east": {
                    "rotation": 180, 
                    "uv": [
                        9, 
                        0.5, 
                        9.88, 
                        1.714
                    ], 
                    "texture": "#1"
                }, 
                "south": {
                    "rotation": 180, 
                    "uv": [
                        9, 
                        0.5, 
                        9.88, 
                        1.714
                    ], 
                    "texture": "#1"
                }
            }
        }, 
        {
            "to": [
                8.38848, 
                9.38923, 
                1.52974
            ], 
            "rotation": {
                "origin": [
                    8.12419, 
                    9.21423, 
                    1.4423
                ], 
                "angle": 45, 
                "axis": "z"
            }, 
            "from": [
                8.11848, 
                9.18923, 
                -2.47026
            ], 
            "faces": {
                "north": {
                    "rotation": 180, 
                    "uv": [
                        9, 
                        0.5, 
                        9.88, 
                        1.714
                    ], 
                    "texture": "#1"
                }, 
                "west": {
                    "rotation": 180, 
                    "uv": [
                        9, 
                        0.5, 
                        9.88, 
                        1.714
                    ], 
                    "texture": "#1"
                }, 
                "up": {
                    "rotation": 180, 
                    "uv": [
                        9, 
                        0.5, 
                        9.88, 
                        1.714
                    ], 
                    "texture": "#1"
                }, 
                "down": {
                    "rotation": 180, 
                    "uv": [
                        9, 
                        0.5, 
                        9.88, 
                        1.714
                    ], 
                    "texture": "#1"
                }, 
                "east": {
                    "rotation": 180, 
                    "uv": [
                        9, 
                        0.5, 
                        9.88, 
                        1.714
                    ], 
                    "texture": "#1"
                }, 
                "south": {
                    "rotation": 180, 
                    "uv": [
                        9, 
                        0.5, 
                        9.88, 
                        1.714
                    ], 
                    "texture": "#1"
                }
            }
        }, 
        {
            "to": [
                8.28241, 
                9.89157, 
                1.52974
            ], 
            "rotation": {
                "origin": [
                    8.01812, 
                    9.71657, 
                    1.4423
                ], 
                "angle": -45, 
                "axis": "z"
            }, 
            "from": [
                8.01241, 
                9.69157, 
                -2.47026
            ], 
            "faces": {
                "north": {
                    "rotation": 180, 
                    "uv": [
                        9, 
                        0.5, 
                        9.88, 
                        1.714
                    ], 
                    "texture": "#1"
                }, 
                "west": {
                    "rotation": 180, 
                    "uv": [
                        9, 
                        0.5, 
                        9.88, 
                        1.714
                    ], 
                    "texture": "#1"
                }, 
                "up": {
                    "rotation": 180, 
                    "uv": [
                        9, 
                        0.5, 
                        9.88, 
                        1.714
                    ], 
                    "texture": "#1"
                }, 
                "down": {
                    "rotation": 180, 
                    "uv": [
                        9, 
                        0.5, 
                        9.88, 
                        1.714
                    ], 
                    "texture": "#1"
                }, 
                "east": {
                    "rotation": 180, 
                    "uv": [
                        9, 
                        0.5, 
                        9.88, 
                        1.714
                    ], 
                    "texture": "#1"
                }, 
                "south": {
                    "rotation": 180, 
                    "uv": [
                        9, 
                        0.5, 
                        9.88, 
                        1.714
                    ], 
                    "texture": "#1"
                }
            }
        }, 
        {
            "to": [
                7.96292, 
                9.57207, 
                1.52974
            ], 
            "rotation": {
                "origin": [
                    7.69863, 
                    9.39707, 
                    1.4423
                ], 
                "angle": -45, 
                "axis": "z"
            }, 
            "from": [
                7.69292, 
                9.37207, 
                -2.47026
            ], 
            "faces": {
                "north": {
                    "rotation": 180, 
                    "uv": [
                        9, 
                        0.5, 
                        9.88, 
                        1.714
                    ], 
                    "texture": "#1"
                }, 
                "west": {
                    "rotation": 180, 
                    "uv": [
                        9, 
                        0.5, 
                        9.88, 
                        1.714
                    ], 
                    "texture": "#1"
                }, 
                "up": {
                    "rotation": 180, 
                    "uv": [
                        9, 
                        0.5, 
                        9.88, 
                        1.714
                    ], 
                    "texture": "#1"
                }, 
                "down": {
                    "rotation": 180, 
                    "uv": [
                        9, 
                        0.5, 
                        9.88, 
                        1.714
                    ], 
                    "texture": "#1"
                }, 
                "east": {
                    "rotation": 180, 
                    "uv": [
                        9, 
                        0.5, 
                        9.88, 
                        1.714
                    ], 
                    "texture": "#1"
                }, 
                "south": {
                    "rotation": 180, 
                    "uv": [
                        9, 
                        0.5, 
                        9.88, 
                        1.714
                    ], 
                    "texture": "#1"
                }
            }
        }
    ], 
    "display": {
        "thirdperson_righthand": {
            "rotation": [
                0, 
                0, 
                1
            ], 
            "scale": [
                1.14, 
                1, 
                1
            ], 
            "translation": [
                -0.75, 
                -0.75, 
                2
            ]
        }, 
        "head": {
            "rotation": [
                0, 
                125, 
                90
            ], 
            "scale": [
                1.64, 
                1.58, 
                1.61
            ], 
            "translation": [
                1.75, 
                6.5, 
                -2.75
            ]
        }, 
        "thirdperson_lefthand": {
            "rotation": [
                0, 
                0, 
                1
            ], 
            "scale": [
                1.14, 
                1, 
                1
            ], 
            "translation": [
                -0.25, 
                -0.75, 
                2
            ]
        }, 
        "gui": {
            "rotation": [
                16, 
                26, 
                -16
            ], 
            "scale": [
                1.61, 
                1.78, 
                1.86
            ], 
            "translation": [
                0.25, 
                0.25, 
                0
            ]
        }, 
        "firstperson_righthand": {
            "translation": [
                -5.25, 
                3.5, 
                5.25
            ]
        }, 
        "firstperson_lefthand": {
            "translation": [
                -5.25, 
                3.5, 
                5.25
            ]
        }, 
        "fixed": {
            "rotation": [
                0, 
                90, 
                0
            ], 
            "scale": [
                1.43289, 
                1.54227, 
                1.39117
            ], 
            "translation": [
                2, 
                0, 
                -0.75
            ]
        }
    }
}