{
    "textures": {
        "1": "gci:items/common/mpz", 
        "0": "gci:items/common/all_in_one", 
        "particle": "gci:items/common/all_in_one"
    }, 
    "elements": [
        {
            "to": [
                7.96895, 
                8.53626, 
                4.25474
            ], 
            "rotation": {
                "origin": [
                    7.78495, 
                    7.54426, 
                    4.17674
                ], 
                "angle": -45, 
                "axis": "y"
            }, 
            "from": [
                7.60095, 
                7.99226, 
                4.09874
            ], 
            "faces": {
                "north": {
                    "rotation": 90, 
                    "uv": [
                        3, 
                        3, 
                        3, 
                        3
                    ], 
                    "texture": "#0"
                }, 
                "west": {
                    "rotation": 90, 
                    "uv": [
                        3, 
                        3, 
                        3, 
                        3
                    ], 
                    "texture": "#0"
                }, 
                "up": {
                    "rotation": 90, 
                    "uv": [
                        3, 
                        3, 
                        3, 
                        3
                    ], 
                    "texture": "#0"
                }, 
                "down": {
                    "rotation": 90, 
                    "uv": [
                        3, 
                        3, 
                        3, 
                        3
                    ], 
                    "texture": "#0"
                }, 
                "east": {
                    "rotation": 90, 
                    "uv": [
                        3, 
                        3, 
                        3, 
                        3
                    ], 
                    "texture": "#0"
                }, 
                "south": {
                    "rotation": 90, 
                    "uv": [
                        3, 
                        3, 
                        3, 
                        3
                    ], 
                    "texture": "#0"
                }
            }
        }, 
        {
            "to": [
                7.96895, 
                7.86426, 
                4.25474
            ], 
            "rotation": {
                "origin": [
                    7.78495, 
                    6.87226, 
                    4.17674
                ], 
                "angle": -45, 
                "axis": "y"
            }, 
            "from": [
                7.60095, 
                5.78426, 
                4.09874
            ], 
            "faces": {
                "north": {
                    "rotation": 90, 
                    "uv": [
                        3, 
                        3, 
                        3, 
                        3
                    ], 
                    "texture": "#0"
                }, 
                "west": {
                    "rotation": 90, 
                    "uv": [
                        3, 
                        3, 
                        3, 
                        3
                    ], 
                    "texture": "#0"
                }, 
                "up": {
                    "rotation": 90, 
                    "uv": [
                        3, 
                        3, 
                        3, 
                        3
                    ], 
                    "texture": "#0"
                }, 
                "down": {
                    "rotation": 90, 
                    "uv": [
                        3, 
                        3, 
                        3, 
                        3
                    ], 
                    "texture": "#0"
                }, 
                "east": {
                    "rotation": 90, 
                    "uv": [
                        3, 
                        3, 
                        3, 
                        3
                    ], 
                    "texture": "#0"
                }, 
                "south": {
                    "rotation": 90, 
                    "uv": [
                        3, 
                        3, 
                        3, 
                        3
                    ], 
                    "texture": "#0"
                }
            }
        }, 
        {
            "to": [
                8.48812, 
                8.53626, 
                3.91868
            ], 
            "rotation": {
                "origin": [
                    8.26493, 
                    7.54426, 
                    3.82623
                ], 
                "angle": 45, 
                "axis": "y"
            }, 
            "from": [
                8.33212, 
                7.99226, 
                3.55068
            ], 
            "faces": {
                "north": {
                    "rotation": 90, 
                    "uv": [
                        3, 
                        3, 
                        3, 
                        3
                    ], 
                    "texture": "#0"
                }, 
                "west": {
                    "rotation": 90, 
                    "uv": [
                        3, 
                        3, 
                        3, 
                        3
                    ], 
                    "texture": "#0"
                }, 
                "up": {
                    "uv": [
                        3, 
                        3, 
                        3, 
                        3
                    ], 
                    "texture": "#0"
                }, 
                "down": {
                    "rotation": 180, 
                    "uv": [
                        3, 
                        3, 
                        3, 
                        3
                    ], 
                    "texture": "#0"
                }, 
                "east": {
                    "rotation": 90, 
                    "uv": [
                        3, 
                        3, 
                        3, 
                        3
                    ], 
                    "texture": "#0"
                }, 
                "south": {
                    "rotation": 90, 
                    "uv": [
                        3, 
                        3, 
                        3, 
                        3
                    ], 
                    "texture": "#0"
                }
            }
        }, 
        {
            "to": [
                8.48812, 
                7.86426, 
                3.91868
            ], 
            "rotation": {
                "origin": [
                    8.26493, 
                    6.87226, 
                    3.82623
                ], 
                "angle": 45, 
                "axis": "y"
            }, 
            "from": [
                8.33212, 
                5.78426, 
                3.55068
            ], 
            "faces": {
                "north": {
                    "rotation": 90, 
                    "uv": [
                        3, 
                        3, 
                        3, 
                        3
                    ], 
                    "texture": "#0"
                }, 
                "west": {
                    "rotation": 90, 
                    "uv": [
                        3, 
                        3, 
                        3, 
                        3
                    ], 
                    "texture": "#0"
                }, 
                "up": {
                    "uv": [
                        3, 
                        3, 
                        3, 
                        3
                    ], 
                    "texture": "#0"
                }, 
                "down": {
                    "rotation": 180, 
                    "uv": [
                        3, 
                        3, 
                        3, 
                        3
                    ], 
                    "texture": "#0"
                }, 
                "east": {
                    "rotation": 90, 
                    "uv": [
                        3, 
                        3, 
                        3, 
                        3
                    ], 
                    "texture": "#0"
                }, 
                "south": {
                    "rotation": 90, 
                    "uv": [
                        3, 
                        3, 
                        3, 
                        3
                    ], 
                    "texture": "#0"
                }
            }
        }, 
        {
            "to": [
                7.86295, 
                8.53626, 
                3.84283
            ], 
            "rotation": {
                "origin": [
                    7.78495, 
                    7.54426, 
                    3.65883
                ], 
                "angle": -45, 
                "axis": "y"
            }, 
            "from": [
                7.70695, 
                7.99226, 
                3.47483
            ], 
            "faces": {
                "north": {
                    "rotation": 90, 
                    "uv": [
                        3, 
                        3, 
                        3, 
                        3
                    ], 
                    "texture": "#0"
                }, 
                "west": {
                    "rotation": 90, 
                    "uv": [
                        3, 
                        3, 
                        3, 
                        3
                    ], 
                    "texture": "#0"
                }, 
                "up": {
                    "uv": [
                        3, 
                        3, 
                        3, 
                        3
                    ], 
                    "texture": "#0"
                }, 
                "down": {
                    "rotation": 180, 
                    "uv": [
                        3, 
                        3, 
                        3, 
                        3
                    ], 
                    "texture": "#0"
                }, 
                "east": {
                    "rotation": 90, 
                    "uv": [
                        3, 
                        3, 
                        3, 
                        3
                    ], 
                    "texture": "#0"
                }, 
                "south": {
                    "rotation": 90, 
                    "uv": [
                        3, 
                        3, 
                        3, 
                        3
                    ], 
                    "texture": "#0"
                }
            }
        }, 
        {
            "to": [
                7.86295, 
                7.86426, 
                3.84283
            ], 
            "rotation": {
                "origin": [
                    7.78495, 
                    6.87226, 
                    3.65883
                ], 
                "angle": -45, 
                "axis": "y"
            }, 
            "from": [
                7.70695, 
                5.78426, 
                3.47483
            ], 
            "faces": {
                "north": {
                    "rotation": 90, 
                    "uv": [
                        3, 
                        3, 
                        3, 
                        3
                    ], 
                    "texture": "#0"
                }, 
                "west": {
                    "rotation": 90, 
                    "uv": [
                        3, 
                        3, 
                        3, 
                        3
                    ], 
                    "texture": "#0"
                }, 
                "up": {
                    "uv": [
                        3, 
                        3, 
                        3, 
                        3
                    ], 
                    "texture": "#0"
                }, 
                "down": {
                    "rotation": 180, 
                    "uv": [
                        3, 
                        3, 
                        3, 
                        3
                    ], 
                    "texture": "#0"
                }, 
                "east": {
                    "rotation": 90, 
                    "uv": [
                        3, 
                        3, 
                        3, 
                        3
                    ], 
                    "texture": "#0"
                }, 
                "south": {
                    "rotation": 90, 
                    "uv": [
                        3, 
                        3, 
                        3, 
                        3
                    ], 
                    "texture": "#0"
                }
            }
        }, 
        {
            "to": [
                8.2279, 
                8.53626, 
                4.17889
            ], 
            "rotation": {
                "origin": [
                    8.26493, 
                    7.54426, 
                    3.82623
                ], 
                "angle": 45, 
                "axis": "y"
            }, 
            "from": [
                7.8599, 
                7.99226, 
                4.02289
            ], 
            "faces": {
                "north": {
                    "rotation": 90, 
                    "uv": [
                        3, 
                        3, 
                        3, 
                        3
                    ], 
                    "texture": "#0"
                }, 
                "west": {
                    "rotation": 90, 
                    "uv": [
                        3, 
                        3, 
                        3, 
                        3
                    ], 
                    "texture": "#0"
                }, 
                "up": {
                    "rotation": 270, 
                    "uv": [
                        3, 
                        3, 
                        3, 
                        3
                    ], 
                    "texture": "#0"
                }, 
                "down": {
                    "rotation": 270, 
                    "uv": [
                        3, 
                        3, 
                        3, 
                        3
                    ], 
                    "texture": "#0"
                }, 
                "east": {
                    "rotation": 90, 
                    "uv": [
                        3, 
                        3, 
                        3, 
                        3
                    ], 
                    "texture": "#0"
                }, 
                "south": {
                    "rotation": 90, 
                    "uv": [
                        3, 
                        3, 
                        3, 
                        3
                    ], 
                    "texture": "#0"
                }
            }
        }, 
        {
            "to": [
                8.2279, 
                7.86426, 
                4.17889
            ], 
            "rotation": {
                "origin": [
                    8.26493, 
                    6.87226, 
                    3.82623
                ], 
                "angle": 45, 
                "axis": "y"
            }, 
            "from": [
                7.8599, 
                5.78426, 
                4.02289
            ], 
            "faces": {
                "north": {
                    "rotation": 90, 
                    "uv": [
                        3, 
                        3, 
                        3, 
                        3
                    ], 
                    "texture": "#0"
                }, 
                "west": {
                    "rotation": 90, 
                    "uv": [
                        3, 
                        3, 
                        3, 
                        3
                    ], 
                    "texture": "#0"
                }, 
                "up": {
                    "rotation": 270, 
                    "uv": [
                        3, 
                        3, 
                        3, 
                        3
                    ], 
                    "texture": "#0"
                }, 
                "down": {
                    "rotation": 270, 
                    "uv": [
                        3, 
                        3, 
                        3, 
                        3
                    ], 
                    "texture": "#0"
                }, 
                "east": {
                    "rotation": 90, 
                    "uv": [
                        3, 
                        3, 
                        3, 
                        3
                    ], 
                    "texture": "#0"
                }, 
                "south": {
                    "rotation": 90, 
                    "uv": [
                        3, 
                        3, 
                        3, 
                        3
                    ], 
                    "texture": "#0"
                }
            }
        }, 
        {
            "to": [
                7.75568, 
                8.98426, 
                4.10178
            ], 
            "rotation": {
                "origin": [
                    7.67768, 
                    7.54426, 
                    3.91778
                ], 
                "angle": 0, 
                "axis": "y"
            }, 
            "from": [
                7.59968, 
                7.99226, 
                3.73378
            ], 
            "faces": {
                "north": {
                    "rotation": 90, 
                    "uv": [
                        3, 
                        3, 
                        3, 
                        3
                    ], 
                    "texture": "#0"
                }, 
                "west": {
                    "rotation": 90, 
                    "uv": [
                        3, 
                        3, 
                        3, 
                        3
                    ], 
                    "texture": "#0"
                }, 
                "up": {
                    "rotation": 180, 
                    "uv": [
                        3, 
                        3, 
                        3, 
                        3
                    ], 
                    "texture": "#0"
                }, 
                "down": {
                    "uv": [
                        3, 
                        3, 
                        3, 
                        3
                    ], 
                    "texture": "#0"
                }, 
                "east": {
                    "rotation": 90, 
                    "uv": [
                        3, 
                        3, 
                        3, 
                        3
                    ], 
                    "texture": "#0"
                }, 
                "south": {
                    "rotation": 90, 
                    "uv": [
                        3, 
                        3, 
                        3, 
                        3
                    ], 
                    "texture": "#0"
                }
            }
        }, 
        {
            "to": [
                8.52368, 
                8.87226, 
                4.00578
            ], 
            "rotation": {
                "origin": [
                    7.66168, 
                    8.76826, 
                    3.90178
                ], 
                "angle": 45, 
                "axis": "x"
            }, 
            "from": [
                7.56768, 
                8.69626, 
                3.82978
            ], 
            "faces": {
                "north": {
                    "rotation": 90, 
                    "uv": [
                        4.375, 
                        3.375, 
                        4.375, 
                        3.375
                    ], 
                    "texture": "#0"
                }, 
                "west": {
                    "rotation": 90, 
                    "uv": [
                        4.375, 
                        3.375, 
                        4.375, 
                        3.375
                    ], 
                    "texture": "#0"
                }, 
                "up": {
                    "rotation": 90, 
                    "uv": [
                        4.375, 
                        3.375, 
                        4.375, 
                        3.375
                    ], 
                    "texture": "#0"
                }, 
                "down": {
                    "rotation": 90, 
                    "uv": [
                        4.375, 
                        3.375, 
                        4.375, 
                        3.375
                    ], 
                    "texture": "#0"
                }, 
                "east": {
                    "rotation": 90, 
                    "uv": [
                        4.375, 
                        3.375, 
                        4.375, 
                        3.375
                    ], 
                    "texture": "#0"
                }, 
                "south": {
                    "rotation": 90, 
                    "uv": [
                        4.375, 
                        3.375, 
                        4.375, 
                        3.375
                    ], 
                    "texture": "#0"
                }
            }
        }, 
        {
            "to": [
                7.75568, 
                7.86426, 
                4.10178
            ], 
            "rotation": {
                "origin": [
                    7.67768, 
                    6.87226, 
                    3.91778
                ], 
                "angle": 0, 
                "axis": "y"
            }, 
            "from": [
                7.59968, 
                5.78426, 
                3.73378
            ], 
            "faces": {
                "north": {
                    "rotation": 90, 
                    "uv": [
                        3, 
                        3, 
                        3, 
                        3
                    ], 
                    "texture": "#0"
                }, 
                "west": {
                    "rotation": 90, 
                    "uv": [
                        3, 
                        3, 
                        3, 
                        3
                    ], 
                    "texture": "#0"
                }, 
                "up": {
                    "rotation": 180, 
                    "uv": [
                        3, 
                        3, 
                        3, 
                        3
                    ], 
                    "texture": "#0"
                }, 
                "down": {
                    "uv": [
                        3, 
                        3, 
                        3, 
                        3
                    ], 
                    "texture": "#0"
                }, 
                "east": {
                    "rotation": 90, 
                    "uv": [
                        3, 
                        3, 
                        3, 
                        3
                    ], 
                    "texture": "#0"
                }, 
                "south": {
                    "rotation": 90, 
                    "uv": [
                        3, 
                        3, 
                        3, 
                        3
                    ], 
                    "texture": "#0"
                }
            }
        }, 
        {
            "to": [
                8.48812, 
                8.98426, 
                4.10178
            ], 
            "rotation": {
                "origin": [
                    8.26493, 
                    7.54426, 
                    3.82623
                ], 
                "angle": 0, 
                "axis": "y"
            }, 
            "from": [
                8.33212, 
                7.99226, 
                3.73378
            ], 
            "faces": {
                "north": {
                    "rotation": 90, 
                    "uv": [
                        3, 
                        3, 
                        3, 
                        3
                    ], 
                    "texture": "#0"
                }, 
                "west": {
                    "rotation": 90, 
                    "uv": [
                        3, 
                        3, 
                        3, 
                        3
                    ], 
                    "texture": "#0"
                }, 
                "up": {
                    "uv": [
                        3, 
                        3, 
                        3, 
                        3
                    ], 
                    "texture": "#0"
                }, 
                "down": {
                    "rotation": 180, 
                    "uv": [
                        3, 
                        3, 
                        3, 
                        3
                    ], 
                    "texture": "#0"
                }, 
                "east": {
                    "rotation": 90, 
                    "uv": [
                        3, 
                        3, 
                        3, 
                        3
                    ], 
                    "texture": "#0"
                }, 
                "south": {
                    "rotation": 90, 
                    "uv": [
                        3, 
                        3, 
                        3, 
                        3
                    ], 
                    "texture": "#0"
                }
            }
        }, 
        {
            "to": [
                8.48812, 
                7.86426, 
                4.10178
            ], 
            "rotation": {
                "origin": [
                    8.26493, 
                    6.87226, 
                    3.82623
                ], 
                "angle": 0, 
                "axis": "y"
            }, 
            "from": [
                8.33212, 
                5.78426, 
                3.73378
            ], 
            "faces": {
                "north": {
                    "rotation": 90, 
                    "uv": [
                        3, 
                        3, 
                        3, 
                        3
                    ], 
                    "texture": "#0"
                }, 
                "west": {
                    "rotation": 90, 
                    "uv": [
                        3, 
                        3, 
                        3, 
                        3
                    ], 
                    "texture": "#0"
                }, 
                "up": {
                    "uv": [
                        3, 
                        3, 
                        3, 
                        3
                    ], 
                    "texture": "#0"
                }, 
                "down": {
                    "rotation": 180, 
                    "uv": [
                        3, 
                        3, 
                        3, 
                        3
                    ], 
                    "texture": "#0"
                }, 
                "east": {
                    "rotation": 90, 
                    "uv": [
                        3, 
                        3, 
                        3, 
                        3
                    ], 
                    "texture": "#0"
                }, 
                "south": {
                    "rotation": 90, 
                    "uv": [
                        3, 
                        3, 
                        3, 
                        3
                    ], 
                    "texture": "#0"
                }
            }
        }, 
        {
            "to": [
                8.2279, 
                8.53626, 
                4.362
            ], 
            "rotation": {
                "origin": [
                    8.0439, 
                    7.54426, 
                    4.284
                ], 
                "angle": 0, 
                "axis": "y"
            }, 
            "from": [
                7.8599, 
                7.99226, 
                4.206
            ], 
            "faces": {
                "north": {
                    "rotation": 90, 
                    "uv": [
                        3, 
                        3, 
                        3, 
                        3
                    ], 
                    "texture": "#0"
                }, 
                "west": {
                    "rotation": 90, 
                    "uv": [
                        3, 
                        3, 
                        3, 
                        3
                    ], 
                    "texture": "#0"
                }, 
                "up": {
                    "rotation": 90, 
                    "uv": [
                        3, 
                        3, 
                        3, 
                        3
                    ], 
                    "texture": "#0"
                }, 
                "down": {
                    "rotation": 90, 
                    "uv": [
                        3, 
                        3, 
                        3, 
                        3
                    ], 
                    "texture": "#0"
                }, 
                "east": {
                    "rotation": 90, 
                    "uv": [
                        3, 
                        3, 
                        3, 
                        3
                    ], 
                    "texture": "#0"
                }, 
                "south": {
                    "rotation": 90, 
                    "uv": [
                        3, 
                        3, 
                        3, 
                        3
                    ], 
                    "texture": "#0"
                }
            }
        }, 
        {
            "to": [
                8.2279, 
                7.86426, 
                4.362
            ], 
            "rotation": {
                "origin": [
                    8.0439, 
                    6.87226, 
                    4.284
                ], 
                "angle": 0, 
                "axis": "y"
            }, 
            "from": [
                7.8599, 
                5.78426, 
                4.206
            ], 
            "faces": {
                "north": {
                    "rotation": 90, 
                    "uv": [
                        3, 
                        3, 
                        3, 
                        3
                    ], 
                    "texture": "#0"
                }, 
                "west": {
                    "rotation": 90, 
                    "uv": [
                        3, 
                        3, 
                        3, 
                        3
                    ], 
                    "texture": "#0"
                }, 
                "up": {
                    "rotation": 90, 
                    "uv": [
                        3, 
                        3, 
                        3, 
                        3
                    ], 
                    "texture": "#0"
                }, 
                "down": {
                    "rotation": 90, 
                    "uv": [
                        3, 
                        3, 
                        3, 
                        3
                    ], 
                    "texture": "#0"
                }, 
                "east": {
                    "rotation": 90, 
                    "uv": [
                        3, 
                        3, 
                        3, 
                        3
                    ], 
                    "texture": "#0"
                }, 
                "south": {
                    "rotation": 90, 
                    "uv": [
                        3, 
                        3, 
                        3, 
                        3
                    ], 
                    "texture": "#0"
                }
            }
        }, 
        {
            "to": [
                7.83294, 
                8.53626, 
                4.08304
            ], 
            "rotation": {
                "origin": [
                    7.75494, 
                    8.31226, 
                    3.93104
                ], 
                "angle": 0, 
                "axis": "y"
            }, 
            "from": [
                7.67694, 
                5.59226, 
                3.77904
            ], 
            "faces": {
                "north": {
                    "rotation": 90, 
                    "uv": [
                        7.625, 
                        11.875, 
                        7.625, 
                        11.875
                    ], 
                    "texture": "#0"
                }, 
                "west": {
                    "rotation": 90, 
                    "uv": [
                        7.625, 
                        11.875, 
                        7.625, 
                        11.875
                    ], 
                    "texture": "#0"
                }, 
                "up": {
                    "rotation": 90, 
                    "uv": [
                        7.625, 
                        11.875, 
                        7.625, 
                        11.875
                    ], 
                    "texture": "#0"
                }, 
                "down": {
                    "rotation": 90, 
                    "uv": [
                        7.625, 
                        11.875, 
                        7.625, 
                        11.875
                    ], 
                    "texture": "#0"
                }, 
                "east": {
                    "rotation": 90, 
                    "uv": [
                        7.625, 
                        11.875, 
                        7.625, 
                        11.875
                    ], 
                    "texture": "#0"
                }, 
                "south": {
                    "rotation": 90, 
                    "uv": [
                        7.625, 
                        11.875, 
                        7.625, 
                        11.875
                    ], 
                    "texture": "#0"
                }
            }
        }, 
        {
            "to": [
                8.41086, 
                8.53626, 
                4.08304
            ], 
            "rotation": {
                "origin": [
                    8.2183, 
                    8.31226, 
                    3.8588
                ], 
                "angle": 0, 
                "axis": "y"
            }, 
            "from": [
                7.80686, 
                5.59226, 
                3.77904
            ], 
            "faces": {
                "north": {
                    "rotation": 90, 
                    "uv": [
                        7.625, 
                        11.875, 
                        7.625, 
                        11.875
                    ], 
                    "texture": "#0"
                }, 
                "west": {
                    "rotation": 90, 
                    "uv": [
                        7.625, 
                        11.875, 
                        7.625, 
                        11.875
                    ], 
                    "texture": "#0"
                }, 
                "up": {
                    "rotation": 90, 
                    "uv": [
                        7.625, 
                        11.875, 
                        7.625, 
                        11.875
                    ], 
                    "texture": "#0"
                }, 
                "down": {
                    "rotation": 90, 
                    "uv": [
                        7.625, 
                        11.875, 
                        7.625, 
                        11.875
                    ], 
                    "texture": "#0"
                }, 
                "east": {
                    "rotation": 90, 
                    "uv": [
                        7.625, 
                        11.875, 
                        7.625, 
                        11.875
                    ], 
                    "texture": "#0"
                }, 
                "south": {
                    "rotation": 90, 
                    "uv": [
                        7.625, 
                        11.875, 
                        7.625, 
                        11.875
                    ], 
                    "texture": "#0"
                }
            }
        }, 
        {
            "to": [
                7.99157, 
                8.53626, 
                4.21337
            ], 
            "rotation": {
                "origin": [
                    7.83957, 
                    8.31226, 
                    4.13537
                ], 
                "angle": -45, 
                "axis": "y"
            }, 
            "from": [
                7.68757, 
                5.59226, 
                4.05737
            ], 
            "faces": {
                "north": {
                    "rotation": 90, 
                    "uv": [
                        7.625, 
                        11.875, 
                        7.625, 
                        11.875
                    ], 
                    "texture": "#0"
                }, 
                "west": {
                    "rotation": 90, 
                    "uv": [
                        7.625, 
                        11.875, 
                        7.625, 
                        11.875
                    ], 
                    "texture": "#0"
                }, 
                "up": {
                    "rotation": 90, 
                    "uv": [
                        7.625, 
                        11.875, 
                        7.625, 
                        11.875
                    ], 
                    "texture": "#0"
                }, 
                "down": {
                    "rotation": 90, 
                    "uv": [
                        7.625, 
                        11.875, 
                        7.625, 
                        11.875
                    ], 
                    "texture": "#0"
                }, 
                "east": {
                    "rotation": 90, 
                    "uv": [
                        7.625, 
                        11.875, 
                        7.625, 
                        11.875
                    ], 
                    "texture": "#0"
                }, 
                "south": {
                    "rotation": 90, 
                    "uv": [
                        7.625, 
                        11.875, 
                        7.625, 
                        11.875
                    ], 
                    "texture": "#0"
                }
            }
        }, 
        {
            "to": [
                8.29806, 
                8.53626, 
                3.82224
            ], 
            "rotation": {
                "origin": [
                    8.2183, 
                    8.31226, 
                    3.8588
                ], 
                "angle": -45, 
                "axis": "y"
            }, 
            "from": [
                7.99406, 
                5.59226, 
                3.66624
            ], 
            "faces": {
                "north": {
                    "rotation": 90, 
                    "uv": [
                        7.625, 
                        11.875, 
                        7.625, 
                        11.875
                    ], 
                    "texture": "#0"
                }, 
                "west": {
                    "rotation": 90, 
                    "uv": [
                        7.625, 
                        11.875, 
                        7.625, 
                        11.875
                    ], 
                    "texture": "#0"
                }, 
                "up": {
                    "rotation": 90, 
                    "uv": [
                        7.625, 
                        11.875, 
                        7.625, 
                        11.875
                    ], 
                    "texture": "#0"
                }, 
                "down": {
                    "rotation": 90, 
                    "uv": [
                        7.625, 
                        11.875, 
                        7.625, 
                        11.875
                    ], 
                    "texture": "#0"
                }, 
                "east": {
                    "rotation": 90, 
                    "uv": [
                        7.625, 
                        11.875, 
                        7.625, 
                        11.875
                    ], 
                    "texture": "#0"
                }, 
                "south": {
                    "rotation": 90, 
                    "uv": [
                        7.625, 
                        11.875, 
                        7.625, 
                        11.875
                    ], 
                    "texture": "#0"
                }
            }
        }, 
        {
            "to": [
                8.1959, 
                8.53626, 
                4.298
            ], 
            "rotation": {
                "origin": [
                    8.0439, 
                    8.31226, 
                    4.22
                ], 
                "angle": 0, 
                "axis": "y"
            }, 
            "from": [
                7.8919, 
                5.59226, 
                4.142
            ], 
            "faces": {
                "north": {
                    "rotation": 90, 
                    "uv": [
                        7.625, 
                        11.875, 
                        7.625, 
                        11.875
                    ], 
                    "texture": "#0"
                }, 
                "west": {
                    "rotation": 90, 
                    "uv": [
                        7.625, 
                        11.875, 
                        7.625, 
                        11.875
                    ], 
                    "texture": "#0"
                }, 
                "up": {
                    "rotation": 90, 
                    "uv": [
                        7.625, 
                        11.875, 
                        7.625, 
                        11.875
                    ], 
                    "texture": "#0"
                }, 
                "down": {
                    "rotation": 90, 
                    "uv": [
                        7.625, 
                        11.875, 
                        7.625, 
                        11.875
                    ], 
                    "texture": "#0"
                }, 
                "east": {
                    "rotation": 90, 
                    "uv": [
                        7.625, 
                        11.875, 
                        7.625, 
                        11.875
                    ], 
                    "texture": "#0"
                }, 
                "south": {
                    "rotation": 90, 
                    "uv": [
                        7.625, 
                        11.875, 
                        7.625, 
                        11.875
                    ], 
                    "texture": "#0"
                }
            }
        }, 
        {
            "to": [
                8.1959, 
                8.53626, 
                4.26408
            ], 
            "rotation": {
                "origin": [
                    8.2183, 
                    8.31226, 
                    3.8588
                ], 
                "angle": 0, 
                "axis": "y"
            }, 
            "from": [
                7.8919, 
                5.59226, 
                3.56408
            ], 
            "faces": {
                "north": {
                    "rotation": 90, 
                    "uv": [
                        7.625, 
                        11.875, 
                        7.625, 
                        11.875
                    ], 
                    "texture": "#0"
                }, 
                "west": {
                    "rotation": 90, 
                    "uv": [
                        7.625, 
                        11.875, 
                        7.625, 
                        11.875
                    ], 
                    "texture": "#0"
                }, 
                "up": {
                    "rotation": 90, 
                    "uv": [
                        7.625, 
                        11.875, 
                        7.625, 
                        11.875
                    ], 
                    "texture": "#0"
                }, 
                "down": {
                    "rotation": 90, 
                    "uv": [
                        7.625, 
                        11.875, 
                        7.625, 
                        11.875
                    ], 
                    "texture": "#0"
                }, 
                "east": {
                    "rotation": 90, 
                    "uv": [
                        7.625, 
                        11.875, 
                        7.625, 
                        11.875
                    ], 
                    "texture": "#0"
                }, 
                "south": {
                    "rotation": 90, 
                    "uv": [
                        7.625, 
                        11.875, 
                        7.625, 
                        11.875
                    ], 
                    "texture": "#0"
                }
            }
        }, 
        {
            "to": [
                8.4199, 
                9.01626, 
                4.42408
            ], 
            "rotation": {
                "origin": [
                    8.2183, 
                    8.31226, 
                    3.8588
                ], 
                "angle": 0, 
                "axis": "y"
            }, 
            "from": [
                7.6679, 
                8.47226, 
                3.37208
            ], 
            "faces": {
                "north": {
                    "rotation": 90, 
                    "uv": [
                        7.625, 
                        11.875, 
                        7.625, 
                        11.875
                    ], 
                    "texture": "#0"
                }, 
                "west": {
                    "rotation": 90, 
                    "uv": [
                        7.625, 
                        11.875, 
                        7.625, 
                        11.875
                    ], 
                    "texture": "#0"
                }, 
                "up": {
                    "rotation": 90, 
                    "uv": [
                        7.625, 
                        11.875, 
                        7.625, 
                        11.875
                    ], 
                    "texture": "#0"
                }, 
                "down": {
                    "rotation": 90, 
                    "uv": [
                        7.625, 
                        11.875, 
                        7.625, 
                        11.875
                    ], 
                    "texture": "#0"
                }, 
                "east": {
                    "rotation": 90, 
                    "uv": [
                        7.625, 
                        11.875, 
                        7.625, 
                        11.875
                    ], 
                    "texture": "#0"
                }, 
                "south": {
                    "rotation": 90, 
                    "uv": [
                        7.625, 
                        11.875, 
                        7.625, 
                        11.875
                    ], 
                    "texture": "#0"
                }
            }
        }, 
        {
            "to": [
                7.99157, 
                8.53626, 
                3.80471
            ], 
            "rotation": {
                "origin": [
                    7.83957, 
                    8.31226, 
                    3.72671
                ], 
                "angle": 45, 
                "axis": "y"
            }, 
            "from": [
                7.68757, 
                5.59226, 
                3.64871
            ], 
            "faces": {
                "north": {
                    "rotation": 90, 
                    "uv": [
                        7.625, 
                        11.875, 
                        7.625, 
                        11.875
                    ], 
                    "texture": "#0"
                }, 
                "west": {
                    "rotation": 90, 
                    "uv": [
                        7.625, 
                        11.875, 
                        7.625, 
                        11.875
                    ], 
                    "texture": "#0"
                }, 
                "up": {
                    "rotation": 90, 
                    "uv": [
                        7.625, 
                        11.875, 
                        7.625, 
                        11.875
                    ], 
                    "texture": "#0"
                }, 
                "down": {
                    "rotation": 90, 
                    "uv": [
                        7.625, 
                        11.875, 
                        7.625, 
                        11.875
                    ], 
                    "texture": "#0"
                }, 
                "east": {
                    "rotation": 90, 
                    "uv": [
                        7.625, 
                        11.875, 
                        7.625, 
                        11.875
                    ], 
                    "texture": "#0"
                }, 
                "south": {
                    "rotation": 90, 
                    "uv": [
                        7.625, 
                        11.875, 
                        7.625, 
                        11.875
                    ], 
                    "texture": "#0"
                }
            }
        }, 
        {
            "to": [
                8.51302, 
                8.53626, 
                4.1852
            ], 
            "rotation": {
                "origin": [
                    8.2183, 
                    8.31226, 
                    3.8588
                ], 
                "angle": -45, 
                "axis": "y"
            }, 
            "from": [
                8.35702, 
                5.59226, 
                3.8812
            ], 
            "faces": {
                "north": {
                    "rotation": 90, 
                    "uv": [
                        7.625, 
                        11.875, 
                        7.625, 
                        11.875
                    ], 
                    "texture": "#0"
                }, 
                "west": {
                    "rotation": 90, 
                    "uv": [
                        7.625, 
                        11.875, 
                        7.625, 
                        11.875
                    ], 
                    "texture": "#0"
                }, 
                "up": {
                    "rotation": 90, 
                    "uv": [
                        7.625, 
                        11.875, 
                        7.625, 
                        11.875
                    ], 
                    "texture": "#0"
                }, 
                "down": {
                    "rotation": 90, 
                    "uv": [
                        7.625, 
                        11.875, 
                        7.625, 
                        11.875
                    ], 
                    "texture": "#0"
                }, 
                "east": {
                    "rotation": 90, 
                    "uv": [
                        7.625, 
                        11.875, 
                        7.625, 
                        11.875
                    ], 
                    "texture": "#0"
                }, 
                "south": {
                    "rotation": 90, 
                    "uv": [
                        7.625, 
                        11.875, 
                        7.625, 
                        11.875
                    ], 
                    "texture": "#0"
                }
            }
        }, 
        {
            "to": [
                8.2279, 
                8.53626, 
                3.62957
            ], 
            "rotation": {
                "origin": [
                    8.26493, 
                    7.54426, 
                    3.82623
                ], 
                "angle": 0, 
                "axis": "y"
            }, 
            "from": [
                7.8599, 
                7.99226, 
                3.47357
            ], 
            "faces": {
                "north": {
                    "rotation": 90, 
                    "uv": [
                        3, 
                        3, 
                        3, 
                        3
                    ], 
                    "texture": "#0"
                }, 
                "west": {
                    "rotation": 90, 
                    "uv": [
                        3, 
                        3, 
                        3, 
                        3
                    ], 
                    "texture": "#0"
                }, 
                "up": {
                    "rotation": 270, 
                    "uv": [
                        3, 
                        3, 
                        3, 
                        3
                    ], 
                    "texture": "#0"
                }, 
                "down": {
                    "rotation": 270, 
                    "uv": [
                        3, 
                        3, 
                        3, 
                        3
                    ], 
                    "texture": "#0"
                }, 
                "east": {
                    "rotation": 90, 
                    "uv": [
                        3, 
                        3, 
                        3, 
                        3
                    ], 
                    "texture": "#0"
                }, 
                "south": {
                    "rotation": 90, 
                    "uv": [
                        3, 
                        3, 
                        3, 
                        3
                    ], 
                    "texture": "#0"
                }
            }
        }, 
        {
            "to": [
                8.2279, 
                7.86426, 
                3.62957
            ], 
            "rotation": {
                "origin": [
                    8.26493, 
                    6.87226, 
                    3.82623
                ], 
                "angle": 0, 
                "axis": "y"
            }, 
            "from": [
                7.8599, 
                5.78426, 
                3.47357
            ], 
            "faces": {
                "north": {
                    "rotation": 90, 
                    "uv": [
                        3, 
                        3, 
                        3, 
                        3
                    ], 
                    "texture": "#0"
                }, 
                "west": {
                    "rotation": 90, 
                    "uv": [
                        3, 
                        3, 
                        3, 
                        3
                    ], 
                    "texture": "#0"
                }, 
                "up": {
                    "rotation": 270, 
                    "uv": [
                        3, 
                        3, 
                        3, 
                        3
                    ], 
                    "texture": "#0"
                }, 
                "down": {
                    "rotation": 270, 
                    "uv": [
                        3, 
                        3, 
                        3, 
                        3
                    ], 
                    "texture": "#0"
                }, 
                "east": {
                    "rotation": 90, 
                    "uv": [
                        3, 
                        3, 
                        3, 
                        3
                    ], 
                    "texture": "#0"
                }, 
                "south": {
                    "rotation": 90, 
                    "uv": [
                        3, 
                        3, 
                        3, 
                        3
                    ], 
                    "texture": "#0"
                }
            }
        }
    ], 
    "display": {
        "thirdperson_righthand": {
            "rotation": [
                0, 
                0, 
                1
            ], 
            "scale": [
                1.14, 
                1, 
                1
            ], 
            "translation": [
                -0.75, 
                -0.75, 
                2
            ]
        }, 
        "head": {
            "rotation": [
                0, 
                125, 
                90
            ], 
            "scale": [
                1.64, 
                1.58, 
                1.61
            ], 
            "translation": [
                1.75, 
                6.5, 
                -2.75
            ]
        }, 
        "thirdperson_lefthand": {
            "rotation": [
                0, 
                0, 
                1
            ], 
            "scale": [
                1.14, 
                1, 
                1
            ], 
            "translation": [
                -0.25, 
                -0.75, 
                2
            ]
        }, 
        "gui": {
            "rotation": [
                16, 
                26, 
                -16
            ], 
            "scale": [
                1.61, 
                1.78, 
                1.86
            ], 
            "translation": [
                0.25, 
                0.25, 
                0
            ]
        }, 
        "firstperson_righthand": {
            "translation": [
                -5.25, 
                3.5, 
                5.25
            ]
        }, 
        "firstperson_lefthand": {
            "translation": [
                -5.25, 
                3.5, 
                5.25
            ]
        }, 
        "fixed": {
            "rotation": [
                0, 
                90, 
                0
            ], 
            "scale": [
                1.43289, 
                1.54227, 
                1.39117
            ], 
            "translation": [
                2, 
                0, 
                -0.75
            ]
        }
    }
}