{
    "textures": {
        "0": "gci:items/common/all_in_one",
        "2": "gci:items/common/mpz",
        "particle": "gci:items/common/all_in_one"
    },
    "elements": [
        {
            "from": [
                8.5953,
                3.4214,
                -7.4819
            ],
            "to": [
                8.7953,
                3.5539,
                -2.1819
            ],
            "rotation": {
                "angle": 0,
                "axis": "y",
                "origin": [
                    8.4828,
                    3.5214,
                    -3.2319
                ]
            },
            "faces": {
                "north": {
                    "uv": [
                        3,
                        3,
                        4.66667,
                        5
                    ],
                    "rotation": 90,
                    "texture": "#2"
                },
                "east": {
                    "uv": [
                        3,
                        3,
                        4.66667,
                        5
                    ],
                    "rotation": 90,
                    "texture": "#2"
                },
                "south": {
                    "uv": [
                        3,
                        3,
                        4.66667,
                        5
                    ],
                    "rotation": 90,
                    "texture": "#2"
                },
                "west": {
                    "uv": [
                        3,
                        3,
                        4.66667,
                        5
                    ],
                    "rotation": 90,
                    "texture": "#2"
                },
                "up": {
                    "uv": [
                        3,
                        3,
                        4.66667,
                        5
                    ],
                    "rotation": 90,
                    "texture": "#2"
                },
                "down": {
                    "uv": [
                        3,
                        3,
                        4.66667,
                        5
                    ],
                    "rotation": 90,
                    "texture": "#2"
                }
            }
        },
        {
            "from": [
                8.7953,
                3.4214,
                -5.2819
            ],
            "to": [
                8.9953,
                3.5539,
                -2.1819
            ],
            "rotation": {
                "angle": 0,
                "axis": "y",
                "origin": [
                    8.6828,
                    3.5214,
                    -3.2319
                ]
            },
            "faces": {
                "north": {
                    "uv": [
                        13.66667,
                        0,
                        15.33333,
                        2
                    ],
                    "rotation": 90,
                    "texture": "#2"
                },
                "east": {
                    "uv": [
                        13.66667,
                        0,
                        15.33333,
                        2
                    ],
                    "rotation": 90,
                    "texture": "#2"
                },
                "south": {
                    "uv": [
                        13.66667,
                        0,
                        15.33333,
                        2
                    ],
                    "rotation": 90,
                    "texture": "#2"
                },
                "west": {
                    "uv": [
                        13.66667,
                        0,
                        15.33333,
                        2
                    ],
                    "rotation": 90,
                    "texture": "#2"
                },
                "up": {
                    "uv": [
                        13.66667,
                        0,
                        15.33333,
                        2
                    ],
                    "rotation": 90,
                    "texture": "#2"
                },
                "down": {
                    "uv": [
                        13.66667,
                        0,
                        15.33333,
                        2
                    ],
                    "rotation": 90,
                    "texture": "#2"
                }
            }
        },
        {
            "from": [
                8.9953,
                3.4214,
                -7.4819
            ],
            "to": [
                9.1953,
                3.5539,
                -2.1819
            ],
            "rotation": {
                "angle": 0,
                "axis": "y",
                "origin": [
                    8.8828,
                    3.5214,
                    -3.2319
                ]
            },
            "faces": {
                "north": {
                    "uv": [
                        3,
                        3,
                        4.66667,
                        5
                    ],
                    "rotation": 90,
                    "texture": "#2"
                },
                "east": {
                    "uv": [
                        3,
                        3,
                        4.66667,
                        5
                    ],
                    "rotation": 90,
                    "texture": "#2"
                },
                "south": {
                    "uv": [
                        3,
                        3,
                        4.66667,
                        5
                    ],
                    "rotation": 90,
                    "texture": "#2"
                },
                "west": {
                    "uv": [
                        3,
                        3,
                        4.66667,
                        5
                    ],
                    "rotation": 90,
                    "texture": "#2"
                },
                "up": {
                    "uv": [
                        3,
                        3,
                        4.66667,
                        5
                    ],
                    "rotation": 90,
                    "texture": "#2"
                },
                "down": {
                    "uv": [
                        3,
                        3,
                        4.66667,
                        5
                    ],
                    "rotation": 90,
                    "texture": "#2"
                }
            }
        },
        {
            "from": [
                8.7953,
                3.4364,
                -7.7319
            ],
            "to": [
                8.9953,
                3.5364,
                -4.2819
            ],
            "rotation": {
                "angle": 0,
                "axis": "y",
                "origin": [
                    8.6828,
                    3.5214,
                    -3.2319
                ]
            },
            "faces": {
                "north": {
                    "uv": [
                        6,
                        2.66667,
                        7.66667,
                        4.66667
                    ],
                    "rotation": 90,
                    "texture": "#2"
                },
                "east": {
                    "uv": [
                        6,
                        2.66667,
                        7.66667,
                        4.66667
                    ],
                    "rotation": 90,
                    "texture": "#2"
                },
                "south": {
                    "uv": [
                        6,
                        2.66667,
                        7.66667,
                        4.66667
                    ],
                    "rotation": 90,
                    "texture": "#2"
                },
                "west": {
                    "uv": [
                        6,
                        2.66667,
                        7.66667,
                        4.66667
                    ],
                    "rotation": 90,
                    "texture": "#2"
                },
                "up": {
                    "uv": [
                        6,
                        2.66667,
                        7.66667,
                        4.66667
                    ],
                    "rotation": 90,
                    "texture": "#2"
                },
                "down": {
                    "uv": [
                        6,
                        2.66667,
                        7.66667,
                        4.66667
                    ],
                    "rotation": 90,
                    "texture": "#2"
                }
            }
        },
        {
            "from": [
                8.70249,
                3.4214,
                -7.9208
            ],
            "to": [
                8.90249,
                3.5539,
                -7.4208
            ],
            "rotation": {
                "angle": -22.5,
                "axis": "y",
                "origin": [
                    8.80249,
                    3.48765,
                    -7.7208
                ]
            },
            "faces": {
                "north": {
                    "uv": [
                        3,
                        3,
                        4.66667,
                        5
                    ],
                    "rotation": 90,
                    "texture": "#2"
                },
                "east": {
                    "uv": [
                        3,
                        3,
                        4.66667,
                        5
                    ],
                    "rotation": 90,
                    "texture": "#2"
                },
                "south": {
                    "uv": [
                        3,
                        3,
                        4.66667,
                        5
                    ],
                    "rotation": 90,
                    "texture": "#2"
                },
                "west": {
                    "uv": [
                        3,
                        3,
                        4.66667,
                        5
                    ],
                    "rotation": 90,
                    "texture": "#2"
                },
                "up": {
                    "uv": [
                        3,
                        3,
                        4.66667,
                        5
                    ],
                    "rotation": 90,
                    "texture": "#2"
                },
                "down": {
                    "uv": [
                        3,
                        3,
                        4.66667,
                        5
                    ],
                    "rotation": 90,
                    "texture": "#2"
                }
            }
        },
        {
            "from": [
                8.88811,
                3.4214,
                -7.9208
            ],
            "to": [
                9.08811,
                3.5539,
                -7.4208
            ],
            "rotation": {
                "angle": 22.5,
                "axis": "y",
                "origin": [
                    8.98811,
                    3.48765,
                    -7.7208
                ]
            },
            "faces": {
                "north": {
                    "uv": [
                        3,
                        3,
                        4.66667,
                        5
                    ],
                    "rotation": 90,
                    "texture": "#2"
                },
                "east": {
                    "uv": [
                        3,
                        3,
                        4.66667,
                        5
                    ],
                    "rotation": 90,
                    "texture": "#2"
                },
                "south": {
                    "uv": [
                        3,
                        3,
                        4.66667,
                        5
                    ],
                    "rotation": 90,
                    "texture": "#2"
                },
                "west": {
                    "uv": [
                        3,
                        3,
                        4.66667,
                        5
                    ],
                    "rotation": 90,
                    "texture": "#2"
                },
                "up": {
                    "uv": [
                        3,
                        3,
                        4.66667,
                        5
                    ],
                    "rotation": 90,
                    "texture": "#2"
                },
                "down": {
                    "uv": [
                        3,
                        3,
                        4.66667,
                        5
                    ],
                    "rotation": 90,
                    "texture": "#2"
                }
            }
        },
        {
            "from": [
                8.9476,
                3.4214,
                -7.98643
            ],
            "to": [
                9.1016,
                3.5539,
                -7.83243
            ],
            "rotation": {
                "angle": -45,
                "axis": "y",
                "origin": [
                    9.0016,
                    3.48765,
                    -8.08243
                ]
            },
            "faces": {
                "north": {
                    "uv": [
                        3,
                        3,
                        4.66667,
                        5
                    ],
                    "rotation": 90,
                    "texture": "#2"
                },
                "east": {
                    "uv": [
                        3,
                        3,
                        4.66667,
                        5
                    ],
                    "rotation": 90,
                    "texture": "#2"
                },
                "south": {
                    "uv": [
                        3,
                        3,
                        4.66667,
                        5
                    ],
                    "rotation": 90,
                    "texture": "#2"
                },
                "west": {
                    "uv": [
                        3,
                        3,
                        4.66667,
                        5
                    ],
                    "rotation": 90,
                    "texture": "#2"
                },
                "up": {
                    "uv": [
                        3,
                        3,
                        4.66667,
                        5
                    ],
                    "rotation": 90,
                    "texture": "#2"
                },
                "down": {
                    "uv": [
                        3,
                        3,
                        4.66667,
                        5
                    ],
                    "rotation": 90,
                    "texture": "#2"
                }
            }
        },
        {
            "from": [
                8.6703,
                3.3214,
                -2.0819
            ],
            "to": [
                9.1953,
                3.6539,
                0.2181
            ],
            "rotation": {
                "angle": 0,
                "axis": "y",
                "origin": [
                    8.5828,
                    3.5214,
                    -0.8319
                ]
            },
            "faces": {
                "north": {
                    "uv": [
                        5.66667,
                        0.33333,
                        7.33333,
                        2.33333
                    ],
                    "rotation": 90,
                    "texture": "#2"
                },
                "east": {
                    "uv": [
                        5.66667,
                        0.33333,
                        7.33333,
                        2.33333
                    ],
                    "rotation": 90,
                    "texture": "#2"
                },
                "south": {
                    "uv": [
                        5.66667,
                        0.33333,
                        7.33333,
                        2.33333
                    ],
                    "rotation": 90,
                    "texture": "#2"
                },
                "west": {
                    "uv": [
                        5.66667,
                        0.33333,
                        7.33333,
                        2.33333
                    ],
                    "rotation": 90,
                    "texture": "#2"
                },
                "up": {
                    "uv": [
                        5.66667,
                        0.33333,
                        7.33333,
                        2.33333
                    ],
                    "rotation": 90,
                    "texture": "#2"
                },
                "down": {
                    "uv": [
                        5.66667,
                        0.33333,
                        7.33333,
                        2.33333
                    ],
                    "rotation": 90,
                    "texture": "#2"
                }
            }
        },
        {
            "from": [
                8.6703,
                3.53319,
                0.1681
            ],
            "to": [
                9.1953,
                3.63319,
                0.2681
            ],
            "rotation": {
                "angle": -45,
                "axis": "x",
                "origin": [
                    8.9328,
                    3.58319,
                    0.2181
                ]
            },
            "faces": {
                "north": {
                    "uv": [
                        5.66667,
                        0.33333,
                        7.33333,
                        2.33333
                    ],
                    "rotation": 90,
                    "texture": "#2"
                },
                "east": {
                    "uv": [
                        5.66667,
                        0.33333,
                        7.33333,
                        2.33333
                    ],
                    "rotation": 90,
                    "texture": "#2"
                },
                "south": {
                    "uv": [
                        5.66667,
                        0.33333,
                        7.33333,
                        2.33333
                    ],
                    "rotation": 90,
                    "texture": "#2"
                },
                "west": {
                    "uv": [
                        5.66667,
                        0.33333,
                        7.33333,
                        2.33333
                    ],
                    "rotation": 90,
                    "texture": "#2"
                },
                "up": {
                    "uv": [
                        5.66667,
                        0.33333,
                        7.33333,
                        2.33333
                    ],
                    "rotation": 90,
                    "texture": "#2"
                },
                "down": {
                    "uv": [
                        5.66667,
                        0.33333,
                        7.33333,
                        2.33333
                    ],
                    "rotation": 90,
                    "texture": "#2"
                }
            }
        },
        {
            "from": [
                8.6703,
                3.34211,
                0.1681
            ],
            "to": [
                9.1953,
                3.44211,
                0.2681
            ],
            "rotation": {
                "angle": -45,
                "axis": "x",
                "origin": [
                    8.9328,
                    3.39211,
                    0.2181
                ]
            },
            "faces": {
                "north": {
                    "uv": [
                        5.66667,
                        0.33333,
                        7.33333,
                        2.33333
                    ],
                    "rotation": 90,
                    "texture": "#2"
                },
                "east": {
                    "uv": [
                        5.66667,
                        0.33333,
                        7.33333,
                        2.33333
                    ],
                    "rotation": 90,
                    "texture": "#2"
                },
                "south": {
                    "uv": [
                        5.66667,
                        0.33333,
                        7.33333,
                        2.33333
                    ],
                    "rotation": 90,
                    "texture": "#2"
                },
                "west": {
                    "uv": [
                        5.66667,
                        0.33333,
                        7.33333,
                        2.33333
                    ],
                    "rotation": 90,
                    "texture": "#2"
                },
                "up": {
                    "uv": [
                        5.66667,
                        0.33333,
                        7.33333,
                        2.33333
                    ],
                    "rotation": 90,
                    "texture": "#2"
                },
                "down": {
                    "uv": [
                        5.66667,
                        0.33333,
                        7.33333,
                        2.33333
                    ],
                    "rotation": 90,
                    "texture": "#2"
                }
            }
        },
        {
            "from": [
                8.6453,
                3.35247,
                -2.0819
            ],
            "to": [
                8.7453,
                3.45247,
                0.2181
            ],
            "rotation": {
                "angle": -45,
                "axis": "z",
                "origin": [
                    8.6703,
                    3.42747,
                    -0.9319
                ]
            },
            "faces": {
                "north": {
                    "uv": [
                        5.66667,
                        0.33333,
                        7.33333,
                        2.33333
                    ],
                    "rotation": 90,
                    "texture": "#2"
                },
                "east": {
                    "uv": [
                        5.66667,
                        0.33333,
                        7.33333,
                        2.33333
                    ],
                    "rotation": 90,
                    "texture": "#2"
                },
                "south": {
                    "uv": [
                        5.66667,
                        0.33333,
                        7.33333,
                        2.33333
                    ],
                    "rotation": 90,
                    "texture": "#2"
                },
                "west": {
                    "uv": [
                        5.66667,
                        0.33333,
                        7.33333,
                        2.33333
                    ],
                    "rotation": 90,
                    "texture": "#2"
                },
                "up": {
                    "uv": [
                        5.66667,
                        0.33333,
                        7.33333,
                        2.33333
                    ],
                    "rotation": 90,
                    "texture": "#2"
                },
                "down": {
                    "uv": [
                        5.66667,
                        0.33333,
                        7.33333,
                        2.33333
                    ],
                    "rotation": 90,
                    "texture": "#2"
                }
            }
        },
        {
            "from": [
                8.59959,
                3.39211,
                -2.0819
            ],
            "to": [
                8.69959,
                3.58211,
                0.2181
            ],
            "rotation": {
                "angle": 0,
                "axis": "y",
                "origin": [
                    8.64959,
                    3.44211,
                    -0.9319
                ]
            },
            "faces": {
                "north": {
                    "uv": [
                        5.66667,
                        0.33333,
                        7.33333,
                        2.33333
                    ],
                    "rotation": 270,
                    "texture": "#2"
                },
                "east": {
                    "uv": [
                        5.66667,
                        0.33333,
                        7.33333,
                        2.33333
                    ],
                    "rotation": 270,
                    "texture": "#2"
                },
                "south": {
                    "uv": [
                        5.66667,
                        0.33333,
                        7.33333,
                        2.33333
                    ],
                    "rotation": 270,
                    "texture": "#2"
                },
                "west": {
                    "uv": [
                        5.66667,
                        0.33333,
                        7.33333,
                        2.33333
                    ],
                    "rotation": 270,
                    "texture": "#2"
                },
                "up": {
                    "uv": [
                        5.66667,
                        0.33333,
                        7.33333,
                        2.33333
                    ],
                    "rotation": 270,
                    "texture": "#2"
                },
                "down": {
                    "uv": [
                        5.66667,
                        0.33333,
                        7.33333,
                        2.33333
                    ],
                    "rotation": 270,
                    "texture": "#2"
                }
            }
        },
        {
            "from": [
                8.6703,
                3.39319,
                0.18881
            ],
            "to": [
                9.1953,
                3.58319,
                0.28881
            ],
            "rotation": {
                "angle": 0,
                "axis": "y",
                "origin": [
                    8.7453,
                    3.44319,
                    -0.86119
                ]
            },
            "faces": {
                "north": {
                    "uv": [
                        5.66667,
                        0.33333,
                        7.33333,
                        2.33333
                    ],
                    "rotation": 270,
                    "texture": "#2"
                },
                "east": {
                    "uv": [
                        5.66667,
                        0.33333,
                        7.33333,
                        2.33333
                    ],
                    "rotation": 270,
                    "texture": "#2"
                },
                "south": {
                    "uv": [
                        5.66667,
                        0.33333,
                        7.33333,
                        2.33333
                    ],
                    "rotation": 270,
                    "texture": "#2"
                },
                "west": {
                    "uv": [
                        5.66667,
                        0.33333,
                        7.33333,
                        2.33333
                    ],
                    "rotation": 270,
                    "texture": "#2"
                },
                "up": {
                    "uv": [
                        5.66667,
                        0.33333,
                        7.33333,
                        2.33333
                    ],
                    "rotation": 270,
                    "texture": "#2"
                },
                "down": {
                    "uv": [
                        5.66667,
                        0.33333,
                        7.33333,
                        2.33333
                    ],
                    "rotation": 270,
                    "texture": "#2"
                }
            }
        },
        {
            "from": [
                8.6203,
                3.39211,
                0.1681
            ],
            "to": [
                8.7203,
                3.58211,
                0.2681
            ],
            "rotation": {
                "angle": -45,
                "axis": "y",
                "origin": [
                    8.6703,
                    3.48711,
                    0.2181
                ]
            },
            "faces": {
                "north": {
                    "uv": [
                        5.66667,
                        0.33333,
                        7.33333,
                        2.33333
                    ],
                    "rotation": 270,
                    "texture": "#2"
                },
                "east": {
                    "uv": [
                        5.66667,
                        0.33333,
                        7.33333,
                        2.33333
                    ],
                    "rotation": 270,
                    "texture": "#2"
                },
                "south": {
                    "uv": [
                        5.66667,
                        0.33333,
                        7.33333,
                        2.33333
                    ],
                    "rotation": 270,
                    "texture": "#2"
                },
                "west": {
                    "uv": [
                        5.66667,
                        0.33333,
                        7.33333,
                        2.33333
                    ],
                    "rotation": 270,
                    "texture": "#2"
                },
                "up": {
                    "uv": [
                        5.66667,
                        0.33333,
                        7.33333,
                        2.33333
                    ],
                    "rotation": 270,
                    "texture": "#2"
                },
                "down": {
                    "uv": [
                        5.66667,
                        0.33333,
                        7.33333,
                        2.33333
                    ],
                    "rotation": 270,
                    "texture": "#2"
                }
            }
        },
        {
            "from": [
                8.07959,
                3.20011,
                -1.3859
            ],
            "to": [
                9.33559,
                3.80611,
                -0.4539
            ],
            "rotation": {
                "angle": 0,
                "axis": "y",
                "origin": [
                    8.54959,
                    3.48711,
                    -0.5999
                ]
            },
            "faces": {
                "north": {
                    "uv": [
                        5.66667,
                        0.33333,
                        7.33333,
                        2.33333
                    ],
                    "rotation": 180,
                    "texture": "#2"
                },
                "east": {
                    "uv": [
                        5.66667,
                        0.33333,
                        7.33333,
                        2.33333
                    ],
                    "rotation": 180,
                    "texture": "#2"
                },
                "south": {
                    "uv": [
                        5.66667,
                        0.33333,
                        7.33333,
                        2.33333
                    ],
                    "rotation": 180,
                    "texture": "#2"
                },
                "west": {
                    "uv": [
                        5.66667,
                        0.33333,
                        7.33333,
                        2.33333
                    ],
                    "rotation": 180,
                    "texture": "#2"
                },
                "up": {
                    "uv": [
                        5.66667,
                        0.33333,
                        7.33333,
                        2.33333
                    ],
                    "rotation": 180,
                    "texture": "#2"
                },
                "down": {
                    "uv": [
                        5.66667,
                        0.33333,
                        7.33333,
                        2.33333
                    ],
                    "rotation": 180,
                    "texture": "#2"
                }
            }
        },
        {
            "from": [
                8.33559,
                3.16811,
                -1.3219
            ],
            "to": [
                8.43959,
                3.83811,
                -1.2219
            ],
            "rotation": {
                "angle": 45,
                "axis": "y",
                "origin": [
                    8.43559,
                    3.50311,
                    -1.2239
                ]
            },
            "faces": {
                "north": {
                    "uv": [
                        5.66667,
                        3,
                        7.33333,
                        5
                    ],
                    "rotation": 180,
                    "texture": "#2"
                },
                "east": {
                    "uv": [
                        5.66667,
                        3,
                        7.33333,
                        5
                    ],
                    "rotation": 180,
                    "texture": "#2"
                },
                "south": {
                    "uv": [
                        5.66667,
                        3,
                        7.33333,
                        5
                    ],
                    "rotation": 180,
                    "texture": "#2"
                },
                "west": {
                    "uv": [
                        5.66667,
                        3,
                        7.33333,
                        5
                    ],
                    "rotation": 180,
                    "texture": "#2"
                },
                "up": {
                    "uv": [
                        5.66667,
                        3,
                        7.33333,
                        5
                    ],
                    "rotation": 180,
                    "texture": "#2"
                },
                "down": {
                    "uv": [
                        5.66667,
                        3,
                        7.33333,
                        5
                    ],
                    "rotation": 180,
                    "texture": "#2"
                }
            }
        },
        {
            "from": [
                8.33559,
                3.16811,
                -0.6819
            ],
            "to": [
                8.43959,
                3.83811,
                -0.5819
            ],
            "rotation": {
                "angle": 45,
                "axis": "y",
                "origin": [
                    8.43559,
                    3.50311,
                    -0.5839
                ]
            },
            "faces": {
                "north": {
                    "uv": [
                        5.66667,
                        3,
                        7.33333,
                        5
                    ],
                    "rotation": 180,
                    "texture": "#2"
                },
                "east": {
                    "uv": [
                        5.66667,
                        3,
                        7.33333,
                        5
                    ],
                    "rotation": 180,
                    "texture": "#2"
                },
                "south": {
                    "uv": [
                        5.66667,
                        3,
                        7.33333,
                        5
                    ],
                    "rotation": 180,
                    "texture": "#2"
                },
                "west": {
                    "uv": [
                        5.66667,
                        3,
                        7.33333,
                        5
                    ],
                    "rotation": 180,
                    "texture": "#2"
                },
                "up": {
                    "uv": [
                        5.66667,
                        3,
                        7.33333,
                        5
                    ],
                    "rotation": 180,
                    "texture": "#2"
                },
                "down": {
                    "uv": [
                        5.66667,
                        3,
                        7.33333,
                        5
                    ],
                    "rotation": 180,
                    "texture": "#2"
                }
            }
        },
        {
            "from": [
                9.1453,
                3.39319,
                0.1681
            ],
            "to": [
                9.2453,
                3.58319,
                0.2681
            ],
            "rotation": {
                "angle": -45,
                "axis": "y",
                "origin": [
                    9.1953,
                    3.48819,
                    0.2181
                ]
            },
            "faces": {
                "north": {
                    "uv": [
                        5.66667,
                        0.33333,
                        7.33333,
                        2.33333
                    ],
                    "rotation": 270,
                    "texture": "#2"
                },
                "east": {
                    "uv": [
                        5.66667,
                        0.33333,
                        7.33333,
                        2.33333
                    ],
                    "rotation": 270,
                    "texture": "#2"
                },
                "south": {
                    "uv": [
                        5.66667,
                        0.33333,
                        7.33333,
                        2.33333
                    ],
                    "rotation": 270,
                    "texture": "#2"
                },
                "west": {
                    "uv": [
                        5.66667,
                        0.33333,
                        7.33333,
                        2.33333
                    ],
                    "rotation": 270,
                    "texture": "#2"
                },
                "up": {
                    "uv": [
                        5.66667,
                        0.33333,
                        7.33333,
                        2.33333
                    ],
                    "rotation": 270,
                    "texture": "#2"
                },
                "down": {
                    "uv": [
                        5.66667,
                        0.33333,
                        7.33333,
                        2.33333
                    ],
                    "rotation": 270,
                    "texture": "#2"
                }
            }
        },
        {
            "from": [
                9.16601,
                3.39211,
                -2.0819
            ],
            "to": [
                9.26601,
                3.58211,
                0.2181
            ],
            "rotation": {
                "angle": 0,
                "axis": "y",
                "origin": [
                    9.21601,
                    3.44211,
                    -0.9319
                ]
            },
            "faces": {
                "north": {
                    "uv": [
                        5.66667,
                        0.33333,
                        7.33333,
                        2.33333
                    ],
                    "rotation": 270,
                    "texture": "#2"
                },
                "east": {
                    "uv": [
                        5.66667,
                        0.33333,
                        7.33333,
                        2.33333
                    ],
                    "rotation": 270,
                    "texture": "#2"
                },
                "south": {
                    "uv": [
                        5.66667,
                        0.33333,
                        7.33333,
                        2.33333
                    ],
                    "rotation": 270,
                    "texture": "#2"
                },
                "west": {
                    "uv": [
                        5.66667,
                        0.33333,
                        7.33333,
                        2.33333
                    ],
                    "rotation": 270,
                    "texture": "#2"
                },
                "up": {
                    "uv": [
                        5.66667,
                        0.33333,
                        7.33333,
                        2.33333
                    ],
                    "rotation": 270,
                    "texture": "#2"
                },
                "down": {
                    "uv": [
                        5.66667,
                        0.33333,
                        7.33333,
                        2.33333
                    ],
                    "rotation": 270,
                    "texture": "#2"
                }
            }
        },
        {
            "from": [
                8.6453,
                3.54354,
                -2.0819
            ],
            "to": [
                8.7453,
                3.64354,
                0.2181
            ],
            "rotation": {
                "angle": -45,
                "axis": "z",
                "origin": [
                    8.6703,
                    3.61854,
                    -0.9319
                ]
            },
            "faces": {
                "north": {
                    "uv": [
                        5.66667,
                        0.33333,
                        7.33333,
                        2.33333
                    ],
                    "rotation": 90,
                    "texture": "#2"
                },
                "east": {
                    "uv": [
                        5.66667,
                        0.33333,
                        7.33333,
                        2.33333
                    ],
                    "rotation": 90,
                    "texture": "#2"
                },
                "south": {
                    "uv": [
                        5.66667,
                        0.33333,
                        7.33333,
                        2.33333
                    ],
                    "rotation": 90,
                    "texture": "#2"
                },
                "west": {
                    "uv": [
                        5.66667,
                        0.33333,
                        7.33333,
                        2.33333
                    ],
                    "rotation": 90,
                    "texture": "#2"
                },
                "up": {
                    "uv": [
                        5.66667,
                        0.33333,
                        7.33333,
                        2.33333
                    ],
                    "rotation": 90,
                    "texture": "#2"
                },
                "down": {
                    "uv": [
                        5.66667,
                        0.33333,
                        7.33333,
                        2.33333
                    ],
                    "rotation": 90,
                    "texture": "#2"
                }
            }
        },
        {
            "from": [
                9.1703,
                3.54354,
                -2.0819
            ],
            "to": [
                9.2703,
                3.64354,
                0.2181
            ],
            "rotation": {
                "angle": -45,
                "axis": "z",
                "origin": [
                    9.1953,
                    3.61854,
                    -0.9319
                ]
            },
            "faces": {
                "north": {
                    "uv": [
                        5.66667,
                        0.33333,
                        7.33333,
                        2.33333
                    ],
                    "rotation": 90,
                    "texture": "#2"
                },
                "east": {
                    "uv": [
                        5.66667,
                        0.33333,
                        7.33333,
                        2.33333
                    ],
                    "rotation": 90,
                    "texture": "#2"
                },
                "south": {
                    "uv": [
                        5.66667,
                        0.33333,
                        7.33333,
                        2.33333
                    ],
                    "rotation": 90,
                    "texture": "#2"
                },
                "west": {
                    "uv": [
                        5.66667,
                        0.33333,
                        7.33333,
                        2.33333
                    ],
                    "rotation": 90,
                    "texture": "#2"
                },
                "up": {
                    "uv": [
                        5.66667,
                        0.33333,
                        7.33333,
                        2.33333
                    ],
                    "rotation": 90,
                    "texture": "#2"
                },
                "down": {
                    "uv": [
                        5.66667,
                        0.33333,
                        7.33333,
                        2.33333
                    ],
                    "rotation": 90,
                    "texture": "#2"
                }
            }
        },
        {
            "from": [
                9.1703,
                3.35247,
                -2.0819
            ],
            "to": [
                9.2703,
                3.45247,
                0.2181
            ],
            "rotation": {
                "angle": -45,
                "axis": "z",
                "origin": [
                    9.1953,
                    3.42747,
                    -0.9319
                ]
            },
            "faces": {
                "north": {
                    "uv": [
                        5.66667,
                        0.33333,
                        7.33333,
                        2.33333
                    ],
                    "rotation": 90,
                    "texture": "#2"
                },
                "east": {
                    "uv": [
                        5.66667,
                        0.33333,
                        7.33333,
                        2.33333
                    ],
                    "rotation": 90,
                    "texture": "#2"
                },
                "south": {
                    "uv": [
                        5.66667,
                        0.33333,
                        7.33333,
                        2.33333
                    ],
                    "rotation": 90,
                    "texture": "#2"
                },
                "west": {
                    "uv": [
                        5.66667,
                        0.33333,
                        7.33333,
                        2.33333
                    ],
                    "rotation": 90,
                    "texture": "#2"
                },
                "up": {
                    "uv": [
                        5.66667,
                        0.33333,
                        7.33333,
                        2.33333
                    ],
                    "rotation": 90,
                    "texture": "#2"
                },
                "down": {
                    "uv": [
                        5.66667,
                        0.33333,
                        7.33333,
                        2.33333
                    ],
                    "rotation": 90,
                    "texture": "#2"
                }
            }
        },
        {
            "from": [
                8.5212,
                3.2214,
                -2.1819
            ],
            "to": [
                9.4462,
                3.7539,
                -2.0819
            ],
            "rotation": {
                "angle": 0,
                "axis": "y",
                "origin": [
                    8.4828,
                    3.5214,
                    -3.1319
                ]
            },
            "faces": {
                "north": {
                    "uv": [
                        5.66667,
                        0.33333,
                        7.33333,
                        2.33333
                    ],
                    "rotation": 90,
                    "texture": "#2"
                },
                "east": {
                    "uv": [
                        5.66667,
                        0.33333,
                        7.33333,
                        2.33333
                    ],
                    "rotation": 90,
                    "texture": "#2"
                },
                "south": {
                    "uv": [
                        5.66667,
                        0.33333,
                        7.33333,
                        2.33333
                    ],
                    "rotation": 90,
                    "texture": "#2"
                },
                "west": {
                    "uv": [
                        5.66667,
                        0.33333,
                        7.33333,
                        2.33333
                    ],
                    "rotation": 90,
                    "texture": "#2"
                },
                "up": {
                    "uv": [
                        5.66667,
                        0.33333,
                        7.33333,
                        2.33333
                    ],
                    "rotation": 90,
                    "texture": "#2"
                },
                "down": {
                    "uv": [
                        5.66667,
                        0.33333,
                        7.33333,
                        2.33333
                    ],
                    "rotation": 90,
                    "texture": "#2"
                }
            }
        },
        {
            "from": [
                9.4142,
                3.2214,
                -2.1819
            ],
            "to": [
                10.0502,
                3.7539,
                -2.0819
            ],
            "rotation": {
                "angle": 0,
                "axis": "y",
                "origin": [
                    9.0868,
                    3.5214,
                    -3.1319
                ]
            },
            "faces": {
                "north": {
                    "uv": [
                        5.66667,
                        0.33333,
                        7.33333,
                        2.33333
                    ],
                    "rotation": 90,
                    "texture": "#2"
                },
                "east": {
                    "uv": [
                        5.66667,
                        0.33333,
                        7.33333,
                        2.33333
                    ],
                    "rotation": 90,
                    "texture": "#2"
                },
                "south": {
                    "uv": [
                        5.66667,
                        0.33333,
                        7.33333,
                        2.33333
                    ],
                    "rotation": 90,
                    "texture": "#2"
                },
                "west": {
                    "uv": [
                        5.66667,
                        0.33333,
                        7.33333,
                        2.33333
                    ],
                    "rotation": 90,
                    "texture": "#2"
                },
                "up": {
                    "uv": [
                        5.66667,
                        0.33333,
                        7.33333,
                        2.33333
                    ],
                    "rotation": 90,
                    "texture": "#2"
                },
                "down": {
                    "uv": [
                        5.66667,
                        0.33333,
                        7.33333,
                        2.33333
                    ],
                    "rotation": 90,
                    "texture": "#2"
                }
            }
        }
    ],
    "display": {
        "thirdperson_righthand": {
            "translation": [
                -0.75,
                4.25,
                -0.25
            ],
            "scale": [
                0.8,
                0.8,
                0.8
            ]
        },
        "thirdperson_lefthand": {
            "translation": [
                -0.75,
                4,
                -0.25
            ],
            "scale": [
                0.8,
                0.8,
                0.8
            ]
        },
        "firstperson_righthand": {
            "translation": [
                -5.5,
                8.5,
                1.75
            ],
            "scale": [
                1,
                1,
                0.9
            ]
        },
        "firstperson_lefthand": {
            "translation": [
                -5.5,
                8.5,
                1.75
            ],
            "scale": [
                1,
                1,
                0.9
            ]
        },
        "ground": {
            "translation": [
                0,
                1.75,
                0
            ],
            "scale": [
                0.88,
                0.88,
                0.88
            ]
        },
        "gui": {
            "rotation": [
                47,
                27,
                -14
            ],
            "translation": [
                5,
                3.5,
                0
            ],
            "scale": [
                0.85,
                0.85,
                0.85
            ]
        },
        "head": {
            "rotation": [
                0,
                122,
                90
            ],
            "translation": [
                -3.25,
                7.25,
                1.75
            ]
        },
        "fixed": {
            "rotation": [
                90,
                -45,
                90
            ],
            "translation": [
                -4.25,
                3,
                -2
            ]
        }
    }
}