{
    "textures": {
        "0": "gci:items/common/mpz",
        "particle": "pics/MPZ"
    },
    "elements": [
        {
            "name": "cube10",
            "from": [
                7.15,
                21.8,
                7.15
            ],
            "to": [
                7.85,
                22.2,
                7.85
            ],
            "rotation": {
                "angle": 0,
                "axis": "y",
                "origin": [
                    8.525,
                    22.7,
                    8.5
                ]
            },
            "faces": {
                "north": {
                    "uv": [
                        1,
                        3,
                        1.667,
                        4.333
                    ],
                    "rotation": 90,
                    "texture": "#0"
                },
                "east": {
                    "uv": [
                        1,
                        3,
                        1.667,
                        4.333
                    ],
                    "rotation": 90,
                    "texture": "#0"
                },
                "south": {
                    "uv": [
                        1,
                        3,
                        1.667,
                        4.333
                    ],
                    "rotation": 90,
                    "texture": "#0"
                },
                "west": {
                    "uv": [
                        1,
                        3,
                        1.667,
                        4.333
                    ],
                    "rotation": 90,
                    "texture": "#0"
                },
                "up": {
                    "uv": [
                        1,
                        3,
                        1.667,
                        4.333
                    ],
                    "rotation": 90,
                    "texture": "#0"
                },
                "down": {
                    "uv": [
                        1,
                        3,
                        1.667,
                        4.333
                    ],
                    "rotation": 90,
                    "texture": "#0"
                }
            }
        },
        {
            "name": "cube8",
            "from": [
                7.11288,
                20.4,
                8.05293
            ],
            "to": [
                7.91019,
                21.1,
                8.45159
            ],
            "rotation": {
                "angle": 0,
                "axis": "y",
                "origin": [
                    7.51154,
                    20.7,
                    7.48916
                ]
            },
            "faces": {
                "north": {
                    "uv": [
                        0.333,
                        3.333,
                        1.999,
                        5
                    ],
                    "texture": "#0"
                },
                "east": {
                    "uv": [
                        0.333,
                        3.333,
                        1.999,
                        5
                    ],
                    "texture": "#0"
                },
                "south": {
                    "uv": [
                        0.333,
                        3.333,
                        1.999,
                        5
                    ],
                    "texture": "#0"
                },
                "west": {
                    "uv": [
                        0.333,
                        3.333,
                        1.999,
                        5
                    ],
                    "texture": "#0"
                },
                "up": {
                    "uv": [
                        0.333,
                        3.333,
                        1.999,
                        5
                    ],
                    "texture": "#0"
                },
                "down": {
                    "uv": [
                        0.333,
                        3.333,
                        1.999,
                        5
                    ],
                    "texture": "#0"
                }
            }
        },
        {
            "name": "cube9",
            "from": [
                7.11288,
                18.6,
                8.05293
            ],
            "to": [
                7.91019,
                19.3,
                8.45159
            ],
            "rotation": {
                "angle": 0,
                "axis": "y",
                "origin": [
                    7.51154,
                    18.7,
                    7.48916
                ]
            },
            "faces": {
                "north": {
                    "uv": [
                        0.333,
                        3.333,
                        1.999,
                        5
                    ],
                    "texture": "#0"
                },
                "east": {
                    "uv": [
                        0.333,
                        3.333,
                        1.999,
                        5
                    ],
                    "texture": "#0"
                },
                "south": {
                    "uv": [
                        0.333,
                        3.333,
                        1.999,
                        5
                    ],
                    "texture": "#0"
                },
                "west": {
                    "uv": [
                        0.333,
                        3.333,
                        1.999,
                        5
                    ],
                    "texture": "#0"
                },
                "up": {
                    "uv": [
                        0.333,
                        3.333,
                        1.999,
                        5
                    ],
                    "texture": "#0"
                },
                "down": {
                    "uv": [
                        0.333,
                        3.333,
                        1.999,
                        5
                    ],
                    "texture": "#0"
                }
            }
        },
        {
            "name": "cube10",
            "from": [
                7.11288,
                16.8,
                8.05293
            ],
            "to": [
                7.91019,
                17.5,
                8.45159
            ],
            "rotation": {
                "angle": 0,
                "axis": "y",
                "origin": [
                    7.51154,
                    16.9,
                    7.48916
                ]
            },
            "faces": {
                "north": {
                    "uv": [
                        0.333,
                        3.333,
                        1.999,
                        5
                    ],
                    "texture": "#0"
                },
                "east": {
                    "uv": [
                        0.333,
                        3.333,
                        1.999,
                        5
                    ],
                    "texture": "#0"
                },
                "south": {
                    "uv": [
                        0.333,
                        3.333,
                        1.999,
                        5
                    ],
                    "texture": "#0"
                },
                "west": {
                    "uv": [
                        0.333,
                        3.333,
                        1.999,
                        5
                    ],
                    "texture": "#0"
                },
                "up": {
                    "uv": [
                        0.333,
                        3.333,
                        1.999,
                        5
                    ],
                    "texture": "#0"
                },
                "down": {
                    "uv": [
                        0.333,
                        3.333,
                        1.999,
                        5
                    ],
                    "texture": "#0"
                }
            }
        },
        {
            "name": "cube11",
            "from": [
                7.11288,
                15,
                8.05293
            ],
            "to": [
                7.91019,
                15.7,
                8.45159
            ],
            "rotation": {
                "angle": 0,
                "axis": "y",
                "origin": [
                    7.51154,
                    15.1,
                    7.48916
                ]
            },
            "faces": {
                "north": {
                    "uv": [
                        0.333,
                        3.333,
                        1.999,
                        5
                    ],
                    "texture": "#0"
                },
                "east": {
                    "uv": [
                        0.333,
                        3.333,
                        1.999,
                        5
                    ],
                    "texture": "#0"
                },
                "south": {
                    "uv": [
                        0.333,
                        3.333,
                        1.999,
                        5
                    ],
                    "texture": "#0"
                },
                "west": {
                    "uv": [
                        0.333,
                        3.333,
                        1.999,
                        5
                    ],
                    "texture": "#0"
                },
                "up": {
                    "uv": [
                        0.333,
                        3.333,
                        1.999,
                        5
                    ],
                    "texture": "#0"
                },
                "down": {
                    "uv": [
                        0.333,
                        3.333,
                        1.999,
                        5
                    ],
                    "texture": "#0"
                }
            }
        },
        {
            "name": "cube9",
            "from": [
                7.11288,
                20.4,
                8.05293
            ],
            "to": [
                7.91019,
                21.1,
                8.45159
            ],
            "rotation": {
                "angle": -45,
                "axis": "y",
                "origin": [
                    7.51154,
                    20.7,
                    7.48916
                ]
            },
            "faces": {
                "north": {
                    "uv": [
                        0.333,
                        3.333,
                        1.999,
                        5
                    ],
                    "texture": "#0"
                },
                "east": {
                    "uv": [
                        0.333,
                        3.333,
                        1.999,
                        5
                    ],
                    "texture": "#0"
                },
                "south": {
                    "uv": [
                        0.333,
                        3.333,
                        1.999,
                        5
                    ],
                    "texture": "#0"
                },
                "west": {
                    "uv": [
                        0.333,
                        3.333,
                        1.999,
                        5
                    ],
                    "texture": "#0"
                },
                "up": {
                    "uv": [
                        0.333,
                        3.333,
                        1.999,
                        5
                    ],
                    "texture": "#0"
                },
                "down": {
                    "uv": [
                        0.333,
                        3.333,
                        1.999,
                        5
                    ],
                    "texture": "#0"
                }
            }
        },
        {
            "name": "cube10",
            "from": [
                7.11288,
                18.6,
                8.05293
            ],
            "to": [
                7.91019,
                19.3,
                8.45159
            ],
            "rotation": {
                "angle": -45,
                "axis": "y",
                "origin": [
                    7.51154,
                    18.7,
                    7.48916
                ]
            },
            "faces": {
                "north": {
                    "uv": [
                        0.333,
                        3.333,
                        1.999,
                        5
                    ],
                    "texture": "#0"
                },
                "east": {
                    "uv": [
                        0.333,
                        3.333,
                        1.999,
                        5
                    ],
                    "texture": "#0"
                },
                "south": {
                    "uv": [
                        0.333,
                        3.333,
                        1.999,
                        5
                    ],
                    "texture": "#0"
                },
                "west": {
                    "uv": [
                        0.333,
                        3.333,
                        1.999,
                        5
                    ],
                    "texture": "#0"
                },
                "up": {
                    "uv": [
                        0.333,
                        3.333,
                        1.999,
                        5
                    ],
                    "texture": "#0"
                },
                "down": {
                    "uv": [
                        0.333,
                        3.333,
                        1.999,
                        5
                    ],
                    "texture": "#0"
                }
            }
        },
        {
            "name": "cube11",
            "from": [
                7.11288,
                16.8,
                8.05293
            ],
            "to": [
                7.91019,
                17.5,
                8.45159
            ],
            "rotation": {
                "angle": -45,
                "axis": "y",
                "origin": [
                    7.51154,
                    16.9,
                    7.48916
                ]
            },
            "faces": {
                "north": {
                    "uv": [
                        0.333,
                        3.333,
                        1.999,
                        5
                    ],
                    "texture": "#0"
                },
                "east": {
                    "uv": [
                        0.333,
                        3.333,
                        1.999,
                        5
                    ],
                    "texture": "#0"
                },
                "south": {
                    "uv": [
                        0.333,
                        3.333,
                        1.999,
                        5
                    ],
                    "texture": "#0"
                },
                "west": {
                    "uv": [
                        0.333,
                        3.333,
                        1.999,
                        5
                    ],
                    "texture": "#0"
                },
                "up": {
                    "uv": [
                        0.333,
                        3.333,
                        1.999,
                        5
                    ],
                    "texture": "#0"
                },
                "down": {
                    "uv": [
                        0.333,
                        3.333,
                        1.999,
                        5
                    ],
                    "texture": "#0"
                }
            }
        },
        {
            "name": "cube12",
            "from": [
                7.11288,
                15,
                8.05293
            ],
            "to": [
                7.91019,
                15.7,
                8.45159
            ],
            "rotation": {
                "angle": -45,
                "axis": "y",
                "origin": [
                    7.51154,
                    15.1,
                    7.48916
                ]
            },
            "faces": {
                "north": {
                    "uv": [
                        0.333,
                        3.333,
                        1.999,
                        5
                    ],
                    "texture": "#0"
                },
                "east": {
                    "uv": [
                        0.333,
                        3.333,
                        1.999,
                        5
                    ],
                    "texture": "#0"
                },
                "south": {
                    "uv": [
                        0.333,
                        3.333,
                        1.999,
                        5
                    ],
                    "texture": "#0"
                },
                "west": {
                    "uv": [
                        0.333,
                        3.333,
                        1.999,
                        5
                    ],
                    "texture": "#0"
                },
                "up": {
                    "uv": [
                        0.333,
                        3.333,
                        1.999,
                        5
                    ],
                    "texture": "#0"
                },
                "down": {
                    "uv": [
                        0.333,
                        3.333,
                        1.999,
                        5
                    ],
                    "texture": "#0"
                }
            }
        },
        {
            "name": "cube9",
            "from": [
                6.5491,
                20.4,
                7.0905
            ],
            "to": [
                6.94776,
                21.1,
                7.88781
            ],
            "rotation": {
                "angle": 0,
                "axis": "y",
                "origin": [
                    7.51154,
                    20.7,
                    7.48916
                ]
            },
            "faces": {
                "north": {
                    "uv": [
                        0.333,
                        3.333,
                        1.999,
                        5
                    ],
                    "rotation": 90,
                    "texture": "#0"
                },
                "east": {
                    "uv": [
                        0.333,
                        3.333,
                        1.999,
                        5
                    ],
                    "rotation": 90,
                    "texture": "#0"
                },
                "south": {
                    "uv": [
                        0.333,
                        3.333,
                        1.999,
                        5
                    ],
                    "rotation": 90,
                    "texture": "#0"
                },
                "west": {
                    "uv": [
                        0.333,
                        3.333,
                        1.999,
                        5
                    ],
                    "rotation": 90,
                    "texture": "#0"
                },
                "up": {
                    "uv": [
                        0.333,
                        3.333,
                        1.999,
                        5
                    ],
                    "rotation": 90,
                    "texture": "#0"
                },
                "down": {
                    "uv": [
                        0.333,
                        3.333,
                        1.999,
                        5
                    ],
                    "rotation": 90,
                    "texture": "#0"
                }
            }
        },
        {
            "name": "cube10",
            "from": [
                6.5491,
                18.6,
                7.0905
            ],
            "to": [
                6.94776,
                19.3,
                7.88781
            ],
            "rotation": {
                "angle": 0,
                "axis": "y",
                "origin": [
                    7.51154,
                    18.7,
                    7.48916
                ]
            },
            "faces": {
                "north": {
                    "uv": [
                        0.333,
                        3.333,
                        1.999,
                        5
                    ],
                    "rotation": 90,
                    "texture": "#0"
                },
                "east": {
                    "uv": [
                        0.333,
                        3.333,
                        1.999,
                        5
                    ],
                    "rotation": 90,
                    "texture": "#0"
                },
                "south": {
                    "uv": [
                        0.333,
                        3.333,
                        1.999,
                        5
                    ],
                    "rotation": 90,
                    "texture": "#0"
                },
                "west": {
                    "uv": [
                        0.333,
                        3.333,
                        1.999,
                        5
                    ],
                    "rotation": 90,
                    "texture": "#0"
                },
                "up": {
                    "uv": [
                        0.333,
                        3.333,
                        1.999,
                        5
                    ],
                    "rotation": 90,
                    "texture": "#0"
                },
                "down": {
                    "uv": [
                        0.333,
                        3.333,
                        1.999,
                        5
                    ],
                    "rotation": 90,
                    "texture": "#0"
                }
            }
        },
        {
            "name": "cube11",
            "from": [
                6.5491,
                16.8,
                7.0905
            ],
            "to": [
                6.94776,
                17.5,
                7.88781
            ],
            "rotation": {
                "angle": 0,
                "axis": "y",
                "origin": [
                    7.51154,
                    16.9,
                    7.48916
                ]
            },
            "faces": {
                "north": {
                    "uv": [
                        0.333,
                        3.333,
                        1.999,
                        5
                    ],
                    "rotation": 90,
                    "texture": "#0"
                },
                "east": {
                    "uv": [
                        0.333,
                        3.333,
                        1.999,
                        5
                    ],
                    "rotation": 90,
                    "texture": "#0"
                },
                "south": {
                    "uv": [
                        0.333,
                        3.333,
                        1.999,
                        5
                    ],
                    "rotation": 90,
                    "texture": "#0"
                },
                "west": {
                    "uv": [
                        0.333,
                        3.333,
                        1.999,
                        5
                    ],
                    "rotation": 90,
                    "texture": "#0"
                },
                "up": {
                    "uv": [
                        0.333,
                        3.333,
                        1.999,
                        5
                    ],
                    "rotation": 90,
                    "texture": "#0"
                },
                "down": {
                    "uv": [
                        0.333,
                        3.333,
                        1.999,
                        5
                    ],
                    "rotation": 90,
                    "texture": "#0"
                }
            }
        },
        {
            "name": "cube12",
            "from": [
                6.5491,
                15,
                7.0905
            ],
            "to": [
                6.94776,
                15.7,
                7.88781
            ],
            "rotation": {
                "angle": 0,
                "axis": "y",
                "origin": [
                    7.51154,
                    15.1,
                    7.48916
                ]
            },
            "faces": {
                "north": {
                    "uv": [
                        0.333,
                        3.333,
                        1.999,
                        5
                    ],
                    "rotation": 90,
                    "texture": "#0"
                },
                "east": {
                    "uv": [
                        0.333,
                        3.333,
                        1.999,
                        5
                    ],
                    "rotation": 90,
                    "texture": "#0"
                },
                "south": {
                    "uv": [
                        0.333,
                        3.333,
                        1.999,
                        5
                    ],
                    "rotation": 90,
                    "texture": "#0"
                },
                "west": {
                    "uv": [
                        0.333,
                        3.333,
                        1.999,
                        5
                    ],
                    "rotation": 90,
                    "texture": "#0"
                },
                "up": {
                    "uv": [
                        0.333,
                        3.333,
                        1.999,
                        5
                    ],
                    "rotation": 90,
                    "texture": "#0"
                },
                "down": {
                    "uv": [
                        0.333,
                        3.333,
                        1.999,
                        5
                    ],
                    "rotation": 90,
                    "texture": "#0"
                }
            }
        },
        {
            "name": "cube9",
            "from": [
                7.11288,
                20.4,
                6.52672
            ],
            "to": [
                7.91019,
                21.1,
                6.92538
            ],
            "rotation": {
                "angle": 45,
                "axis": "y",
                "origin": [
                    7.51154,
                    20.7,
                    7.48916
                ]
            },
            "faces": {
                "north": {
                    "uv": [
                        0.333,
                        3.333,
                        1.999,
                        5
                    ],
                    "texture": "#0"
                },
                "east": {
                    "uv": [
                        0.333,
                        3.333,
                        1.999,
                        5
                    ],
                    "texture": "#0"
                },
                "south": {
                    "uv": [
                        0.333,
                        3.333,
                        1.999,
                        5
                    ],
                    "texture": "#0"
                },
                "west": {
                    "uv": [
                        0.333,
                        3.333,
                        1.999,
                        5
                    ],
                    "texture": "#0"
                },
                "up": {
                    "uv": [
                        0.333,
                        3.333,
                        1.999,
                        5
                    ],
                    "texture": "#0"
                },
                "down": {
                    "uv": [
                        0.333,
                        3.333,
                        1.999,
                        5
                    ],
                    "texture": "#0"
                }
            }
        },
        {
            "name": "cube10",
            "from": [
                7.11288,
                18.6,
                6.52672
            ],
            "to": [
                7.91019,
                19.3,
                6.92538
            ],
            "rotation": {
                "angle": 45,
                "axis": "y",
                "origin": [
                    7.51154,
                    18.7,
                    7.48916
                ]
            },
            "faces": {
                "north": {
                    "uv": [
                        0.333,
                        3.333,
                        1.999,
                        5
                    ],
                    "texture": "#0"
                },
                "east": {
                    "uv": [
                        0.333,
                        3.333,
                        1.999,
                        5
                    ],
                    "texture": "#0"
                },
                "south": {
                    "uv": [
                        0.333,
                        3.333,
                        1.999,
                        5
                    ],
                    "texture": "#0"
                },
                "west": {
                    "uv": [
                        0.333,
                        3.333,
                        1.999,
                        5
                    ],
                    "texture": "#0"
                },
                "up": {
                    "uv": [
                        0.333,
                        3.333,
                        1.999,
                        5
                    ],
                    "texture": "#0"
                },
                "down": {
                    "uv": [
                        0.333,
                        3.333,
                        1.999,
                        5
                    ],
                    "texture": "#0"
                }
            }
        },
        {
            "name": "cube11",
            "from": [
                7.11288,
                16.8,
                6.52672
            ],
            "to": [
                7.91019,
                17.5,
                6.92538
            ],
            "rotation": {
                "angle": 45,
                "axis": "y",
                "origin": [
                    7.51154,
                    16.9,
                    7.48916
                ]
            },
            "faces": {
                "north": {
                    "uv": [
                        0.333,
                        3.333,
                        1.999,
                        5
                    ],
                    "texture": "#0"
                },
                "east": {
                    "uv": [
                        0.333,
                        3.333,
                        1.999,
                        5
                    ],
                    "texture": "#0"
                },
                "south": {
                    "uv": [
                        0.333,
                        3.333,
                        1.999,
                        5
                    ],
                    "texture": "#0"
                },
                "west": {
                    "uv": [
                        0.333,
                        3.333,
                        1.999,
                        5
                    ],
                    "texture": "#0"
                },
                "up": {
                    "uv": [
                        0.333,
                        3.333,
                        1.999,
                        5
                    ],
                    "texture": "#0"
                },
                "down": {
                    "uv": [
                        0.333,
                        3.333,
                        1.999,
                        5
                    ],
                    "texture": "#0"
                }
            }
        },
        {
            "name": "cube12",
            "from": [
                7.11288,
                15,
                6.52672
            ],
            "to": [
                7.91019,
                15.7,
                6.92538
            ],
            "rotation": {
                "angle": 45,
                "axis": "y",
                "origin": [
                    7.51154,
                    15.1,
                    7.48916
                ]
            },
            "faces": {
                "north": {
                    "uv": [
                        0.333,
                        3.333,
                        1.999,
                        5
                    ],
                    "texture": "#0"
                },
                "east": {
                    "uv": [
                        0.333,
                        3.333,
                        1.999,
                        5
                    ],
                    "texture": "#0"
                },
                "south": {
                    "uv": [
                        0.333,
                        3.333,
                        1.999,
                        5
                    ],
                    "texture": "#0"
                },
                "west": {
                    "uv": [
                        0.333,
                        3.333,
                        1.999,
                        5
                    ],
                    "texture": "#0"
                },
                "up": {
                    "uv": [
                        0.333,
                        3.333,
                        1.999,
                        5
                    ],
                    "texture": "#0"
                },
                "down": {
                    "uv": [
                        0.333,
                        3.333,
                        1.999,
                        5
                    ],
                    "texture": "#0"
                }
            }
        },
        {
            "name": "cube7",
            "from": [
                7.11288,
                20.4,
                6.52672
            ],
            "to": [
                7.91019,
                21.1,
                6.92538
            ],
            "rotation": {
                "angle": 0,
                "axis": "y",
                "origin": [
                    7.51154,
                    20.7,
                    7.48916
                ]
            },
            "faces": {
                "north": {
                    "uv": [
                        0.333,
                        3.333,
                        1.999,
                        5
                    ],
                    "texture": "#0"
                },
                "east": {
                    "uv": [
                        0.333,
                        3.333,
                        1.999,
                        5
                    ],
                    "texture": "#0"
                },
                "south": {
                    "uv": [
                        0.333,
                        3.333,
                        1.999,
                        5
                    ],
                    "texture": "#0"
                },
                "west": {
                    "uv": [
                        0.333,
                        3.333,
                        1.999,
                        5
                    ],
                    "texture": "#0"
                },
                "up": {
                    "uv": [
                        0.333,
                        3.333,
                        1.999,
                        5
                    ],
                    "texture": "#0"
                },
                "down": {
                    "uv": [
                        0.333,
                        3.333,
                        1.999,
                        5
                    ],
                    "texture": "#0"
                }
            }
        },
        {
            "name": "cube8",
            "from": [
                7.11288,
                18.6,
                6.52672
            ],
            "to": [
                7.91019,
                19.3,
                6.92538
            ],
            "rotation": {
                "angle": 0,
                "axis": "y",
                "origin": [
                    7.51154,
                    18.7,
                    7.48916
                ]
            },
            "faces": {
                "north": {
                    "uv": [
                        0.333,
                        3.333,
                        1.999,
                        5
                    ],
                    "texture": "#0"
                },
                "east": {
                    "uv": [
                        0.333,
                        3.333,
                        1.999,
                        5
                    ],
                    "texture": "#0"
                },
                "south": {
                    "uv": [
                        0.333,
                        3.333,
                        1.999,
                        5
                    ],
                    "texture": "#0"
                },
                "west": {
                    "uv": [
                        0.333,
                        3.333,
                        1.999,
                        5
                    ],
                    "texture": "#0"
                },
                "up": {
                    "uv": [
                        0.333,
                        3.333,
                        1.999,
                        5
                    ],
                    "texture": "#0"
                },
                "down": {
                    "uv": [
                        0.333,
                        3.333,
                        1.999,
                        5
                    ],
                    "texture": "#0"
                }
            }
        },
        {
            "name": "cube9",
            "from": [
                7.11288,
                16.8,
                6.52672
            ],
            "to": [
                7.91019,
                17.5,
                6.92538
            ],
            "rotation": {
                "angle": 0,
                "axis": "y",
                "origin": [
                    7.51154,
                    16.9,
                    7.48916
                ]
            },
            "faces": {
                "north": {
                    "uv": [
                        0.333,
                        3.333,
                        1.999,
                        5
                    ],
                    "texture": "#0"
                },
                "east": {
                    "uv": [
                        0.333,
                        3.333,
                        1.999,
                        5
                    ],
                    "texture": "#0"
                },
                "south": {
                    "uv": [
                        0.333,
                        3.333,
                        1.999,
                        5
                    ],
                    "texture": "#0"
                },
                "west": {
                    "uv": [
                        0.333,
                        3.333,
                        1.999,
                        5
                    ],
                    "texture": "#0"
                },
                "up": {
                    "uv": [
                        0.333,
                        3.333,
                        1.999,
                        5
                    ],
                    "texture": "#0"
                },
                "down": {
                    "uv": [
                        0.333,
                        3.333,
                        1.999,
                        5
                    ],
                    "texture": "#0"
                }
            }
        },
        {
            "name": "cube10",
            "from": [
                7.11288,
                15,
                6.52672
            ],
            "to": [
                7.91019,
                15.7,
                6.92538
            ],
            "rotation": {
                "angle": 0,
                "axis": "y",
                "origin": [
                    7.51154,
                    15.1,
                    7.48916
                ]
            },
            "faces": {
                "north": {
                    "uv": [
                        0.333,
                        3.333,
                        1.999,
                        5
                    ],
                    "texture": "#0"
                },
                "east": {
                    "uv": [
                        0.333,
                        3.333,
                        1.999,
                        5
                    ],
                    "texture": "#0"
                },
                "south": {
                    "uv": [
                        0.333,
                        3.333,
                        1.999,
                        5
                    ],
                    "texture": "#0"
                },
                "west": {
                    "uv": [
                        0.333,
                        3.333,
                        1.999,
                        5
                    ],
                    "texture": "#0"
                },
                "up": {
                    "uv": [
                        0.333,
                        3.333,
                        1.999,
                        5
                    ],
                    "texture": "#0"
                },
                "down": {
                    "uv": [
                        0.333,
                        3.333,
                        1.999,
                        5
                    ],
                    "texture": "#0"
                }
            }
        },
        {
            "name": "cube8",
            "from": [
                7.11288,
                20.4,
                6.52672
            ],
            "to": [
                7.91019,
                21.1,
                6.92538
            ],
            "rotation": {
                "angle": -45,
                "axis": "y",
                "origin": [
                    7.51154,
                    20.7,
                    7.48916
                ]
            },
            "faces": {
                "north": {
                    "uv": [
                        0.333,
                        3.333,
                        1.999,
                        5
                    ],
                    "texture": "#0"
                },
                "east": {
                    "uv": [
                        0.333,
                        3.333,
                        1.999,
                        5
                    ],
                    "texture": "#0"
                },
                "south": {
                    "uv": [
                        0.333,
                        3.333,
                        1.999,
                        5
                    ],
                    "texture": "#0"
                },
                "west": {
                    "uv": [
                        0.333,
                        3.333,
                        1.999,
                        5
                    ],
                    "texture": "#0"
                },
                "up": {
                    "uv": [
                        0.333,
                        3.333,
                        1.999,
                        5
                    ],
                    "texture": "#0"
                },
                "down": {
                    "uv": [
                        0.333,
                        3.333,
                        1.999,
                        5
                    ],
                    "texture": "#0"
                }
            }
        },
        {
            "name": "cube9",
            "from": [
                7.11288,
                18.6,
                6.52672
            ],
            "to": [
                7.91019,
                19.3,
                6.92538
            ],
            "rotation": {
                "angle": -45,
                "axis": "y",
                "origin": [
                    7.51154,
                    18.7,
                    7.48916
                ]
            },
            "faces": {
                "north": {
                    "uv": [
                        0.333,
                        3.333,
                        1.999,
                        5
                    ],
                    "texture": "#0"
                },
                "east": {
                    "uv": [
                        0.333,
                        3.333,
                        1.999,
                        5
                    ],
                    "texture": "#0"
                },
                "south": {
                    "uv": [
                        0.333,
                        3.333,
                        1.999,
                        5
                    ],
                    "texture": "#0"
                },
                "west": {
                    "uv": [
                        0.333,
                        3.333,
                        1.999,
                        5
                    ],
                    "texture": "#0"
                },
                "up": {
                    "uv": [
                        0.333,
                        3.333,
                        1.999,
                        5
                    ],
                    "texture": "#0"
                },
                "down": {
                    "uv": [
                        0.333,
                        3.333,
                        1.999,
                        5
                    ],
                    "texture": "#0"
                }
            }
        },
        {
            "name": "cube10",
            "from": [
                7.11288,
                16.8,
                6.52672
            ],
            "to": [
                7.91019,
                17.5,
                6.92538
            ],
            "rotation": {
                "angle": -45,
                "axis": "y",
                "origin": [
                    7.51154,
                    16.9,
                    7.48916
                ]
            },
            "faces": {
                "north": {
                    "uv": [
                        0.333,
                        3.333,
                        1.999,
                        5
                    ],
                    "texture": "#0"
                },
                "east": {
                    "uv": [
                        0.333,
                        3.333,
                        1.999,
                        5
                    ],
                    "texture": "#0"
                },
                "south": {
                    "uv": [
                        0.333,
                        3.333,
                        1.999,
                        5
                    ],
                    "texture": "#0"
                },
                "west": {
                    "uv": [
                        0.333,
                        3.333,
                        1.999,
                        5
                    ],
                    "texture": "#0"
                },
                "up": {
                    "uv": [
                        0.333,
                        3.333,
                        1.999,
                        5
                    ],
                    "texture": "#0"
                },
                "down": {
                    "uv": [
                        0.333,
                        3.333,
                        1.999,
                        5
                    ],
                    "texture": "#0"
                }
            }
        },
        {
            "name": "cube11",
            "from": [
                7.11288,
                15,
                6.52672
            ],
            "to": [
                7.91019,
                15.7,
                6.92538
            ],
            "rotation": {
                "angle": -45,
                "axis": "y",
                "origin": [
                    7.51154,
                    15.1,
                    7.48916
                ]
            },
            "faces": {
                "north": {
                    "uv": [
                        0.333,
                        3.333,
                        1.999,
                        5
                    ],
                    "texture": "#0"
                },
                "east": {
                    "uv": [
                        0.333,
                        3.333,
                        1.999,
                        5
                    ],
                    "texture": "#0"
                },
                "south": {
                    "uv": [
                        0.333,
                        3.333,
                        1.999,
                        5
                    ],
                    "texture": "#0"
                },
                "west": {
                    "uv": [
                        0.333,
                        3.333,
                        1.999,
                        5
                    ],
                    "texture": "#0"
                },
                "up": {
                    "uv": [
                        0.333,
                        3.333,
                        1.999,
                        5
                    ],
                    "texture": "#0"
                },
                "down": {
                    "uv": [
                        0.333,
                        3.333,
                        1.999,
                        5
                    ],
                    "texture": "#0"
                }
            }
        },
        {
            "name": "cube8",
            "from": [
                8.07532,
                20.4,
                7.0905
            ],
            "to": [
                8.47397,
                21.1,
                7.88781
            ],
            "rotation": {
                "angle": 0,
                "axis": "y",
                "origin": [
                    7.51154,
                    20.7,
                    7.48916
                ]
            },
            "faces": {
                "north": {
                    "uv": [
                        0.333,
                        3.333,
                        1.999,
                        5
                    ],
                    "rotation": 90,
                    "texture": "#0"
                },
                "east": {
                    "uv": [
                        0.333,
                        3.333,
                        1.999,
                        5
                    ],
                    "rotation": 90,
                    "texture": "#0"
                },
                "south": {
                    "uv": [
                        0.333,
                        3.333,
                        1.999,
                        5
                    ],
                    "rotation": 90,
                    "texture": "#0"
                },
                "west": {
                    "uv": [
                        0.333,
                        3.333,
                        1.999,
                        5
                    ],
                    "rotation": 90,
                    "texture": "#0"
                },
                "up": {
                    "uv": [
                        0.333,
                        3.333,
                        1.999,
                        5
                    ],
                    "rotation": 90,
                    "texture": "#0"
                },
                "down": {
                    "uv": [
                        0.333,
                        3.333,
                        1.999,
                        5
                    ],
                    "rotation": 90,
                    "texture": "#0"
                }
            }
        },
        {
            "name": "cube9",
            "from": [
                8.07532,
                18.6,
                7.0905
            ],
            "to": [
                8.47397,
                19.3,
                7.88781
            ],
            "rotation": {
                "angle": 0,
                "axis": "y",
                "origin": [
                    7.51154,
                    18.7,
                    7.48916
                ]
            },
            "faces": {
                "north": {
                    "uv": [
                        0.333,
                        3.333,
                        1.999,
                        5
                    ],
                    "rotation": 90,
                    "texture": "#0"
                },
                "east": {
                    "uv": [
                        0.333,
                        3.333,
                        1.999,
                        5
                    ],
                    "rotation": 90,
                    "texture": "#0"
                },
                "south": {
                    "uv": [
                        0.333,
                        3.333,
                        1.999,
                        5
                    ],
                    "rotation": 90,
                    "texture": "#0"
                },
                "west": {
                    "uv": [
                        0.333,
                        3.333,
                        1.999,
                        5
                    ],
                    "rotation": 90,
                    "texture": "#0"
                },
                "up": {
                    "uv": [
                        0.333,
                        3.333,
                        1.999,
                        5
                    ],
                    "rotation": 90,
                    "texture": "#0"
                },
                "down": {
                    "uv": [
                        0.333,
                        3.333,
                        1.999,
                        5
                    ],
                    "rotation": 90,
                    "texture": "#0"
                }
            }
        },
        {
            "name": "cube10",
            "from": [
                8.07532,
                16.8,
                7.0905
            ],
            "to": [
                8.47397,
                17.5,
                7.88781
            ],
            "rotation": {
                "angle": 0,
                "axis": "y",
                "origin": [
                    7.51154,
                    16.9,
                    7.48916
                ]
            },
            "faces": {
                "north": {
                    "uv": [
                        0.333,
                        3.333,
                        1.999,
                        5
                    ],
                    "rotation": 90,
                    "texture": "#0"
                },
                "east": {
                    "uv": [
                        0.333,
                        3.333,
                        1.999,
                        5
                    ],
                    "rotation": 90,
                    "texture": "#0"
                },
                "south": {
                    "uv": [
                        0.333,
                        3.333,
                        1.999,
                        5
                    ],
                    "rotation": 90,
                    "texture": "#0"
                },
                "west": {
                    "uv": [
                        0.333,
                        3.333,
                        1.999,
                        5
                    ],
                    "rotation": 90,
                    "texture": "#0"
                },
                "up": {
                    "uv": [
                        0.333,
                        3.333,
                        1.999,
                        5
                    ],
                    "rotation": 90,
                    "texture": "#0"
                },
                "down": {
                    "uv": [
                        0.333,
                        3.333,
                        1.999,
                        5
                    ],
                    "rotation": 90,
                    "texture": "#0"
                }
            }
        },
        {
            "name": "cube11",
            "from": [
                8.07532,
                15,
                7.0905
            ],
            "to": [
                8.47397,
                15.7,
                7.88781
            ],
            "rotation": {
                "angle": 0,
                "axis": "y",
                "origin": [
                    7.51154,
                    15.1,
                    7.48916
                ]
            },
            "faces": {
                "north": {
                    "uv": [
                        0.333,
                        3.333,
                        1.999,
                        5
                    ],
                    "rotation": 90,
                    "texture": "#0"
                },
                "east": {
                    "uv": [
                        0.333,
                        3.333,
                        1.999,
                        5
                    ],
                    "rotation": 90,
                    "texture": "#0"
                },
                "south": {
                    "uv": [
                        0.333,
                        3.333,
                        1.999,
                        5
                    ],
                    "rotation": 90,
                    "texture": "#0"
                },
                "west": {
                    "uv": [
                        0.333,
                        3.333,
                        1.999,
                        5
                    ],
                    "rotation": 90,
                    "texture": "#0"
                },
                "up": {
                    "uv": [
                        0.333,
                        3.333,
                        1.999,
                        5
                    ],
                    "rotation": 90,
                    "texture": "#0"
                },
                "down": {
                    "uv": [
                        0.333,
                        3.333,
                        1.999,
                        5
                    ],
                    "rotation": 90,
                    "texture": "#0"
                }
            }
        },
        {
            "name": "cube8",
            "from": [
                7.11288,
                20.4,
                8.05293
            ],
            "to": [
                7.91019,
                21.1,
                8.45159
            ],
            "rotation": {
                "angle": 45,
                "axis": "y",
                "origin": [
                    7.51154,
                    20.7,
                    7.48916
                ]
            },
            "faces": {
                "north": {
                    "uv": [
                        0.333,
                        3.333,
                        1.999,
                        5
                    ],
                    "texture": "#0"
                },
                "east": {
                    "uv": [
                        0.333,
                        3.333,
                        1.999,
                        5
                    ],
                    "texture": "#0"
                },
                "south": {
                    "uv": [
                        0.333,
                        3.333,
                        1.999,
                        5
                    ],
                    "texture": "#0"
                },
                "west": {
                    "uv": [
                        0.333,
                        3.333,
                        1.999,
                        5
                    ],
                    "texture": "#0"
                },
                "up": {
                    "uv": [
                        0.333,
                        3.333,
                        1.999,
                        5
                    ],
                    "texture": "#0"
                },
                "down": {
                    "uv": [
                        0.333,
                        3.333,
                        1.999,
                        5
                    ],
                    "texture": "#0"
                }
            }
        },
        {
            "name": "cube9",
            "from": [
                7.11288,
                18.6,
                8.05293
            ],
            "to": [
                7.91019,
                19.3,
                8.45159
            ],
            "rotation": {
                "angle": 45,
                "axis": "y",
                "origin": [
                    7.51154,
                    18.7,
                    7.48916
                ]
            },
            "faces": {
                "north": {
                    "uv": [
                        0.333,
                        3.333,
                        1.999,
                        5
                    ],
                    "texture": "#0"
                },
                "east": {
                    "uv": [
                        0.333,
                        3.333,
                        1.999,
                        5
                    ],
                    "texture": "#0"
                },
                "south": {
                    "uv": [
                        0.333,
                        3.333,
                        1.999,
                        5
                    ],
                    "texture": "#0"
                },
                "west": {
                    "uv": [
                        0.333,
                        3.333,
                        1.999,
                        5
                    ],
                    "texture": "#0"
                },
                "up": {
                    "uv": [
                        0.333,
                        3.333,
                        1.999,
                        5
                    ],
                    "texture": "#0"
                },
                "down": {
                    "uv": [
                        0.333,
                        3.333,
                        1.999,
                        5
                    ],
                    "texture": "#0"
                }
            }
        },
        {
            "name": "cube10",
            "from": [
                7.11288,
                16.8,
                8.05293
            ],
            "to": [
                7.91019,
                17.5,
                8.45159
            ],
            "rotation": {
                "angle": 45,
                "axis": "y",
                "origin": [
                    7.51154,
                    16.9,
                    7.48916
                ]
            },
            "faces": {
                "north": {
                    "uv": [
                        0.333,
                        3.333,
                        1.999,
                        5
                    ],
                    "texture": "#0"
                },
                "east": {
                    "uv": [
                        0.333,
                        3.333,
                        1.999,
                        5
                    ],
                    "texture": "#0"
                },
                "south": {
                    "uv": [
                        0.333,
                        3.333,
                        1.999,
                        5
                    ],
                    "texture": "#0"
                },
                "west": {
                    "uv": [
                        0.333,
                        3.333,
                        1.999,
                        5
                    ],
                    "texture": "#0"
                },
                "up": {
                    "uv": [
                        0.333,
                        3.333,
                        1.999,
                        5
                    ],
                    "texture": "#0"
                },
                "down": {
                    "uv": [
                        0.333,
                        3.333,
                        1.999,
                        5
                    ],
                    "texture": "#0"
                }
            }
        },
        {
            "name": "cube11",
            "from": [
                7.11288,
                15,
                8.05293
            ],
            "to": [
                7.91019,
                15.7,
                8.45159
            ],
            "rotation": {
                "angle": 45,
                "axis": "y",
                "origin": [
                    7.51154,
                    15.1,
                    7.48916
                ]
            },
            "faces": {
                "north": {
                    "uv": [
                        0.333,
                        3.333,
                        1.999,
                        5
                    ],
                    "texture": "#0"
                },
                "east": {
                    "uv": [
                        0.333,
                        3.333,
                        1.999,
                        5
                    ],
                    "texture": "#0"
                },
                "south": {
                    "uv": [
                        0.333,
                        3.333,
                        1.999,
                        5
                    ],
                    "texture": "#0"
                },
                "west": {
                    "uv": [
                        0.333,
                        3.333,
                        1.999,
                        5
                    ],
                    "texture": "#0"
                },
                "up": {
                    "uv": [
                        0.333,
                        3.333,
                        1.999,
                        5
                    ],
                    "texture": "#0"
                },
                "down": {
                    "uv": [
                        0.333,
                        3.333,
                        1.999,
                        5
                    ],
                    "texture": "#0"
                }
            }
        },
        {
            "name": "topring1",
            "from": [
                7.15,
                20.4,
                6.65
            ],
            "to": [
                7.85,
                21.7,
                8.35
            ],
            "rotation": {
                "angle": 0,
                "axis": "y",
                "origin": [
                    8,
                    10,
                    8
                ]
            },
            "faces": {
                "north": {
                    "uv": [
                        1,
                        3.667,
                        1.933,
                        4.266
                    ],
                    "texture": "#0"
                },
                "east": {
                    "uv": [
                        1,
                        3.667,
                        1.933,
                        4.266
                    ],
                    "texture": "#0"
                },
                "south": {
                    "uv": [
                        1,
                        3.667,
                        1.933,
                        4.266
                    ],
                    "texture": "#0"
                },
                "west": {
                    "uv": [
                        1,
                        3.667,
                        1.933,
                        4.266
                    ],
                    "texture": "#0"
                },
                "up": {
                    "uv": [
                        1,
                        3.667,
                        1.933,
                        4.266
                    ],
                    "texture": "#0"
                },
                "down": {
                    "uv": [
                        1,
                        3.667,
                        1.933,
                        4.266
                    ],
                    "texture": "#0"
                }
            }
        },
        {
            "name": "topring2",
            "from": [
                6.65,
                20.4,
                7.15
            ],
            "to": [
                8.35,
                21.7,
                7.85
            ],
            "rotation": {
                "angle": 0,
                "axis": "y",
                "origin": [
                    8,
                    10,
                    8
                ]
            },
            "faces": {
                "north": {
                    "uv": [
                        1,
                        3.667,
                        1.933,
                        4.266
                    ],
                    "rotation": 90,
                    "texture": "#0"
                },
                "east": {
                    "uv": [
                        1,
                        3.667,
                        1.933,
                        4.266
                    ],
                    "rotation": 90,
                    "texture": "#0"
                },
                "south": {
                    "uv": [
                        1,
                        3.667,
                        1.933,
                        4.266
                    ],
                    "rotation": 90,
                    "texture": "#0"
                },
                "west": {
                    "uv": [
                        1,
                        3.667,
                        1.933,
                        4.266
                    ],
                    "rotation": 90,
                    "texture": "#0"
                },
                "up": {
                    "uv": [
                        1,
                        3.667,
                        1.933,
                        4.266
                    ],
                    "rotation": 90,
                    "texture": "#0"
                },
                "down": {
                    "uv": [
                        1,
                        3.667,
                        1.933,
                        4.266
                    ],
                    "rotation": 90,
                    "texture": "#0"
                }
            }
        },
        {
            "name": "topring5",
            "from": [
                7.15,
                21.09896,
                6.89896
            ],
            "to": [
                7.85,
                21.79896,
                7.49896
            ],
            "rotation": {
                "angle": 45,
                "axis": "x",
                "origin": [
                    7.5,
                    21.7,
                    7.5
                ]
            },
            "faces": {
                "north": {
                    "uv": [
                        1,
                        3.667,
                        1.933,
                        4.266
                    ],
                    "rotation": 180,
                    "texture": "#0"
                },
                "east": {
                    "uv": [
                        1,
                        3.667,
                        1.933,
                        4.266
                    ],
                    "rotation": 180,
                    "texture": "#0"
                },
                "south": {
                    "uv": [
                        1,
                        3.667,
                        1.933,
                        4.266
                    ],
                    "rotation": 180,
                    "texture": "#0"
                },
                "west": {
                    "uv": [
                        1,
                        3.667,
                        1.933,
                        4.266
                    ],
                    "texture": "#0"
                },
                "up": {
                    "uv": [
                        1,
                        3.667,
                        1.933,
                        4.266
                    ],
                    "rotation": 90,
                    "texture": "#0"
                },
                "down": {
                    "uv": [
                        1,
                        3.667,
                        1.933,
                        4.266
                    ],
                    "rotation": 270,
                    "texture": "#0"
                }
            }
        },
        {
            "name": "topring6",
            "from": [
                7.15,
                21.34602,
                7.25398
            ],
            "to": [
                7.85,
                21.94602,
                7.95398
            ],
            "rotation": {
                "angle": 45,
                "axis": "x",
                "origin": [
                    7.5,
                    21.34497,
                    7.85503
                ]
            },
            "faces": {
                "north": {
                    "uv": [
                        1,
                        3.667,
                        1.933,
                        4.266
                    ],
                    "rotation": 90,
                    "texture": "#0"
                },
                "east": {
                    "uv": [
                        1,
                        3.667,
                        1.933,
                        4.266
                    ],
                    "rotation": 90,
                    "texture": "#0"
                },
                "south": {
                    "uv": [
                        1,
                        3.667,
                        1.933,
                        4.266
                    ],
                    "rotation": 90,
                    "texture": "#0"
                },
                "west": {
                    "uv": [
                        1,
                        3.667,
                        1.933,
                        4.266
                    ],
                    "rotation": 90,
                    "texture": "#0"
                },
                "up": {
                    "uv": [
                        1,
                        3.667,
                        1.933,
                        4.266
                    ],
                    "texture": "#0"
                },
                "down": {
                    "uv": [
                        1,
                        3.667,
                        1.933,
                        4.266
                    ],
                    "rotation": 180,
                    "texture": "#0"
                }
            }
        },
        {
            "name": "topring7",
            "from": [
                7.40104,
                21.70104,
                7.15
            ],
            "to": [
                8.10104,
                22.30104,
                7.85
            ],
            "rotation": {
                "angle": -45,
                "axis": "z",
                "origin": [
                    7.5,
                    21.7,
                    7.5
                ]
            },
            "faces": {
                "north": {
                    "uv": [
                        1,
                        3.667,
                        1.933,
                        4.266
                    ],
                    "rotation": 90,
                    "texture": "#0"
                },
                "east": {
                    "uv": [
                        1,
                        3.667,
                        1.933,
                        4.266
                    ],
                    "rotation": 90,
                    "texture": "#0"
                },
                "south": {
                    "uv": [
                        1,
                        3.667,
                        1.933,
                        4.266
                    ],
                    "rotation": 90,
                    "texture": "#0"
                },
                "west": {
                    "uv": [
                        1,
                        3.667,
                        1.933,
                        4.266
                    ],
                    "rotation": 90,
                    "texture": "#0"
                },
                "up": {
                    "uv": [
                        1,
                        3.667,
                        1.933,
                        4.266
                    ],
                    "rotation": 90,
                    "texture": "#0"
                },
                "down": {
                    "uv": [
                        1,
                        3.667,
                        1.933,
                        4.266
                    ],
                    "rotation": 90,
                    "texture": "#0"
                }
            }
        },
        {
            "name": "topring8",
            "from": [
                7.0753,
                21.5247,
                7.15
            ],
            "to": [
                7.6753,
                22.2247,
                7.85
            ],
            "rotation": {
                "angle": -45,
                "axis": "z",
                "origin": [
                    7.07426,
                    22.12574,
                    7.5
                ]
            },
            "faces": {
                "north": {
                    "uv": [
                        1,
                        3.667,
                        1.933,
                        4.266
                    ],
                    "texture": "#0"
                },
                "east": {
                    "uv": [
                        1,
                        3.667,
                        1.933,
                        4.266
                    ],
                    "rotation": 180,
                    "texture": "#0"
                },
                "south": {
                    "uv": [
                        1,
                        3.667,
                        1.933,
                        4.266
                    ],
                    "rotation": 180,
                    "texture": "#0"
                },
                "west": {
                    "uv": [
                        1,
                        3.667,
                        1.933,
                        4.266
                    ],
                    "rotation": 180,
                    "texture": "#0"
                },
                "up": {
                    "uv": [
                        1,
                        3.667,
                        1.933,
                        4.266
                    ],
                    "rotation": 180,
                    "texture": "#0"
                },
                "down": {
                    "uv": [
                        1,
                        3.667,
                        1.933,
                        4.266
                    ],
                    "rotation": 180,
                    "texture": "#0"
                }
            }
        },
        {
            "name": "cube10",
            "from": [
                7.075,
                21.73,
                7.075
            ],
            "to": [
                7.925,
                22.125,
                7.925
            ],
            "rotation": {
                "angle": 0,
                "axis": "y",
                "origin": [
                    6.49039,
                    25,
                    7.48916
                ]
            },
            "faces": {
                "north": {
                    "uv": [
                        1,
                        3.333,
                        2,
                        4.666
                    ],
                    "rotation": 90,
                    "texture": "#0"
                },
                "east": {
                    "uv": [
                        1,
                        3.333,
                        2,
                        4.666
                    ],
                    "rotation": 90,
                    "texture": "#0"
                },
                "south": {
                    "uv": [
                        1,
                        3.333,
                        2,
                        4.666
                    ],
                    "rotation": 90,
                    "texture": "#0"
                },
                "west": {
                    "uv": [
                        1,
                        3.333,
                        2,
                        4.666
                    ],
                    "rotation": 90,
                    "texture": "#0"
                },
                "up": {
                    "uv": [
                        1,
                        3.333,
                        2,
                        4.666
                    ],
                    "rotation": 90,
                    "texture": "#0"
                },
                "down": {
                    "uv": [
                        1,
                        3.333,
                        2,
                        4.666
                    ],
                    "rotation": 90,
                    "texture": "#0"
                }
            }
        }
    ],
    "display": {
        "thirdperson_righthand": {
            "translation": [
                0.5,
                1,
                1.25
            ]
        },
        "thirdperson_lefthand": {
            "rotation": [
                2,
                0,
                0
            ],
            "translation": [
                0,
                0,
                1.75
            ]
        },
        "firstperson_righthand": {
            "rotation": [
                -16,
                0,
                0
            ]
        },
        "gui": {
            "rotation": [
                0,
                0,
                45
            ],
            "translation": [
                3.25,
                -3,
                0
            ]
        },
        "fixed": {
            "rotation": [
                90,
                45,
                -90
            ]
        }
    }
}