{
    "textures": {
        "0": "gci:items/common/mpz",
        "particle": "gci:items/common/mpz"
    },
    "elements": [
        {
            "from": [
                7.76961,
                0.52928,
                8.48944
            ],
            "to": [
                8.23041,
                0.65728,
                9.28304
            ],
            "rotation": {
                "angle": -22.5,
                "axis": "x",
                "origin": [
                    8.00138,
                    0.59328,
                    9.09982
                ]
            },
            "faces": {
                "north": {
                    "uv": [
                        8.667,
                        0.334,
                        10.417,
                        1.883
                    ],
                    "texture": "#0"
                },
                "east": {
                    "uv": [
                        8.667,
                        0.334,
                        10.417,
                        1.883
                    ],
                    "texture": "#0"
                },
                "south": {
                    "uv": [
                        8.667,
                        0.334,
                        10.417,
                        1.883
                    ],
                    "texture": "#0"
                },
                "west": {
                    "uv": [
                        8.667,
                        0.334,
                        10.417,
                        1.883
                    ],
                    "texture": "#0"
                },
                "up": {
                    "uv": [
                        8.667,
                        0.334,
                        10.417,
                        1.883
                    ],
                    "texture": "#0"
                },
                "down": {
                    "uv": [
                        8.667,
                        0.334,
                        10.417,
                        1.883
                    ],
                    "texture": "#0"
                }
            }
        },
        {
            "from": [
                7.76961,
                0.28242,
                8.46552
            ],
            "to": [
                8.23041,
                0.41042,
                8.56792
            ],
            "rotation": {
                "angle": -45,
                "axis": "x",
                "origin": [
                    8.00001,
                    0.34642,
                    8.52952
                ]
            },
            "faces": {
                "north": {
                    "uv": [
                        8.667,
                        0.334,
                        10.417,
                        1.883
                    ],
                    "texture": "#0"
                },
                "east": {
                    "uv": [
                        8.667,
                        0.334,
                        10.417,
                        1.883
                    ],
                    "texture": "#0"
                },
                "south": {
                    "uv": [
                        8.667,
                        0.334,
                        10.417,
                        1.883
                    ],
                    "texture": "#0"
                },
                "west": {
                    "uv": [
                        8.667,
                        0.334,
                        10.417,
                        1.883
                    ],
                    "texture": "#0"
                },
                "up": {
                    "uv": [
                        8.667,
                        0.334,
                        10.417,
                        1.883
                    ],
                    "texture": "#0"
                },
                "down": {
                    "uv": [
                        8.667,
                        0.334,
                        10.417,
                        1.883
                    ],
                    "texture": "#0"
                }
            }
        },
        {
            "from": [
                7.76961,
                0.50402,
                8.17173
            ],
            "to": [
                8.23041,
                1.40002,
                8.93973
            ],
            "rotation": {
                "angle": -22.5,
                "axis": "x",
                "origin": [
                    8.00001,
                    1.31528,
                    8.55573
                ]
            },
            "faces": {
                "north": {
                    "uv": [
                        8.667,
                        0.334,
                        10.417,
                        1.883
                    ],
                    "texture": "#0"
                },
                "east": {
                    "uv": [
                        8.667,
                        0.334,
                        10.417,
                        1.883
                    ],
                    "texture": "#0"
                },
                "south": {
                    "uv": [
                        8.667,
                        0.334,
                        10.417,
                        1.883
                    ],
                    "texture": "#0"
                },
                "west": {
                    "uv": [
                        8.667,
                        0.334,
                        10.417,
                        1.883
                    ],
                    "texture": "#0"
                },
                "up": {
                    "uv": [
                        8.667,
                        0.334,
                        10.417,
                        1.883
                    ],
                    "texture": "#0"
                },
                "down": {
                    "uv": [
                        8.667,
                        0.334,
                        10.417,
                        1.883
                    ],
                    "texture": "#0"
                }
            }
        }
    ],
    "display": {
        "thirdperson_righthand": {
            "translation": [
                -1,
                7.75,
                1.25
            ],
            "scale": [
                1.5,
                1.5,
                1.5
            ]
        },
        "thirdperson_lefthand": {
            "translation": [
                -1,
                7.75,
                0.5
            ],
            "scale": [
                1.5,
                1.5,
                1.5
            ]
        },
        "firstperson_righthand": {
            "translation": [
                -1.5,
                13.25,
                -2.25
            ],
            "scale": [
                2,
                2,
                2
            ]
        },
        "firstperson_lefthand": {
            "translation": [
                -1.25,
                12.5,
                -1.25
            ],
            "scale": [
                2,
                2,
                2
            ]
        },
        "ground": {
            "translation": [
                5.25,
                12.25,
                -2.5
            ],
            "scale": [
                2,
                2,
                2
            ]
        },
        "gui": {
            "rotation": [
                22,
                27,
                -19
            ],
            "translation": [
                4,
                15.5,
                0
            ],
            "scale": [
                2.6,
                2.59,
                2.54
            ]
        },
        "head": {
            "translation": [
                0,
                12.75,
                0
            ]
        },
        "fixed": {
            "rotation": [
                90,
                45,
                -90
            ],
            "translation": [
                10.75,
                8.75,
                -1
            ],
            "scale": [
                2.5,
                2.5,
                2.5
            ]
        }
    }
}