{
	"credit": "Made with Blockbench",
	"textures": {
		"0": "gci:items/gun_asha/all_in_one",
		"particle": "gci:items/gun_asha/all_in_one"
	},
	"elements": [
		{
			"from": [7.96, 12.64292, 5.384],
			"to": [8.712, 13.09092, 6.34],
			"rotation": {"angle": 0, "axis": "y", "origin": [8.323, 12.95359, 6.022]},
			"faces": {
				"north": {"uv": [3, 3.125, 3, 3.125], "rotation": 270, "texture": "#0"},
				"east": {"uv": [3, 3.125, 3, 3.125], "rotation": 270, "texture": "#0"},
				"south": {"uv": [3, 3.125, 3, 3.125], "rotation": 270, "texture": "#0"},
				"west": {"uv": [3, 3.125, 3, 3.125], "rotation": 270, "texture": "#0"},
				"up": {"uv": [3, 3.125, 3, 3.125], "rotation": 270, "texture": "#0"},
				"down": {"uv": [3, 3.125, 3, 3.125], "rotation": 270, "texture": "#0"}
			}
		},
		{
			"from": [7.928, 12.73892, 5.928],
			"to": [8.744, 12.86292, 6.052],
			"rotation": {"angle": -45, "axis": "x", "origin": [8.336, 12.80092, 5.99]},
			"faces": {
				"north": {"uv": [1.5, 0.875, 1.5, 0.875], "rotation": 270, "texture": "#0"},
				"east": {"uv": [1.5, 0.875, 1.5, 0.875], "rotation": 270, "texture": "#0"},
				"south": {"uv": [1.5, 0.875, 1.5, 0.875], "rotation": 270, "texture": "#0"},
				"west": {"uv": [1.5, 0.875, 1.5, 0.875], "rotation": 270, "texture": "#0"},
				"up": {"uv": [1.5, 0.875, 1.5, 0.875], "rotation": 270, "texture": "#0"},
				"down": {"uv": [1.5, 0.875, 1.5, 0.875], "rotation": 270, "texture": "#0"}
			}
		},
		{
			"from": [7.928, 12.73892, 5.096],
			"to": [8.744, 12.86292, 5.22],
			"rotation": {"angle": -45, "axis": "x", "origin": [8.336, 12.80092, 5.158]},
			"faces": {
				"north": {"uv": [1.5, 0.875, 1.5, 0.875], "rotation": 270, "texture": "#0"},
				"east": {"uv": [1.5, 0.875, 1.5, 0.875], "rotation": 270, "texture": "#0"},
				"south": {"uv": [1.5, 0.875, 1.5, 0.875], "rotation": 270, "texture": "#0"},
				"west": {"uv": [1.5, 0.875, 1.5, 0.875], "rotation": 270, "texture": "#0"},
				"up": {"uv": [1.5, 0.875, 1.5, 0.875], "rotation": 270, "texture": "#0"},
				"down": {"uv": [1.5, 0.875, 1.5, 0.875], "rotation": 270, "texture": "#0"}
			}
		},
		{
			"from": [8.312, 13.31492, 5.864],
			"to": [8.36, 13.34692, 5.864],
			"rotation": {"angle": 0, "axis": "y", "origin": [8.323, 12.95359, 6.022]},
			"faces": {
				"north": {"uv": [8.75, 7, 8.75, 7], "rotation": 270, "texture": "#0"},
				"east": {"uv": [8.75, 7, 8.75, 7], "rotation": 270, "texture": "#0"},
				"south": {"uv": [8.75, 7, 8.75, 7], "rotation": 270, "texture": "#0"},
				"west": {"uv": [8.75, 7, 8.75, 7], "rotation": 270, "texture": "#0"},
				"up": {"uv": [8.75, 7, 8.75, 7], "rotation": 270, "texture": "#0"},
				"down": {"uv": [8.75, 7, 8.75, 7], "rotation": 270, "texture": "#0"}
			}
		},
		{
			"from": [7.96, 12.54692, 4.936],
			"to": [8.712, 12.83492, 6.34],
			"rotation": {"angle": 0, "axis": "y", "origin": [8.323, 12.95359, 6.022]},
			"faces": {
				"north": {"uv": [3, 3.125, 3, 3.125], "rotation": 270, "texture": "#0"},
				"east": {"uv": [3, 3.125, 3, 3.125], "rotation": 270, "texture": "#0"},
				"south": {"uv": [3, 3.125, 3, 3.125], "rotation": 270, "texture": "#0"},
				"west": {"uv": [3, 3.125, 3, 3.125], "rotation": 270, "texture": "#0"},
				"up": {"uv": [3, 3.125, 3, 3.125], "rotation": 270, "texture": "#0"},
				"down": {"uv": [3, 3.125, 3, 3.125], "rotation": 270, "texture": "#0"}
			}
		},
		{
			"from": [7.96, 12.64205, 4.92309],
			"to": [8.712, 12.83405, 6.32709],
			"rotation": {"angle": 0, "axis": "y", "origin": [8.323, 12.95272, 6.00909]},
			"faces": {
				"north": {"uv": [3, 3.125, 3, 3.125], "rotation": 270, "texture": "#0"},
				"east": {"uv": [3, 3.125, 3, 3.125], "rotation": 270, "texture": "#0"},
				"south": {"uv": [3, 3.125, 3, 3.125], "rotation": 270, "texture": "#0"},
				"west": {"uv": [3, 3.125, 3, 3.125], "rotation": 270, "texture": "#0"},
				"up": {"uv": [3, 3.125, 3, 3.125], "rotation": 270, "texture": "#0"},
				"down": {"uv": [3, 3.125, 3, 3.125], "rotation": 270, "texture": "#0"}
			}
		},
		{
			"from": [7.96, 13.05892, 5.544],
			"to": [8.072, 13.50692, 6.116],
			"rotation": {"angle": 0, "axis": "y", "origin": [8.323, 13.36959, 6.022]},
			"faces": {
				"north": {"uv": [3, 3.125, 3, 3.125], "rotation": 270, "texture": "#0"},
				"east": {"uv": [3, 3.125, 3, 3.125], "rotation": 270, "texture": "#0"},
				"south": {"uv": [3, 3.125, 3, 3.125], "rotation": 270, "texture": "#0"},
				"west": {"uv": [3, 3.125, 3, 3.125], "rotation": 270, "texture": "#0"},
				"up": {"uv": [3, 3.125, 3, 3.125], "rotation": 270, "texture": "#0"},
				"down": {"uv": [3, 3.125, 3, 3.125], "rotation": 270, "texture": "#0"}
			}
		},
		{
			"from": [7.96, 13.05892, 5.736],
			"to": [8.072, 13.57092, 6.02],
			"rotation": {"angle": 0, "axis": "y", "origin": [8.323, 13.36959, 6.022]},
			"faces": {
				"north": {"uv": [3, 3.125, 3, 3.125], "rotation": 270, "texture": "#0"},
				"east": {"uv": [3, 3.125, 3, 3.125], "rotation": 270, "texture": "#0"},
				"south": {"uv": [3, 3.125, 3, 3.125], "rotation": 270, "texture": "#0"},
				"west": {"uv": [3, 3.125, 3, 3.125], "rotation": 270, "texture": "#0"},
				"up": {"uv": [3, 3.125, 3, 3.125], "rotation": 270, "texture": "#0"},
				"down": {"uv": [3, 3.125, 3, 3.125], "rotation": 270, "texture": "#0"}
			}
		},
		{
			"from": [8.6, 13.05892, 5.736],
			"to": [8.712, 13.57092, 6.02],
			"rotation": {"angle": 0, "axis": "y", "origin": [8.963, 13.36959, 6.022]},
			"faces": {
				"north": {"uv": [3, 3.125, 3, 3.125], "rotation": 270, "texture": "#0"},
				"east": {"uv": [3, 3.125, 3, 3.125], "rotation": 270, "texture": "#0"},
				"south": {"uv": [3, 3.125, 3, 3.125], "rotation": 270, "texture": "#0"},
				"west": {"uv": [3, 3.125, 3, 3.125], "rotation": 270, "texture": "#0"},
				"up": {"uv": [3, 3.125, 3, 3.125], "rotation": 270, "texture": "#0"},
				"down": {"uv": [3, 3.125, 3, 3.125], "rotation": 270, "texture": "#0"}
			}
		},
		{
			"from": [7.96, 13.52918, 5.59298],
			"to": [8.072, 13.62518, 6.10098],
			"rotation": {"angle": 0, "axis": "y", "origin": [8.323, 13.35985, 6.00698]},
			"faces": {
				"north": {"uv": [3, 3.125, 3, 3.125], "rotation": 270, "texture": "#0"},
				"east": {"uv": [3, 3.125, 3, 3.125], "rotation": 270, "texture": "#0"},
				"south": {"uv": [3, 3.125, 3, 3.125], "rotation": 270, "texture": "#0"},
				"west": {"uv": [3, 3.125, 3, 3.125], "rotation": 270, "texture": "#0"},
				"up": {"uv": [3, 3.125, 3, 3.125], "rotation": 270, "texture": "#0"},
				"down": {"uv": [3, 3.125, 3, 3.125], "rotation": 270, "texture": "#0"}
			}
		},
		{
			"from": [8.09304, 13.58428, 5.59298],
			"to": [8.58004, 13.68028, 6.10098],
			"rotation": {"angle": 0, "axis": "y", "origin": [8.45604, 13.41495, 6.00698]},
			"faces": {
				"north": {"uv": [3, 3.125, 3, 3.125], "rotation": 270, "texture": "#0"},
				"east": {"uv": [3, 3.125, 3, 3.125], "rotation": 270, "texture": "#0"},
				"south": {"uv": [3, 3.125, 3, 3.125], "rotation": 270, "texture": "#0"},
				"west": {"uv": [3, 3.125, 3, 3.125], "rotation": 270, "texture": "#0"},
				"up": {"uv": [3, 3.125, 3, 3.125], "rotation": 270, "texture": "#0"},
				"down": {"uv": [3, 3.125, 3, 3.125], "rotation": 270, "texture": "#0"}
			}
		},
		{
			"from": [8.6, 13.52918, 5.59298],
			"to": [8.712, 13.62518, 6.10098],
			"rotation": {"angle": 0, "axis": "y", "origin": [8.963, 13.35985, 6.00698]},
			"faces": {
				"north": {"uv": [3, 3.125, 3, 3.125], "rotation": 270, "texture": "#0"},
				"east": {"uv": [3, 3.125, 3, 3.125], "rotation": 270, "texture": "#0"},
				"south": {"uv": [3, 3.125, 3, 3.125], "rotation": 270, "texture": "#0"},
				"west": {"uv": [3, 3.125, 3, 3.125], "rotation": 270, "texture": "#0"},
				"up": {"uv": [3, 3.125, 3, 3.125], "rotation": 270, "texture": "#0"},
				"down": {"uv": [3, 3.125, 3, 3.125], "rotation": 270, "texture": "#0"}
			}
		},
		{
			"from": [8.03391, 13.68829, 5.59298],
			"to": [8.17791, 13.78429, 6.10098],
			"rotation": {"angle": 22.5, "axis": "z", "origin": [8.39691, 13.51896, 6.00698]},
			"faces": {
				"north": {"uv": [3, 3.125, 3, 3.125], "rotation": 270, "texture": "#0"},
				"east": {"uv": [3, 3.125, 3, 3.125], "rotation": 270, "texture": "#0"},
				"south": {"uv": [3, 3.125, 3, 3.125], "rotation": 270, "texture": "#0"},
				"west": {"uv": [3, 3.125, 3, 3.125], "rotation": 270, "texture": "#0"},
				"up": {"uv": [3, 3.125, 3, 3.125], "rotation": 270, "texture": "#0"},
				"down": {"uv": [3, 3.125, 3, 3.125], "rotation": 270, "texture": "#0"}
			}
		},
		{
			"from": [8.55511, 13.56038, 5.59298],
			"to": [8.69911, 13.65638, 6.10098],
			"rotation": {"angle": -22.5, "axis": "z", "origin": [8.62711, 13.60838, 5.84698]},
			"faces": {
				"north": {"uv": [3, 3.125, 3, 3.125], "rotation": 270, "texture": "#0"},
				"east": {"uv": [3, 3.125, 3, 3.125], "rotation": 270, "texture": "#0"},
				"south": {"uv": [3, 3.125, 3, 3.125], "rotation": 270, "texture": "#0"},
				"west": {"uv": [3, 3.125, 3, 3.125], "rotation": 270, "texture": "#0"},
				"up": {"uv": [3, 3.125, 3, 3.125], "rotation": 270, "texture": "#0"},
				"down": {"uv": [3, 3.125, 3, 3.125], "rotation": 270, "texture": "#0"}
			}
		},
		{
			"from": [8.6, 12.91875, 5.86138],
			"to": [8.712, 13.55475, 6.30938],
			"rotation": {"angle": -22.5, "axis": "x", "origin": [8.963, 13.01275, 6.17205]},
			"faces": {
				"north": {"uv": [3, 3.125, 3, 3.125], "rotation": 90, "texture": "#0"},
				"east": {"uv": [3, 3.125, 3, 3.125], "rotation": 180, "texture": "#0"},
				"south": {"uv": [3, 3.125, 3, 3.125], "rotation": 270, "texture": "#0"},
				"west": {"uv": [3, 3.125, 3, 3.125], "texture": "#0"},
				"up": {"uv": [3, 3.125, 3, 3.125], "rotation": 90, "texture": "#0"},
				"down": {"uv": [3, 3.125, 3, 3.125], "rotation": 270, "texture": "#0"}
			}
		},
		{
			"from": [7.96, 12.91875, 5.86138],
			"to": [8.072, 13.55475, 6.30938],
			"rotation": {"angle": -22.5, "axis": "x", "origin": [8.323, 13.01275, 6.17205]},
			"faces": {
				"north": {"uv": [3, 3.125, 3, 3.125], "rotation": 90, "texture": "#0"},
				"east": {"uv": [3, 3.125, 3, 3.125], "rotation": 180, "texture": "#0"},
				"south": {"uv": [3, 3.125, 3, 3.125], "rotation": 270, "texture": "#0"},
				"west": {"uv": [3, 3.125, 3, 3.125], "texture": "#0"},
				"up": {"uv": [3, 3.125, 3, 3.125], "rotation": 90, "texture": "#0"},
				"down": {"uv": [3, 3.125, 3, 3.125], "rotation": 270, "texture": "#0"}
			}
		},
		{
			"from": [7.96, 12.94842, 5.33743],
			"to": [8.072, 13.55242, 5.78543],
			"rotation": {"angle": 22.5, "axis": "x", "origin": [8.323, 12.94642, 5.6481]},
			"faces": {
				"north": {"uv": [3, 3.125, 3, 3.125], "rotation": 90, "texture": "#0"},
				"east": {"uv": [3, 3.125, 3, 3.125], "rotation": 180, "texture": "#0"},
				"south": {"uv": [3, 3.125, 3, 3.125], "rotation": 270, "texture": "#0"},
				"west": {"uv": [3, 3.125, 3, 3.125], "texture": "#0"},
				"up": {"uv": [3, 3.125, 3, 3.125], "rotation": 90, "texture": "#0"},
				"down": {"uv": [3, 3.125, 3, 3.125], "rotation": 270, "texture": "#0"}
			}
		},
		{
			"from": [8.6, 12.94842, 5.33743],
			"to": [8.712, 13.55242, 5.78543],
			"rotation": {"angle": 22.5, "axis": "x", "origin": [8.963, 12.94642, 5.6481]},
			"faces": {
				"north": {"uv": [3, 3.125, 3, 3.125], "rotation": 90, "texture": "#0"},
				"east": {"uv": [3, 3.125, 3, 3.125], "rotation": 180, "texture": "#0"},
				"south": {"uv": [3, 3.125, 3, 3.125], "rotation": 270, "texture": "#0"},
				"west": {"uv": [3, 3.125, 3, 3.125], "texture": "#0"},
				"up": {"uv": [3, 3.125, 3, 3.125], "rotation": 90, "texture": "#0"},
				"down": {"uv": [3, 3.125, 3, 3.125], "rotation": 270, "texture": "#0"}
			}
		},
		{
			"from": [7.96, 12.5709, 5.14686],
			"to": [8.712, 12.8589, 5.55886],
			"rotation": {"angle": -22.5, "axis": "x", "origin": [8.323, 12.54823, 4.92086]},
			"faces": {
				"north": {"uv": [3, 3.125, 3, 3.125], "rotation": 90, "texture": "#0"},
				"east": {"uv": [3, 3.125, 3, 3.125], "rotation": 90, "texture": "#0"},
				"south": {"uv": [3, 3.125, 3, 3.125], "rotation": 90, "texture": "#0"},
				"west": {"uv": [3, 3.125, 3, 3.125], "rotation": 90, "texture": "#0"},
				"up": {"uv": [3, 3.125, 3, 3.125], "rotation": 270, "texture": "#0"},
				"down": {"uv": [3, 3.125, 3, 3.125], "rotation": 270, "texture": "#0"}
			}
		},
		{
			"from": [7.96, 12.55998, 5.2277],
			"to": [8.072, 12.71998, 5.3517],
			"rotation": {"angle": -45, "axis": "x", "origin": [8.323, 12.40931, 4.9377]},
			"faces": {
				"north": {"uv": [3, 3.125, 3, 3.125], "rotation": 90, "texture": "#0"},
				"east": {"uv": [3, 3.125, 3, 3.125], "rotation": 90, "texture": "#0"},
				"south": {"uv": [3, 3.125, 3, 3.125], "rotation": 90, "texture": "#0"},
				"west": {"uv": [3, 3.125, 3, 3.125], "rotation": 90, "texture": "#0"},
				"up": {"uv": [3, 3.125, 3, 3.125], "rotation": 270, "texture": "#0"},
				"down": {"uv": [3, 3.125, 3, 3.125], "rotation": 270, "texture": "#0"}
			}
		},
		{
			"from": [8.6, 12.55998, 5.2277],
			"to": [8.712, 12.71998, 5.3517],
			"rotation": {"angle": -45, "axis": "x", "origin": [8.963, 12.40931, 4.9377]},
			"faces": {
				"north": {"uv": [3, 3.125, 3, 3.125], "rotation": 90, "texture": "#0"},
				"east": {"uv": [3, 3.125, 3, 3.125], "rotation": 90, "texture": "#0"},
				"south": {"uv": [3, 3.125, 3, 3.125], "rotation": 90, "texture": "#0"},
				"west": {"uv": [3, 3.125, 3, 3.125], "rotation": 90, "texture": "#0"},
				"up": {"uv": [3, 3.125, 3, 3.125], "rotation": 270, "texture": "#0"},
				"down": {"uv": [3, 3.125, 3, 3.125], "rotation": 270, "texture": "#0"}
			}
		},
		{
			"from": [8.6, 13.05892, 5.544],
			"to": [8.712, 13.50692, 6.116],
			"rotation": {"angle": 0, "axis": "y", "origin": [8.656, 13.28292, 5.83]},
			"faces": {
				"north": {"uv": [3, 3.125, 3, 3.125], "rotation": 270, "texture": "#0"},
				"east": {"uv": [3, 3.125, 3, 3.125], "rotation": 270, "texture": "#0"},
				"south": {"uv": [3, 3.125, 3, 3.125], "rotation": 270, "texture": "#0"},
				"west": {"uv": [3, 3.125, 3, 3.125], "rotation": 270, "texture": "#0"},
				"up": {"uv": [3, 3.125, 3, 3.125], "rotation": 270, "texture": "#0"},
				"down": {"uv": [3, 3.125, 3, 3.125], "rotation": 270, "texture": "#0"}
			}
		},
		{
			"from": [7.992, 12.70692, 4.328],
			"to": [8.68, 13.02692, 6.116],
			"rotation": {"angle": 0, "axis": "y", "origin": [8.323, 12.95359, 5.894]},
			"faces": {
				"north": {"uv": [4.5, 4, 4.5, 4], "rotation": 270, "texture": "#0"},
				"east": {"uv": [4.5, 4, 4.5, 4], "rotation": 270, "texture": "#0"},
				"south": {"uv": [4.5, 4, 4.5, 4], "rotation": 270, "texture": "#0"},
				"west": {"uv": [4.5, 4, 4.5, 4], "rotation": 270, "texture": "#0"},
				"up": {"uv": [4.5, 4, 4.5, 4], "rotation": 270, "texture": "#0"},
				"down": {"uv": [4.5, 4, 4.5, 4], "rotation": 270, "texture": "#0"}
			}
		},
		{
			"from": [7.992, 12.41892, 4.328],
			"to": [8.68, 12.70692, 6.34],
			"rotation": {"angle": 0, "axis": "y", "origin": [8.323, 12.95359, 5.894]},
			"faces": {
				"north": {"uv": [3, 3.375, 3, 3.375], "rotation": 270, "texture": "#0"},
				"east": {"uv": [3, 3.375, 3, 3.375], "rotation": 270, "texture": "#0"},
				"south": {"uv": [3, 3.375, 3, 3.375], "rotation": 270, "texture": "#0"},
				"west": {"uv": [3, 3.375, 3, 3.375], "rotation": 270, "texture": "#0"},
				"up": {"uv": [3, 3.375, 3, 3.375], "rotation": 270, "texture": "#0"},
				"down": {"uv": [3, 3.375, 3, 3.375], "rotation": 270, "texture": "#0"}
			}
		}
	],
	"display": {
		"thirdperson_righthand": {
			"rotation": [0, 0, 7],
			"translation": [-1.5, -1.75, 2.75],
			"scale": [1.14, 1, 1]
		},
		"thirdperson_lefthand": {
			"rotation": [0, 0, 7],
			"translation": [-1.5, -1.75, 2.75],
			"scale": [1.14, 1, 1]
		},
		"firstperson_righthand": {
			"translation": [-5.25, 3.5, 2.75],
			"scale": [1.25, 1.19, 1.14]
		},
		"firstperson_lefthand": {
			"translation": [-5.25, 3.5, 2.75],
			"scale": [1.25, 1.19, 1.14]
		},
		"gui": {
			"rotation": [23, 38, -16],
			"translation": [-0.25, -1.25, 0],
			"scale": [1.64, 1.41461, 1.27094]
		},
		"head": {
			"rotation": [0, -139.5, 90],
			"translation": [-2.5, 6.5, 2.5],
			"scale": [1.89781, 1.89781, 1.89781]
		},
		"fixed": {
			"rotation": [0, 90, 0],
			"translation": [0, 0, -1.25],
			"scale": [1.22, 1.22, 1.22]
		}
	}
}