{
	"credit": "Made with Blockbench",
	"textures": {
		"0": "gci:items/gun_asha/all_in_one",
		"particle": "gci:items/gun_asha/all_in_one"
	},
	"elements": [
		{
			"from": [8.42355, 8.58781, -1.336],
			"to": [8.55155, 8.76381, 0.58],
			"rotation": {"angle": 0, "axis": "y", "origin": [8.51955, 8.67581, -0.026]},
			"faces": {
				"north": {"uv": [3, 3, 3, 3], "texture": "#0"},
				"east": {"uv": [3, 3, 3, 3], "rotation": 180, "texture": "#0"},
				"south": {"uv": [3, 3, 3, 3], "rotation": 180, "texture": "#0"},
				"west": {"uv": [3, 3, 3, 3], "rotation": 180, "texture": "#0"},
				"up": {"uv": [3, 3, 3, 3], "rotation": 180, "texture": "#0"},
				"down": {"uv": [3, 3, 3, 3], "rotation": 180, "texture": "#0"}
			}
		},
		{
			"from": [8.3787, 8.70741, -1.336],
			"to": [8.5547, 8.83541, 0.58],
			"rotation": {"angle": -45, "axis": "z", "origin": [8.4667, 8.80341, -0.026]},
			"faces": {
				"north": {"uv": [3, 3, 3, 3], "rotation": 90, "texture": "#0"},
				"east": {"uv": [3, 3, 3, 3], "rotation": 90, "texture": "#0"},
				"south": {"uv": [3, 3, 3, 3], "rotation": 90, "texture": "#0"},
				"west": {"uv": [3, 3, 3, 3], "rotation": 90, "texture": "#0"},
				"up": {"uv": [3, 3, 3, 3], "rotation": 90, "texture": "#0"},
				"down": {"uv": [3, 3, 3, 3], "rotation": 90, "texture": "#0"}
			}
		},
		{
			"from": [8.2511, 8.76026, -1.336],
			"to": [8.4271, 8.88826, 0.58],
			"rotation": {"angle": 0, "axis": "y", "origin": [8.323, 8.47735, -1.38382]},
			"faces": {
				"north": {"uv": [3, 3, 3, 3], "rotation": 90, "texture": "#0"},
				"east": {"uv": [3, 3, 3, 3], "rotation": 90, "texture": "#0"},
				"south": {"uv": [3, 3, 3, 3], "rotation": 90, "texture": "#0"},
				"west": {"uv": [3, 3, 3, 3], "rotation": 90, "texture": "#0"},
				"up": {"uv": [3, 3, 3, 3], "rotation": 90, "texture": "#0"},
				"down": {"uv": [3, 3, 3, 3], "rotation": 90, "texture": "#0"}
			}
		},
		{
			"from": [8.06285, 8.65161, -1.336],
			"to": [8.19085, 8.82761, 0.58],
			"rotation": {"angle": -45, "axis": "z", "origin": [8.23019, 8.6307, -0.026]},
			"faces": {
				"north": {"uv": [3, 3, 3, 3], "rotation": 180, "texture": "#0"},
				"east": {"uv": [3, 3, 3, 3], "texture": "#0"},
				"south": {"uv": [3, 3, 3, 3], "texture": "#0"},
				"west": {"uv": [3, 3, 3, 3], "texture": "#0"},
				"up": {"uv": [3, 3, 3, 3], "texture": "#0"},
				"down": {"uv": [3, 3, 3, 3], "texture": "#0"}
			}
		},
		{
			"from": [8.1873, 8.52716, -1.336],
			"to": [8.3633, 8.65516, 0.58],
			"rotation": {"angle": -45, "axis": "z", "origin": [8.23019, 8.6307, -0.026]},
			"faces": {
				"north": {"uv": [3, 3, 3, 3], "rotation": 270, "texture": "#0"},
				"east": {"uv": [3, 3, 3, 3], "rotation": 270, "texture": "#0"},
				"south": {"uv": [3, 3, 3, 3], "rotation": 270, "texture": "#0"},
				"west": {"uv": [3, 3, 3, 3], "rotation": 270, "texture": "#0"},
				"up": {"uv": [3, 3, 3, 3], "rotation": 270, "texture": "#0"},
				"down": {"uv": [3, 3, 3, 3], "rotation": 270, "texture": "#0"}
			}
		},
		{
			"from": [8.1873, 8.52716, 0.328],
			"to": [8.3633, 8.84716, 0.58],
			"rotation": {"angle": -45, "axis": "z", "origin": [8.23019, 8.6307, -0.026]},
			"faces": {
				"north": {"uv": [3, 3, 3, 3], "rotation": 270, "texture": "#0"},
				"east": {"uv": [3, 3, 3, 3], "rotation": 270, "texture": "#0"},
				"south": {"uv": [3, 3, 3, 3], "rotation": 270, "texture": "#0"},
				"west": {"uv": [3, 3, 3, 3], "rotation": 270, "texture": "#0"},
				"up": {"uv": [3, 3, 3, 3], "rotation": 270, "texture": "#0"},
				"down": {"uv": [3, 3, 3, 3], "rotation": 270, "texture": "#0"}
			}
		},
		{
			"from": [8.12665, 8.58781, -1.336],
			"to": [8.25465, 8.76381, 0.58],
			"rotation": {"angle": 0, "axis": "y", "origin": [8.23019, 8.6307, -0.026]},
			"faces": {
				"north": {"uv": [3, 3, 3, 3], "rotation": 180, "texture": "#0"},
				"east": {"uv": [3, 3, 3, 3], "texture": "#0"},
				"south": {"uv": [3, 3, 3, 3], "texture": "#0"},
				"west": {"uv": [3, 3, 3, 3], "texture": "#0"},
				"up": {"uv": [3, 3, 3, 3], "texture": "#0"},
				"down": {"uv": [3, 3, 3, 3], "texture": "#0"}
			}
		},
		{
			"from": [8.2511, 8.46336, -1.336],
			"to": [8.4271, 8.59136, 0.58],
			"rotation": {"angle": 0, "axis": "y", "origin": [8.23019, 8.6307, -0.026]},
			"faces": {
				"north": {"uv": [3, 3, 3, 3], "rotation": 270, "texture": "#0"},
				"east": {"uv": [3, 3, 3, 3], "rotation": 270, "texture": "#0"},
				"south": {"uv": [3, 3, 3, 3], "rotation": 270, "texture": "#0"},
				"west": {"uv": [3, 3, 3, 3], "rotation": 270, "texture": "#0"},
				"up": {"uv": [3, 3, 3, 3], "rotation": 270, "texture": "#0"},
				"down": {"uv": [3, 3, 3, 3], "rotation": 270, "texture": "#0"}
			}
		},
		{
			"from": [8.01739, 8.53706, -0.792],
			"to": [8.56139, 9.19306, -0.54],
			"rotation": {"angle": 0, "axis": "y", "origin": [8.08139, 8.65706, -1.05]},
			"faces": {
				"north": {"uv": [2.875, 3.5, 2.875, 3.5], "rotation": 180, "texture": "#0"},
				"east": {"uv": [2.875, 3.5, 2.875, 3.5], "rotation": 180, "texture": "#0"},
				"south": {"uv": [2.875, 3.5, 2.875, 3.5], "rotation": 180, "texture": "#0"},
				"west": {"uv": [2.875, 3.5, 2.875, 3.5], "rotation": 180, "texture": "#0"},
				"up": {"uv": [2.875, 3.5, 2.875, 3.5], "rotation": 180, "texture": "#0"},
				"down": {"uv": [2.875, 3.5, 2.875, 3.5], "rotation": 180, "texture": "#0"}
			}
		},
		{
			"from": [8.01739, 8.53706, -0.024],
			"to": [8.56139, 9.19306, 0.228],
			"rotation": {"angle": 0, "axis": "y", "origin": [8.08139, 8.65706, -0.282]},
			"faces": {
				"north": {"uv": [2.875, 3.5, 2.875, 3.5], "rotation": 180, "texture": "#0"},
				"east": {"uv": [2.875, 3.5, 2.875, 3.5], "rotation": 180, "texture": "#0"},
				"south": {"uv": [2.875, 3.5, 2.875, 3.5], "rotation": 180, "texture": "#0"},
				"west": {"uv": [2.875, 3.5, 2.875, 3.5], "rotation": 180, "texture": "#0"},
				"up": {"uv": [2.875, 3.5, 2.875, 3.5], "rotation": 180, "texture": "#0"},
				"down": {"uv": [2.875, 3.5, 2.875, 3.5], "rotation": 180, "texture": "#0"}
			}
		},
		{
			"from": [8.53281, 8.53706, -0.792],
			"to": [8.66081, 9.19306, -0.54],
			"rotation": {"angle": 0, "axis": "y", "origin": [8.59681, 8.65706, -1.05]},
			"faces": {
				"north": {"uv": [2.875, 3.5, 2.875, 3.5], "texture": "#0"},
				"east": {"uv": [2.875, 3.5, 2.875, 3.5], "texture": "#0"},
				"south": {"uv": [2.875, 3.5, 2.875, 3.5], "texture": "#0"},
				"west": {"uv": [2.875, 3.5, 2.875, 3.5], "texture": "#0"},
				"up": {"uv": [2.875, 3.5, 2.875, 3.5], "texture": "#0"},
				"down": {"uv": [2.875, 3.5, 2.875, 3.5], "texture": "#0"}
			}
		},
		{
			"from": [8.53281, 8.53706, -0.024],
			"to": [8.66081, 9.19306, 0.228],
			"rotation": {"angle": 0, "axis": "y", "origin": [8.59681, 8.65706, -0.282]},
			"faces": {
				"north": {"uv": [2.875, 3.5, 2.875, 3.5], "texture": "#0"},
				"east": {"uv": [2.875, 3.5, 2.875, 3.5], "texture": "#0"},
				"south": {"uv": [2.875, 3.5, 2.875, 3.5], "texture": "#0"},
				"west": {"uv": [2.875, 3.5, 2.875, 3.5], "texture": "#0"},
				"up": {"uv": [2.875, 3.5, 2.875, 3.5], "texture": "#0"},
				"down": {"uv": [2.875, 3.5, 2.875, 3.5], "texture": "#0"}
			}
		},
		{
			"from": [8.1871, 8.36736, -0.792],
			"to": [8.4911, 8.49536, -0.54],
			"rotation": {"angle": 0, "axis": "y", "origin": [8.3711, 8.43136, -1.05]},
			"faces": {
				"north": {"uv": [2.875, 3.5, 2.875, 3.5], "rotation": 270, "texture": "#0"},
				"east": {"uv": [2.875, 3.5, 2.875, 3.5], "rotation": 270, "texture": "#0"},
				"south": {"uv": [2.875, 3.5, 2.875, 3.5], "rotation": 270, "texture": "#0"},
				"west": {"uv": [2.875, 3.5, 2.875, 3.5], "rotation": 270, "texture": "#0"},
				"up": {"uv": [2.875, 3.5, 2.875, 3.5], "rotation": 270, "texture": "#0"},
				"down": {"uv": [2.875, 3.5, 2.875, 3.5], "rotation": 270, "texture": "#0"}
			}
		},
		{
			"from": [8.1871, 8.36736, -0.024],
			"to": [8.4911, 8.49536, 0.228],
			"rotation": {"angle": 0, "axis": "y", "origin": [8.3711, 8.43136, -0.282]},
			"faces": {
				"north": {"uv": [2.875, 3.5, 2.875, 3.5], "rotation": 270, "texture": "#0"},
				"east": {"uv": [2.875, 3.5, 2.875, 3.5], "rotation": 270, "texture": "#0"},
				"south": {"uv": [2.875, 3.5, 2.875, 3.5], "rotation": 270, "texture": "#0"},
				"west": {"uv": [2.875, 3.5, 2.875, 3.5], "rotation": 270, "texture": "#0"},
				"up": {"uv": [2.875, 3.5, 2.875, 3.5], "rotation": 270, "texture": "#0"},
				"down": {"uv": [2.875, 3.5, 2.875, 3.5], "rotation": 270, "texture": "#0"}
			}
		},
		{
			"from": [8.0275, 8.43347, -0.792],
			"to": [8.2675, 8.56147, -0.54],
			"rotation": {"angle": -45, "axis": "z", "origin": [8.1475, 8.49747, -1.05]},
			"faces": {
				"north": {"uv": [2.875, 3.5, 2.875, 3.5], "rotation": 270, "texture": "#0"},
				"east": {"uv": [2.875, 3.5, 2.875, 3.5], "rotation": 270, "texture": "#0"},
				"south": {"uv": [2.875, 3.5, 2.875, 3.5], "rotation": 270, "texture": "#0"},
				"west": {"uv": [2.875, 3.5, 2.875, 3.5], "rotation": 270, "texture": "#0"},
				"up": {"uv": [2.875, 3.5, 2.875, 3.5], "rotation": 270, "texture": "#0"},
				"down": {"uv": [2.875, 3.5, 2.875, 3.5], "rotation": 270, "texture": "#0"}
			}
		},
		{
			"from": [8.0275, 8.43347, -0.024],
			"to": [8.2675, 8.56147, 0.228],
			"rotation": {"angle": -45, "axis": "z", "origin": [8.1475, 8.49747, -0.282]},
			"faces": {
				"north": {"uv": [2.875, 3.5, 2.875, 3.5], "rotation": 270, "texture": "#0"},
				"east": {"uv": [2.875, 3.5, 2.875, 3.5], "rotation": 270, "texture": "#0"},
				"south": {"uv": [2.875, 3.5, 2.875, 3.5], "rotation": 270, "texture": "#0"},
				"west": {"uv": [2.875, 3.5, 2.875, 3.5], "rotation": 270, "texture": "#0"},
				"up": {"uv": [2.875, 3.5, 2.875, 3.5], "rotation": 270, "texture": "#0"},
				"down": {"uv": [2.875, 3.5, 2.875, 3.5], "rotation": 270, "texture": "#0"}
			}
		},
		{
			"from": [8.4107, 8.43347, -0.792],
			"to": [8.6507, 8.56147, -0.54],
			"rotation": {"angle": 45, "axis": "z", "origin": [8.5307, 8.49747, -1.05]},
			"faces": {
				"north": {"uv": [2.875, 3.5, 2.875, 3.5], "rotation": 270, "texture": "#0"},
				"east": {"uv": [2.875, 3.5, 2.875, 3.5], "rotation": 270, "texture": "#0"},
				"south": {"uv": [2.875, 3.5, 2.875, 3.5], "rotation": 270, "texture": "#0"},
				"west": {"uv": [2.875, 3.5, 2.875, 3.5], "rotation": 270, "texture": "#0"},
				"up": {"uv": [2.875, 3.5, 2.875, 3.5], "rotation": 270, "texture": "#0"},
				"down": {"uv": [2.875, 3.5, 2.875, 3.5], "rotation": 270, "texture": "#0"}
			}
		},
		{
			"from": [8.4107, 8.43347, -0.024],
			"to": [8.6507, 8.56147, 0.228],
			"rotation": {"angle": 45, "axis": "z", "origin": [8.5307, 8.49747, -0.282]},
			"faces": {
				"north": {"uv": [2.875, 3.5, 2.875, 3.5], "rotation": 270, "texture": "#0"},
				"east": {"uv": [2.875, 3.5, 2.875, 3.5], "rotation": 270, "texture": "#0"},
				"south": {"uv": [2.875, 3.5, 2.875, 3.5], "rotation": 270, "texture": "#0"},
				"west": {"uv": [2.875, 3.5, 2.875, 3.5], "rotation": 270, "texture": "#0"},
				"up": {"uv": [2.875, 3.5, 2.875, 3.5], "rotation": 270, "texture": "#0"},
				"down": {"uv": [2.875, 3.5, 2.875, 3.5], "rotation": 270, "texture": "#0"}
			}
		},
		{
			"from": [8.3707, 8.46021, -1.336],
			"to": [8.4987, 8.63621, 0.58],
			"rotation": {"angle": -45, "axis": "z", "origin": [8.4667, 8.54821, -0.026]},
			"faces": {
				"north": {"uv": [3, 3, 3, 3], "texture": "#0"},
				"east": {"uv": [3, 3, 3, 3], "rotation": 180, "texture": "#0"},
				"south": {"uv": [3, 3, 3, 3], "rotation": 180, "texture": "#0"},
				"west": {"uv": [3, 3, 3, 3], "rotation": 180, "texture": "#0"},
				"up": {"uv": [3, 3, 3, 3], "rotation": 180, "texture": "#0"},
				"down": {"uv": [3, 3, 3, 3], "rotation": 180, "texture": "#0"}
			}
		},
		{
			"from": [8.1787, 8.46021, -1.304],
			"to": [8.4347, 8.63621, -1.212],
			"rotation": {"angle": -45, "axis": "z", "origin": [8.4667, 8.54821, -0.058]},
			"faces": {
				"north": {"uv": [6.875, 11.5, 6.875, 11.5], "texture": "#0"},
				"east": {"uv": [6.875, 11.5, 6.875, 11.5], "texture": "#0"},
				"south": {"uv": [6.875, 11.5, 6.875, 11.5], "texture": "#0"},
				"west": {"uv": [6.875, 11.5, 6.875, 11.5], "texture": "#0"},
				"up": {"uv": [6.875, 11.5, 6.875, 11.5], "texture": "#0"},
				"down": {"uv": [6.875, 11.5, 6.875, 11.5], "texture": "#0"}
			}
		},
		{
			"from": [8.338, 8.63735, -15.68],
			"to": [8.338, 8.71735, -1.244],
			"rotation": {"angle": 0, "axis": "y", "origin": [8.44956, 8.66135, -1.722]},
			"faces": {
				"north": {"uv": [7.375, 7.625, 7.375, 7.625], "texture": "#0"},
				"east": {"uv": [8.875, 7.125, 8.875, 7.125], "texture": "#0"},
				"south": {"uv": [8.875, 7.125, 8.875, 7.125], "texture": "#0"},
				"west": {"uv": [8.875, 7.125, 8.875, 7.125], "texture": "#0"},
				"up": {"uv": [8.875, 7.125, 8.875, 7.125], "texture": "#0"},
				"down": {"uv": [8.875, 7.125, 8.875, 7.125], "texture": "#0"}
			}
		},
		{
			"from": [8.298, 8.67735, -15.68],
			"to": [8.378, 8.67735, -1.244],
			"rotation": {"angle": 0, "axis": "y", "origin": [8.338, 8.67735, -4.01]},
			"faces": {
				"north": {"uv": [7.375, 7.625, 7.375, 7.625], "rotation": 90, "texture": "#0"},
				"east": {"uv": [8.875, 7.125, 8.875, 7.125], "rotation": 270, "texture": "#0"},
				"south": {"uv": [8.875, 7.125, 8.875, 7.125], "rotation": 270, "texture": "#0"},
				"west": {"uv": [8.875, 7.125, 8.875, 7.125], "rotation": 270, "texture": "#0"},
				"up": {"uv": [8.875, 7.125, 8.875, 7.125], "rotation": 270, "texture": "#0"},
				"down": {"uv": [8.875, 7.125, 8.875, 7.125], "rotation": 270, "texture": "#0"}
			}
		},
		{
			"from": [7.99088, 9.04826, -0.68822],
			"to": [8.69088, 9.16026, -0.57622],
			"rotation": {"angle": 45, "axis": "x", "origin": [7.95688, 9.12026, -0.68022]},
			"faces": {
				"north": {"uv": [4.375, 3.375, 4.375, 3.375], "rotation": 90, "texture": "#0"},
				"east": {"uv": [4.375, 3.375, 4.375, 3.375], "rotation": 90, "texture": "#0"},
				"south": {"uv": [4.375, 3.375, 4.375, 3.375], "rotation": 90, "texture": "#0"},
				"west": {"uv": [4.375, 3.375, 4.375, 3.375], "rotation": 90, "texture": "#0"},
				"up": {"uv": [4.375, 3.375, 4.375, 3.375], "rotation": 90, "texture": "#0"},
				"down": {"uv": [4.375, 3.375, 4.375, 3.375], "rotation": 90, "texture": "#0"}
			}
		},
		{
			"from": [7.99088, 9.04826, 0.07978],
			"to": [8.69088, 9.16026, 0.19178],
			"rotation": {"angle": 45, "axis": "x", "origin": [7.95688, 9.12026, 0.08778]},
			"faces": {
				"north": {"uv": [4.375, 3.375, 4.375, 3.375], "rotation": 90, "texture": "#0"},
				"east": {"uv": [4.375, 3.375, 4.375, 3.375], "rotation": 90, "texture": "#0"},
				"south": {"uv": [4.375, 3.375, 4.375, 3.375], "rotation": 90, "texture": "#0"},
				"west": {"uv": [4.375, 3.375, 4.375, 3.375], "rotation": 90, "texture": "#0"},
				"up": {"uv": [4.375, 3.375, 4.375, 3.375], "rotation": 90, "texture": "#0"},
				"down": {"uv": [4.375, 3.375, 4.375, 3.375], "rotation": 90, "texture": "#0"}
			}
		}
	],
	"display": {
		"thirdperson_righthand": {
			"rotation": [0, 0, 7],
			"translation": [-1.5, -1.75, 2.75],
			"scale": [1.14, 1, 1]
		},
		"thirdperson_lefthand": {
			"rotation": [0, 0, 7],
			"translation": [-1.5, -1.75, 2.75],
			"scale": [1.14, 1, 1]
		},
		"firstperson_righthand": {
			"translation": [-5.25, 3.5, 2.75],
			"scale": [1.25, 1.19, 1.14]
		},
		"firstperson_lefthand": {
			"translation": [-5.25, 3.5, 2.75],
			"scale": [1.25, 1.19, 1.14]
		},
		"gui": {
			"rotation": [23, 38, -16],
			"translation": [-0.25, -1.25, 0],
			"scale": [1.64, 1.41461, 1.27094]
		},
		"head": {
			"rotation": [0, -139.5, 90],
			"translation": [-2.5, 6.5, 2.5],
			"scale": [1.89781, 1.89781, 1.89781]
		},
		"fixed": {
			"rotation": [0, 90, 0],
			"translation": [0, 0, -1.25],
			"scale": [1.22, 1.22, 1.22]
		}
	}
}