{
	"credit": "Made with Blockbench",
	"textures": {
		"0": "gci:items/common/mpz",
		"particle": "gci:items/common/mpz"
	},
	"elements": [
		{
			"from": [4.77062, 7.26832, 4.27667],
			"to": [5.0983, 7.43216, 10.82781],
			"rotation": {"angle": 0, "axis": "y", "origin": [4.93446, 7.0366, 4.53144]},
			"faces": {
				"north": {"uv": [9, 1.33333, 9.66667, 1.66667], "rotation": 270, "texture": "#0"},
				"east": {"uv": [9, 1.33333, 9.66667, 1.66667], "rotation": 270, "texture": "#0"},
				"south": {"uv": [9, 1.33333, 9.66667, 1.66667], "rotation": 270, "texture": "#0"},
				"west": {"uv": [9, 1.33333, 9.66667, 1.66667], "rotation": 270, "texture": "#0"},
				"up": {"uv": [9, 1.33333, 9.66667, 1.66667], "rotation": 270, "texture": "#0"},
				"down": {"uv": [9, 1.33333, 9.66667, 1.66667], "rotation": 270, "texture": "#0"}
			}
		},
		{
			"from": [5.16616, 6.87276, 4.27667],
			"to": [5.33, 7.20044, 10.82781],
			"rotation": {"angle": 45, "axis": "z", "origin": [4.93446, 7.0366, 4.53144]},
			"faces": {
				"north": {"uv": [9, 1.33333, 9.66667, 1.66667], "rotation": 270, "texture": "#0"},
				"east": {"uv": [9, 1.33333, 9.66667, 1.66667], "rotation": 270, "texture": "#0"},
				"south": {"uv": [9, 1.33333, 9.66667, 1.66667], "rotation": 270, "texture": "#0"},
				"west": {"uv": [9, 1.33333, 9.66667, 1.66667], "rotation": 270, "texture": "#0"},
				"up": {"uv": [9, 1.33333, 9.66667, 1.66667], "rotation": 270, "texture": "#0"},
				"down": {"uv": [9, 1.33333, 9.66667, 1.66667], "rotation": 270, "texture": "#0"}
			}
		},
		{
			"from": [4.77062, 7.26832, 4.27667],
			"to": [5.0983, 7.43216, 10.82781],
			"rotation": {"angle": 45, "axis": "z", "origin": [4.93446, 7.0366, 4.53144]},
			"faces": {
				"north": {"uv": [9, 1.33333, 9.66667, 1.66667], "rotation": 90, "texture": "#0"},
				"east": {"uv": [9, 1.33333, 9.66667, 1.66667], "rotation": 90, "texture": "#0"},
				"south": {"uv": [9, 1.33333, 9.66667, 1.66667], "rotation": 90, "texture": "#0"},
				"west": {"uv": [9, 1.33333, 9.66667, 1.66667], "rotation": 90, "texture": "#0"},
				"up": {"uv": [9, 1.33333, 9.66667, 1.66667], "rotation": 90, "texture": "#0"},
				"down": {"uv": [9, 1.33333, 9.66667, 1.66667], "rotation": 90, "texture": "#0"}
			}
		},
		{
			"from": [4.5389, 6.87276, 4.27667],
			"to": [4.70274, 7.20044, 10.82781],
			"rotation": {"angle": 0, "axis": "y", "origin": [4.93446, 7.0366, 4.53144]},
			"faces": {
				"north": {"uv": [9, 1.33333, 9.66667, 1.66667], "texture": "#0"},
				"east": {"uv": [9, 1.33333, 9.66667, 1.66667], "texture": "#0"},
				"south": {"uv": [9, 1.33333, 9.66667, 1.66667], "texture": "#0"},
				"west": {"uv": [9, 1.33333, 9.66667, 1.66667], "texture": "#0"},
				"up": {"uv": [9, 1.33333, 9.66667, 1.66667], "texture": "#0"},
				"down": {"uv": [9, 1.33333, 9.66667, 1.66667], "texture": "#0"}
			}
		},
		{
			"from": [5.16616, 6.87276, 4.27667],
			"to": [5.33, 7.20044, 10.82781],
			"rotation": {"angle": 0, "axis": "y", "origin": [4.93446, 7.0366, 4.53144]},
			"faces": {
				"north": {"uv": [9, 1.33333, 9.66667, 1.66667], "rotation": 270, "texture": "#0"},
				"east": {"uv": [9, 1.33333, 9.66667, 1.66667], "rotation": 270, "texture": "#0"},
				"south": {"uv": [9, 1.33333, 9.66667, 1.66667], "rotation": 270, "texture": "#0"},
				"west": {"uv": [9, 1.33333, 9.66667, 1.66667], "rotation": 270, "texture": "#0"},
				"up": {"uv": [9, 1.33333, 9.66667, 1.66667], "rotation": 270, "texture": "#0"},
				"down": {"uv": [9, 1.33333, 9.66667, 1.66667], "rotation": 270, "texture": "#0"}
			}
		},
		{
			"from": [4.77062, 6.64106, 4.27667],
			"to": [5.0983, 6.8049, 10.82781],
			"rotation": {"angle": 45, "axis": "z", "origin": [4.93446, 7.0366, 4.53144]},
			"faces": {
				"north": {"uv": [9, 1.33333, 9.66667, 1.66667], "rotation": 90, "texture": "#0"},
				"east": {"uv": [9, 1.33333, 9.66667, 1.66667], "rotation": 90, "texture": "#0"},
				"south": {"uv": [9, 1.33333, 9.66667, 1.66667], "rotation": 90, "texture": "#0"},
				"west": {"uv": [9, 1.33333, 9.66667, 1.66667], "rotation": 90, "texture": "#0"},
				"up": {"uv": [9, 1.33333, 9.66667, 1.66667], "rotation": 90, "texture": "#0"},
				"down": {"uv": [9, 1.33333, 9.66667, 1.66667], "rotation": 90, "texture": "#0"}
			}
		},
		{
			"from": [4.77062, 6.64106, 4.27667],
			"to": [5.0983, 6.8049, 10.82781],
			"rotation": {"angle": 0, "axis": "y", "origin": [4.93446, 7.0366, 4.53144]},
			"faces": {
				"north": {"uv": [9, 1.33333, 9.66667, 1.66667], "rotation": 270, "texture": "#0"},
				"east": {"uv": [9, 1.33333, 9.66667, 1.66667], "rotation": 270, "texture": "#0"},
				"south": {"uv": [9, 1.33333, 9.66667, 1.66667], "rotation": 270, "texture": "#0"},
				"west": {"uv": [9, 1.33333, 9.66667, 1.66667], "rotation": 270, "texture": "#0"},
				"up": {"uv": [9, 1.33333, 9.66667, 1.66667], "rotation": 270, "texture": "#0"},
				"down": {"uv": [9, 1.33333, 9.66667, 1.66667], "rotation": 270, "texture": "#0"}
			}
		},
		{
			"from": [4.5389, 6.87276, 4.27667],
			"to": [4.70274, 7.20044, 10.82781],
			"rotation": {"angle": 45, "axis": "z", "origin": [4.93446, 7.0366, 4.53144]},
			"faces": {
				"north": {"uv": [9, 1.33333, 9.66667, 1.66667], "rotation": 180, "texture": "#0"},
				"east": {"uv": [9, 1.33333, 9.66667, 1.66667], "rotation": 180, "texture": "#0"},
				"south": {"uv": [9, 1.33333, 9.66667, 1.66667], "rotation": 180, "texture": "#0"},
				"west": {"uv": [9, 1.33333, 9.66667, 1.66667], "rotation": 180, "texture": "#0"},
				"up": {"uv": [9, 1.33333, 9.66667, 1.66667], "rotation": 180, "texture": "#0"},
				"down": {"uv": [9, 1.33333, 9.66667, 1.66667], "rotation": 180, "texture": "#0"}
			}
		},
		{
			"from": [4.75423, 7.29149, 10.29791],
			"to": [5.11468, 7.47171, 10.95057],
			"rotation": {"angle": 45, "axis": "z", "origin": [4.93446, 7.0366, 10.37336]},
			"faces": {
				"north": {"uv": [9, 1.33333, 9.66667, 1.66667], "rotation": 90, "texture": "#0"},
				"east": {"uv": [9, 1.33333, 9.66667, 1.66667], "rotation": 90, "texture": "#0"},
				"south": {"uv": [9, 1.33333, 9.66667, 1.66667], "rotation": 90, "texture": "#0"},
				"west": {"uv": [9, 1.33333, 9.66667, 1.66667], "rotation": 90, "texture": "#0"},
				"up": {"uv": [9, 1.33333, 9.66667, 1.66667], "rotation": 90, "texture": "#0"},
				"down": {"uv": [9, 1.33333, 9.66667, 1.66667], "rotation": 90, "texture": "#0"}
			}
		},
		{
			"from": [4.49935, 6.85638, 10.29791],
			"to": [4.67957, 7.21683, 10.95057],
			"rotation": {"angle": 0, "axis": "y", "origin": [4.93446, 7.0366, 10.37336]},
			"faces": {
				"north": {"uv": [9, 1.33333, 9.66667, 1.66667], "texture": "#0"},
				"east": {"uv": [9, 1.33333, 9.66667, 1.66667], "texture": "#0"},
				"south": {"uv": [9, 1.33333, 9.66667, 1.66667], "texture": "#0"},
				"west": {"uv": [9, 1.33333, 9.66667, 1.66667], "texture": "#0"},
				"up": {"uv": [9, 1.33333, 9.66667, 1.66667], "texture": "#0"},
				"down": {"uv": [9, 1.33333, 9.66667, 1.66667], "texture": "#0"}
			}
		},
		{
			"from": [4.49934, 6.85637, 10.29791],
			"to": [4.67957, 7.21682, 10.95057],
			"rotation": {"angle": 45, "axis": "z", "origin": [4.93446, 7.0366, 10.37336]},
			"faces": {
				"north": {"uv": [9, 1.33333, 9.66667, 1.66667], "rotation": 180, "texture": "#0"},
				"east": {"uv": [9, 1.33333, 9.66667, 1.66667], "rotation": 180, "texture": "#0"},
				"south": {"uv": [9, 1.33333, 9.66667, 1.66667], "rotation": 180, "texture": "#0"},
				"west": {"uv": [9, 1.33333, 9.66667, 1.66667], "rotation": 180, "texture": "#0"},
				"up": {"uv": [9, 1.33333, 9.66667, 1.66667], "rotation": 180, "texture": "#0"},
				"down": {"uv": [9, 1.33333, 9.66667, 1.66667], "rotation": 180, "texture": "#0"}
			}
		},
		{
			"from": [4.75424, 7.29149, 10.29791],
			"to": [5.11468, 7.47172, 10.95057],
			"rotation": {"angle": 0, "axis": "y", "origin": [4.93446, 7.0366, 10.37336]},
			"faces": {
				"north": {"uv": [9, 1.33333, 9.66667, 1.66667], "rotation": 270, "texture": "#0"},
				"east": {"uv": [9, 1.33333, 9.66667, 1.66667], "rotation": 270, "texture": "#0"},
				"south": {"uv": [9, 1.33333, 9.66667, 1.66667], "rotation": 270, "texture": "#0"},
				"west": {"uv": [9, 1.33333, 9.66667, 1.66667], "rotation": 270, "texture": "#0"},
				"up": {"uv": [9, 1.33333, 9.66667, 1.66667], "rotation": 270, "texture": "#0"},
				"down": {"uv": [9, 1.33333, 9.66667, 1.66667], "rotation": 270, "texture": "#0"}
			}
		},
		{
			"from": [5.18933, 6.85637, 10.29791],
			"to": [5.36955, 7.21682, 10.95057],
			"rotation": {"angle": 45, "axis": "z", "origin": [4.93446, 7.0366, 10.37336]},
			"faces": {
				"north": {"uv": [9, 1.33333, 9.66667, 1.66667], "rotation": 270, "texture": "#0"},
				"east": {"uv": [9, 1.33333, 9.66667, 1.66667], "rotation": 270, "texture": "#0"},
				"south": {"uv": [9, 1.33333, 9.66667, 1.66667], "rotation": 270, "texture": "#0"},
				"west": {"uv": [9, 1.33333, 9.66667, 1.66667], "rotation": 270, "texture": "#0"},
				"up": {"uv": [9, 1.33333, 9.66667, 1.66667], "rotation": 270, "texture": "#0"},
				"down": {"uv": [9, 1.33333, 9.66667, 1.66667], "rotation": 270, "texture": "#0"}
			}
		},
		{
			"from": [5.18933, 6.85638, 10.29791],
			"to": [5.36956, 7.21683, 10.95057],
			"rotation": {"angle": 0, "axis": "y", "origin": [4.93446, 7.0366, 10.37336]},
			"faces": {
				"north": {"uv": [9, 1.33333, 9.66667, 1.66667], "rotation": 270, "texture": "#0"},
				"east": {"uv": [9, 1.33333, 9.66667, 1.66667], "rotation": 270, "texture": "#0"},
				"south": {"uv": [9, 1.33333, 9.66667, 1.66667], "rotation": 270, "texture": "#0"},
				"west": {"uv": [9, 1.33333, 9.66667, 1.66667], "rotation": 270, "texture": "#0"},
				"up": {"uv": [9, 1.33333, 9.66667, 1.66667], "rotation": 270, "texture": "#0"},
				"down": {"uv": [9, 1.33333, 9.66667, 1.66667], "rotation": 270, "texture": "#0"}
			}
		},
		{
			"from": [4.75423, 6.6015, 10.29791],
			"to": [5.11468, 6.78173, 10.95057],
			"rotation": {"angle": 45, "axis": "z", "origin": [4.93446, 7.0366, 10.37336]},
			"faces": {
				"north": {"uv": [9, 1.33333, 9.66667, 1.66667], "rotation": 90, "texture": "#0"},
				"east": {"uv": [9, 1.33333, 9.66667, 1.66667], "rotation": 90, "texture": "#0"},
				"south": {"uv": [9, 1.33333, 9.66667, 1.66667], "rotation": 90, "texture": "#0"},
				"west": {"uv": [9, 1.33333, 9.66667, 1.66667], "rotation": 90, "texture": "#0"},
				"up": {"uv": [9, 1.33333, 9.66667, 1.66667], "rotation": 90, "texture": "#0"},
				"down": {"uv": [9, 1.33333, 9.66667, 1.66667], "rotation": 90, "texture": "#0"}
			}
		},
		{
			"from": [4.75424, 6.6015, 10.29791],
			"to": [5.11468, 6.78173, 10.95057],
			"rotation": {"angle": 0, "axis": "y", "origin": [4.93446, 7.0366, 10.37336]},
			"faces": {
				"north": {"uv": [9, 1.33333, 9.66667, 1.66667], "rotation": 270, "texture": "#0"},
				"east": {"uv": [9, 1.33333, 9.66667, 1.66667], "rotation": 270, "texture": "#0"},
				"south": {"uv": [9, 1.33333, 9.66667, 1.66667], "rotation": 270, "texture": "#0"},
				"west": {"uv": [9, 1.33333, 9.66667, 1.66667], "rotation": 270, "texture": "#0"},
				"up": {"uv": [9, 1.33333, 9.66667, 1.66667], "rotation": 270, "texture": "#0"},
				"down": {"uv": [9, 1.33333, 9.66667, 1.66667], "rotation": 270, "texture": "#0"}
			}
		},
		{
			"from": [4.75424, 6.6015, 8.65951],
			"to": [5.11468, 6.78173, 9.31217],
			"rotation": {"angle": 0, "axis": "y", "origin": [4.93446, 7.0366, 8.73496]},
			"faces": {
				"north": {"uv": [9, 1.33333, 9.66667, 1.66667], "rotation": 270, "texture": "#0"},
				"east": {"uv": [9, 1.33333, 9.66667, 1.66667], "rotation": 270, "texture": "#0"},
				"south": {"uv": [9, 1.33333, 9.66667, 1.66667], "rotation": 270, "texture": "#0"},
				"west": {"uv": [9, 1.33333, 9.66667, 1.66667], "rotation": 270, "texture": "#0"},
				"up": {"uv": [9, 1.33333, 9.66667, 1.66667], "rotation": 270, "texture": "#0"},
				"down": {"uv": [9, 1.33333, 9.66667, 1.66667], "rotation": 270, "texture": "#0"}
			}
		},
		{
			"from": [4.75423, 6.6015, 8.65951],
			"to": [5.11468, 6.78173, 9.31217],
			"rotation": {"angle": 45, "axis": "z", "origin": [4.93446, 7.0366, 8.73496]},
			"faces": {
				"north": {"uv": [9, 1.33333, 9.66667, 1.66667], "rotation": 90, "texture": "#0"},
				"east": {"uv": [9, 1.33333, 9.66667, 1.66667], "rotation": 90, "texture": "#0"},
				"south": {"uv": [9, 1.33333, 9.66667, 1.66667], "rotation": 90, "texture": "#0"},
				"west": {"uv": [9, 1.33333, 9.66667, 1.66667], "rotation": 90, "texture": "#0"},
				"up": {"uv": [9, 1.33333, 9.66667, 1.66667], "rotation": 90, "texture": "#0"},
				"down": {"uv": [9, 1.33333, 9.66667, 1.66667], "rotation": 90, "texture": "#0"}
			}
		},
		{
			"from": [5.18933, 6.85638, 8.65951],
			"to": [5.36956, 7.21683, 9.31217],
			"rotation": {"angle": 0, "axis": "y", "origin": [4.93446, 7.0366, 8.73496]},
			"faces": {
				"north": {"uv": [9, 1.33333, 9.66667, 1.66667], "rotation": 270, "texture": "#0"},
				"east": {"uv": [9, 1.33333, 9.66667, 1.66667], "rotation": 270, "texture": "#0"},
				"south": {"uv": [9, 1.33333, 9.66667, 1.66667], "rotation": 270, "texture": "#0"},
				"west": {"uv": [9, 1.33333, 9.66667, 1.66667], "rotation": 270, "texture": "#0"},
				"up": {"uv": [9, 1.33333, 9.66667, 1.66667], "rotation": 270, "texture": "#0"},
				"down": {"uv": [9, 1.33333, 9.66667, 1.66667], "rotation": 270, "texture": "#0"}
			}
		},
		{
			"from": [5.18933, 6.85637, 8.65951],
			"to": [5.36955, 7.21682, 9.31217],
			"rotation": {"angle": 45, "axis": "z", "origin": [4.93446, 7.0366, 8.73496]},
			"faces": {
				"north": {"uv": [9, 1.33333, 9.66667, 1.66667], "rotation": 270, "texture": "#0"},
				"east": {"uv": [9, 1.33333, 9.66667, 1.66667], "rotation": 270, "texture": "#0"},
				"south": {"uv": [9, 1.33333, 9.66667, 1.66667], "rotation": 270, "texture": "#0"},
				"west": {"uv": [9, 1.33333, 9.66667, 1.66667], "rotation": 270, "texture": "#0"},
				"up": {"uv": [9, 1.33333, 9.66667, 1.66667], "rotation": 270, "texture": "#0"},
				"down": {"uv": [9, 1.33333, 9.66667, 1.66667], "rotation": 270, "texture": "#0"}
			}
		},
		{
			"from": [4.75424, 7.29149, 8.65951],
			"to": [5.11468, 7.47172, 9.31217],
			"rotation": {"angle": 0, "axis": "y", "origin": [4.93446, 7.0366, 8.73496]},
			"faces": {
				"north": {"uv": [9, 1.33333, 9.66667, 1.66667], "rotation": 270, "texture": "#0"},
				"east": {"uv": [9, 1.33333, 9.66667, 1.66667], "rotation": 270, "texture": "#0"},
				"south": {"uv": [9, 1.33333, 9.66667, 1.66667], "rotation": 270, "texture": "#0"},
				"west": {"uv": [9, 1.33333, 9.66667, 1.66667], "rotation": 270, "texture": "#0"},
				"up": {"uv": [9, 1.33333, 9.66667, 1.66667], "rotation": 270, "texture": "#0"},
				"down": {"uv": [9, 1.33333, 9.66667, 1.66667], "rotation": 270, "texture": "#0"}
			}
		},
		{
			"from": [4.49934, 6.85637, 8.65951],
			"to": [4.67957, 7.21682, 9.31217],
			"rotation": {"angle": 45, "axis": "z", "origin": [4.93446, 7.0366, 8.73496]},
			"faces": {
				"north": {"uv": [9, 1.33333, 9.66667, 1.66667], "rotation": 180, "texture": "#0"},
				"east": {"uv": [9, 1.33333, 9.66667, 1.66667], "rotation": 180, "texture": "#0"},
				"south": {"uv": [9, 1.33333, 9.66667, 1.66667], "rotation": 180, "texture": "#0"},
				"west": {"uv": [9, 1.33333, 9.66667, 1.66667], "rotation": 180, "texture": "#0"},
				"up": {"uv": [9, 1.33333, 9.66667, 1.66667], "rotation": 180, "texture": "#0"},
				"down": {"uv": [9, 1.33333, 9.66667, 1.66667], "rotation": 180, "texture": "#0"}
			}
		},
		{
			"from": [4.49935, 6.85638, 8.65951],
			"to": [4.67957, 7.21683, 9.31217],
			"rotation": {"angle": 0, "axis": "y", "origin": [4.93446, 7.0366, 8.73496]},
			"faces": {
				"north": {"uv": [9, 1.33333, 9.66667, 1.66667], "texture": "#0"},
				"east": {"uv": [9, 1.33333, 9.66667, 1.66667], "texture": "#0"},
				"south": {"uv": [9, 1.33333, 9.66667, 1.66667], "texture": "#0"},
				"west": {"uv": [9, 1.33333, 9.66667, 1.66667], "texture": "#0"},
				"up": {"uv": [9, 1.33333, 9.66667, 1.66667], "texture": "#0"},
				"down": {"uv": [9, 1.33333, 9.66667, 1.66667], "texture": "#0"}
			}
		},
		{
			"from": [4.75423, 7.29149, 8.65951],
			"to": [5.11468, 7.47171, 9.31217],
			"rotation": {"angle": 45, "axis": "z", "origin": [4.93446, 7.0366, 8.73496]},
			"faces": {
				"north": {"uv": [9, 1.33333, 9.66667, 1.66667], "rotation": 90, "texture": "#0"},
				"east": {"uv": [9, 1.33333, 9.66667, 1.66667], "rotation": 90, "texture": "#0"},
				"south": {"uv": [9, 1.33333, 9.66667, 1.66667], "rotation": 90, "texture": "#0"},
				"west": {"uv": [9, 1.33333, 9.66667, 1.66667], "rotation": 90, "texture": "#0"},
				"up": {"uv": [9, 1.33333, 9.66667, 1.66667], "rotation": 90, "texture": "#0"},
				"down": {"uv": [9, 1.33333, 9.66667, 1.66667], "rotation": 90, "texture": "#0"}
			}
		},
		{
			"from": [4.75424, 6.6015, 6.09951],
			"to": [5.11468, 6.78173, 6.75217],
			"rotation": {"angle": 0, "axis": "y", "origin": [4.93446, 7.0366, 6.17496]},
			"faces": {
				"north": {"uv": [9, 1.33333, 9.66667, 1.66667], "rotation": 270, "texture": "#0"},
				"east": {"uv": [9, 1.33333, 9.66667, 1.66667], "rotation": 270, "texture": "#0"},
				"south": {"uv": [9, 1.33333, 9.66667, 1.66667], "rotation": 270, "texture": "#0"},
				"west": {"uv": [9, 1.33333, 9.66667, 1.66667], "rotation": 270, "texture": "#0"},
				"up": {"uv": [9, 1.33333, 9.66667, 1.66667], "rotation": 270, "texture": "#0"},
				"down": {"uv": [9, 1.33333, 9.66667, 1.66667], "rotation": 270, "texture": "#0"}
			}
		},
		{
			"from": [4.75423, 6.6015, 6.09951],
			"to": [5.11468, 6.78173, 6.75217],
			"rotation": {"angle": 45, "axis": "z", "origin": [4.93446, 7.0366, 6.17496]},
			"faces": {
				"north": {"uv": [9, 1.33333, 9.66667, 1.66667], "rotation": 90, "texture": "#0"},
				"east": {"uv": [9, 1.33333, 9.66667, 1.66667], "rotation": 90, "texture": "#0"},
				"south": {"uv": [9, 1.33333, 9.66667, 1.66667], "rotation": 90, "texture": "#0"},
				"west": {"uv": [9, 1.33333, 9.66667, 1.66667], "rotation": 90, "texture": "#0"},
				"up": {"uv": [9, 1.33333, 9.66667, 1.66667], "rotation": 90, "texture": "#0"},
				"down": {"uv": [9, 1.33333, 9.66667, 1.66667], "rotation": 90, "texture": "#0"}
			}
		},
		{
			"from": [5.18933, 6.85638, 6.09951],
			"to": [5.36956, 7.21683, 6.75217],
			"rotation": {"angle": 0, "axis": "y", "origin": [4.93446, 7.0366, 6.17496]},
			"faces": {
				"north": {"uv": [9, 1.33333, 9.66667, 1.66667], "rotation": 270, "texture": "#0"},
				"east": {"uv": [9, 1.33333, 9.66667, 1.66667], "rotation": 270, "texture": "#0"},
				"south": {"uv": [9, 1.33333, 9.66667, 1.66667], "rotation": 270, "texture": "#0"},
				"west": {"uv": [9, 1.33333, 9.66667, 1.66667], "rotation": 270, "texture": "#0"},
				"up": {"uv": [9, 1.33333, 9.66667, 1.66667], "rotation": 270, "texture": "#0"},
				"down": {"uv": [9, 1.33333, 9.66667, 1.66667], "rotation": 270, "texture": "#0"}
			}
		},
		{
			"from": [5.18933, 6.85637, 6.09951],
			"to": [5.36955, 7.21682, 6.75217],
			"rotation": {"angle": 45, "axis": "z", "origin": [4.93446, 7.0366, 6.17496]},
			"faces": {
				"north": {"uv": [9, 1.33333, 9.66667, 1.66667], "rotation": 270, "texture": "#0"},
				"east": {"uv": [9, 1.33333, 9.66667, 1.66667], "rotation": 270, "texture": "#0"},
				"south": {"uv": [9, 1.33333, 9.66667, 1.66667], "rotation": 270, "texture": "#0"},
				"west": {"uv": [9, 1.33333, 9.66667, 1.66667], "rotation": 270, "texture": "#0"},
				"up": {"uv": [9, 1.33333, 9.66667, 1.66667], "rotation": 270, "texture": "#0"},
				"down": {"uv": [9, 1.33333, 9.66667, 1.66667], "rotation": 270, "texture": "#0"}
			}
		},
		{
			"from": [4.75424, 7.29149, 6.09951],
			"to": [5.11468, 7.47172, 6.75217],
			"rotation": {"angle": 0, "axis": "y", "origin": [4.93446, 7.0366, 6.17496]},
			"faces": {
				"north": {"uv": [9, 1.33333, 9.66667, 1.66667], "rotation": 270, "texture": "#0"},
				"east": {"uv": [9, 1.33333, 9.66667, 1.66667], "rotation": 270, "texture": "#0"},
				"south": {"uv": [9, 1.33333, 9.66667, 1.66667], "rotation": 270, "texture": "#0"},
				"west": {"uv": [9, 1.33333, 9.66667, 1.66667], "rotation": 270, "texture": "#0"},
				"up": {"uv": [9, 1.33333, 9.66667, 1.66667], "rotation": 270, "texture": "#0"},
				"down": {"uv": [9, 1.33333, 9.66667, 1.66667], "rotation": 270, "texture": "#0"}
			}
		},
		{
			"from": [4.49934, 6.85637, 6.09951],
			"to": [4.67957, 7.21682, 6.75217],
			"rotation": {"angle": 45, "axis": "z", "origin": [4.93446, 7.0366, 6.17496]},
			"faces": {
				"north": {"uv": [9, 1.33333, 9.66667, 1.66667], "rotation": 180, "texture": "#0"},
				"east": {"uv": [9, 1.33333, 9.66667, 1.66667], "rotation": 180, "texture": "#0"},
				"south": {"uv": [9, 1.33333, 9.66667, 1.66667], "rotation": 180, "texture": "#0"},
				"west": {"uv": [9, 1.33333, 9.66667, 1.66667], "rotation": 180, "texture": "#0"},
				"up": {"uv": [9, 1.33333, 9.66667, 1.66667], "rotation": 180, "texture": "#0"},
				"down": {"uv": [9, 1.33333, 9.66667, 1.66667], "rotation": 180, "texture": "#0"}
			}
		},
		{
			"from": [4.49935, 6.85638, 6.09951],
			"to": [4.67957, 7.21683, 6.75217],
			"rotation": {"angle": 0, "axis": "y", "origin": [4.93446, 7.0366, 6.17496]},
			"faces": {
				"north": {"uv": [9, 1.33333, 9.66667, 1.66667], "texture": "#0"},
				"east": {"uv": [9, 1.33333, 9.66667, 1.66667], "texture": "#0"},
				"south": {"uv": [9, 1.33333, 9.66667, 1.66667], "texture": "#0"},
				"west": {"uv": [9, 1.33333, 9.66667, 1.66667], "texture": "#0"},
				"up": {"uv": [9, 1.33333, 9.66667, 1.66667], "texture": "#0"},
				"down": {"uv": [9, 1.33333, 9.66667, 1.66667], "texture": "#0"}
			}
		},
		{
			"from": [4.75423, 7.29149, 6.09951],
			"to": [5.11468, 7.47171, 6.75217],
			"rotation": {"angle": 45, "axis": "z", "origin": [4.93446, 7.0366, 6.17496]},
			"faces": {
				"north": {"uv": [9, 1.33333, 9.66667, 1.66667], "rotation": 90, "texture": "#0"},
				"east": {"uv": [9, 1.33333, 9.66667, 1.66667], "rotation": 90, "texture": "#0"},
				"south": {"uv": [9, 1.33333, 9.66667, 1.66667], "rotation": 90, "texture": "#0"},
				"west": {"uv": [9, 1.33333, 9.66667, 1.66667], "rotation": 90, "texture": "#0"},
				"up": {"uv": [9, 1.33333, 9.66667, 1.66667], "rotation": 90, "texture": "#0"},
				"down": {"uv": [9, 1.33333, 9.66667, 1.66667], "rotation": 90, "texture": "#0"}
			}
		},
		{
			"from": [4.75424, 6.6015, 4.25631],
			"to": [5.11468, 6.78173, 4.90897],
			"rotation": {"angle": 0, "axis": "y", "origin": [4.93446, 7.0366, 4.33176]},
			"faces": {
				"north": {"uv": [9, 1.33333, 9.66667, 1.66667], "rotation": 270, "texture": "#0"},
				"east": {"uv": [9, 1.33333, 9.66667, 1.66667], "rotation": 270, "texture": "#0"},
				"south": {"uv": [9, 1.33333, 9.66667, 1.66667], "rotation": 270, "texture": "#0"},
				"west": {"uv": [9, 1.33333, 9.66667, 1.66667], "rotation": 270, "texture": "#0"},
				"up": {"uv": [9, 1.33333, 9.66667, 1.66667], "rotation": 270, "texture": "#0"},
				"down": {"uv": [9, 1.33333, 9.66667, 1.66667], "rotation": 270, "texture": "#0"}
			}
		},
		{
			"from": [4.75423, 6.6015, 4.25631],
			"to": [5.11468, 6.78173, 4.90897],
			"rotation": {"angle": 45, "axis": "z", "origin": [4.93446, 7.0366, 4.33176]},
			"faces": {
				"north": {"uv": [9, 1.33333, 9.66667, 1.66667], "rotation": 90, "texture": "#0"},
				"east": {"uv": [9, 1.33333, 9.66667, 1.66667], "rotation": 90, "texture": "#0"},
				"south": {"uv": [9, 1.33333, 9.66667, 1.66667], "rotation": 90, "texture": "#0"},
				"west": {"uv": [9, 1.33333, 9.66667, 1.66667], "rotation": 90, "texture": "#0"},
				"up": {"uv": [9, 1.33333, 9.66667, 1.66667], "rotation": 90, "texture": "#0"},
				"down": {"uv": [9, 1.33333, 9.66667, 1.66667], "rotation": 90, "texture": "#0"}
			}
		},
		{
			"from": [5.18933, 6.85638, 4.25631],
			"to": [5.36956, 7.21683, 4.90897],
			"rotation": {"angle": 0, "axis": "y", "origin": [4.93446, 7.0366, 4.33176]},
			"faces": {
				"north": {"uv": [9, 1.33333, 9.66667, 1.66667], "rotation": 270, "texture": "#0"},
				"east": {"uv": [9, 1.33333, 9.66667, 1.66667], "rotation": 270, "texture": "#0"},
				"south": {"uv": [9, 1.33333, 9.66667, 1.66667], "rotation": 270, "texture": "#0"},
				"west": {"uv": [9, 1.33333, 9.66667, 1.66667], "rotation": 270, "texture": "#0"},
				"up": {"uv": [9, 1.33333, 9.66667, 1.66667], "rotation": 270, "texture": "#0"},
				"down": {"uv": [9, 1.33333, 9.66667, 1.66667], "rotation": 270, "texture": "#0"}
			}
		},
		{
			"from": [5.18933, 6.85637, 4.25631],
			"to": [5.36955, 7.21682, 4.90897],
			"rotation": {"angle": 45, "axis": "z", "origin": [4.93446, 7.0366, 4.33176]},
			"faces": {
				"north": {"uv": [9, 1.33333, 9.66667, 1.66667], "rotation": 270, "texture": "#0"},
				"east": {"uv": [9, 1.33333, 9.66667, 1.66667], "rotation": 270, "texture": "#0"},
				"south": {"uv": [9, 1.33333, 9.66667, 1.66667], "rotation": 270, "texture": "#0"},
				"west": {"uv": [9, 1.33333, 9.66667, 1.66667], "rotation": 270, "texture": "#0"},
				"up": {"uv": [9, 1.33333, 9.66667, 1.66667], "rotation": 270, "texture": "#0"},
				"down": {"uv": [9, 1.33333, 9.66667, 1.66667], "rotation": 270, "texture": "#0"}
			}
		},
		{
			"from": [4.75424, 7.29149, 4.25631],
			"to": [5.11468, 7.47172, 4.90897],
			"rotation": {"angle": 0, "axis": "y", "origin": [4.93446, 7.0366, 4.33176]},
			"faces": {
				"north": {"uv": [9, 1.33333, 9.66667, 1.66667], "rotation": 270, "texture": "#0"},
				"east": {"uv": [9, 1.33333, 9.66667, 1.66667], "rotation": 270, "texture": "#0"},
				"south": {"uv": [9, 1.33333, 9.66667, 1.66667], "rotation": 270, "texture": "#0"},
				"west": {"uv": [9, 1.33333, 9.66667, 1.66667], "rotation": 270, "texture": "#0"},
				"up": {"uv": [9, 1.33333, 9.66667, 1.66667], "rotation": 270, "texture": "#0"},
				"down": {"uv": [9, 1.33333, 9.66667, 1.66667], "rotation": 270, "texture": "#0"}
			}
		},
		{
			"from": [4.49934, 6.85637, 4.25631],
			"to": [4.67957, 7.21682, 4.90897],
			"rotation": {"angle": 45, "axis": "z", "origin": [4.93446, 7.0366, 4.33176]},
			"faces": {
				"north": {"uv": [9, 1.33333, 9.66667, 1.66667], "rotation": 180, "texture": "#0"},
				"east": {"uv": [9, 1.33333, 9.66667, 1.66667], "rotation": 180, "texture": "#0"},
				"south": {"uv": [9, 1.33333, 9.66667, 1.66667], "rotation": 180, "texture": "#0"},
				"west": {"uv": [9, 1.33333, 9.66667, 1.66667], "rotation": 180, "texture": "#0"},
				"up": {"uv": [9, 1.33333, 9.66667, 1.66667], "rotation": 180, "texture": "#0"},
				"down": {"uv": [9, 1.33333, 9.66667, 1.66667], "rotation": 180, "texture": "#0"}
			}
		},
		{
			"from": [4.49935, 6.85638, 4.25631],
			"to": [4.67957, 7.21683, 4.90897],
			"rotation": {"angle": 0, "axis": "y", "origin": [4.93446, 7.0366, 4.33176]},
			"faces": {
				"north": {"uv": [9, 1.33333, 9.66667, 1.66667], "texture": "#0"},
				"east": {"uv": [9, 1.33333, 9.66667, 1.66667], "texture": "#0"},
				"south": {"uv": [9, 1.33333, 9.66667, 1.66667], "texture": "#0"},
				"west": {"uv": [9, 1.33333, 9.66667, 1.66667], "texture": "#0"},
				"up": {"uv": [9, 1.33333, 9.66667, 1.66667], "texture": "#0"},
				"down": {"uv": [9, 1.33333, 9.66667, 1.66667], "texture": "#0"}
			}
		},
		{
			"from": [4.75423, 7.29149, 4.25631],
			"to": [5.11468, 7.47171, 4.90897],
			"rotation": {"angle": 45, "axis": "z", "origin": [4.93446, 7.0366, 4.33176]},
			"faces": {
				"north": {"uv": [9, 1.33333, 9.66667, 1.66667], "rotation": 90, "texture": "#0"},
				"east": {"uv": [9, 1.33333, 9.66667, 1.66667], "rotation": 90, "texture": "#0"},
				"south": {"uv": [9, 1.33333, 9.66667, 1.66667], "rotation": 90, "texture": "#0"},
				"west": {"uv": [9, 1.33333, 9.66667, 1.66667], "rotation": 90, "texture": "#0"},
				"up": {"uv": [9, 1.33333, 9.66667, 1.66667], "rotation": 90, "texture": "#0"},
				"down": {"uv": [9, 1.33333, 9.66667, 1.66667], "rotation": 90, "texture": "#0"}
			}
		},
		{
			"from": [4.75424, 7.29149, 7.01599],
			"to": [5.11468, 7.47172, 8.03999],
			"rotation": {"angle": 0, "axis": "y", "origin": [4.93446, 7.0366, 4.53144]},
			"faces": {
				"north": {"uv": [9, 1.33333, 9.66667, 1.66667], "rotation": 270, "texture": "#0"},
				"east": {"uv": [9, 1.33333, 9.66667, 1.66667], "rotation": 270, "texture": "#0"},
				"south": {"uv": [9, 1.33333, 9.66667, 1.66667], "rotation": 270, "texture": "#0"},
				"west": {"uv": [9, 1.33333, 9.66667, 1.66667], "rotation": 270, "texture": "#0"},
				"up": {"uv": [9, 1.33333, 9.66667, 1.66667], "rotation": 270, "texture": "#0"},
				"down": {"uv": [9, 1.33333, 9.66667, 1.66667], "rotation": 270, "texture": "#0"}
			}
		},
		{
			"from": [5.18933, 6.85637, 7.01599],
			"to": [5.36955, 7.21682, 8.03999],
			"rotation": {"angle": 45, "axis": "z", "origin": [4.93446, 7.0366, 4.53144]},
			"faces": {
				"north": {"uv": [9, 1.33333, 9.66667, 1.66667], "rotation": 270, "texture": "#0"},
				"east": {"uv": [9, 1.33333, 9.66667, 1.66667], "rotation": 270, "texture": "#0"},
				"south": {"uv": [9, 1.33333, 9.66667, 1.66667], "rotation": 270, "texture": "#0"},
				"west": {"uv": [9, 1.33333, 9.66667, 1.66667], "rotation": 270, "texture": "#0"},
				"up": {"uv": [9, 1.33333, 9.66667, 1.66667], "rotation": 270, "texture": "#0"},
				"down": {"uv": [9, 1.33333, 9.66667, 1.66667], "rotation": 270, "texture": "#0"}
			}
		},
		{
			"from": [4.75423, 7.29149, 7.01599],
			"to": [5.11468, 7.47171, 8.03999],
			"rotation": {"angle": 45, "axis": "z", "origin": [4.93446, 7.0366, 4.53144]},
			"faces": {
				"north": {"uv": [9, 1.33333, 9.66667, 1.66667], "rotation": 90, "texture": "#0"},
				"east": {"uv": [9, 1.33333, 9.66667, 1.66667], "rotation": 90, "texture": "#0"},
				"south": {"uv": [9, 1.33333, 9.66667, 1.66667], "rotation": 90, "texture": "#0"},
				"west": {"uv": [9, 1.33333, 9.66667, 1.66667], "rotation": 90, "texture": "#0"},
				"up": {"uv": [9, 1.33333, 9.66667, 1.66667], "rotation": 90, "texture": "#0"},
				"down": {"uv": [9, 1.33333, 9.66667, 1.66667], "rotation": 90, "texture": "#0"}
			}
		},
		{
			"from": [4.49935, 5.32038, 7.01599],
			"to": [4.60175, 7.21683, 8.03999],
			"rotation": {"angle": 0, "axis": "y", "origin": [4.93446, 7.0366, 4.53144]},
			"faces": {
				"north": {"uv": [9, 1.33333, 9.66667, 1.66667], "texture": "#0"},
				"east": {"uv": [9, 1.33333, 9.66667, 1.66667], "texture": "#0"},
				"south": {"uv": [9, 1.33333, 9.66667, 1.66667], "texture": "#0"},
				"west": {"uv": [9, 1.33333, 9.66667, 1.66667], "texture": "#0"},
				"up": {"uv": [9, 1.33333, 9.66667, 1.66667], "texture": "#0"},
				"down": {"uv": [9, 1.33333, 9.66667, 1.66667], "texture": "#0"}
			}
		},
		{
			"from": [5.18933, 6.85638, 7.01599],
			"to": [5.36956, 7.21683, 8.03999],
			"rotation": {"angle": 0, "axis": "y", "origin": [4.93446, 7.0366, 4.53144]},
			"faces": {
				"north": {"uv": [9, 1.33333, 9.66667, 1.66667], "rotation": 270, "texture": "#0"},
				"east": {"uv": [9, 1.33333, 9.66667, 1.66667], "rotation": 270, "texture": "#0"},
				"south": {"uv": [9, 1.33333, 9.66667, 1.66667], "rotation": 270, "texture": "#0"},
				"west": {"uv": [9, 1.33333, 9.66667, 1.66667], "rotation": 270, "texture": "#0"},
				"up": {"uv": [9, 1.33333, 9.66667, 1.66667], "rotation": 270, "texture": "#0"},
				"down": {"uv": [9, 1.33333, 9.66667, 1.66667], "rotation": 270, "texture": "#0"}
			}
		},
		{
			"from": [4.75423, 6.6015, 7.01599],
			"to": [5.11468, 6.78173, 8.03999],
			"rotation": {"angle": 45, "axis": "z", "origin": [4.93446, 7.0366, 4.53144]},
			"faces": {
				"north": {"uv": [9, 1.33333, 9.66667, 1.66667], "rotation": 90, "texture": "#0"},
				"east": {"uv": [9, 1.33333, 9.66667, 1.66667], "rotation": 90, "texture": "#0"},
				"south": {"uv": [9, 1.33333, 9.66667, 1.66667], "rotation": 90, "texture": "#0"},
				"west": {"uv": [9, 1.33333, 9.66667, 1.66667], "rotation": 90, "texture": "#0"},
				"up": {"uv": [9, 1.33333, 9.66667, 1.66667], "rotation": 90, "texture": "#0"},
				"down": {"uv": [9, 1.33333, 9.66667, 1.66667], "rotation": 90, "texture": "#0"}
			}
		},
		{
			"from": [4.54944, 6.6015, 7.01599],
			"to": [5.11468, 6.78173, 8.03999],
			"rotation": {"angle": 0, "axis": "y", "origin": [4.93446, 7.0366, 4.53144]},
			"faces": {
				"north": {"uv": [9, 1.33333, 9.66667, 1.66667], "rotation": 270, "texture": "#0"},
				"east": {"uv": [9, 1.33333, 9.66667, 1.66667], "rotation": 270, "texture": "#0"},
				"south": {"uv": [9, 1.33333, 9.66667, 1.66667], "rotation": 270, "texture": "#0"},
				"west": {"uv": [9, 1.33333, 9.66667, 1.66667], "rotation": 270, "texture": "#0"},
				"up": {"uv": [9, 1.33333, 9.66667, 1.66667], "rotation": 270, "texture": "#0"},
				"down": {"uv": [9, 1.33333, 9.66667, 1.66667], "rotation": 270, "texture": "#0"}
			}
		},
		{
			"from": [4.49934, 6.85637, 7.01599],
			"to": [4.67957, 7.21682, 8.03999],
			"rotation": {"angle": 45, "axis": "z", "origin": [4.93446, 7.0366, 4.53144]},
			"faces": {
				"north": {"uv": [9, 1.33333, 9.66667, 1.66667], "rotation": 180, "texture": "#0"},
				"east": {"uv": [9, 1.33333, 9.66667, 1.66667], "rotation": 180, "texture": "#0"},
				"south": {"uv": [9, 1.33333, 9.66667, 1.66667], "rotation": 180, "texture": "#0"},
				"west": {"uv": [9, 1.33333, 9.66667, 1.66667], "rotation": 180, "texture": "#0"},
				"up": {"uv": [9, 1.33333, 9.66667, 1.66667], "rotation": 180, "texture": "#0"},
				"down": {"uv": [9, 1.33333, 9.66667, 1.66667], "rotation": 180, "texture": "#0"}
			}
		},
		{
			"from": [4.38867, 5.4475, 7.46623],
			"to": [4.56275, 5.7547, 7.59218],
			"rotation": {"angle": 0, "axis": "y", "origin": [4.34771, 4.7307, 10.64063]},
			"faces": {
				"north": {"uv": [3.33333, 3.33333, 4.83333, 4.5], "texture": "#0"},
				"east": {"uv": [3.33333, 3.33333, 4.83333, 4.5], "texture": "#0"},
				"south": {"uv": [3.33333, 3.33333, 4.83333, 4.5], "texture": "#0"},
				"west": {"uv": [3.33333, 3.33333, 4.83333, 4.5], "texture": "#0"},
				"up": {"uv": [3.33333, 3.33333, 4.83333, 4.5], "texture": "#0"},
				"down": {"uv": [3.33333, 3.33333, 4.83333, 4.5], "texture": "#0"}
			}
		},
		{
			"from": [4.38867, 5.53812, 7.3756],
			"to": [4.56275, 5.66407, 7.6828],
			"rotation": {"angle": 0, "axis": "y", "origin": [4.73171, 5.6011, 7.5292]},
			"faces": {
				"north": {"uv": [3.33333, 3.33333, 4.83333, 4.5], "rotation": 90, "texture": "#0"},
				"east": {"uv": [3.33333, 3.33333, 4.83333, 4.5], "rotation": 90, "texture": "#0"},
				"south": {"uv": [3.33333, 3.33333, 4.83333, 4.5], "rotation": 90, "texture": "#0"},
				"west": {"uv": [3.33333, 3.33333, 4.83333, 4.5], "rotation": 90, "texture": "#0"},
				"up": {"uv": [3.33333, 3.33333, 4.83333, 4.5], "rotation": 90, "texture": "#0"},
				"down": {"uv": [3.33333, 3.33333, 4.83333, 4.5], "rotation": 90, "texture": "#0"}
			}
		},
		{
			"from": [4.38867, 5.53812, 7.3756],
			"to": [4.56275, 5.66407, 7.6828],
			"rotation": {"angle": 45, "axis": "x", "origin": [4.73171, 5.6011, 7.5292]},
			"faces": {
				"north": {"uv": [3.33333, 3.33333, 4.83333, 4.5], "rotation": 90, "texture": "#0"},
				"east": {"uv": [3.33333, 3.33333, 4.83333, 4.5], "rotation": 90, "texture": "#0"},
				"south": {"uv": [3.33333, 3.33333, 4.83333, 4.5], "rotation": 90, "texture": "#0"},
				"west": {"uv": [3.33333, 3.33333, 4.83333, 4.5], "rotation": 90, "texture": "#0"},
				"up": {"uv": [3.33333, 3.33333, 4.83333, 4.5], "rotation": 90, "texture": "#0"},
				"down": {"uv": [3.33333, 3.33333, 4.83333, 4.5], "rotation": 90, "texture": "#0"}
			}
		},
		{
			"from": [4.38867, 5.4475, 7.46623],
			"to": [4.56275, 5.7547, 7.59218],
			"rotation": {"angle": 45, "axis": "x", "origin": [4.73171, 5.6011, 7.5292]},
			"faces": {
				"north": {"uv": [3.33333, 3.33333, 4.83333, 4.5], "texture": "#0"},
				"east": {"uv": [3.33333, 3.33333, 4.83333, 4.5], "texture": "#0"},
				"south": {"uv": [3.33333, 3.33333, 4.83333, 4.5], "texture": "#0"},
				"west": {"uv": [3.33333, 3.33333, 4.83333, 4.5], "texture": "#0"},
				"up": {"uv": [3.33333, 3.33333, 4.83333, 4.5], "texture": "#0"},
				"down": {"uv": [3.33333, 3.33333, 4.83333, 4.5], "texture": "#0"}
			}
		},
		{
			"from": [4.38867, 6.8811, 7.46623],
			"to": [4.56275, 7.1883, 7.59218],
			"rotation": {"angle": 0, "axis": "y", "origin": [4.34771, 6.1643, 10.64063]},
			"faces": {
				"north": {"uv": [3.33333, 3.33333, 4.83333, 4.5], "texture": "#0"},
				"east": {"uv": [3.33333, 3.33333, 4.83333, 4.5], "texture": "#0"},
				"south": {"uv": [3.33333, 3.33333, 4.83333, 4.5], "texture": "#0"},
				"west": {"uv": [3.33333, 3.33333, 4.83333, 4.5], "texture": "#0"},
				"up": {"uv": [3.33333, 3.33333, 4.83333, 4.5], "texture": "#0"},
				"down": {"uv": [3.33333, 3.33333, 4.83333, 4.5], "texture": "#0"}
			}
		},
		{
			"from": [4.38867, 6.97172, 7.3756],
			"to": [4.56275, 7.09767, 7.6828],
			"rotation": {"angle": 0, "axis": "y", "origin": [4.73171, 7.0347, 7.5292]},
			"faces": {
				"north": {"uv": [3.33333, 3.33333, 4.83333, 4.5], "rotation": 90, "texture": "#0"},
				"east": {"uv": [3.33333, 3.33333, 4.83333, 4.5], "rotation": 90, "texture": "#0"},
				"south": {"uv": [3.33333, 3.33333, 4.83333, 4.5], "rotation": 90, "texture": "#0"},
				"west": {"uv": [3.33333, 3.33333, 4.83333, 4.5], "rotation": 90, "texture": "#0"},
				"up": {"uv": [3.33333, 3.33333, 4.83333, 4.5], "rotation": 90, "texture": "#0"},
				"down": {"uv": [3.33333, 3.33333, 4.83333, 4.5], "rotation": 90, "texture": "#0"}
			}
		},
		{
			"from": [4.38867, 6.97172, 7.3756],
			"to": [4.56275, 7.09767, 7.6828],
			"rotation": {"angle": 45, "axis": "x", "origin": [4.73171, 7.0347, 7.5292]},
			"faces": {
				"north": {"uv": [3.33333, 3.33333, 4.83333, 4.5], "rotation": 90, "texture": "#0"},
				"east": {"uv": [3.33333, 3.33333, 4.83333, 4.5], "rotation": 90, "texture": "#0"},
				"south": {"uv": [3.33333, 3.33333, 4.83333, 4.5], "rotation": 90, "texture": "#0"},
				"west": {"uv": [3.33333, 3.33333, 4.83333, 4.5], "rotation": 90, "texture": "#0"},
				"up": {"uv": [3.33333, 3.33333, 4.83333, 4.5], "rotation": 90, "texture": "#0"},
				"down": {"uv": [3.33333, 3.33333, 4.83333, 4.5], "rotation": 90, "texture": "#0"}
			}
		},
		{
			"from": [4.38867, 6.8811, 7.46623],
			"to": [4.56275, 7.1883, 7.59218],
			"rotation": {"angle": 45, "axis": "x", "origin": [4.73171, 7.0347, 7.5292]},
			"faces": {
				"north": {"uv": [3.33333, 3.33333, 4.83333, 4.5], "texture": "#0"},
				"east": {"uv": [3.33333, 3.33333, 4.83333, 4.5], "texture": "#0"},
				"south": {"uv": [3.33333, 3.33333, 4.83333, 4.5], "texture": "#0"},
				"west": {"uv": [3.33333, 3.33333, 4.83333, 4.5], "texture": "#0"},
				"up": {"uv": [3.33333, 3.33333, 4.83333, 4.5], "texture": "#0"},
				"down": {"uv": [3.33333, 3.33333, 4.83333, 4.5], "texture": "#0"}
			}
		},
		{
			"from": [4.78291, 7.35726, 8.89983],
			"to": [5.09011, 7.53134, 9.02578],
			"rotation": {"angle": 0, "axis": "y", "origin": [4.47571, 7.4443, 7.5292]},
			"faces": {
				"north": {"uv": [3.33333, 3.33333, 4.83333, 4.5], "rotation": 90, "texture": "#0"},
				"east": {"uv": [3.33333, 3.33333, 4.83333, 4.5], "rotation": 90, "texture": "#0"},
				"south": {"uv": [3.33333, 3.33333, 4.83333, 4.5], "rotation": 90, "texture": "#0"},
				"west": {"uv": [3.33333, 3.33333, 4.83333, 4.5], "rotation": 90, "texture": "#0"},
				"up": {"uv": [3.33333, 3.33333, 4.83333, 4.5], "rotation": 90, "texture": "#0"},
				"down": {"uv": [3.33333, 3.33333, 4.83333, 4.5], "rotation": 90, "texture": "#0"}
			}
		},
		{
			"from": [4.78291, 7.35726, 8.89983],
			"to": [5.09011, 7.53134, 9.02578],
			"rotation": {"angle": 45, "axis": "y", "origin": [4.93651, 7.4443, 8.9628]},
			"faces": {
				"north": {"uv": [3.33333, 3.33333, 4.83333, 4.5], "rotation": 90, "texture": "#0"},
				"east": {"uv": [3.33333, 3.33333, 4.83333, 4.5], "rotation": 90, "texture": "#0"},
				"south": {"uv": [3.33333, 3.33333, 4.83333, 4.5], "rotation": 90, "texture": "#0"},
				"west": {"uv": [3.33333, 3.33333, 4.83333, 4.5], "rotation": 90, "texture": "#0"},
				"up": {"uv": [3.33333, 3.33333, 4.83333, 4.5], "rotation": 90, "texture": "#0"},
				"down": {"uv": [3.33333, 3.33333, 4.83333, 4.5], "rotation": 90, "texture": "#0"}
			}
		},
		{
			"from": [4.87353, 7.35726, 8.8092],
			"to": [4.99948, 7.53134, 9.1164],
			"rotation": {"angle": 0, "axis": "y", "origin": [4.93651, 7.4443, 8.9628]},
			"faces": {
				"north": {"uv": [3.33333, 3.33333, 4.83333, 4.5], "rotation": 90, "texture": "#0"},
				"east": {"uv": [3.33333, 3.33333, 4.83333, 4.5], "rotation": 90, "texture": "#0"},
				"south": {"uv": [3.33333, 3.33333, 4.83333, 4.5], "rotation": 90, "texture": "#0"},
				"west": {"uv": [3.33333, 3.33333, 4.83333, 4.5], "rotation": 90, "texture": "#0"},
				"up": {"uv": [3.33333, 3.33333, 4.83333, 4.5], "rotation": 90, "texture": "#0"},
				"down": {"uv": [3.33333, 3.33333, 4.83333, 4.5], "rotation": 90, "texture": "#0"}
			}
		},
		{
			"from": [4.87353, 7.35726, 8.8092],
			"to": [4.99948, 7.53134, 9.1164],
			"rotation": {"angle": 45, "axis": "y", "origin": [4.93651, 7.4443, 8.9628]},
			"faces": {
				"north": {"uv": [3.33333, 3.33333, 4.83333, 4.5], "rotation": 90, "texture": "#0"},
				"east": {"uv": [3.33333, 3.33333, 4.83333, 4.5], "rotation": 90, "texture": "#0"},
				"south": {"uv": [3.33333, 3.33333, 4.83333, 4.5], "rotation": 90, "texture": "#0"},
				"west": {"uv": [3.33333, 3.33333, 4.83333, 4.5], "rotation": 90, "texture": "#0"},
				"up": {"uv": [3.33333, 3.33333, 4.83333, 4.5], "rotation": 90, "texture": "#0"},
				"down": {"uv": [3.33333, 3.33333, 4.83333, 4.5], "rotation": 90, "texture": "#0"}
			}
		},
		{
			"from": [4.35385, 6.81966, 7.44104],
			"to": [4.45625, 7.24974, 7.61737],
			"rotation": {"angle": 0, "axis": "y", "origin": [4.29651, 5.81614, 11.8852]},
			"faces": {
				"north": {"uv": [3.33333, 3.33333, 4.83333, 4.5], "texture": "#0"},
				"east": {"uv": [3.33333, 3.33333, 4.83333, 4.5], "texture": "#0"},
				"south": {"uv": [3.33333, 3.33333, 4.83333, 4.5], "texture": "#0"},
				"west": {"uv": [3.33333, 3.33333, 4.83333, 4.5], "texture": "#0"},
				"up": {"uv": [3.33333, 3.33333, 4.83333, 4.5], "texture": "#0"},
				"down": {"uv": [3.33333, 3.33333, 4.83333, 4.5], "texture": "#0"}
			}
		},
		{
			"from": [4.35385, 6.94653, 7.31416],
			"to": [4.45625, 7.12286, 7.74424],
			"rotation": {"angle": 0, "axis": "y", "origin": [4.83411, 7.0347, 7.5292]},
			"faces": {
				"north": {"uv": [3.33333, 3.33333, 4.83333, 4.5], "rotation": 90, "texture": "#0"},
				"east": {"uv": [3.33333, 3.33333, 4.83333, 4.5], "rotation": 90, "texture": "#0"},
				"south": {"uv": [3.33333, 3.33333, 4.83333, 4.5], "rotation": 90, "texture": "#0"},
				"west": {"uv": [3.33333, 3.33333, 4.83333, 4.5], "rotation": 90, "texture": "#0"},
				"up": {"uv": [3.33333, 3.33333, 4.83333, 4.5], "rotation": 90, "texture": "#0"},
				"down": {"uv": [3.33333, 3.33333, 4.83333, 4.5], "rotation": 90, "texture": "#0"}
			}
		},
		{
			"from": [4.35385, 6.94653, 7.31416],
			"to": [4.45625, 7.12286, 7.74424],
			"rotation": {"angle": 45, "axis": "x", "origin": [4.83411, 7.0347, 7.5292]},
			"faces": {
				"north": {"uv": [3.33333, 3.33333, 4.83333, 4.5], "rotation": 90, "texture": "#0"},
				"east": {"uv": [3.33333, 3.33333, 4.83333, 4.5], "rotation": 90, "texture": "#0"},
				"south": {"uv": [3.33333, 3.33333, 4.83333, 4.5], "rotation": 90, "texture": "#0"},
				"west": {"uv": [3.33333, 3.33333, 4.83333, 4.5], "rotation": 90, "texture": "#0"},
				"up": {"uv": [3.33333, 3.33333, 4.83333, 4.5], "rotation": 90, "texture": "#0"},
				"down": {"uv": [3.33333, 3.33333, 4.83333, 4.5], "rotation": 90, "texture": "#0"}
			}
		},
		{
			"from": [4.35385, 6.81966, 7.44104],
			"to": [4.45625, 7.24974, 7.61737],
			"rotation": {"angle": 45, "axis": "x", "origin": [4.83411, 7.0347, 7.5292]},
			"faces": {
				"north": {"uv": [3.33333, 3.33333, 4.83333, 4.5], "texture": "#0"},
				"east": {"uv": [3.33333, 3.33333, 4.83333, 4.5], "texture": "#0"},
				"south": {"uv": [3.33333, 3.33333, 4.83333, 4.5], "texture": "#0"},
				"west": {"uv": [3.33333, 3.33333, 4.83333, 4.5], "texture": "#0"},
				"up": {"uv": [3.33333, 3.33333, 4.83333, 4.5], "texture": "#0"},
				"down": {"uv": [3.33333, 3.33333, 4.83333, 4.5], "texture": "#0"}
			}
		},
		{
			"from": [4.72147, 7.52725, 8.87464],
			"to": [5.15155, 7.62965, 9.05097],
			"rotation": {"angle": 45, "axis": "y", "origin": [4.93651, 7.4443, 8.9628]},
			"faces": {
				"north": {"uv": [3.33333, 3.33333, 4.83333, 4.5], "rotation": 90, "texture": "#0"},
				"east": {"uv": [3.33333, 3.33333, 4.83333, 4.5], "rotation": 90, "texture": "#0"},
				"south": {"uv": [3.33333, 3.33333, 4.83333, 4.5], "rotation": 90, "texture": "#0"},
				"west": {"uv": [3.33333, 3.33333, 4.83333, 4.5], "rotation": 90, "texture": "#0"},
				"up": {"uv": [3.33333, 3.33333, 4.83333, 4.5], "rotation": 90, "texture": "#0"},
				"down": {"uv": [3.33333, 3.33333, 4.83333, 4.5], "rotation": 90, "texture": "#0"}
			}
		},
		{
			"from": [4.72147, 7.52725, 8.87464],
			"to": [5.15155, 7.62965, 9.05097],
			"rotation": {"angle": 0, "axis": "y", "origin": [4.29139, 7.4443, 6.95576]},
			"faces": {
				"north": {"uv": [3.33333, 3.33333, 4.83333, 4.5], "rotation": 90, "texture": "#0"},
				"east": {"uv": [3.33333, 3.33333, 4.83333, 4.5], "rotation": 90, "texture": "#0"},
				"south": {"uv": [3.33333, 3.33333, 4.83333, 4.5], "rotation": 90, "texture": "#0"},
				"west": {"uv": [3.33333, 3.33333, 4.83333, 4.5], "rotation": 90, "texture": "#0"},
				"up": {"uv": [3.33333, 3.33333, 4.83333, 4.5], "rotation": 90, "texture": "#0"},
				"down": {"uv": [3.33333, 3.33333, 4.83333, 4.5], "rotation": 90, "texture": "#0"}
			}
		},
		{
			"from": [4.84834, 7.52725, 8.74776],
			"to": [5.02467, 7.62965, 9.17784],
			"rotation": {"angle": 45, "axis": "y", "origin": [4.93651, 7.4443, 8.9628]},
			"faces": {
				"north": {"uv": [3.33333, 3.33333, 4.83333, 4.5], "texture": "#0"},
				"east": {"uv": [3.33333, 3.33333, 4.83333, 4.5], "texture": "#0"},
				"south": {"uv": [3.33333, 3.33333, 4.83333, 4.5], "texture": "#0"},
				"west": {"uv": [3.33333, 3.33333, 4.83333, 4.5], "texture": "#0"},
				"up": {"uv": [3.33333, 3.33333, 4.83333, 4.5], "texture": "#0"},
				"down": {"uv": [3.33333, 3.33333, 4.83333, 4.5], "texture": "#0"}
			}
		},
		{
			"from": [4.84834, 7.52725, 8.74776],
			"to": [5.02467, 7.62965, 9.17784],
			"rotation": {"angle": 0, "axis": "y", "origin": [4.93651, 7.4443, 8.9628]},
			"faces": {
				"north": {"uv": [3.33333, 3.33333, 4.83333, 4.5], "texture": "#0"},
				"east": {"uv": [3.33333, 3.33333, 4.83333, 4.5], "texture": "#0"},
				"south": {"uv": [3.33333, 3.33333, 4.83333, 4.5], "texture": "#0"},
				"west": {"uv": [3.33333, 3.33333, 4.83333, 4.5], "texture": "#0"},
				"up": {"uv": [3.33333, 3.33333, 4.83333, 4.5], "texture": "#0"},
				"down": {"uv": [3.33333, 3.33333, 4.83333, 4.5], "texture": "#0"}
			}
		},
		{
			"from": [4.77062, 6.75632, 4.58387],
			"to": [5.0983, 7.32976, 10.52061],
			"rotation": {"angle": 0, "axis": "y", "origin": [3.70566, 7.0366, 4.53144]},
			"faces": {
				"north": {"uv": [27, 20.33333, 27.66667, 20.66667], "rotation": 270, "texture": "#0"},
				"east": {"uv": [27, 20.33333, 27.66667, 20.66667], "rotation": 270, "texture": "#0"},
				"south": {"uv": [27, 20.33333, 27.66667, 20.66667], "rotation": 270, "texture": "#0"},
				"west": {"uv": [27, 20.33333, 27.66667, 20.66667], "rotation": 270, "texture": "#0"},
				"up": {"uv": [27, 20.33333, 27.66667, 20.66667], "rotation": 270, "texture": "#0"},
				"down": {"uv": [27, 20.33333, 27.66667, 20.66667], "rotation": 270, "texture": "#0"}
			}
		},
		{
			"from": [4.77062, 6.75632, 4.58387],
			"to": [5.0983, 7.32976, 10.52061],
			"rotation": {"angle": 45, "axis": "z", "origin": [4.93446, 7.04304, 7.55224]},
			"faces": {
				"north": {"uv": [27, 20.33333, 27.66667, 20.66667], "rotation": 270, "texture": "#0"},
				"east": {"uv": [27, 20.33333, 27.66667, 20.66667], "rotation": 270, "texture": "#0"},
				"south": {"uv": [27, 20.33333, 27.66667, 20.66667], "rotation": 270, "texture": "#0"},
				"west": {"uv": [27, 20.33333, 27.66667, 20.66667], "rotation": 270, "texture": "#0"},
				"up": {"uv": [27, 20.33333, 27.66667, 20.66667], "rotation": 270, "texture": "#0"},
				"down": {"uv": [27, 20.33333, 27.66667, 20.66667], "rotation": 270, "texture": "#0"}
			}
		},
		{
			"from": [4.64774, 6.8792, 4.58387],
			"to": [5.22118, 7.20688, 10.52061],
			"rotation": {"angle": 45, "axis": "z", "origin": [4.93446, 7.04304, 7.55224]},
			"faces": {
				"north": {"uv": [27, 20.33333, 27.66667, 20.66667], "texture": "#0"},
				"east": {"uv": [27, 20.33333, 27.66667, 20.66667], "texture": "#0"},
				"south": {"uv": [27, 20.33333, 27.66667, 20.66667], "texture": "#0"},
				"west": {"uv": [27, 20.33333, 27.66667, 20.66667], "texture": "#0"},
				"up": {"uv": [27, 20.33333, 27.66667, 20.66667], "texture": "#0"},
				"down": {"uv": [27, 20.33333, 27.66667, 20.66667], "texture": "#0"}
			}
		},
		{
			"from": [4.65416, 6.87276, 4.58387],
			"to": [5.2276, 7.20044, 10.52061],
			"rotation": {"angle": 0, "axis": "y", "origin": [3.70566, 7.0366, 4.53144]},
			"faces": {
				"north": {"uv": [27, 20.33333, 27.66667, 20.66667], "rotation": 270, "texture": "#0"},
				"east": {"uv": [27, 20.33333, 27.66667, 20.66667], "rotation": 270, "texture": "#0"},
				"south": {"uv": [27, 20.33333, 27.66667, 20.66667], "rotation": 270, "texture": "#0"},
				"west": {"uv": [27, 20.33333, 27.66667, 20.66667], "rotation": 270, "texture": "#0"},
				"up": {"uv": [27, 20.33333, 27.66667, 20.66667], "rotation": 270, "texture": "#0"},
				"down": {"uv": [27, 20.33333, 27.66667, 20.66667], "rotation": 270, "texture": "#0"}
			}
		}
	],
	"display": {
		"thirdperson_righthand": {
			"translation": [3.25, 3.75, -0.25],
			"scale": [1.1, 1.1, 1.1]
		},
		"thirdperson_lefthand": {
			"translation": [-3.25, 3.75, -0.25],
			"scale": [1.1, 1.1, 1.1]
		},
		"firstperson_righthand": {
			"translation": [-1.75, 6.25, 4.75],
			"scale": [1.1, 1.1, 1.1]
		},
		"firstperson_lefthand": {
			"translation": [-8.75, 6, 5.5],
			"scale": [1.1, 1.1, 1.1]
		},
		"ground": {
			"translation": [4.5, 7.25, 1],
			"scale": [1.1, 1.1, 1.1]
		},
		"gui": {
			"rotation": [90, 45, -90],
			"translation": [3.5, 0.75, 0]
		},
		"fixed": {
			"rotation": [90, 45, -90],
			"translation": [4, 0.75, -3.75],
			"scale": [1.1, 1.1, 1.1]
		}
	}
}