{
    "textures": {
        "1": "gci:items/common/mpz", 
        "0": "gci:items/common/all_in_one", 
        "2": "gci:items/common/mpz", 
        "particle": "gci:items/common/all_in_one"
    }, 
    "elements": [
        {
            "to": [
                8.1545, 
                9.86492, 
                1.61515
            ], 
            "rotation": {
                "origin": [
                    7.87521, 
                    9.68992, 
                    1.52771
                ], 
                "angle": 0, 
                "axis": "y"
            }, 
            "from": [
                7.8845, 
                9.66492, 
                -2.38485
            ], 
            "faces": {
                "north": {
                    "rotation": 180, 
                    "uv": [
                        9, 
                        0.5, 
                        9.88, 
                        1.714
                    ], 
                    "texture": "#1"
                }, 
                "west": {
                    "rotation": 180, 
                    "uv": [
                        9, 
                        0.5, 
                        9.88, 
                        1.714
                    ], 
                    "texture": "#1"
                }, 
                "up": {
                    "rotation": 180, 
                    "uv": [
                        9, 
                        0.5, 
                        9.88, 
                        1.714
                    ], 
                    "texture": "#1"
                }, 
                "down": {
                    "rotation": 180, 
                    "uv": [
                        9, 
                        0.5, 
                        9.88, 
                        1.714
                    ], 
                    "texture": "#1"
                }, 
                "east": {
                    "rotation": 180, 
                    "uv": [
                        9, 
                        0.5, 
                        9.88, 
                        1.714
                    ], 
                    "texture": "#1"
                }, 
                "south": {
                    "rotation": 180, 
                    "uv": [
                        9, 
                        0.5, 
                        9.88, 
                        1.714
                    ], 
                    "texture": "#1"
                }
            }
        }, 
        {
            "to": [
                8.1545, 
                9.41309, 
                1.61515
            ], 
            "rotation": {
                "origin": [
                    7.87521, 
                    9.24807, 
                    1.52771
                ], 
                "angle": 0, 
                "axis": "y"
            }, 
            "from": [
                7.8845, 
                9.21309, 
                -2.38485
            ], 
            "faces": {
                "north": {
                    "rotation": 180, 
                    "uv": [
                        9, 
                        0.5, 
                        9.88, 
                        1.714
                    ], 
                    "texture": "#1"
                }, 
                "west": {
                    "rotation": 180, 
                    "uv": [
                        9, 
                        0.5, 
                        9.88, 
                        1.714
                    ], 
                    "texture": "#1"
                }, 
                "up": {
                    "rotation": 180, 
                    "uv": [
                        9, 
                        0.5, 
                        9.88, 
                        1.714
                    ], 
                    "texture": "#1"
                }, 
                "down": {
                    "rotation": 180, 
                    "uv": [
                        9, 
                        0.5, 
                        9.88, 
                        1.714
                    ], 
                    "texture": "#1"
                }, 
                "east": {
                    "rotation": 180, 
                    "uv": [
                        9, 
                        0.5, 
                        9.88, 
                        1.714
                    ], 
                    "texture": "#1"
                }, 
                "south": {
                    "rotation": 180, 
                    "uv": [
                        9, 
                        0.5, 
                        9.88, 
                        1.714
                    ], 
                    "texture": "#1"
                }
            }
        }, 
        {
            "to": [
                7.89358, 
                9.674, 
                1.61515
            ], 
            "rotation": {
                "origin": [
                    7.86858, 
                    9.39971, 
                    1.52771
                ], 
                "angle": 0, 
                "axis": "y"
            }, 
            "from": [
                7.69358, 
                9.404, 
                -2.38485
            ], 
            "faces": {
                "north": {
                    "rotation": 270, 
                    "uv": [
                        9, 
                        0.5, 
                        9.88, 
                        1.714
                    ], 
                    "texture": "#1"
                }, 
                "west": {
                    "rotation": 270, 
                    "uv": [
                        9, 
                        0.5, 
                        9.88, 
                        1.714
                    ], 
                    "texture": "#1"
                }, 
                "up": {
                    "rotation": 270, 
                    "uv": [
                        9, 
                        0.5, 
                        9.88, 
                        1.714
                    ], 
                    "texture": "#1"
                }, 
                "down": {
                    "rotation": 270, 
                    "uv": [
                        9, 
                        0.5, 
                        9.88, 
                        1.714
                    ], 
                    "texture": "#1"
                }, 
                "east": {
                    "rotation": 270, 
                    "uv": [
                        9, 
                        0.5, 
                        9.88, 
                        1.714
                    ], 
                    "texture": "#1"
                }, 
                "south": {
                    "rotation": 270, 
                    "uv": [
                        9, 
                        0.5, 
                        9.88, 
                        1.714
                    ], 
                    "texture": "#1"
                }
            }
        }, 
        {
            "to": [
                8.34542, 
                9.674, 
                1.61515
            ], 
            "rotation": {
                "origin": [
                    8.32042, 
                    9.39971, 
                    1.52771
                ], 
                "angle": 0, 
                "axis": "y"
            }, 
            "from": [
                8.14542, 
                9.404, 
                -2.38485
            ], 
            "faces": {
                "north": {
                    "rotation": 270, 
                    "uv": [
                        9, 
                        0.5, 
                        9.88, 
                        1.714
                    ], 
                    "texture": "#1"
                }, 
                "west": {
                    "rotation": 270, 
                    "uv": [
                        9, 
                        0.5, 
                        9.88, 
                        1.714
                    ], 
                    "texture": "#1"
                }, 
                "up": {
                    "rotation": 270, 
                    "uv": [
                        9, 
                        0.5, 
                        9.88, 
                        1.714
                    ], 
                    "texture": "#1"
                }, 
                "down": {
                    "rotation": 270, 
                    "uv": [
                        9, 
                        0.5, 
                        9.88, 
                        1.714
                    ], 
                    "texture": "#1"
                }, 
                "east": {
                    "rotation": 270, 
                    "uv": [
                        9, 
                        0.5, 
                        9.88, 
                        1.714
                    ], 
                    "texture": "#1"
                }, 
                "south": {
                    "rotation": 270, 
                    "uv": [
                        9, 
                        0.5, 
                        9.88, 
                        1.714
                    ], 
                    "texture": "#1"
                }
            }
        }, 
        {
            "to": [
                8.08565, 
                9.7293, 
                1.61515
            ], 
            "rotation": {
                "origin": [
                    7.82136, 
                    9.5543, 
                    1.52771
                ], 
                "angle": 45, 
                "axis": "z"
            }, 
            "from": [
                7.81565, 
                9.5293, 
                -2.38485
            ], 
            "faces": {
                "north": {
                    "rotation": 180, 
                    "uv": [
                        9, 
                        0.5, 
                        9.88, 
                        1.714
                    ], 
                    "texture": "#1"
                }, 
                "west": {
                    "rotation": 180, 
                    "uv": [
                        9, 
                        0.5, 
                        9.88, 
                        1.714
                    ], 
                    "texture": "#1"
                }, 
                "up": {
                    "rotation": 180, 
                    "uv": [
                        9, 
                        0.5, 
                        9.88, 
                        1.714
                    ], 
                    "texture": "#1"
                }, 
                "down": {
                    "rotation": 180, 
                    "uv": [
                        9, 
                        0.5, 
                        9.88, 
                        1.714
                    ], 
                    "texture": "#1"
                }, 
                "east": {
                    "rotation": 180, 
                    "uv": [
                        9, 
                        0.5, 
                        9.88, 
                        1.714
                    ], 
                    "texture": "#1"
                }, 
                "south": {
                    "rotation": 180, 
                    "uv": [
                        9, 
                        0.5, 
                        9.88, 
                        1.714
                    ], 
                    "texture": "#1"
                }
            }
        }, 
        {
            "to": [
                8.40515, 
                9.4098, 
                1.61515
            ], 
            "rotation": {
                "origin": [
                    8.14086, 
                    9.2348, 
                    1.52771
                ], 
                "angle": 45, 
                "axis": "z"
            }, 
            "from": [
                8.13515, 
                9.2098, 
                -2.38485
            ], 
            "faces": {
                "north": {
                    "rotation": 180, 
                    "uv": [
                        9, 
                        0.5, 
                        9.88, 
                        1.714
                    ], 
                    "texture": "#1"
                }, 
                "west": {
                    "rotation": 180, 
                    "uv": [
                        9, 
                        0.5, 
                        9.88, 
                        1.714
                    ], 
                    "texture": "#1"
                }, 
                "up": {
                    "rotation": 180, 
                    "uv": [
                        9, 
                        0.5, 
                        9.88, 
                        1.714
                    ], 
                    "texture": "#1"
                }, 
                "down": {
                    "rotation": 180, 
                    "uv": [
                        9, 
                        0.5, 
                        9.88, 
                        1.714
                    ], 
                    "texture": "#1"
                }, 
                "east": {
                    "rotation": 180, 
                    "uv": [
                        9, 
                        0.5, 
                        9.88, 
                        1.714
                    ], 
                    "texture": "#1"
                }, 
                "south": {
                    "rotation": 180, 
                    "uv": [
                        9, 
                        0.5, 
                        9.88, 
                        1.714
                    ], 
                    "texture": "#1"
                }
            }
        }, 
        {
            "to": [
                8.29908, 
                9.91214, 
                1.61515
            ], 
            "rotation": {
                "origin": [
                    8.03479, 
                    9.73714, 
                    1.52771
                ], 
                "angle": -45, 
                "axis": "z"
            }, 
            "from": [
                8.02908, 
                9.71214, 
                -2.38485
            ], 
            "faces": {
                "north": {
                    "rotation": 180, 
                    "uv": [
                        9, 
                        0.5, 
                        9.88, 
                        1.714
                    ], 
                    "texture": "#1"
                }, 
                "west": {
                    "rotation": 180, 
                    "uv": [
                        9, 
                        0.5, 
                        9.88, 
                        1.714
                    ], 
                    "texture": "#1"
                }, 
                "up": {
                    "rotation": 180, 
                    "uv": [
                        9, 
                        0.5, 
                        9.88, 
                        1.714
                    ], 
                    "texture": "#1"
                }, 
                "down": {
                    "rotation": 180, 
                    "uv": [
                        9, 
                        0.5, 
                        9.88, 
                        1.714
                    ], 
                    "texture": "#1"
                }, 
                "east": {
                    "rotation": 180, 
                    "uv": [
                        9, 
                        0.5, 
                        9.88, 
                        1.714
                    ], 
                    "texture": "#1"
                }, 
                "south": {
                    "rotation": 180, 
                    "uv": [
                        9, 
                        0.5, 
                        9.88, 
                        1.714
                    ], 
                    "texture": "#1"
                }
            }
        }, 
        {
            "to": [
                7.97959, 
                9.59264, 
                1.61515
            ], 
            "rotation": {
                "origin": [
                    7.7153, 
                    9.41764, 
                    1.52771
                ], 
                "angle": -45, 
                "axis": "z"
            }, 
            "from": [
                7.70959, 
                9.39264, 
                -2.38485
            ], 
            "faces": {
                "north": {
                    "rotation": 180, 
                    "uv": [
                        9, 
                        0.5, 
                        9.88, 
                        1.714
                    ], 
                    "texture": "#1"
                }, 
                "west": {
                    "rotation": 180, 
                    "uv": [
                        9, 
                        0.5, 
                        9.88, 
                        1.714
                    ], 
                    "texture": "#1"
                }, 
                "up": {
                    "rotation": 180, 
                    "uv": [
                        9, 
                        0.5, 
                        9.88, 
                        1.714
                    ], 
                    "texture": "#1"
                }, 
                "down": {
                    "rotation": 180, 
                    "uv": [
                        9, 
                        0.5, 
                        9.88, 
                        1.714
                    ], 
                    "texture": "#1"
                }, 
                "east": {
                    "rotation": 180, 
                    "uv": [
                        9, 
                        0.5, 
                        9.88, 
                        1.714
                    ], 
                    "texture": "#1"
                }, 
                "south": {
                    "rotation": 180, 
                    "uv": [
                        9, 
                        0.5, 
                        9.88, 
                        1.714
                    ], 
                    "texture": "#1"
                }
            }
        }
    ], 
    "display": {
        "thirdperson_righthand": {
            "rotation": [
                0, 
                0, 
                1
            ], 
            "scale": [
                1.14, 
                1, 
                1
            ], 
            "translation": [
                -1.5, 
                0, 
                0.5
            ]
        }, 
        "head": {
            "rotation": [
                0, 
                125, 
                90
            ], 
            "scale": [
                1.64, 
                1.58, 
                1.61
            ], 
            "translation": [
                0, 
                6.5, 
                0
            ]
        }, 
        "thirdperson_lefthand": {
            "rotation": [
                0, 
                0, 
                1
            ], 
            "scale": [
                1.14, 
                1, 
                1
            ], 
            "translation": [
                -1.5, 
                0, 
                0.5
            ]
        }, 
        "gui": {
            "rotation": [
                23, 
                38, 
                -16
            ], 
            "scale": [
                1.25, 
                1.39, 
                1.22
            ], 
            "translation": [
                -0.75, 
                0.75, 
                0
            ]
        }, 
        "firstperson_righthand": {
            "translation": [
                -5.25, 
                3.5, 
                2.75
            ]
        }, 
        "firstperson_lefthand": {
            "translation": [
                -5.25, 
                3.5, 
                2.75
            ]
        }, 
        "fixed": {
            "rotation": [
                0, 
                90, 
                0
            ], 
            "scale": [
                1.22, 
                1.22, 
                1.19
            ], 
            "translation": [
                -0.5, 
                0, 
                -0.75
            ]
        }
    }
}