{
	"credit": "Made with Blockbench",
	"textures": {
		"0": "gci:items/common/all_in_one",
		"particle": "gci:items/common/all_in_one"
	},
	"elements": [
		{
			"from": [7.775, 10.1375, -0.1875],
			"to": [8.425, 10.2875, -0.0375],
			"rotation": {"angle": 45, "axis": "x", "origin": [7.9375, 10.3125, -0.1125]},
			"faces": {
				"north": {"uv": [14.25, 6.375, 14.5, 6.625], "texture": "#0"},
				"east": {"uv": [14.25, 6.375, 14.5, 6.625], "texture": "#0"},
				"south": {"uv": [14.25, 6.375, 14.5, 6.625], "texture": "#0"},
				"west": {"uv": [14.25, 6.375, 14.5, 6.625], "texture": "#0"},
				"up": {"uv": [14.25, 6.375, 14.5, 6.625], "texture": "#0"},
				"down": {"uv": [14.25, 6.375, 14.5, 6.625], "texture": "#0"}
			}
		},
		{
			"from": [7.825, 10.5125, 11.8125],
			"to": [8.375, 10.6625, 11.9625],
			"rotation": {"angle": 45, "axis": "x", "origin": [7.9875, 10.6875, 11.8875]},
			"faces": {
				"north": {"uv": [14.25, 6.375, 14.5, 6.625], "texture": "#0"},
				"east": {"uv": [14.25, 6.375, 14.5, 6.625], "texture": "#0"},
				"south": {"uv": [14.25, 6.375, 14.5, 6.625], "texture": "#0"},
				"west": {"uv": [14.25, 6.375, 14.5, 6.625], "texture": "#0"},
				"up": {"uv": [14.25, 6.375, 14.5, 6.625], "texture": "#0"},
				"down": {"uv": [14.25, 6.375, 14.5, 6.625], "texture": "#0"}
			}
		},
		{
			"from": [7.775, 9.1125, 12.6875],
			"to": [8.425, 9.2625, 12.8375],
			"rotation": {"angle": 45, "axis": "x", "origin": [7.9375, 9.2875, 12.7625]},
			"faces": {
				"north": {"uv": [14.25, 6.375, 14.5, 6.625], "texture": "#0"},
				"east": {"uv": [14.25, 6.375, 14.5, 6.625], "texture": "#0"},
				"south": {"uv": [14.25, 6.375, 14.5, 6.625], "texture": "#0"},
				"west": {"uv": [14.25, 6.375, 14.5, 6.625], "texture": "#0"},
				"up": {"uv": [14.25, 6.375, 14.5, 6.625], "texture": "#0"},
				"down": {"uv": [14.25, 6.375, 14.5, 6.625], "texture": "#0"}
			}
		},
		{
			"from": [7.775, 10.1875, 12.6875],
			"to": [8.425, 10.3375, 12.8375],
			"rotation": {"angle": 45, "axis": "x", "origin": [7.9375, 10.3625, 12.7625]},
			"faces": {
				"north": {"uv": [14.25, 6.375, 14.5, 6.625], "texture": "#0"},
				"east": {"uv": [14.25, 6.375, 14.5, 6.625], "texture": "#0"},
				"south": {"uv": [14.25, 6.375, 14.5, 6.625], "texture": "#0"},
				"west": {"uv": [14.25, 6.375, 14.5, 6.625], "texture": "#0"},
				"up": {"uv": [14.25, 6.375, 14.5, 6.625], "texture": "#0"},
				"down": {"uv": [14.25, 6.375, 14.5, 6.625], "texture": "#0"}
			}
		},
		{
			"from": [7.775, 9.1125, 8.0375],
			"to": [8.425, 9.2625, 8.1875],
			"rotation": {"angle": 45, "axis": "x", "origin": [7.9375, 9.2875, 8.1125]},
			"faces": {
				"north": {"uv": [14.25, 6.375, 14.5, 6.625], "texture": "#0"},
				"east": {"uv": [14.25, 6.375, 14.5, 6.625], "texture": "#0"},
				"south": {"uv": [14.25, 6.375, 14.5, 6.625], "texture": "#0"},
				"west": {"uv": [14.25, 6.375, 14.5, 6.625], "texture": "#0"},
				"up": {"uv": [14.25, 6.375, 14.5, 6.625], "texture": "#0"},
				"down": {"uv": [14.25, 6.375, 14.5, 6.625], "texture": "#0"}
			}
		},
		{
			"from": [7.775, 8.6875, 10.1625],
			"to": [8.425, 8.8375, 10.3125],
			"rotation": {"angle": 45, "axis": "x", "origin": [7.9375, 8.8625, 10.2375]},
			"faces": {
				"north": {"uv": [14.25, 6.375, 14.5, 6.625], "texture": "#0"},
				"east": {"uv": [14.25, 6.375, 14.5, 6.625], "texture": "#0"},
				"south": {"uv": [14.25, 6.375, 14.5, 6.625], "texture": "#0"},
				"west": {"uv": [14.25, 6.375, 14.5, 6.625], "texture": "#0"},
				"up": {"uv": [14.25, 6.375, 14.5, 6.625], "texture": "#0"},
				"down": {"uv": [14.25, 6.375, 14.5, 6.625], "texture": "#0"}
			}
		},
		{
			"from": [7.775, 8.7125, 11.3875],
			"to": [8.425, 8.8625, 11.5375],
			"rotation": {"angle": 45, "axis": "x", "origin": [7.9375, 8.8875, 11.4625]},
			"faces": {
				"north": {"uv": [14.25, 6.375, 14.5, 6.625], "texture": "#0"},
				"east": {"uv": [14.25, 6.375, 14.5, 6.625], "texture": "#0"},
				"south": {"uv": [14.25, 6.375, 14.5, 6.625], "texture": "#0"},
				"west": {"uv": [14.25, 6.375, 14.5, 6.625], "texture": "#0"},
				"up": {"uv": [14.25, 6.375, 14.5, 6.625], "texture": "#0"},
				"down": {"uv": [14.25, 6.375, 14.5, 6.625], "texture": "#0"}
			}
		},
		{
			"from": [7.675, 9.7125, 7.6625],
			"to": [8.525, 9.8625, 7.8125],
			"rotation": {"angle": 45, "axis": "x", "origin": [7.8375, 9.8875, 7.7375]},
			"faces": {
				"north": {"uv": [14.25, 6.375, 14.5, 6.625], "texture": "#0"},
				"east": {"uv": [14.25, 6.375, 14.5, 6.625], "texture": "#0"},
				"south": {"uv": [14.25, 6.375, 14.5, 6.625], "texture": "#0"},
				"west": {"uv": [14.25, 6.375, 14.5, 6.625], "texture": "#0"},
				"up": {"uv": [14.25, 6.375, 14.5, 6.625], "texture": "#0"},
				"down": {"uv": [14.25, 6.375, 14.5, 6.625], "texture": "#0"}
			}
		},
		{
			"from": [7.675, 8.3375, 7.6625],
			"to": [8.525, 8.4875, 7.8125],
			"rotation": {"angle": 45, "axis": "x", "origin": [7.8375, 8.5125, 7.7375]},
			"faces": {
				"north": {"uv": [14.25, 6.375, 14.5, 6.625], "texture": "#0"},
				"east": {"uv": [14.25, 6.375, 14.5, 6.625], "texture": "#0"},
				"south": {"uv": [14.25, 6.375, 14.5, 6.625], "texture": "#0"},
				"west": {"uv": [14.25, 6.375, 14.5, 6.625], "texture": "#0"},
				"up": {"uv": [14.25, 6.375, 14.5, 6.625], "texture": "#0"},
				"down": {"uv": [14.25, 6.375, 14.5, 6.625], "texture": "#0"}
			}
		},
		{
			"from": [7.675, 9.7125, -0.7375],
			"to": [8.525, 9.8625, -0.5875],
			"rotation": {"angle": 45, "axis": "x", "origin": [7.8375, 9.8875, -0.6625]},
			"faces": {
				"north": {"uv": [14.25, 6.375, 14.5, 6.625], "texture": "#0"},
				"east": {"uv": [14.25, 6.375, 14.5, 6.625], "texture": "#0"},
				"south": {"uv": [14.25, 6.375, 14.5, 6.625], "texture": "#0"},
				"west": {"uv": [14.25, 6.375, 14.5, 6.625], "texture": "#0"},
				"up": {"uv": [14.25, 6.375, 14.5, 6.625], "texture": "#0"},
				"down": {"uv": [14.25, 6.375, 14.5, 6.625], "texture": "#0"}
			}
		},
		{
			"from": [7.675, 9.7125, 3.3375],
			"to": [8.525, 9.8625, 3.4875],
			"rotation": {"angle": 45, "axis": "x", "origin": [7.8375, 9.8875, 3.4125]},
			"faces": {
				"north": {"uv": [14.25, 6.375, 14.5, 6.625], "texture": "#0"},
				"east": {"uv": [14.25, 6.375, 14.5, 6.625], "texture": "#0"},
				"south": {"uv": [14.25, 6.375, 14.5, 6.625], "texture": "#0"},
				"west": {"uv": [14.25, 6.375, 14.5, 6.625], "texture": "#0"},
				"up": {"uv": [14.25, 6.375, 14.5, 6.625], "texture": "#0"},
				"down": {"uv": [14.25, 6.375, 14.5, 6.625], "texture": "#0"}
			}
		},
		{
			"from": [7.93641, 8.31244, 9.748],
			"to": [8.26441, 8.43644, 10.264],
			"rotation": {"angle": -45, "axis": "x", "origin": [8.10041, 8.21444, 9.846]},
			"faces": {
				"north": {"uv": [9.125, 10.125, 9.75, 10.25], "rotation": 90, "texture": "#0"},
				"east": {"uv": [9.125, 10.125, 9.75, 10.25], "rotation": 90, "texture": "#0"},
				"south": {"uv": [9.125, 10.125, 9.75, 10.25], "rotation": 90, "texture": "#0"},
				"west": {"uv": [9.125, 10.125, 9.75, 10.25], "rotation": 90, "texture": "#0"},
				"up": {"uv": [9.125, 10.125, 9.75, 10.25], "rotation": 90, "texture": "#0"},
				"down": {"uv": [9.125, 10.125, 9.75, 10.25], "rotation": 90, "texture": "#0"}
			}
		},
		{
			"from": [7.93641, 8.06194, 9.45273],
			"to": [8.26441, 8.18594, 9.77673],
			"rotation": {"angle": -22.5, "axis": "x", "origin": [8.10041, 7.96394, 9.35873]},
			"faces": {
				"north": {"uv": [9.125, 10.125, 9.75, 10.25], "rotation": 90, "texture": "#0"},
				"east": {"uv": [9.125, 10.125, 9.75, 10.25], "rotation": 90, "texture": "#0"},
				"south": {"uv": [9.125, 10.125, 9.75, 10.25], "rotation": 90, "texture": "#0"},
				"west": {"uv": [9.125, 10.125, 9.75, 10.25], "rotation": 90, "texture": "#0"},
				"up": {"uv": [9.125, 10.125, 9.75, 10.25], "rotation": 90, "texture": "#0"},
				"down": {"uv": [9.125, 10.125, 9.75, 10.25], "rotation": 90, "texture": "#0"}
			}
		},
		{
			"from": [7.93641, 8.09045, 8.54007],
			"to": [8.26441, 8.21445, 9.40807],
			"rotation": {"angle": 0, "axis": "y", "origin": [8.10041, 7.99245, 8.99007]},
			"faces": {
				"north": {"uv": [9.125, 10.125, 9.75, 10.25], "rotation": 90, "texture": "#0"},
				"east": {"uv": [9.125, 10.125, 9.75, 10.25], "rotation": 90, "texture": "#0"},
				"south": {"uv": [9.125, 10.125, 9.75, 10.25], "rotation": 90, "texture": "#0"},
				"west": {"uv": [9.125, 10.125, 9.75, 10.25], "rotation": 90, "texture": "#0"},
				"up": {"uv": [9.125, 10.125, 9.75, 10.25], "rotation": 90, "texture": "#0"},
				"down": {"uv": [9.125, 10.125, 9.75, 10.25], "rotation": 90, "texture": "#0"}
			}
		},
		{
			"from": [7.93641, 8.25787, 8.24239],
			"to": [8.26441, 8.38187, 8.53439],
			"rotation": {"angle": 22.5, "axis": "x", "origin": [8.10041, 8.15987, 8.11639]},
			"faces": {
				"north": {"uv": [9.125, 10.125, 9.75, 10.25], "rotation": 90, "texture": "#0"},
				"east": {"uv": [9.125, 10.125, 9.75, 10.25], "rotation": 90, "texture": "#0"},
				"south": {"uv": [9.125, 10.125, 9.75, 10.25], "rotation": 90, "texture": "#0"},
				"west": {"uv": [9.125, 10.125, 9.75, 10.25], "rotation": 90, "texture": "#0"},
				"up": {"uv": [9.125, 10.125, 9.75, 10.25], "rotation": 90, "texture": "#0"},
				"down": {"uv": [9.125, 10.125, 9.75, 10.25], "rotation": 90, "texture": "#0"}
			}
		},
		{
			"from": [7.93641, 8.13287, 8.1178],
			"to": [8.26441, 8.90487, 8.2418],
			"rotation": {"angle": -22.5, "axis": "x", "origin": [8.10041, 8.55087, 8.0198]},
			"faces": {
				"north": {"uv": [9.125, 10.125, 9.75, 10.25], "rotation": 90, "texture": "#0"},
				"east": {"uv": [9.125, 10.125, 9.75, 10.25], "rotation": 90, "texture": "#0"},
				"south": {"uv": [9.125, 10.125, 9.75, 10.25], "rotation": 90, "texture": "#0"},
				"west": {"uv": [9.125, 10.125, 9.75, 10.25], "rotation": 90, "texture": "#0"},
				"up": {"uv": [9.125, 10.125, 9.75, 10.25], "rotation": 90, "texture": "#0"},
				"down": {"uv": [9.125, 10.125, 9.75, 10.25], "rotation": 90, "texture": "#0"}
			}
		},
		{
			"from": [7.93641, 8.91543, 7.97487],
			"to": [8.26441, 9.17543, 8.09887],
			"rotation": {"angle": 0, "axis": "y", "origin": [8.10041, 9.33343, 7.87687]},
			"faces": {
				"north": {"uv": [9.125, 10.125, 9.75, 10.25], "rotation": 90, "texture": "#0"},
				"east": {"uv": [9.125, 10.125, 9.75, 10.25], "rotation": 90, "texture": "#0"},
				"south": {"uv": [9.125, 10.125, 9.75, 10.25], "rotation": 90, "texture": "#0"},
				"west": {"uv": [9.125, 10.125, 9.75, 10.25], "rotation": 90, "texture": "#0"},
				"up": {"uv": [9.125, 10.125, 9.75, 10.25], "rotation": 90, "texture": "#0"},
				"down": {"uv": [9.125, 10.125, 9.75, 10.25], "rotation": 90, "texture": "#0"}
			}
		},
		{
			"from": [8.06441, 8.53143, 9.12687],
			"to": [8.23241, 9.17543, 9.25087],
			"rotation": {"angle": 0, "axis": "y", "origin": [8.10041, 9.33343, 9.02887]},
			"faces": {
				"north": {"uv": [9.125, 10.125, 9.75, 10.25], "rotation": 90, "texture": "#0"},
				"east": {"uv": [9.125, 10.125, 9.75, 10.25], "rotation": 90, "texture": "#0"},
				"south": {"uv": [9.125, 10.125, 9.75, 10.25], "rotation": 90, "texture": "#0"},
				"west": {"uv": [9.125, 10.125, 9.75, 10.25], "rotation": 90, "texture": "#0"},
				"up": {"uv": [9.125, 10.125, 9.75, 10.25], "rotation": 90, "texture": "#0"},
				"down": {"uv": [9.125, 10.125, 9.75, 10.25], "rotation": 90, "texture": "#0"}
			}
		},
		{
			"from": [8.06441, 8.81943, 9.09487],
			"to": [8.23241, 9.17543, 9.21887],
			"rotation": {"angle": 0, "axis": "y", "origin": [8.10041, 9.33343, 8.99687]},
			"faces": {
				"north": {"uv": [9.125, 10.125, 9.75, 10.25], "rotation": 90, "texture": "#0"},
				"east": {"uv": [9.125, 10.125, 9.75, 10.25], "rotation": 90, "texture": "#0"},
				"south": {"uv": [9.125, 10.125, 9.75, 10.25], "rotation": 90, "texture": "#0"},
				"west": {"uv": [9.125, 10.125, 9.75, 10.25], "rotation": 90, "texture": "#0"},
				"up": {"uv": [9.125, 10.125, 9.75, 10.25], "rotation": 90, "texture": "#0"},
				"down": {"uv": [9.125, 10.125, 9.75, 10.25], "rotation": 90, "texture": "#0"}
			}
		},
		{
			"from": [8.06441, 8.53143, 8.83887],
			"to": [8.23241, 9.17543, 8.96287],
			"rotation": {"angle": -22.5, "axis": "x", "origin": [8.10041, 9.33343, 8.74087]},
			"faces": {
				"north": {"uv": [9.125, 10.125, 9.75, 10.25], "rotation": 90, "texture": "#0"},
				"east": {"uv": [9.125, 10.125, 9.75, 10.25], "rotation": 90, "texture": "#0"},
				"south": {"uv": [9.125, 10.125, 9.75, 10.25], "rotation": 90, "texture": "#0"},
				"west": {"uv": [9.125, 10.125, 9.75, 10.25], "rotation": 90, "texture": "#0"},
				"up": {"uv": [9.125, 10.125, 9.75, 10.25], "rotation": 90, "texture": "#0"},
				"down": {"uv": [9.125, 10.125, 9.75, 10.25], "rotation": 90, "texture": "#0"}
			}
		},
		{
			"from": [8.06441, 8.31987, 9.19936],
			"to": [8.23241, 8.57987, 9.32336],
			"rotation": {"angle": 22.5, "axis": "x", "origin": [8.10041, 8.73787, 9.16536]},
			"faces": {
				"north": {"uv": [9.125, 10.125, 9.75, 10.25], "rotation": 90, "texture": "#0"},
				"east": {"uv": [9.125, 10.125, 9.75, 10.25], "rotation": 90, "texture": "#0"},
				"south": {"uv": [9.125, 10.125, 9.75, 10.25], "rotation": 90, "texture": "#0"},
				"west": {"uv": [9.125, 10.125, 9.75, 10.25], "rotation": 90, "texture": "#0"},
				"up": {"uv": [9.125, 10.125, 9.75, 10.25], "rotation": 90, "texture": "#0"},
				"down": {"uv": [9.125, 10.125, 9.75, 10.25], "rotation": 90, "texture": "#0"}
			}
		},
		{
			"from": [8.14712, 9.93238, -1.47423],
			"to": [8.34712, 10.67238, 6.98377],
			"rotation": {"angle": 0, "axis": "y", "origin": [8.07512, 10.30238, 7.64577]},
			"faces": {
				"north": {"uv": [9.125, 10.125, 9.75, 10.25], "rotation": 270, "texture": "#0"},
				"east": {"uv": [9.125, 10.125, 9.75, 10.25], "rotation": 90, "texture": "#0"},
				"south": {"uv": [9.125, 10.125, 9.75, 10.25], "rotation": 90, "texture": "#0"},
				"west": {"uv": [9.125, 10.125, 9.75, 10.25], "rotation": 90, "texture": "#0"},
				"up": {"uv": [9.125, 10.125, 9.75, 10.25], "rotation": 90, "texture": "#0"},
				"down": {"uv": [9.125, 10.125, 9.75, 10.25], "rotation": 90, "texture": "#0"}
			}
		},
		{
			"from": [7.84712, 9.93238, -1.47423],
			"to": [8.04712, 10.67238, 6.98377],
			"rotation": {"angle": 0, "axis": "y", "origin": [8.07512, 10.30238, 7.64577]},
			"faces": {
				"north": {"uv": [9.125, 10.125, 9.75, 10.25], "rotation": 270, "texture": "#0"},
				"east": {"uv": [9.125, 10.125, 9.75, 10.25], "rotation": 90, "texture": "#0"},
				"south": {"uv": [9.125, 10.125, 9.75, 10.25], "rotation": 90, "texture": "#0"},
				"west": {"uv": [9.125, 10.125, 9.75, 10.25], "rotation": 90, "texture": "#0"},
				"up": {"uv": [9.125, 10.125, 9.75, 10.25], "rotation": 90, "texture": "#0"},
				"down": {"uv": [9.125, 10.125, 9.75, 10.25], "rotation": 90, "texture": "#0"}
			}
		},
		{
			"from": [7.84712, 9.73238, -1.44923],
			"to": [8.34712, 10.59738, 12.05877],
			"rotation": {"angle": 0, "axis": "y", "origin": [8.07512, 10.10238, 12.22077]},
			"faces": {
				"north": {"uv": [9.125, 10.125, 9.75, 10.25], "rotation": 270, "texture": "#0"},
				"east": {"uv": [9.125, 10.125, 9.75, 10.25], "rotation": 90, "texture": "#0"},
				"south": {"uv": [9.125, 10.125, 9.75, 10.25], "rotation": 90, "texture": "#0"},
				"west": {"uv": [9.125, 10.125, 9.75, 10.25], "rotation": 90, "texture": "#0"},
				"up": {"uv": [9.125, 10, 9.75, 10.125], "rotation": 90, "texture": "#0"},
				"down": {"uv": [9.125, 10.125, 9.75, 10.25], "rotation": 90, "texture": "#0"}
			}
		},
		{
			"from": [8.01441, 10.761, 6.11977],
			"to": [8.18241, 10.835, 6.31377],
			"rotation": {"angle": 45, "axis": "x", "origin": [8.09841, 10.798, 6.19177]},
			"faces": {
				"north": {"uv": [9.125, 10.125, 9.75, 10.25], "rotation": 270, "texture": "#0"},
				"east": {"uv": [9.125, 10.125, 9.75, 10.25], "rotation": 90, "texture": "#0"},
				"south": {"uv": [9.125, 10.125, 9.75, 10.25], "rotation": 90, "texture": "#0"},
				"west": {"uv": [9.125, 10.125, 9.75, 10.25], "rotation": 90, "texture": "#0"},
				"up": {"uv": [9.125, 10.125, 9.75, 10.25], "rotation": 90, "texture": "#0"},
				"down": {"uv": [9.125, 10.125, 9.75, 10.25], "rotation": 90, "texture": "#0"}
			}
		},
		{
			"from": [8.01441, 10.686, 6.24477],
			"to": [8.18241, 10.76, 6.43877],
			"rotation": {"angle": 0, "axis": "x", "origin": [8.09841, 10.723, 6.31677]},
			"faces": {
				"north": {"uv": [9.125, 10.125, 9.75, 10.25], "rotation": 270, "texture": "#0"},
				"east": {"uv": [9.125, 10.125, 9.75, 10.25], "rotation": 90, "texture": "#0"},
				"south": {"uv": [9.125, 10.125, 9.75, 10.25], "rotation": 90, "texture": "#0"},
				"west": {"uv": [9.125, 10.125, 9.75, 10.25], "rotation": 90, "texture": "#0"},
				"up": {"uv": [9.125, 10.125, 9.75, 10.25], "rotation": 90, "texture": "#0"},
				"down": {"uv": [9.125, 10.125, 9.75, 10.25], "rotation": 90, "texture": "#0"}
			}
		},
		{
			"from": [8.01441, 10.711, 6.39477],
			"to": [8.18241, 10.785, 6.58877],
			"rotation": {"angle": -45, "axis": "x", "origin": [8.09841, 10.748, 6.46677]},
			"faces": {
				"north": {"uv": [9.125, 10.125, 9.75, 10.25], "rotation": 270, "texture": "#0"},
				"east": {"uv": [9.125, 10.125, 9.75, 10.25], "rotation": 90, "texture": "#0"},
				"south": {"uv": [9.125, 10.125, 9.75, 10.25], "rotation": 90, "texture": "#0"},
				"west": {"uv": [9.125, 10.125, 9.75, 10.25], "rotation": 90, "texture": "#0"},
				"up": {"uv": [9.125, 10.125, 9.75, 10.25], "rotation": 90, "texture": "#0"},
				"down": {"uv": [9.125, 10.125, 9.75, 10.25], "rotation": 90, "texture": "#0"}
			}
		},
		{
			"from": [8.01441, 10.78643, 6.52687],
			"to": [8.18241, 10.86043, 6.97087],
			"rotation": {"angle": 0, "axis": "x", "origin": [8.09841, 10.82343, 6.64887]},
			"faces": {
				"north": {"uv": [9.125, 10.125, 9.75, 10.25], "rotation": 270, "texture": "#0"},
				"east": {"uv": [9.125, 10.125, 9.75, 10.25], "rotation": 90, "texture": "#0"},
				"south": {"uv": [9.125, 10.125, 9.75, 10.25], "rotation": 90, "texture": "#0"},
				"west": {"uv": [9.125, 10.125, 9.75, 10.25], "rotation": 90, "texture": "#0"},
				"up": {"uv": [9.125, 10.125, 9.75, 10.25], "rotation": 90, "texture": "#0"},
				"down": {"uv": [9.125, 10.125, 9.75, 10.25], "rotation": 90, "texture": "#0"}
			}
		},
		{
			"from": [8.01441, 10.66143, 6.92687],
			"to": [8.18241, 10.73543, 7.57087],
			"rotation": {"angle": 22.5, "axis": "x", "origin": [8.09841, 10.69843, 7.24887]},
			"faces": {
				"north": {"uv": [9.125, 10.125, 9.75, 10.25], "rotation": 270, "texture": "#0"},
				"east": {"uv": [9.125, 10.125, 9.75, 10.25], "rotation": 90, "texture": "#0"},
				"south": {"uv": [9.125, 10.125, 9.75, 10.25], "rotation": 90, "texture": "#0"},
				"west": {"uv": [9.125, 10.125, 9.75, 10.25], "rotation": 90, "texture": "#0"},
				"up": {"uv": [9.125, 10.125, 9.75, 10.25], "rotation": 90, "texture": "#0"},
				"down": {"uv": [9.125, 10.125, 9.75, 10.25], "rotation": 90, "texture": "#0"}
			}
		},
		{
			"from": [7.818, 11.64544, 7.382],
			"to": [8.378, 11.74144, 11.491],
			"rotation": {"angle": 0, "axis": "y", "origin": [7.83942, 11.60402, -10.773]},
			"faces": {
				"north": {"uv": [9.125, 10.125, 9.75, 10.25], "rotation": 270, "texture": "#0"},
				"east": {"uv": [9.125, 10.125, 9.75, 10.25], "rotation": 90, "texture": "#0"},
				"south": {"uv": [9.125, 10.125, 9.75, 10.25], "rotation": 90, "texture": "#0"},
				"west": {"uv": [9.125, 10.125, 9.75, 10.25], "rotation": 90, "texture": "#0"},
				"up": {"uv": [9.125, 10.125, 9.75, 10.25], "rotation": 90, "texture": "#0"},
				"down": {"uv": [9.125, 10.125, 9.75, 10.25], "rotation": 90, "texture": "#0"}
			}
		},
		{
			"from": [7.85, 11.42144, 7.798],
			"to": [8.346, 11.64544, 11.139],
			"rotation": {"angle": 0, "axis": "y", "origin": [7.83942, 11.60402, -10.773]},
			"faces": {
				"north": {"uv": [9.125, 10.125, 9.75, 10.25], "rotation": 270, "texture": "#0"},
				"east": {"uv": [9.125, 10.125, 9.75, 10.25], "rotation": 90, "texture": "#0"},
				"south": {"uv": [9.125, 10.125, 9.75, 10.25], "rotation": 90, "texture": "#0"},
				"west": {"uv": [9.125, 10.125, 9.75, 10.25], "rotation": 90, "texture": "#0"},
				"up": {"uv": [9.125, 10.125, 9.75, 10.25], "rotation": 90, "texture": "#0"},
				"down": {"uv": [9.125, 10.125, 9.75, 10.25], "rotation": 90, "texture": "#0"}
			}
		},
		{
			"from": [7.85, 10.39744, 7.382],
			"to": [8.346, 11.64544, 7.811],
			"rotation": {"angle": 0, "axis": "y", "origin": [7.83942, 11.60402, -10.357]},
			"faces": {
				"north": {"uv": [9.125, 10.125, 9.75, 10.25], "rotation": 270, "texture": "#0"},
				"east": {"uv": [9.125, 10.125, 9.75, 10.25], "rotation": 90, "texture": "#0"},
				"south": {"uv": [9.125, 10.125, 9.75, 10.25], "rotation": 90, "texture": "#0"},
				"west": {"uv": [9.125, 10.125, 9.75, 10.25], "rotation": 90, "texture": "#0"},
				"up": {"uv": [9.125, 10.125, 9.75, 10.25], "rotation": 90, "texture": "#0"},
				"down": {"uv": [9.125, 10.125, 9.75, 10.25], "rotation": 90, "texture": "#0"}
			}
		},
		{
			"from": [7.85, 10.39744, 6.966],
			"to": [8.346, 10.94144, 7.715],
			"rotation": {"angle": 0, "axis": "y", "origin": [7.83942, 11.60402, -10.357]},
			"faces": {
				"north": {"uv": [9.125, 10.125, 9.75, 10.25], "rotation": 270, "texture": "#0"},
				"east": {"uv": [9.125, 10.125, 9.75, 10.25], "rotation": 90, "texture": "#0"},
				"south": {"uv": [9.125, 10.125, 9.75, 10.25], "rotation": 90, "texture": "#0"},
				"west": {"uv": [9.125, 10.125, 9.75, 10.25], "rotation": 90, "texture": "#0"},
				"up": {"uv": [9.125, 10.125, 9.75, 10.25], "rotation": 90, "texture": "#0"},
				"down": {"uv": [9.125, 10.125, 9.75, 10.25], "rotation": 90, "texture": "#0"}
			}
		},
		{
			"from": [7.85, 9.72544, 7.798],
			"to": [8.346, 10.97344, 8.227],
			"rotation": {"angle": -45, "axis": "x", "origin": [8.098, 10.34944, 8.0125]},
			"faces": {
				"north": {"uv": [9.125, 10.125, 9.75, 10.25], "rotation": 270, "texture": "#0"},
				"east": {"uv": [9.125, 10.125, 9.75, 10.25], "rotation": 90, "texture": "#0"},
				"south": {"uv": [9.125, 10.125, 9.75, 10.25], "rotation": 90, "texture": "#0"},
				"west": {"uv": [9.125, 10.125, 9.75, 10.25], "rotation": 90, "texture": "#0"},
				"up": {"uv": [9.125, 10.125, 9.75, 10.25], "rotation": 90, "texture": "#0"},
				"down": {"uv": [9.125, 10.125, 9.75, 10.25], "rotation": 90, "texture": "#0"}
			}
		},
		{
			"from": [7.85, 9.72544, 10.685],
			"to": [8.346, 10.97344, 11.114],
			"rotation": {"angle": 45, "axis": "x", "origin": [8.098, 10.34944, 10.8995]},
			"faces": {
				"north": {"uv": [9.125, 10.25, 9.75, 10.125], "rotation": 90, "texture": "#0"},
				"east": {"uv": [9.125, 10.25, 9.75, 10.125], "rotation": 90, "texture": "#0"},
				"south": {"uv": [9.125, 10.25, 9.75, 10.125], "rotation": 270, "texture": "#0"},
				"west": {"uv": [9.125, 10.25, 9.75, 10.125], "rotation": 90, "texture": "#0"},
				"up": {"uv": [9.75, 10.125, 9.125, 10.25], "rotation": 90, "texture": "#0"},
				"down": {"uv": [9.75, 10.125, 9.125, 10.25], "rotation": 90, "texture": "#0"}
			}
		},
		{
			"from": [7.85, 11.42144, 11.126],
			"to": [8.346, 11.64544, 11.491],
			"rotation": {"angle": 0, "axis": "y", "origin": [7.83942, 11.60402, -10.773]},
			"faces": {
				"north": {"uv": [9.125, 10.125, 9.75, 10.25], "rotation": 270, "texture": "#0"},
				"east": {"uv": [9.125, 10.125, 9.75, 10.25], "rotation": 90, "texture": "#0"},
				"south": {"uv": [9.125, 10.125, 9.75, 10.25], "rotation": 90, "texture": "#0"},
				"west": {"uv": [9.125, 10.125, 9.75, 10.25], "rotation": 90, "texture": "#0"},
				"up": {"uv": [9.125, 10.125, 9.75, 10.25], "rotation": 90, "texture": "#0"},
				"down": {"uv": [9.125, 10.125, 9.75, 10.25], "rotation": 90, "texture": "#0"}
			}
		},
		{
			"from": [7.85, 10.3751, 11.18669],
			"to": [8.346, 11.6231, 11.74369],
			"rotation": {"angle": -22.5, "axis": "x", "origin": [8.098, 10.9991, 11.56119]},
			"faces": {
				"north": {"uv": [9.125, 10.125, 9.75, 10.25], "rotation": 270, "texture": "#0"},
				"east": {"uv": [9.125, 10.125, 9.75, 10.25], "rotation": 90, "texture": "#0"},
				"south": {"uv": [9.125, 10.125, 9.75, 10.25], "rotation": 90, "texture": "#0"},
				"west": {"uv": [9.125, 10.125, 9.75, 10.25], "rotation": 90, "texture": "#0"},
				"up": {"uv": [9.125, 10.125, 9.75, 10.25], "rotation": 90, "texture": "#0"},
				"down": {"uv": [9.125, 10.125, 9.75, 10.25], "rotation": 90, "texture": "#0"}
			}
		},
		{
			"from": [7.818, 11.74144, 11.075],
			"to": [8.378, 11.86944, 11.327],
			"rotation": {"angle": 0, "axis": "y", "origin": [7.83942, 11.70002, -2.901]},
			"faces": {
				"north": {"uv": [9.125, 10.125, 9.75, 10.25], "rotation": 270, "texture": "#0"},
				"east": {"uv": [9.125, 10.125, 9.75, 10.25], "rotation": 90, "texture": "#0"},
				"south": {"uv": [9.125, 10.125, 9.75, 10.25], "rotation": 90, "texture": "#0"},
				"west": {"uv": [9.125, 10.125, 9.75, 10.25], "rotation": 90, "texture": "#0"},
				"up": {"uv": [9.125, 10.125, 9.75, 10.25], "rotation": 90, "texture": "#0"},
				"down": {"uv": [9.125, 10.125, 9.75, 10.25], "rotation": 90, "texture": "#0"}
			}
		},
		{
			"from": [7.818, 11.74144, 10.563],
			"to": [8.378, 11.86944, 10.815],
			"rotation": {"angle": 0, "axis": "y", "origin": [7.83942, 11.70002, -3.413]},
			"faces": {
				"north": {"uv": [9.125, 10.125, 9.75, 10.25], "rotation": 270, "texture": "#0"},
				"east": {"uv": [9.125, 10.125, 9.75, 10.25], "rotation": 90, "texture": "#0"},
				"south": {"uv": [9.125, 10.125, 9.75, 10.25], "rotation": 90, "texture": "#0"},
				"west": {"uv": [9.125, 10.125, 9.75, 10.25], "rotation": 90, "texture": "#0"},
				"up": {"uv": [9.125, 10.125, 9.75, 10.25], "rotation": 90, "texture": "#0"},
				"down": {"uv": [9.125, 10.125, 9.75, 10.25], "rotation": 90, "texture": "#0"}
			}
		},
		{
			"from": [7.818, 11.74144, 10.051],
			"to": [8.378, 11.86944, 10.303],
			"rotation": {"angle": 0, "axis": "y", "origin": [7.83942, 11.70002, -3.925]},
			"faces": {
				"north": {"uv": [9.125, 10.125, 9.75, 10.25], "rotation": 270, "texture": "#0"},
				"east": {"uv": [9.125, 10.125, 9.75, 10.25], "rotation": 90, "texture": "#0"},
				"south": {"uv": [9.125, 10.125, 9.75, 10.25], "rotation": 90, "texture": "#0"},
				"west": {"uv": [9.125, 10.125, 9.75, 10.25], "rotation": 90, "texture": "#0"},
				"up": {"uv": [9.125, 10.125, 9.75, 10.25], "rotation": 90, "texture": "#0"},
				"down": {"uv": [9.125, 10.125, 9.75, 10.25], "rotation": 90, "texture": "#0"}
			}
		},
		{
			"from": [7.818, 11.74144, 9.571],
			"to": [8.378, 11.86944, 9.823],
			"rotation": {"angle": 0, "axis": "y", "origin": [7.83942, 11.70002, -4.405]},
			"faces": {
				"north": {"uv": [9.125, 10.125, 9.75, 10.25], "rotation": 270, "texture": "#0"},
				"east": {"uv": [9.125, 10.125, 9.75, 10.25], "rotation": 90, "texture": "#0"},
				"south": {"uv": [9.125, 10.125, 9.75, 10.25], "rotation": 90, "texture": "#0"},
				"west": {"uv": [9.125, 10.125, 9.75, 10.25], "rotation": 90, "texture": "#0"},
				"up": {"uv": [9.125, 10.125, 9.75, 10.25], "rotation": 90, "texture": "#0"},
				"down": {"uv": [9.125, 10.125, 9.75, 10.25], "rotation": 90, "texture": "#0"}
			}
		},
		{
			"from": [7.818, 11.74144, 9.059],
			"to": [8.378, 11.86944, 9.311],
			"rotation": {"angle": 0, "axis": "y", "origin": [7.83942, 11.70002, -4.917]},
			"faces": {
				"north": {"uv": [9.125, 10.125, 9.75, 10.25], "rotation": 270, "texture": "#0"},
				"east": {"uv": [9.125, 10.125, 9.75, 10.25], "rotation": 90, "texture": "#0"},
				"south": {"uv": [9.125, 10.125, 9.75, 10.25], "rotation": 90, "texture": "#0"},
				"west": {"uv": [9.125, 10.125, 9.75, 10.25], "rotation": 90, "texture": "#0"},
				"up": {"uv": [9.125, 10.125, 9.75, 10.25], "rotation": 90, "texture": "#0"},
				"down": {"uv": [9.125, 10.125, 9.75, 10.25], "rotation": 90, "texture": "#0"}
			}
		},
		{
			"from": [7.818, 11.74144, 8.547],
			"to": [8.378, 11.86944, 8.799],
			"rotation": {"angle": 0, "axis": "y", "origin": [7.83942, 11.70002, -5.429]},
			"faces": {
				"north": {"uv": [9.125, 10.125, 9.75, 10.25], "rotation": 270, "texture": "#0"},
				"east": {"uv": [9.125, 10.125, 9.75, 10.25], "rotation": 90, "texture": "#0"},
				"south": {"uv": [9.125, 10.125, 9.75, 10.25], "rotation": 90, "texture": "#0"},
				"west": {"uv": [9.125, 10.125, 9.75, 10.25], "rotation": 90, "texture": "#0"},
				"up": {"uv": [9.125, 10.125, 9.75, 10.25], "rotation": 90, "texture": "#0"},
				"down": {"uv": [9.125, 10.125, 9.75, 10.25], "rotation": 90, "texture": "#0"}
			}
		},
		{
			"from": [7.818, 11.74144, 8.035],
			"to": [8.378, 11.86944, 8.287],
			"rotation": {"angle": 0, "axis": "y", "origin": [7.83942, 11.70002, -5.941]},
			"faces": {
				"north": {"uv": [9.125, 10.125, 9.75, 10.25], "rotation": 270, "texture": "#0"},
				"east": {"uv": [9.125, 10.125, 9.75, 10.25], "rotation": 90, "texture": "#0"},
				"south": {"uv": [9.125, 10.125, 9.75, 10.25], "rotation": 90, "texture": "#0"},
				"west": {"uv": [9.125, 10.125, 9.75, 10.25], "rotation": 90, "texture": "#0"},
				"up": {"uv": [9.125, 10.125, 9.75, 10.25], "rotation": 90, "texture": "#0"},
				"down": {"uv": [9.125, 10.125, 9.75, 10.25], "rotation": 90, "texture": "#0"}
			}
		},
		{
			"from": [7.818, 11.74144, 7.51],
			"to": [8.378, 11.86944, 7.762],
			"rotation": {"angle": 0, "axis": "y", "origin": [7.83942, 11.70002, -6.466]},
			"faces": {
				"north": {"uv": [9.125, 10.125, 9.75, 10.25], "rotation": 270, "texture": "#0"},
				"east": {"uv": [9.125, 10.125, 9.75, 10.25], "rotation": 90, "texture": "#0"},
				"south": {"uv": [9.125, 10.125, 9.75, 10.25], "rotation": 90, "texture": "#0"},
				"west": {"uv": [9.125, 10.125, 9.75, 10.25], "rotation": 90, "texture": "#0"},
				"up": {"uv": [9.125, 10.125, 9.75, 10.25], "rotation": 90, "texture": "#0"},
				"down": {"uv": [9.125, 10.125, 9.75, 10.25], "rotation": 90, "texture": "#0"}
			}
		},
		{
			"from": [-0.46294, 10.13238, 0.66724],
			"to": [2.14506, 11.37238, 1.06724],
			"rotation": {"angle": 22.5, "axis": "y", "origin": [0.84106, 10.75238, 0.86724]},
			"faces": {
				"north": {"uv": [9.125, 10.125, 9.75, 10.25], "rotation": 270, "texture": "#0"},
				"east": {"uv": [9.125, 10.125, 9.75, 10.25], "rotation": 90, "texture": "#0"},
				"south": {"uv": [9.125, 10.125, 9.75, 10.25], "rotation": 90, "texture": "#0"},
				"west": {"uv": [9.125, 10.125, 9.75, 10.25], "rotation": 90, "texture": "#0"},
				"up": {"uv": [9.125, 10.125, 9.75, 10.25], "rotation": 90, "texture": "#0"},
				"down": {"uv": [9.125, 10.125, 9.75, 10.25], "rotation": 90, "texture": "#0"}
			}
		},
		{
			"from": [2.00903, 10.13238, 0.27946],
			"to": [3.61703, 11.37238, 0.67946],
			"rotation": {"angle": 45, "axis": "y", "origin": [1.91303, 10.75238, 0.47946]},
			"faces": {
				"north": {"uv": [9.125, 10.125, 9.75, 10.25], "rotation": 270, "texture": "#0"},
				"east": {"uv": [9.125, 10.125, 9.75, 10.25], "rotation": 90, "texture": "#0"},
				"south": {"uv": [9.125, 10.125, 9.75, 10.25], "rotation": 90, "texture": "#0"},
				"west": {"uv": [9.125, 10.125, 9.75, 10.25], "rotation": 90, "texture": "#0"},
				"up": {"uv": [9.125, 10.125, 9.75, 10.25], "rotation": 90, "texture": "#0"},
				"down": {"uv": [9.125, 10.125, 9.75, 10.25], "rotation": 90, "texture": "#0"}
			}
		},
		{
			"from": [3.06037, 10.13238, -0.84536],
			"to": [4.66837, 11.37238, -0.44536],
			"rotation": {"angle": 22.5, "axis": "y", "origin": [2.96437, 10.75238, -0.64536]},
			"faces": {
				"north": {"uv": [9.125, 10.125, 9.75, 10.25], "rotation": 270, "texture": "#0"},
				"east": {"uv": [9.125, 10.125, 9.75, 10.25], "rotation": 90, "texture": "#0"},
				"south": {"uv": [9.125, 10.125, 9.75, 10.25], "rotation": 90, "texture": "#0"},
				"west": {"uv": [9.125, 10.125, 9.75, 10.25], "rotation": 90, "texture": "#0"},
				"up": {"uv": [9.125, 10.125, 9.75, 10.25], "rotation": 90, "texture": "#0"},
				"down": {"uv": [9.125, 10.125, 9.75, 10.25], "rotation": 90, "texture": "#0"}
			}
		},
		{
			"from": [4.46212, 10.13238, -1.48223],
			"to": [7.87012, 11.37238, -1.08223],
			"rotation": {"angle": 0, "axis": "y", "origin": [3.20012, 11.40238, -1.25423]},
			"faces": {
				"north": {"uv": [9.125, 10.125, 9.75, 10.25], "rotation": 270, "texture": "#0"},
				"east": {"uv": [9.125, 10.125, 9.75, 10.25], "rotation": 90, "texture": "#0"},
				"south": {"uv": [9.125, 10.125, 9.75, 10.25], "rotation": 90, "texture": "#0"},
				"west": {"uv": [9.125, 10.125, 9.75, 10.25], "rotation": 90, "texture": "#0"},
				"up": {"uv": [9.125, 10.125, 9.75, 10.25], "rotation": 90, "texture": "#0"},
				"down": {"uv": [9.125, 10.125, 9.75, 10.25], "rotation": 90, "texture": "#0"}
			}
		},
		{
			"from": [14.06306, 10.13238, 0.66724],
			"to": [16.67106, 11.37238, 1.06724],
			"rotation": {"angle": -22.5, "axis": "y", "origin": [15.36706, 10.75238, 0.86724]},
			"faces": {
				"north": {"uv": [9.125, 10.125, 9.75, 10.25], "rotation": 270, "texture": "#0"},
				"east": {"uv": [9.125, 10.125, 9.75, 10.25], "rotation": 90, "texture": "#0"},
				"south": {"uv": [9.125, 10.125, 9.75, 10.25], "rotation": 90, "texture": "#0"},
				"west": {"uv": [9.125, 10.125, 9.75, 10.25], "rotation": 90, "texture": "#0"},
				"up": {"uv": [9.125, 10.125, 9.75, 10.25], "rotation": 90, "texture": "#0"},
				"down": {"uv": [9.125, 10.125, 9.75, 10.25], "rotation": 90, "texture": "#0"}
			}
		},
		{
			"from": [12.59109, 10.13238, 0.27946],
			"to": [14.19909, 11.37238, 0.67946],
			"rotation": {"angle": -45, "axis": "y", "origin": [14.29509, 10.75238, 0.47946]},
			"faces": {
				"north": {"uv": [9.125, 10.125, 9.75, 10.25], "rotation": 270, "texture": "#0"},
				"east": {"uv": [9.125, 10.125, 9.75, 10.25], "rotation": 90, "texture": "#0"},
				"south": {"uv": [9.125, 10.125, 9.75, 10.25], "rotation": 90, "texture": "#0"},
				"west": {"uv": [9.125, 10.125, 9.75, 10.25], "rotation": 90, "texture": "#0"},
				"up": {"uv": [9.125, 10.125, 9.75, 10.25], "rotation": 90, "texture": "#0"},
				"down": {"uv": [9.125, 10.125, 9.75, 10.25], "rotation": 90, "texture": "#0"}
			}
		},
		{
			"from": [11.53975, 10.13238, -0.84536],
			"to": [13.14775, 11.37238, -0.44536],
			"rotation": {"angle": -22.5, "axis": "y", "origin": [13.24375, 10.75238, -0.64536]},
			"faces": {
				"north": {"uv": [9.125, 10.125, 9.75, 10.25], "rotation": 270, "texture": "#0"},
				"east": {"uv": [9.125, 10.125, 9.75, 10.25], "rotation": 90, "texture": "#0"},
				"south": {"uv": [9.125, 10.125, 9.75, 10.25], "rotation": 90, "texture": "#0"},
				"west": {"uv": [9.125, 10.125, 9.75, 10.25], "rotation": 90, "texture": "#0"},
				"up": {"uv": [9.125, 10.125, 9.75, 10.25], "rotation": 90, "texture": "#0"},
				"down": {"uv": [9.125, 10.125, 9.75, 10.25], "rotation": 90, "texture": "#0"}
			}
		},
		{
			"from": [8.338, 10.13238, -1.48223],
			"to": [11.746, 11.37238, -1.08223],
			"rotation": {"angle": 0, "axis": "y", "origin": [13.02488, 11.40238, -1.25423]},
			"faces": {
				"north": {"uv": [9.125, 10.125, 9.75, 10.25], "rotation": 270, "texture": "#0"},
				"east": {"uv": [9.125, 10.125, 9.75, 10.25], "rotation": 90, "texture": "#0"},
				"south": {"uv": [9.125, 10.125, 9.75, 10.25], "rotation": 90, "texture": "#0"},
				"west": {"uv": [9.125, 10.125, 9.75, 10.25], "rotation": 90, "texture": "#0"},
				"up": {"uv": [9.125, 10.125, 9.75, 10.25], "rotation": 90, "texture": "#0"},
				"down": {"uv": [9.125, 10.125, 9.75, 10.25], "rotation": 90, "texture": "#0"}
			}
		},
		{
			"from": [6.26212, 10.95738, -1.50723],
			"to": [9.92012, 11.57238, -0.98223],
			"rotation": {"angle": 0, "axis": "y", "origin": [3.20012, 11.00238, -1.15423]},
			"faces": {
				"north": {"uv": [9.125, 10.125, 9.75, 10.25], "rotation": 270, "texture": "#0"},
				"east": {"uv": [9.125, 10.125, 9.75, 10.25], "rotation": 90, "texture": "#0"},
				"south": {"uv": [9.125, 10.125, 9.75, 10.25], "rotation": 90, "texture": "#0"},
				"west": {"uv": [9.125, 10.125, 9.75, 10.25], "rotation": 90, "texture": "#0"},
				"up": {"uv": [9.125, 10.125, 9.75, 10.25], "rotation": 90, "texture": "#0"},
				"down": {"uv": [9.125, 10.125, 9.75, 10.25], "rotation": 90, "texture": "#0"}
			}
		},
		{
			"from": [6.32327, 9.69982, -1.38223],
			"to": [7.83127, 10.23982, -0.98223],
			"rotation": {"angle": -22.5, "axis": "z", "origin": [6.87727, 9.96982, -1.18223]},
			"faces": {
				"north": {"uv": [9.125, 10.125, 9.75, 10.25], "rotation": 270, "texture": "#0"},
				"east": {"uv": [9.125, 10.125, 9.75, 10.25], "rotation": 90, "texture": "#0"},
				"south": {"uv": [9.125, 10.125, 9.75, 10.25], "rotation": 90, "texture": "#0"},
				"west": {"uv": [9.125, 10.125, 9.75, 10.25], "rotation": 90, "texture": "#0"},
				"up": {"uv": [9.125, 10.125, 9.75, 10.25], "rotation": 90, "texture": "#0"},
				"down": {"uv": [9.125, 10.125, 9.75, 10.25], "rotation": 90, "texture": "#0"}
			}
		},
		{
			"from": [8.38141, 9.54675, -1.38223],
			"to": [9.88941, 10.08675, -0.98223],
			"rotation": {"angle": 22.5, "axis": "z", "origin": [8.93541, 9.81675, -1.18223]},
			"faces": {
				"north": {"uv": [9.125, 10.125, 9.75, 10.25], "rotation": 270, "texture": "#0"},
				"east": {"uv": [9.125, 10.125, 9.75, 10.25], "rotation": 90, "texture": "#0"},
				"south": {"uv": [9.125, 10.125, 9.75, 10.25], "rotation": 90, "texture": "#0"},
				"west": {"uv": [9.125, 10.125, 9.75, 10.25], "rotation": 90, "texture": "#0"},
				"up": {"uv": [9.125, 10.125, 9.75, 10.25], "rotation": 90, "texture": "#0"},
				"down": {"uv": [9.125, 10.125, 9.75, 10.25], "rotation": 90, "texture": "#0"}
			}
		},
		{
			"from": [8.33712, 9.93238, -1.38223],
			"to": [9.92012, 10.97238, -0.98223],
			"rotation": {"angle": 0, "axis": "y", "origin": [3.20012, 11.00238, -1.15423]},
			"faces": {
				"north": {"uv": [9.125, 10.125, 9.75, 10.25], "rotation": 270, "texture": "#0"},
				"east": {"uv": [9.125, 10.125, 9.75, 10.25], "rotation": 90, "texture": "#0"},
				"south": {"uv": [9.125, 10.125, 9.75, 10.25], "rotation": 90, "texture": "#0"},
				"west": {"uv": [9.125, 10.125, 9.75, 10.25], "rotation": 90, "texture": "#0"},
				"up": {"uv": [9.125, 10.125, 9.75, 10.25], "rotation": 90, "texture": "#0"},
				"down": {"uv": [9.125, 10.125, 9.75, 10.25], "rotation": 90, "texture": "#0"}
			}
		},
		{
			"from": [6.26212, 9.93238, -1.38223],
			"to": [7.87012, 10.97238, -0.98223],
			"rotation": {"angle": 0, "axis": "y", "origin": [3.20012, 11.00238, -1.15423]},
			"faces": {
				"north": {"uv": [9.125, 10.125, 9.75, 10.25], "rotation": 270, "texture": "#0"},
				"east": {"uv": [9.125, 10.125, 9.75, 10.25], "rotation": 90, "texture": "#0"},
				"south": {"uv": [9.125, 10.125, 9.75, 10.25], "rotation": 90, "texture": "#0"},
				"west": {"uv": [9.125, 10.125, 9.75, 10.25], "rotation": 90, "texture": "#0"},
				"up": {"uv": [9.125, 10.125, 9.75, 10.25], "rotation": 90, "texture": "#0"},
				"down": {"uv": [9.125, 10.125, 9.75, 10.25], "rotation": 90, "texture": "#0"}
			}
		},
		{
			"from": [7.8625, 8.2125, -1.55],
			"to": [8.3375, 9.8125, -1.425],
			"rotation": {"angle": 0, "axis": "z", "origin": [8.025, 8.3375, -1.5]},
			"faces": {
				"north": {"uv": [9.125, 10.125, 9.75, 10.25], "rotation": 270, "texture": "#0"},
				"east": {"uv": [9.125, 10.125, 9.75, 10.25], "rotation": 90, "texture": "#0"},
				"south": {"uv": [9.125, 10.125, 9.75, 10.25], "rotation": 90, "texture": "#0"},
				"west": {"uv": [9.125, 10.125, 9.75, 10.25], "rotation": 90, "texture": "#0"},
				"up": {"uv": [9.125, 10.125, 9.75, 10.25], "rotation": 90, "texture": "#0"},
				"down": {"uv": [9.125, 10.125, 9.75, 10.25], "rotation": 90, "texture": "#0"}
			}
		},
		{
			"from": [8.6, 8.825, -2.75],
			"to": [8.75, 9.35, -1.15],
			"rotation": {"angle": -45, "axis": "y", "origin": [8.675, 9.0375, -1.95]},
			"faces": {
				"north": {"uv": [9.125, 10.125, 9.75, 10.25], "texture": "#0"},
				"east": {"uv": [9.125, 10.125, 9.75, 10.25], "rotation": 90, "texture": "#0"},
				"south": {"uv": [9.125, 10.125, 9.75, 10.25], "rotation": 90, "texture": "#0"},
				"west": {"uv": [9.125, 10.125, 9.75, 10.25], "rotation": 90, "texture": "#0"},
				"up": {"uv": [9.125, 10.125, 9.75, 10.25], "rotation": 90, "texture": "#0"},
				"down": {"uv": [9.125, 10.125, 9.75, 10.25], "rotation": 90, "texture": "#0"}
			}
		},
		{
			"from": [9.15, 8.825, -3.35],
			"to": [9.3, 9.35, -2.475],
			"rotation": {"angle": 0, "axis": "y", "origin": [9.225, 9.0375, -2.55]},
			"faces": {
				"north": {"uv": [9.125, 10.125, 9.75, 10.25], "texture": "#0"},
				"east": {"uv": [9.125, 10.125, 9.75, 10.25], "rotation": 90, "texture": "#0"},
				"south": {"uv": [9.125, 10.125, 9.75, 10.25], "rotation": 90, "texture": "#0"},
				"west": {"uv": [9.125, 10.125, 9.75, 10.25], "rotation": 90, "texture": "#0"},
				"up": {"uv": [9.125, 10.125, 9.75, 10.25], "rotation": 90, "texture": "#0"},
				"down": {"uv": [9.125, 10.125, 9.75, 10.25], "rotation": 90, "texture": "#0"}
			}
		},
		{
			"from": [6.9, 8.825, -3.575],
			"to": [9.3, 9.35, -3.325],
			"rotation": {"angle": 0, "axis": "y", "origin": [9.225, 9.0375, -3.4]},
			"faces": {
				"north": {"uv": [9.125, 10.125, 9.75, 10.25], "texture": "#0"},
				"east": {"uv": [9.125, 10.125, 9.75, 10.25], "rotation": 90, "texture": "#0"},
				"south": {"uv": [9.125, 10.125, 9.75, 10.25], "rotation": 90, "texture": "#0"},
				"west": {"uv": [9.125, 10.125, 9.75, 10.25], "rotation": 90, "texture": "#0"},
				"up": {"uv": [9.125, 10.125, 9.75, 10.25], "rotation": 90, "texture": "#0"},
				"down": {"uv": [9.125, 10.125, 9.75, 10.25], "rotation": 90, "texture": "#0"}
			}
		},
		{
			"from": [6.9, 8.825, -3.35],
			"to": [7.05, 9.35, -2.475],
			"rotation": {"angle": 0, "axis": "y", "origin": [6.975, 9.0375, -2.55]},
			"faces": {
				"north": {"uv": [9.125, 10.125, 9.75, 10.25], "texture": "#0"},
				"east": {"uv": [9.125, 10.125, 9.75, 10.25], "rotation": 90, "texture": "#0"},
				"south": {"uv": [9.125, 10.125, 9.75, 10.25], "rotation": 90, "texture": "#0"},
				"west": {"uv": [9.125, 10.125, 9.75, 10.25], "rotation": 90, "texture": "#0"},
				"up": {"uv": [9.125, 10.125, 9.75, 10.25], "rotation": 90, "texture": "#0"},
				"down": {"uv": [9.125, 10.125, 9.75, 10.25], "rotation": 90, "texture": "#0"}
			}
		},
		{
			"from": [7.45, 8.825, -2.75],
			"to": [7.6, 9.35, -1.15],
			"rotation": {"angle": 45, "axis": "y", "origin": [7.525, 9.0375, -1.95]},
			"faces": {
				"north": {"uv": [9.125, 10.125, 9.75, 10.25], "texture": "#0"},
				"east": {"uv": [9.125, 10.125, 9.75, 10.25], "rotation": 90, "texture": "#0"},
				"south": {"uv": [9.125, 10.125, 9.75, 10.25], "rotation": 90, "texture": "#0"},
				"west": {"uv": [9.125, 10.125, 9.75, 10.25], "rotation": 90, "texture": "#0"},
				"up": {"uv": [9.125, 10.125, 9.75, 10.25], "rotation": 90, "texture": "#0"},
				"down": {"uv": [9.125, 10.125, 9.75, 10.25], "rotation": 90, "texture": "#0"}
			}
		},
		{
			"from": [16.13786, 10.50738, 1.17603],
			"to": [16.64586, 11.04738, 1.57603],
			"rotation": {"angle": 0, "axis": "y", "origin": [17.44186, 11.12738, 1.37603]},
			"faces": {
				"north": {"uv": [9.125, 10.125, 9.75, 10.25], "rotation": 270, "texture": "#0"},
				"east": {"uv": [9.125, 10.125, 9.75, 10.25], "rotation": 90, "texture": "#0"},
				"south": {"uv": [9.125, 10.125, 9.75, 10.25], "rotation": 90, "texture": "#0"},
				"west": {"uv": [9.125, 10.125, 9.75, 10.25], "rotation": 90, "texture": "#0"},
				"up": {"uv": [9.125, 10.125, 9.75, 10.25], "rotation": 90, "texture": "#0"},
				"down": {"uv": [9.125, 10.125, 9.75, 10.25], "rotation": 90, "texture": "#0"}
			}
		},
		{
			"from": [-0.43714, 10.50738, 1.20103],
			"to": [0.07086, 11.04738, 1.60103],
			"rotation": {"angle": 0, "axis": "y", "origin": [0.86686, 11.12738, 1.40103]},
			"faces": {
				"north": {"uv": [9.125, 10.125, 9.75, 10.25], "rotation": 270, "texture": "#0"},
				"east": {"uv": [9.125, 10.125, 9.75, 10.25], "rotation": 90, "texture": "#0"},
				"south": {"uv": [9.125, 10.125, 9.75, 10.25], "rotation": 90, "texture": "#0"},
				"west": {"uv": [9.125, 10.125, 9.75, 10.25], "rotation": 90, "texture": "#0"},
				"up": {"uv": [9.125, 10.125, 9.75, 10.25], "rotation": 90, "texture": "#0"},
				"down": {"uv": [9.125, 10.125, 9.75, 10.25], "rotation": 90, "texture": "#0"}
			}
		},
		{
			"from": [7.84712, 11.33238, -1.49923],
			"to": [7.94712, 11.67238, -0.99123],
			"rotation": {"angle": 0, "axis": "y", "origin": [8.07512, 11.30238, 7.64577]},
			"faces": {
				"north": {"uv": [9.125, 10.125, 9.75, 10.25], "rotation": 270, "texture": "#0"},
				"east": {"uv": [9.125, 10.125, 9.75, 10.25], "rotation": 90, "texture": "#0"},
				"south": {"uv": [9.125, 10.125, 9.75, 10.25], "rotation": 90, "texture": "#0"},
				"west": {"uv": [9.125, 10.125, 9.75, 10.25], "rotation": 90, "texture": "#0"},
				"up": {"uv": [9.125, 10.125, 9.75, 10.25], "rotation": 90, "texture": "#0"},
				"down": {"uv": [9.125, 10.125, 9.75, 10.25], "rotation": 90, "texture": "#0"}
			}
		},
		{
			"from": [8.24712, 11.33238, -1.49923],
			"to": [8.34712, 11.67238, -0.99123],
			"rotation": {"angle": 0, "axis": "y", "origin": [8.07512, 11.30238, 7.64577]},
			"faces": {
				"north": {"uv": [9.125, 10.125, 9.75, 10.25], "rotation": 270, "texture": "#0"},
				"east": {"uv": [9.125, 10.125, 9.75, 10.25], "rotation": 90, "texture": "#0"},
				"south": {"uv": [9.125, 10.125, 9.75, 10.25], "rotation": 90, "texture": "#0"},
				"west": {"uv": [9.125, 10.125, 9.75, 10.25], "rotation": 90, "texture": "#0"},
				"up": {"uv": [9.125, 10.125, 9.75, 10.25], "rotation": 90, "texture": "#0"},
				"down": {"uv": [9.125, 10.125, 9.75, 10.25], "rotation": 90, "texture": "#0"}
			}
		},
		{
			"from": [9.15734, 10.03238, -1.53398],
			"to": [9.81534, 10.72238, -1.10898],
			"rotation": {"angle": 22.5, "axis": "y", "origin": [10.18634, 10.37738, -1.30898]},
			"faces": {
				"north": {"uv": [9.125, 10.125, 9.75, 10.25], "rotation": 270, "texture": "#0"},
				"east": {"uv": [9.125, 10.125, 9.75, 10.25], "rotation": 90, "texture": "#0"},
				"south": {"uv": [9.125, 10.125, 9.75, 10.25], "rotation": 90, "texture": "#0"},
				"west": {"uv": [9.125, 10.125, 9.75, 10.25], "rotation": 90, "texture": "#0"},
				"up": {"uv": [9.125, 10.125, 9.75, 10.25], "rotation": 90, "texture": "#0"},
				"down": {"uv": [9.125, 10.125, 9.75, 10.25], "rotation": 90, "texture": "#0"}
			}
		},
		{
			"from": [8.35734, 10.03238, -1.73398],
			"to": [9.21534, 10.72238, -1.10898],
			"rotation": {"angle": 22.5, "axis": "y", "origin": [10.18634, 10.37738, -1.30898]},
			"faces": {
				"north": {"uv": [9.125, 10.125, 9.75, 10.25], "rotation": 270, "texture": "#0"},
				"east": {"uv": [9.125, 10.125, 9.75, 10.25], "rotation": 90, "texture": "#0"},
				"south": {"uv": [9.125, 10.125, 9.75, 10.25], "rotation": 90, "texture": "#0"},
				"west": {"uv": [9.125, 10.125, 9.75, 10.25], "rotation": 90, "texture": "#0"},
				"up": {"uv": [9.125, 10.125, 9.75, 10.25], "rotation": 90, "texture": "#0"},
				"down": {"uv": [9.125, 10.125, 9.75, 10.25], "rotation": 90, "texture": "#0"}
			}
		},
		{
			"from": [6.19943, 10.03238, -0.69208],
			"to": [7.05743, 10.72238, -0.26708],
			"rotation": {"angle": -22.5, "axis": "y", "origin": [8.02843, 10.37738, -0.46708]},
			"faces": {
				"north": {"uv": [9.125, 10.125, 9.75, 10.25], "rotation": 270, "texture": "#0"},
				"east": {"uv": [9.125, 10.125, 9.75, 10.25], "rotation": 90, "texture": "#0"},
				"south": {"uv": [9.125, 10.125, 9.75, 10.25], "rotation": 90, "texture": "#0"},
				"west": {"uv": [9.125, 10.125, 9.75, 10.25], "rotation": 90, "texture": "#0"},
				"up": {"uv": [9.125, 10.125, 9.75, 10.25], "rotation": 90, "texture": "#0"},
				"down": {"uv": [9.125, 10.125, 9.75, 10.25], "rotation": 90, "texture": "#0"}
			}
		},
		{
			"from": [6.99943, 10.03238, -0.89208],
			"to": [7.65743, 10.72238, -0.26708],
			"rotation": {"angle": -22.5, "axis": "y", "origin": [8.02843, 10.37738, -0.46708]},
			"faces": {
				"north": {"uv": [9.125, 10.125, 9.75, 10.25], "rotation": 270, "texture": "#0"},
				"east": {"uv": [9.125, 10.125, 9.75, 10.25], "rotation": 90, "texture": "#0"},
				"south": {"uv": [9.125, 10.125, 9.75, 10.25], "rotation": 90, "texture": "#0"},
				"west": {"uv": [9.125, 10.125, 9.75, 10.25], "rotation": 90, "texture": "#0"},
				"up": {"uv": [9.125, 10.125, 9.75, 10.25], "rotation": 90, "texture": "#0"},
				"down": {"uv": [9.125, 10.125, 9.75, 10.25], "rotation": 90, "texture": "#0"}
			}
		},
		{
			"from": [6.76212, 10.13238, -1.38223],
			"to": [7.87012, 10.97238, -0.78223],
			"rotation": {"angle": 0, "axis": "y", "origin": [3.20012, 11.00238, -1.15423]},
			"faces": {
				"north": {"uv": [9.125, 10.125, 9.75, 10.25], "rotation": 270, "texture": "#0"},
				"east": {"uv": [9.125, 10.125, 9.75, 10.25], "rotation": 90, "texture": "#0"},
				"south": {"uv": [9.125, 10.125, 9.75, 10.25], "rotation": 90, "texture": "#0"},
				"west": {"uv": [9.125, 10.125, 9.75, 10.25], "rotation": 90, "texture": "#0"},
				"up": {"uv": [9.125, 10.125, 9.75, 10.25], "rotation": 90, "texture": "#0"},
				"down": {"uv": [9.125, 10.125, 9.75, 10.25], "rotation": 90, "texture": "#0"}
			}
		},
		{
			"from": [8.33712, 10.23238, -1.38223],
			"to": [9.42012, 10.97238, -0.78223],
			"rotation": {"angle": 0, "axis": "y", "origin": [3.20012, 11.00238, -1.15423]},
			"faces": {
				"north": {"uv": [9.125, 10.125, 9.75, 10.25], "rotation": 270, "texture": "#0"},
				"east": {"uv": [9.125, 10.125, 9.75, 10.25], "rotation": 90, "texture": "#0"},
				"south": {"uv": [9.125, 10.125, 9.75, 10.25], "rotation": 90, "texture": "#0"},
				"west": {"uv": [9.125, 10.125, 9.75, 10.25], "rotation": 90, "texture": "#0"},
				"up": {"uv": [9.125, 10.125, 9.75, 10.25], "rotation": 90, "texture": "#0"},
				"down": {"uv": [9.125, 10.125, 9.75, 10.25], "rotation": 90, "texture": "#0"}
			}
		},
		{
			"from": [7.55141, 7.91744, -1.456],
			"to": [8.67441, 8.58144, 6.868],
			"rotation": {"angle": 22.5, "axis": "z", "origin": [8.25041, 9.19944, 2.706]},
			"faces": {
				"north": {"uv": [9.875, 12.5, 10.125, 12.875], "rotation": 270, "texture": "#0"},
				"east": {"uv": [9.875, 12.5, 10.125, 12.875], "rotation": 270, "texture": "#0"},
				"south": {"uv": [9.875, 12.5, 10.125, 12.875], "rotation": 270, "texture": "#0"},
				"west": {"uv": [9.875, 12.5, 10.125, 12.875], "rotation": 270, "texture": "#0"},
				"up": {"uv": [9.875, 12.5, 10.125, 12.875], "rotation": 270, "texture": "#0"},
				"down": {"uv": [9.875, 12.5, 10.125, 12.875], "rotation": 270, "texture": "#0"}
			}
		},
		{
			"from": [7.52641, 7.84244, -1.456],
			"to": [8.64941, 8.50644, 6.868],
			"rotation": {"angle": -22.5, "axis": "z", "origin": [8.15041, 9.12444, 2.706]},
			"faces": {
				"north": {"uv": [9.875, 12.5, 10.125, 12.875], "rotation": 270, "texture": "#0"},
				"east": {"uv": [9.875, 12.5, 10.125, 12.875], "rotation": 270, "texture": "#0"},
				"south": {"uv": [9.875, 12.5, 10.125, 12.875], "rotation": 270, "texture": "#0"},
				"west": {"uv": [9.875, 12.5, 10.125, 12.875], "rotation": 270, "texture": "#0"},
				"up": {"uv": [9.875, 12.5, 10.125, 12.875], "rotation": 270, "texture": "#0"},
				"down": {"uv": [9.875, 12.5, 10.125, 12.875], "rotation": 270, "texture": "#0"}
			}
		},
		{
			"from": [7.55141, 7.99244, -1.456],
			"to": [8.19941, 9.55644, 6.868],
			"rotation": {"angle": -22.5, "axis": "z", "origin": [7.77541, 9.27444, 2.706]},
			"faces": {
				"north": {"uv": [9.875, 12.5, 10.125, 12.875], "rotation": 270, "texture": "#0"},
				"east": {"uv": [9.875, 12.5, 10.125, 12.875], "rotation": 270, "texture": "#0"},
				"south": {"uv": [9.875, 12.5, 10.125, 12.875], "rotation": 270, "texture": "#0"},
				"west": {"uv": [9.875, 12.5, 10.125, 12.875], "rotation": 270, "texture": "#0"},
				"up": {"uv": [9.875, 12.5, 10.125, 12.875], "rotation": 270, "texture": "#0"},
				"down": {"uv": [9.875, 12.5, 10.125, 12.875], "rotation": 270, "texture": "#0"}
			}
		},
		{
			"from": [8.02641, 7.91744, -1.456],
			"to": [8.67441, 9.48144, 6.868],
			"rotation": {"angle": 22.5, "axis": "z", "origin": [8.25041, 9.19944, 2.706]},
			"faces": {
				"north": {"uv": [9.875, 12.5, 10.125, 12.875], "rotation": 270, "texture": "#0"},
				"east": {"uv": [9.875, 12.5, 10.125, 12.875], "rotation": 270, "texture": "#0"},
				"south": {"uv": [9.875, 12.5, 10.125, 12.875], "rotation": 270, "texture": "#0"},
				"west": {"uv": [9.875, 12.5, 10.125, 12.875], "rotation": 270, "texture": "#0"},
				"up": {"uv": [9.875, 12.5, 10.125, 12.875], "rotation": 270, "texture": "#0"},
				"down": {"uv": [9.875, 12.5, 10.125, 12.875], "rotation": 270, "texture": "#0"}
			}
		},
		{
			"from": [7.67641, 8.34244, -1.456],
			"to": [8.52441, 10.00644, 7.868],
			"rotation": {"angle": 0, "axis": "y", "origin": [7.84183, 9.67302, -8.556]},
			"faces": {
				"north": {"uv": [9.875, 12.5, 10.125, 12.875], "rotation": 270, "texture": "#0"},
				"east": {"uv": [9.875, 12.5, 10.125, 12.875], "rotation": 270, "texture": "#0"},
				"south": {"uv": [9.875, 12.5, 10.125, 12.875], "rotation": 270, "texture": "#0"},
				"west": {"uv": [9.875, 12.5, 10.125, 12.875], "rotation": 270, "texture": "#0"},
				"up": {"uv": [9.875, 12.5, 10.125, 12.875], "rotation": 270, "texture": "#0"},
				"down": {"uv": [9.875, 12.5, 10.125, 12.875], "rotation": 270, "texture": "#0"}
			}
		},
		{
			"from": [7.67641, 7.94244, -1.456],
			"to": [8.52441, 10.00644, 6.868],
			"rotation": {"angle": 0, "axis": "y", "origin": [8.10041, 8.82444, 2.706]},
			"faces": {
				"north": {"uv": [9.875, 12.5, 10.125, 12.875], "rotation": 270, "texture": "#0"},
				"east": {"uv": [9.875, 12.5, 10.125, 12.875], "rotation": 270, "texture": "#0"},
				"south": {"uv": [9.875, 12.5, 10.125, 12.875], "rotation": 270, "texture": "#0"},
				"west": {"uv": [9.875, 12.5, 10.125, 12.875], "rotation": 270, "texture": "#0"},
				"up": {"uv": [9.875, 12.5, 10.125, 12.875], "rotation": 270, "texture": "#0"},
				"down": {"uv": [9.875, 12.5, 10.125, 12.875], "rotation": 270, "texture": "#0"}
			}
		},
		{
			"from": [7.77641, 9.98667, -1.44923],
			"to": [8.42441, 10.40167, 12.25877],
			"rotation": {"angle": 0, "axis": "y", "origin": [8.10041, 10.03167, 12.22077]},
			"faces": {
				"north": {"uv": [9.875, 12.5, 10.125, 12.875], "rotation": 270, "texture": "#0"},
				"east": {"uv": [9.875, 12.5, 10.125, 12.875], "rotation": 270, "texture": "#0"},
				"south": {"uv": [9.875, 12.5, 10.125, 12.875], "rotation": 270, "texture": "#0"},
				"west": {"uv": [9.875, 12.5, 10.125, 12.875], "rotation": 270, "texture": "#0"},
				"up": {"uv": [9.875, 12.5, 10.125, 12.875], "rotation": 270, "texture": "#0"},
				"down": {"uv": [9.875, 12.5, 10.125, 12.875], "rotation": 270, "texture": "#0"}
			}
		},
		{
			"from": [7.98858, 10.22115, -1.44923],
			"to": [8.37658, 10.32515, 12.06277],
			"rotation": {"angle": 45, "axis": "z", "origin": [8.18258, 10.36915, 11.90277]},
			"faces": {
				"north": {"uv": [9.875, 12.5, 10.125, 12.875], "texture": "#0"},
				"east": {"uv": [14.125, 6.25, 14.375, 6.625], "texture": "#0"},
				"south": {"uv": [9.875, 12.5, 10.125, 12.875], "texture": "#0"},
				"west": {"uv": [14.125, 6.125, 14.375, 6.5], "texture": "#0"},
				"up": {"uv": [9.125, 10, 9.75, 10.125], "texture": "#0"},
				"down": {"uv": [9.875, 12.5, 10.125, 12.875], "texture": "#0"}
			}
		},
		{
			"from": [7.82424, 10.2862, -1.44923],
			"to": [7.92424, 10.5822, 12.06277],
			"rotation": {"angle": 45, "axis": "z", "origin": [8.01824, 10.4342, 11.90277]},
			"faces": {
				"north": {"uv": [9.875, 12.5, 10.125, 12.875], "rotation": 180, "texture": "#0"},
				"east": {"uv": [14.125, 6.25, 14.375, 6.625], "rotation": 180, "texture": "#0"},
				"south": {"uv": [9.875, 12.5, 10.125, 12.875], "rotation": 180, "texture": "#0"},
				"west": {"uv": [14.125, 6.125, 14.375, 6.5], "rotation": 180, "texture": "#0"},
				"up": {"uv": [9.125, 10, 9.75, 10.125], "rotation": 180, "texture": "#0"},
				"down": {"uv": [9.875, 12.5, 10.125, 12.875], "rotation": 180, "texture": "#0"}
			}
		},
		{
			"from": [7.77641, 9.04244, -1.456],
			"to": [8.42441, 10.00644, 17.768],
			"rotation": {"angle": 0, "axis": "y", "origin": [7.84183, 9.67302, -8.556]},
			"faces": {
				"north": {"uv": [9.875, 12.5, 10.125, 12.875], "rotation": 270, "texture": "#0"},
				"east": {"uv": [9.875, 12.5, 10.125, 12.875], "rotation": 270, "texture": "#0"},
				"south": {"uv": [9.875, 12.5, 10.125, 12.875], "rotation": 270, "texture": "#0"},
				"west": {"uv": [9.875, 12.5, 10.125, 12.875], "rotation": 270, "texture": "#0"},
				"up": {"uv": [9.875, 12.5, 10.125, 12.875], "rotation": 270, "texture": "#0"},
				"down": {"uv": [9.875, 12.5, 10.125, 12.875], "rotation": 270, "texture": "#0"}
			}
		},
		{
			"from": [7.80841, 9.84464, 11.29101],
			"to": [8.39341, 10.68464, 12.79901],
			"rotation": {"angle": -22.5, "axis": "x", "origin": [8.13241, 10.31464, 14.76101]},
			"faces": {
				"north": {"uv": [9.875, 12.5, 10.125, 12.875], "rotation": 270, "texture": "#0"},
				"east": {"uv": [9.875, 12.5, 10.125, 12.875], "rotation": 270, "texture": "#0"},
				"south": {"uv": [9.875, 12.5, 10.125, 12.875], "rotation": 270, "texture": "#0"},
				"west": {"uv": [9.875, 12.5, 10.125, 12.875], "rotation": 270, "texture": "#0"},
				"up": {"uv": [9.875, 12.5, 10.125, 12.875], "rotation": 270, "texture": "#0"},
				"down": {"uv": [9.875, 12.5, 10.125, 12.875], "rotation": 270, "texture": "#0"}
			}
		},
		{
			"from": [7.8087, 8.55251, 11.19501],
			"to": [8.3927, 9.29251, 11.73501],
			"rotation": {"angle": 0, "axis": "y", "origin": [8.10041, 8.74651, 12.79301]},
			"faces": {
				"north": {"uv": [3, 3.375, 3, 3.375], "rotation": 90, "texture": "#0"},
				"east": {"uv": [3, 3.375, 3, 3.375], "rotation": 90, "texture": "#0"},
				"south": {"uv": [3, 3.375, 3, 3.375], "rotation": 90, "texture": "#0"},
				"west": {"uv": [3, 3.375, 3, 3.375], "rotation": 90, "texture": "#0"},
				"up": {"uv": [3, 3.375, 3, 3.375], "rotation": 90, "texture": "#0"},
				"down": {"uv": [3, 3.375, 3, 3.375], "rotation": 90, "texture": "#0"}
			}
		},
		{
			"from": [7.80841, 7.85251, 11.63901],
			"to": [8.39241, 8.39251, 12.37901],
			"rotation": {"angle": 45, "axis": "x", "origin": [8.10041, 9.45051, 12.18501]},
			"faces": {
				"north": {"uv": [3, 3.375, 3, 3.375], "texture": "#0"},
				"east": {"uv": [3, 3.375, 3, 3.375], "texture": "#0"},
				"south": {"uv": [3, 3.375, 3, 3.375], "texture": "#0"},
				"west": {"uv": [3, 3.375, 3, 3.375], "texture": "#0"},
				"up": {"uv": [3, 3.375, 3, 3.375], "texture": "#0"},
				"down": {"uv": [3, 3.375, 3, 3.375], "texture": "#0"}
			}
		},
		{
			"from": [7.90441, 6.08644, 10.404],
			"to": [8.29641, 8.55644, 10.696],
			"rotation": {"angle": -22.5, "axis": "x", "origin": [8.10041, 7.68444, 11.014]},
			"faces": {
				"north": {"uv": [3, 3.375, 3, 3.375], "texture": "#0"},
				"east": {"uv": [3, 3.375, 3, 3.375], "texture": "#0"},
				"south": {"uv": [3, 3.375, 3, 3.375], "texture": "#0"},
				"west": {"uv": [3, 3.375, 3, 3.375], "texture": "#0"},
				"up": {"uv": [3, 3.375, 3, 3.375], "texture": "#0"},
				"down": {"uv": [3, 3.375, 3, 3.375], "texture": "#0"}
			}
		},
		{
			"from": [7.80841, 6.06144, 10.468],
			"to": [8.39241, 9.48244, 11.432],
			"rotation": {"angle": -22.5, "axis": "x", "origin": [8.10041, 7.68444, 11.014]},
			"faces": {
				"north": {"uv": [3, 3.375, 3, 3.375], "texture": "#0"},
				"east": {"uv": [3, 3.375, 3, 3.375], "texture": "#0"},
				"south": {"uv": [3, 3.375, 3, 3.375], "texture": "#0"},
				"west": {"uv": [3, 3.375, 3, 3.375], "texture": "#0"},
				"up": {"uv": [3, 3.375, 3, 3.375], "texture": "#0"},
				"down": {"uv": [3, 3.375, 3, 3.375], "texture": "#0"}
			}
		},
		{
			"from": [7.80841, 6.08644, 10.372],
			"to": [8.39241, 6.21044, 11.432],
			"rotation": {"angle": -22.5, "axis": "x", "origin": [8.10041, 7.68444, 11.014]},
			"faces": {
				"north": {"uv": [3, 3.375, 3, 3.375], "texture": "#0"},
				"east": {"uv": [3, 3.375, 3, 3.375], "texture": "#0"},
				"south": {"uv": [3, 3.375, 3, 3.375], "texture": "#0"},
				"west": {"uv": [3, 3.375, 3, 3.375], "texture": "#0"},
				"up": {"uv": [3, 3.375, 3, 3.375], "texture": "#0"},
				"down": {"uv": [3, 3.375, 3, 3.375], "texture": "#0"}
			}
		},
		{
			"from": [7.80841, 6.08644, 10.795],
			"to": [8.39241, 7.20644, 11.272],
			"rotation": {"angle": -45, "axis": "x", "origin": [8.10041, 7.68444, 11.078]},
			"faces": {
				"north": {"uv": [3, 3.375, 3, 3.375], "texture": "#0"},
				"east": {"uv": [3, 3.375, 3, 3.375], "texture": "#0"},
				"south": {"uv": [3, 3.375, 3, 3.375], "texture": "#0"},
				"west": {"uv": [3, 3.375, 3, 3.375], "texture": "#0"},
				"up": {"uv": [3, 3.375, 3, 3.375], "texture": "#0"},
				"down": {"uv": [3, 3.375, 3, 3.375], "texture": "#0"}
			}
		},
		{
			"from": [7.80841, 6.50244, 10.98],
			"to": [8.39241, 7.29844, 11.72],
			"rotation": {"angle": -22.5, "axis": "x", "origin": [8.10041, 8.10044, 11.526]},
			"faces": {
				"north": {"uv": [3, 3.375, 3, 3.375], "texture": "#0"},
				"east": {"uv": [3, 3.375, 3, 3.375], "texture": "#0"},
				"south": {"uv": [3, 3.375, 3, 3.375], "texture": "#0"},
				"west": {"uv": [3, 3.375, 3, 3.375], "texture": "#0"},
				"up": {"uv": [3, 3.375, 3, 3.375], "texture": "#0"},
				"down": {"uv": [3, 3.375, 3, 3.375], "texture": "#0"}
			}
		},
		{
			"from": [7.80841, 6.82851, 10.49901],
			"to": [8.39241, 7.88051, 10.93901],
			"rotation": {"angle": -45, "axis": "x", "origin": [8.10041, 8.42651, 10.74501]},
			"faces": {
				"north": {"uv": [3, 3.375, 3, 3.375], "texture": "#0"},
				"east": {"uv": [3, 3.375, 3, 3.375], "texture": "#0"},
				"south": {"uv": [3, 3.375, 3, 3.375], "texture": "#0"},
				"west": {"uv": [3, 3.375, 3, 3.375], "texture": "#0"},
				"up": {"uv": [3, 3.375, 3, 3.375], "texture": "#0"},
				"down": {"uv": [3, 3.375, 3, 3.375], "texture": "#0"}
			}
		},
		{
			"from": [7.80841, 7.98051, 10.61501],
			"to": [8.39241, 9.03251, 11.35501],
			"rotation": {"angle": 0, "axis": "y", "origin": [8.10041, 9.57851, 11.16101]},
			"faces": {
				"north": {"uv": [3, 3.375, 3, 3.375], "texture": "#0"},
				"east": {"uv": [3, 3.375, 3, 3.375], "texture": "#0"},
				"south": {"uv": [3, 3.375, 3, 3.375], "texture": "#0"},
				"west": {"uv": [3, 3.375, 3, 3.375], "texture": "#0"},
				"up": {"uv": [3, 3.375, 3, 3.375], "texture": "#0"},
				"down": {"uv": [3, 3.375, 3, 3.375], "texture": "#0"}
			}
		},
		{
			"from": [7.8085, 7.98051, 11.12701],
			"to": [8.3925, 9.03251, 11.86701],
			"rotation": {"angle": 22.5, "axis": "x", "origin": [8.10041, 9.57851, 11.67301]},
			"faces": {
				"north": {"uv": [3, 3.375, 3, 3.375], "texture": "#0"},
				"east": {"uv": [3, 3.375, 3, 3.375], "texture": "#0"},
				"south": {"uv": [3, 3.375, 3, 3.375], "texture": "#0"},
				"west": {"uv": [3, 3.375, 3, 3.375], "texture": "#0"},
				"up": {"uv": [3, 3.375, 3, 3.375], "texture": "#0"},
				"down": {"uv": [3, 3.375, 3, 3.375], "texture": "#0"}
			}
		},
		{
			"from": [7.77651, 8.27444, 13.232],
			"to": [8.42451, 9.01444, 17.864],
			"rotation": {"angle": 22.5, "axis": "x", "origin": [8.10041, 8.64444, 15.194]},
			"faces": {
				"north": {"uv": [9.875, 12.5, 10.125, 12.875], "rotation": 270, "texture": "#0"},
				"east": {"uv": [9.875, 12.5, 10.125, 12.875], "rotation": 270, "texture": "#0"},
				"south": {"uv": [9.875, 12.5, 10.125, 12.875], "rotation": 270, "texture": "#0"},
				"west": {"uv": [9.875, 12.5, 10.125, 12.875], "rotation": 270, "texture": "#0"},
				"up": {"uv": [9.875, 12.5, 10.125, 12.875], "rotation": 270, "texture": "#0"},
				"down": {"uv": [9.875, 12.5, 10.125, 12.875], "rotation": 270, "texture": "#0"}
			}
		},
		{
			"from": [7.90441, 8.17844, 12.332],
			"to": [8.29641, 8.91844, 17.864],
			"rotation": {"angle": 22.5, "axis": "x", "origin": [8.10041, 8.54844, 15.194]},
			"faces": {
				"north": {"uv": [9.875, 12.5, 10.125, 12.875], "rotation": 270, "texture": "#0"},
				"east": {"uv": [9.875, 12.5, 10.125, 12.875], "rotation": 270, "texture": "#0"},
				"south": {"uv": [9.875, 12.5, 10.125, 12.875], "rotation": 270, "texture": "#0"},
				"west": {"uv": [9.875, 12.5, 10.125, 12.875], "rotation": 270, "texture": "#0"},
				"up": {"uv": [9.875, 12.5, 10.125, 12.875], "rotation": 270, "texture": "#0"},
				"down": {"uv": [9.875, 12.5, 10.125, 12.875], "rotation": 270, "texture": "#0"}
			}
		},
		{
			"from": [7.77741, 8.75444, 14.124],
			"to": [8.42541, 10.00644, 17.8],
			"rotation": {"angle": 0, "axis": "y", "origin": [8.10041, 9.31644, 15.194]},
			"faces": {
				"north": {"uv": [9.875, 12.5, 10.125, 12.875], "rotation": 270, "texture": "#0"},
				"east": {"uv": [9.875, 12.5, 10.125, 12.875], "rotation": 270, "texture": "#0"},
				"south": {"uv": [9.875, 12.5, 10.125, 12.875], "rotation": 270, "texture": "#0"},
				"west": {"uv": [9.875, 12.5, 10.125, 12.875], "rotation": 270, "texture": "#0"},
				"up": {"uv": [9.875, 12.5, 10.125, 12.875], "rotation": 270, "texture": "#0"},
				"down": {"uv": [9.875, 12.5, 10.125, 12.875], "rotation": 270, "texture": "#0"}
			}
		},
		{
			"from": [7.77751, 7.95444, 15.884],
			"to": [8.42551, 9.11044, 17.8],
			"rotation": {"angle": 0, "axis": "y", "origin": [8.10041, 8.32444, 15.194]},
			"faces": {
				"north": {"uv": [9.875, 12.5, 10.125, 12.875], "rotation": 270, "texture": "#0"},
				"east": {"uv": [9.875, 12.5, 10.125, 12.875], "rotation": 270, "texture": "#0"},
				"south": {"uv": [9.875, 12.5, 10.125, 12.875], "rotation": 270, "texture": "#0"},
				"west": {"uv": [9.875, 12.5, 10.125, 12.875], "rotation": 270, "texture": "#0"},
				"up": {"uv": [9.875, 12.5, 10.125, 12.875], "rotation": 270, "texture": "#0"},
				"down": {"uv": [9.875, 12.5, 10.125, 12.875], "rotation": 270, "texture": "#0"}
			}
		},
		{
			"from": [7.77641, 7.28244, 17.516],
			"to": [8.42441, 8.43844, 17.8],
			"rotation": {"angle": 0, "axis": "y", "origin": [8.10041, 7.65244, 15.194]},
			"faces": {
				"north": {"uv": [9.875, 12.5, 10.125, 12.875], "rotation": 270, "texture": "#0"},
				"east": {"uv": [9.875, 12.5, 10.125, 12.875], "rotation": 270, "texture": "#0"},
				"south": {"uv": [9.875, 12.5, 10.125, 12.875], "rotation": 270, "texture": "#0"},
				"west": {"uv": [9.875, 12.5, 10.125, 12.875], "rotation": 270, "texture": "#0"},
				"up": {"uv": [9.875, 12.5, 10.125, 12.875], "rotation": 270, "texture": "#0"},
				"down": {"uv": [9.875, 12.5, 10.125, 12.875], "rotation": 270, "texture": "#0"}
			}
		},
		{
			"from": [7.90441, 7.18644, 17.516],
			"to": [8.29641, 8.34244, 17.8],
			"rotation": {"angle": 0, "axis": "y", "origin": [8.10041, 7.55644, 15.194]},
			"faces": {
				"north": {"uv": [9.875, 12.5, 10.125, 12.875], "rotation": 270, "texture": "#0"},
				"east": {"uv": [9.875, 12.5, 10.125, 12.875], "rotation": 270, "texture": "#0"},
				"south": {"uv": [9.875, 12.5, 10.125, 12.875], "rotation": 270, "texture": "#0"},
				"west": {"uv": [9.875, 12.5, 10.125, 12.875], "rotation": 270, "texture": "#0"},
				"up": {"uv": [9.875, 12.5, 10.125, 12.875], "rotation": 270, "texture": "#0"},
				"down": {"uv": [9.875, 12.5, 10.125, 12.875], "rotation": 270, "texture": "#0"}
			}
		},
		{
			"from": [8.17778, 9.8166, 12.076],
			"to": [8.34578, 10.1086, 17.8],
			"rotation": {"angle": -45, "axis": "z", "origin": [8.26178, 9.9626, 16.417]},
			"faces": {
				"north": {"uv": [9.875, 12.5, 10.125, 12.875], "rotation": 270, "texture": "#0"},
				"east": {"uv": [9.875, 12.5, 10.125, 12.875], "rotation": 270, "texture": "#0"},
				"south": {"uv": [9.875, 12.5, 10.125, 12.875], "rotation": 270, "texture": "#0"},
				"west": {"uv": [9.875, 12.5, 10.125, 12.875], "rotation": 270, "texture": "#0"},
				"up": {"uv": [9.875, 12.5, 10.125, 12.875], "rotation": 270, "texture": "#0"},
				"down": {"uv": [9.875, 12.5, 10.125, 12.875], "rotation": 270, "texture": "#0"}
			}
		},
		{
			"from": [8.06681, 10.14326, 12.076],
			"to": [8.20281, 10.33926, 17.8],
			"rotation": {"angle": -22.5, "axis": "z", "origin": [7.71623, 9.97384, -8.524]},
			"faces": {
				"north": {"uv": [9.875, 12.5, 10.125, 12.875], "rotation": 270, "texture": "#0"},
				"east": {"uv": [9.875, 12.5, 10.125, 12.875], "rotation": 270, "texture": "#0"},
				"south": {"uv": [9.875, 12.5, 10.125, 12.875], "rotation": 270, "texture": "#0"},
				"west": {"uv": [9.875, 12.5, 10.125, 12.875], "rotation": 270, "texture": "#0"},
				"up": {"uv": [9.875, 12.5, 10.125, 12.875], "rotation": 270, "texture": "#0"},
				"down": {"uv": [9.875, 12.5, 10.125, 12.875], "rotation": 270, "texture": "#0"}
			}
		},
		{
			"from": [8.02085, 9.34128, 12.044],
			"to": [8.18085, 10.17728, 17.8],
			"rotation": {"angle": 0, "axis": "y", "origin": [7.86227, 9.87586, -8.556]},
			"faces": {
				"north": {"uv": [9.875, 12.5, 10.125, 12.875], "rotation": 270, "texture": "#0"},
				"east": {"uv": [9.875, 12.5, 10.125, 12.875], "rotation": 270, "texture": "#0"},
				"south": {"uv": [9.875, 12.5, 10.125, 12.875], "rotation": 270, "texture": "#0"},
				"west": {"uv": [9.875, 12.5, 10.125, 12.875], "rotation": 270, "texture": "#0"},
				"up": {"uv": [9.875, 12.5, 10.125, 12.875], "rotation": 270, "texture": "#0"},
				"down": {"uv": [9.875, 12.5, 10.125, 12.875], "rotation": 270, "texture": "#0"}
			}
		},
		{
			"from": [7.91535, 10.02395, 12.076],
			"to": [8.05135, 10.21995, 17.8],
			"rotation": {"angle": 22.5, "axis": "z", "origin": [8.14335, 10.12195, 16.417]},
			"faces": {
				"north": {"uv": [9.875, 12.5, 10.125, 12.875], "rotation": 270, "texture": "#0"},
				"east": {"uv": [9.875, 12.5, 10.125, 12.875], "rotation": 270, "texture": "#0"},
				"south": {"uv": [9.875, 12.5, 10.125, 12.875], "rotation": 270, "texture": "#0"},
				"west": {"uv": [9.875, 12.5, 10.125, 12.875], "rotation": 270, "texture": "#0"},
				"up": {"uv": [9.875, 12.5, 10.125, 12.875], "rotation": 270, "texture": "#0"},
				"down": {"uv": [9.875, 12.5, 10.125, 12.875], "rotation": 270, "texture": "#0"}
			}
		},
		{
			"from": [8.17337, 9.61494, 12.076],
			"to": [8.34137, 9.90694, 17.8],
			"rotation": {"angle": 45, "axis": "z", "origin": [7.85479, 9.47752, -8.524]},
			"faces": {
				"north": {"uv": [9.875, 12.5, 10.125, 12.875], "rotation": 270, "texture": "#0"},
				"east": {"uv": [9.875, 12.5, 10.125, 12.875], "rotation": 270, "texture": "#0"},
				"south": {"uv": [9.875, 12.5, 10.125, 12.875], "rotation": 270, "texture": "#0"},
				"west": {"uv": [9.875, 12.5, 10.125, 12.875], "rotation": 270, "texture": "#0"},
				"up": {"uv": [9.875, 12.5, 10.125, 12.875], "rotation": 270, "texture": "#0"},
				"down": {"uv": [9.875, 12.5, 10.125, 12.875], "rotation": 270, "texture": "#0"}
			}
		},
		{
			"from": [7.77671, 8.14644, 11.404],
			"to": [8.42471, 8.88644, 12.616],
			"rotation": {"angle": 45, "axis": "x", "origin": [8.10041, 8.51644, 14.266]},
			"faces": {
				"north": {"uv": [9.875, 12.5, 10.125, 12.875], "rotation": 270, "texture": "#0"},
				"east": {"uv": [9.875, 12.5, 10.125, 12.875], "rotation": 270, "texture": "#0"},
				"south": {"uv": [9.875, 12.5, 10.125, 12.875], "rotation": 270, "texture": "#0"},
				"west": {"uv": [9.875, 12.5, 10.125, 12.875], "rotation": 270, "texture": "#0"},
				"up": {"uv": [9.875, 12.5, 10.125, 12.875], "rotation": 270, "texture": "#0"},
				"down": {"uv": [9.875, 12.5, 10.125, 12.875], "rotation": 270, "texture": "#0"}
			}
		},
		{
			"from": [7.77661, 9.18644, 12.076],
			"to": [8.42461, 9.52644, 13.576],
			"rotation": {"angle": 22.5, "axis": "x", "origin": [8.10041, 9.15644, 14.938]},
			"faces": {
				"north": {"uv": [9.875, 12.5, 10.125, 12.875], "rotation": 270, "texture": "#0"},
				"east": {"uv": [9.875, 12.5, 10.125, 12.875], "rotation": 270, "texture": "#0"},
				"south": {"uv": [9.875, 12.5, 10.125, 12.875], "rotation": 270, "texture": "#0"},
				"west": {"uv": [9.875, 12.5, 10.125, 12.875], "rotation": 270, "texture": "#0"},
				"up": {"uv": [9.875, 12.5, 10.125, 12.875], "rotation": 270, "texture": "#0"},
				"down": {"uv": [9.875, 12.5, 10.125, 12.875], "rotation": 270, "texture": "#0"}
			}
		},
		{
			"from": [7.87241, 8.24244, 11.404],
			"to": [8.32841, 8.95044, 12.616],
			"rotation": {"angle": 45, "axis": "x", "origin": [8.10041, 8.61244, 14.266]},
			"faces": {
				"north": {"uv": [9.875, 12.5, 10.125, 12.875], "rotation": 270, "texture": "#0"},
				"east": {"uv": [9.875, 12.5, 10.125, 12.875], "rotation": 270, "texture": "#0"},
				"south": {"uv": [9.875, 12.5, 10.125, 12.875], "rotation": 270, "texture": "#0"},
				"west": {"uv": [9.875, 12.5, 10.125, 12.875], "rotation": 270, "texture": "#0"},
				"up": {"uv": [9.875, 12.5, 10.125, 12.875], "rotation": 270, "texture": "#0"},
				"down": {"uv": [9.875, 12.5, 10.125, 12.875], "rotation": 270, "texture": "#0"}
			}
		},
		{
			"from": [7.87241, 8.88244, 12.076],
			"to": [8.32841, 9.59044, 13.576],
			"rotation": {"angle": 22.5, "axis": "x", "origin": [8.10041, 9.25244, 14.938]},
			"faces": {
				"north": {"uv": [9.875, 12.5, 10.125, 12.875], "rotation": 270, "texture": "#0"},
				"east": {"uv": [9.875, 12.5, 10.125, 12.875], "rotation": 270, "texture": "#0"},
				"south": {"uv": [9.875, 12.5, 10.125, 12.875], "rotation": 270, "texture": "#0"},
				"west": {"uv": [9.875, 12.5, 10.125, 12.875], "rotation": 270, "texture": "#0"},
				"up": {"uv": [9.875, 12.5, 10.125, 12.875], "rotation": 270, "texture": "#0"},
				"down": {"uv": [9.875, 12.5, 10.125, 12.875], "rotation": 270, "texture": "#0"}
			}
		},
		{
			"from": [8.02085, 8.27444, 11.3592],
			"to": [8.16841, 8.99152, 12.616],
			"rotation": {"angle": 45, "axis": "x", "origin": [8.10041, 8.64444, 14.266]},
			"faces": {
				"north": {"uv": [9.875, 12.5, 10.125, 12.875], "rotation": 270, "texture": "#0"},
				"east": {"uv": [9.875, 12.5, 10.125, 12.875], "rotation": 270, "texture": "#0"},
				"south": {"uv": [9.875, 12.5, 10.125, 12.875], "rotation": 270, "texture": "#0"},
				"west": {"uv": [9.875, 12.5, 10.125, 12.875], "rotation": 270, "texture": "#0"},
				"up": {"uv": [9.875, 12.5, 10.125, 12.875], "rotation": 270, "texture": "#0"},
				"down": {"uv": [9.875, 12.5, 10.125, 12.875], "rotation": 270, "texture": "#0"}
			}
		},
		{
			"from": [8.03241, 8.91444, 12.076],
			"to": [8.16841, 9.62244, 13.576],
			"rotation": {"angle": 22.5, "axis": "x", "origin": [8.10041, 9.28444, 14.938]},
			"faces": {
				"north": {"uv": [9.875, 12.5, 10.125, 12.875], "rotation": 270, "texture": "#0"},
				"east": {"uv": [9.875, 12.5, 10.125, 12.875], "rotation": 270, "texture": "#0"},
				"south": {"uv": [9.875, 12.5, 10.125, 12.875], "rotation": 270, "texture": "#0"},
				"west": {"uv": [9.875, 12.5, 10.125, 12.875], "rotation": 270, "texture": "#0"},
				"up": {"uv": [9.875, 12.5, 10.125, 12.875], "rotation": 270, "texture": "#0"},
				"down": {"uv": [9.875, 12.5, 10.125, 12.875], "rotation": 270, "texture": "#0"}
			}
		},
		{
			"from": [7.77641, 10.06167, 12.00077],
			"to": [8.42441, 10.80167, 12.50877],
			"rotation": {"angle": 0, "axis": "y", "origin": [8.10041, 10.43167, 12.67077]},
			"faces": {
				"north": {"uv": [9.875, 12.5, 10.125, 12.875], "rotation": 270, "texture": "#0"},
				"east": {"uv": [9.875, 12.5, 10.125, 12.875], "rotation": 270, "texture": "#0"},
				"south": {"uv": [9.875, 12.5, 10.125, 12.875], "rotation": 270, "texture": "#0"},
				"west": {"uv": [9.875, 12.5, 10.125, 12.875], "rotation": 270, "texture": "#0"},
				"up": {"uv": [9.875, 12.5, 10.125, 12.875], "rotation": 270, "texture": "#0"},
				"down": {"uv": [9.875, 12.5, 10.125, 12.875], "rotation": 270, "texture": "#0"}
			}
		},
		{
			"from": [7.98858, 10.62115, 12.00077],
			"to": [8.37658, 10.72515, 12.51277],
			"rotation": {"angle": 45, "axis": "z", "origin": [8.18258, 10.76915, 12.35277]},
			"faces": {
				"north": {"uv": [9.875, 12.5, 10.125, 12.875], "texture": "#0"},
				"east": {"uv": [9.875, 12.5, 10.125, 12.875], "texture": "#0"},
				"south": {"uv": [9.875, 12.5, 10.125, 12.875], "texture": "#0"},
				"west": {"uv": [9.875, 12.5, 10.125, 12.875], "texture": "#0"},
				"up": {"uv": [9.875, 12.5, 10.125, 12.875], "texture": "#0"},
				"down": {"uv": [9.875, 12.5, 10.125, 12.875], "texture": "#0"}
			}
		},
		{
			"from": [7.84712, 10.13238, 12.00077],
			"to": [8.34712, 10.87238, 12.50877],
			"rotation": {"angle": 0, "axis": "y", "origin": [8.07512, 10.50238, 12.67077]},
			"faces": {
				"north": {"uv": [9.875, 12.5, 10.125, 12.875], "rotation": 270, "texture": "#0"},
				"east": {"uv": [9.875, 12.5, 10.125, 12.875], "rotation": 270, "texture": "#0"},
				"south": {"uv": [9.875, 12.5, 10.125, 12.875], "rotation": 270, "texture": "#0"},
				"west": {"uv": [9.875, 12.5, 10.125, 12.875], "rotation": 270, "texture": "#0"},
				"up": {"uv": [9.875, 12.5, 10.125, 12.875], "rotation": 270, "texture": "#0"},
				"down": {"uv": [9.875, 12.5, 10.125, 12.875], "rotation": 270, "texture": "#0"}
			}
		},
		{
			"from": [8.17778, 10.5846, 12.008],
			"to": [8.34578, 10.8766, 12.456],
			"rotation": {"angle": -45, "axis": "z", "origin": [8.26178, 10.7306, 10.945]},
			"faces": {
				"north": {"uv": [9.875, 12.5, 10.125, 12.875], "rotation": 270, "texture": "#0"},
				"east": {"uv": [9.875, 12.5, 10.125, 12.875], "rotation": 270, "texture": "#0"},
				"south": {"uv": [9.875, 12.5, 10.125, 12.875], "rotation": 270, "texture": "#0"},
				"west": {"uv": [9.875, 12.5, 10.125, 12.875], "rotation": 270, "texture": "#0"},
				"up": {"uv": [9.875, 12.5, 10.125, 12.875], "rotation": 270, "texture": "#0"},
				"down": {"uv": [9.875, 12.5, 10.125, 12.875], "rotation": 270, "texture": "#0"}
			}
		},
		{
			"from": [8.06681, 10.91126, 12.008],
			"to": [8.20281, 11.10726, 12.456],
			"rotation": {"angle": -22.5, "axis": "z", "origin": [7.71623, 10.74184, -13.996]},
			"faces": {
				"north": {"uv": [9.875, 12.5, 10.125, 12.875], "rotation": 270, "texture": "#0"},
				"east": {"uv": [9.875, 12.5, 10.125, 12.875], "rotation": 270, "texture": "#0"},
				"south": {"uv": [9.875, 12.5, 10.125, 12.875], "rotation": 270, "texture": "#0"},
				"west": {"uv": [9.875, 12.5, 10.125, 12.875], "rotation": 270, "texture": "#0"},
				"up": {"uv": [9.875, 12.5, 10.125, 12.875], "rotation": 270, "texture": "#0"},
				"down": {"uv": [9.875, 12.5, 10.125, 12.875], "rotation": 270, "texture": "#0"}
			}
		},
		{
			"from": [8.02085, 10.10928, 12.008],
			"to": [8.18085, 10.94528, 12.456],
			"rotation": {"angle": 0, "axis": "y", "origin": [7.86227, 10.64386, -13.836]},
			"faces": {
				"north": {"uv": [9.875, 12.5, 10.125, 12.875], "rotation": 270, "texture": "#0"},
				"east": {"uv": [9.875, 12.5, 10.125, 12.875], "rotation": 270, "texture": "#0"},
				"south": {"uv": [9.875, 12.5, 10.125, 12.875], "rotation": 270, "texture": "#0"},
				"west": {"uv": [9.875, 12.5, 10.125, 12.875], "rotation": 270, "texture": "#0"},
				"up": {"uv": [9.875, 12.5, 10.125, 12.875], "rotation": 270, "texture": "#0"},
				"down": {"uv": [9.875, 12.5, 10.125, 12.875], "rotation": 270, "texture": "#0"}
			}
		},
		{
			"from": [7.91535, 10.79195, 12.008],
			"to": [8.05135, 10.98795, 12.456],
			"rotation": {"angle": 22.5, "axis": "z", "origin": [8.14335, 10.88995, 10.945]},
			"faces": {
				"north": {"uv": [9.875, 12.5, 10.125, 12.875], "rotation": 270, "texture": "#0"},
				"east": {"uv": [9.875, 12.5, 10.125, 12.875], "rotation": 270, "texture": "#0"},
				"south": {"uv": [9.875, 12.5, 10.125, 12.875], "rotation": 270, "texture": "#0"},
				"west": {"uv": [9.875, 12.5, 10.125, 12.875], "rotation": 270, "texture": "#0"},
				"up": {"uv": [9.875, 12.5, 10.125, 12.875], "rotation": 270, "texture": "#0"},
				"down": {"uv": [9.875, 12.5, 10.125, 12.875], "rotation": 270, "texture": "#0"}
			}
		},
		{
			"from": [8.17337, 10.38294, 12.008],
			"to": [8.34137, 10.67494, 12.456],
			"rotation": {"angle": 45, "axis": "z", "origin": [7.85479, 10.24552, -13.996]},
			"faces": {
				"north": {"uv": [9.875, 12.5, 10.125, 12.875], "rotation": 270, "texture": "#0"},
				"east": {"uv": [9.875, 12.5, 10.125, 12.875], "rotation": 270, "texture": "#0"},
				"south": {"uv": [9.875, 12.5, 10.125, 12.875], "rotation": 270, "texture": "#0"},
				"west": {"uv": [9.875, 12.5, 10.125, 12.875], "rotation": 270, "texture": "#0"},
				"up": {"uv": [9.875, 12.5, 10.125, 12.875], "rotation": 270, "texture": "#0"},
				"down": {"uv": [9.875, 12.5, 10.125, 12.875], "rotation": 270, "texture": "#0"}
			}
		},
		{
			"from": [7.82424, 10.6862, 12.00077],
			"to": [7.92424, 10.9822, 12.51277],
			"rotation": {"angle": 45, "axis": "z", "origin": [8.01824, 10.8342, 12.35277]},
			"faces": {
				"north": {"uv": [9.875, 12.5, 10.125, 12.875], "rotation": 180, "texture": "#0"},
				"east": {"uv": [9.875, 12.5, 10.125, 12.875], "rotation": 180, "texture": "#0"},
				"south": {"uv": [9.875, 12.5, 10.125, 12.875], "rotation": 180, "texture": "#0"},
				"west": {"uv": [9.875, 12.5, 10.125, 12.875], "rotation": 180, "texture": "#0"},
				"up": {"uv": [9.875, 12.5, 10.125, 12.875], "rotation": 180, "texture": "#0"},
				"down": {"uv": [9.875, 12.5, 10.125, 12.875], "rotation": 180, "texture": "#0"}
			}
		},
		{
			"from": [7.85141, 10.22683, 10.92203],
			"to": [8.35141, 10.96683, 12.13003],
			"rotation": {"angle": -22.5, "axis": "x", "origin": [8.07941, 10.59683, 12.29203]},
			"faces": {
				"north": {"uv": [9.125, 10.125, 9.75, 10.25], "rotation": 90, "texture": "#0"},
				"east": {"uv": [9.125, 10.125, 9.75, 10.25], "rotation": 90, "texture": "#0"},
				"south": {"uv": [9.125, 10.125, 9.75, 10.25], "rotation": 90, "texture": "#0"},
				"west": {"uv": [9.125, 10.125, 9.75, 10.25], "rotation": 90, "texture": "#0"},
				"up": {"uv": [9.125, 10.125, 9.75, 10.25], "rotation": 90, "texture": "#0"},
				"down": {"uv": [9.125, 10.125, 9.75, 10.25], "rotation": 90, "texture": "#0"}
			}
		},
		{
			"from": [7.67641, 8.08964, 6.75086],
			"to": [8.52441, 8.55364, 7.82486],
			"rotation": {"angle": -22.5, "axis": "x", "origin": [8.10041, 8.32164, 7.21286]},
			"faces": {
				"north": {"uv": [9.875, 12.5, 10.125, 12.875], "rotation": 270, "texture": "#0"},
				"east": {"uv": [9.875, 12.5, 10.125, 12.875], "rotation": 270, "texture": "#0"},
				"south": {"uv": [9.875, 12.5, 10.125, 12.875], "rotation": 270, "texture": "#0"},
				"west": {"uv": [9.875, 12.5, 10.125, 12.875], "rotation": 270, "texture": "#0"},
				"up": {"uv": [9.875, 12.5, 10.125, 12.875], "rotation": 270, "texture": "#0"},
				"down": {"uv": [9.875, 12.5, 10.125, 12.875], "rotation": 270, "texture": "#0"}
			}
		},
		{
			"from": [7.67641, 7.98464, 6.65586],
			"to": [8.52441, 8.90864, 7.11986],
			"rotation": {"angle": 22.5, "axis": "x", "origin": [8.10041, 8.29664, 6.88786]},
			"faces": {
				"north": {"uv": [9.875, 12.5, 10.125, 12.875], "rotation": 90, "texture": "#0"},
				"east": {"uv": [9.875, 12.5, 10.125, 12.875], "texture": "#0"},
				"south": {"uv": [9.875, 12.5, 10.125, 12.875], "rotation": 270, "texture": "#0"},
				"west": {"uv": [9.875, 12.5, 10.125, 12.875], "rotation": 180, "texture": "#0"},
				"up": {"uv": [9.875, 12.5, 10.125, 12.875], "rotation": 270, "texture": "#0"},
				"down": {"uv": [9.875, 12.5, 10.125, 12.875], "rotation": 90, "texture": "#0"}
			}
		},
		{
			"from": [7.67641, 7.68674, 6.9392],
			"to": [8.52441, 8.68574, 7.2032],
			"rotation": {"angle": 45, "axis": "x", "origin": [8.10041, 8.07374, 7.2712]},
			"faces": {
				"north": {"uv": [9.875, 12.5, 10.125, 12.875], "rotation": 90, "texture": "#0"},
				"east": {"uv": [9.875, 12.5, 10.125, 12.875], "texture": "#0"},
				"south": {"uv": [9.875, 12.5, 10.125, 12.875], "rotation": 270, "texture": "#0"},
				"west": {"uv": [9.875, 12.5, 10.125, 12.875], "rotation": 180, "texture": "#0"},
				"up": {"uv": [9.875, 12.5, 10.125, 12.875], "rotation": 270, "texture": "#0"},
				"down": {"uv": [9.875, 12.5, 10.125, 12.875], "rotation": 90, "texture": "#0"}
			}
		},
		{
			"from": [7.9875, 8.3625, -1.575],
			"to": [8.2375, 8.6125, -1.45],
			"rotation": {"angle": -45, "axis": "z", "origin": [8.1125, 8.4875, -1.5125]},
			"faces": {
				"north": {"uv": [14.25, 6.375, 14.5, 6.625], "texture": "#0"},
				"east": {"uv": [9.125, 10.125, 9.75, 10.25], "rotation": 90, "texture": "#0"},
				"south": {"uv": [9.125, 10.125, 9.75, 10.25], "rotation": 90, "texture": "#0"},
				"west": {"uv": [9.125, 10.125, 9.75, 10.25], "rotation": 90, "texture": "#0"},
				"up": {"uv": [9.125, 10.125, 9.75, 10.25], "rotation": 90, "texture": "#0"},
				"down": {"uv": [9.125, 10.125, 9.75, 10.25], "rotation": 90, "texture": "#0"}
			}
		},
		{
			"from": [7.9875, 9.4625, -1.575],
			"to": [8.2375, 9.7125, -1.45],
			"rotation": {"angle": -45, "axis": "z", "origin": [8.1125, 9.5875, -1.5125]},
			"faces": {
				"north": {"uv": [14.25, 6.375, 14.5, 6.625], "texture": "#0"},
				"east": {"uv": [9.125, 10.125, 9.75, 10.25], "rotation": 90, "texture": "#0"},
				"south": {"uv": [9.125, 10.125, 9.75, 10.25], "rotation": 90, "texture": "#0"},
				"west": {"uv": [9.125, 10.125, 9.75, 10.25], "rotation": 90, "texture": "#0"},
				"up": {"uv": [9.125, 10.125, 9.75, 10.25], "rotation": 90, "texture": "#0"},
				"down": {"uv": [9.125, 10.125, 9.75, 10.25], "rotation": 90, "texture": "#0"}
			}
		},
		{
			"from": [-0.46214, 10.69438, 1.44903],
			"to": [16.67286, 10.87238, 1.62603],
			"rotation": {"angle": 0, "axis": "y", "origin": [-0.41572, 10.62796, -12.60197]},
			"faces": {
				"north": {"uv": [1.125, 11.5, 1.25, 11.625], "rotation": 270, "texture": "#0"},
				"east": {"uv": [1.125, 11.5, 1.25, 11.625], "rotation": 270, "texture": "#0"},
				"south": {"uv": [1.125, 11.5, 1.25, 11.625], "rotation": 270, "texture": "#0"},
				"west": {"uv": [1.125, 11.5, 1.25, 11.625], "rotation": 270, "texture": "#0"},
				"up": {"uv": [1.125, 11.5, 1.25, 11.625], "rotation": 270, "texture": "#0"},
				"down": {"uv": [1.125, 11.5, 1.25, 11.625], "rotation": 270, "texture": "#0"}
			}
		},
		{
			"from": [8.9375, 10.5875, -1.825],
			"to": [9.1875, 10.8375, -1.6],
			"rotation": {"angle": -45, "axis": "z", "origin": [9.1125, 10.7625, -1.6625]},
			"faces": {
				"north": {"uv": [14.25, 6.375, 14.5, 6.625], "texture": "#0"},
				"east": {"uv": [9.125, 10.125, 9.75, 10.25], "rotation": 90, "texture": "#0"},
				"south": {"uv": [9.125, 10.125, 9.75, 10.25], "rotation": 90, "texture": "#0"},
				"west": {"uv": [9.125, 10.125, 9.75, 10.25], "rotation": 90, "texture": "#0"},
				"up": {"uv": [9.125, 10.125, 9.75, 10.25], "rotation": 90, "texture": "#0"},
				"down": {"uv": [9.125, 10.125, 9.75, 10.25], "rotation": 90, "texture": "#0"}
			}
		},
		{
			"from": [8.8125, 10.3375, -1.7],
			"to": [9.3625, 10.8875, -1.45],
			"rotation": {"angle": -45, "axis": "z", "origin": [9.2375, 10.7625, -1.5125]},
			"faces": {
				"north": {"uv": [9.125, 10.125, 9.75, 10.25], "rotation": 90, "texture": "#0"},
				"east": {"uv": [9.125, 10.125, 9.75, 10.25], "rotation": 90, "texture": "#0"},
				"south": {"uv": [9.125, 10.125, 9.75, 10.25], "rotation": 90, "texture": "#0"},
				"west": {"uv": [9.125, 10.125, 9.75, 10.25], "rotation": 90, "texture": "#0"},
				"up": {"uv": [9.125, 10.125, 9.75, 10.25], "rotation": 90, "texture": "#0"},
				"down": {"uv": [9.125, 10.125, 9.75, 10.25], "rotation": 90, "texture": "#0"}
			}
		},
		{
			"from": [6.9625, 10.3375, -1.7],
			"to": [7.5125, 10.8875, -1.45],
			"rotation": {"angle": -45, "axis": "z", "origin": [7.3875, 10.7625, -1.5125]},
			"faces": {
				"north": {"uv": [9.125, 10.125, 9.75, 10.25], "rotation": 90, "texture": "#0"},
				"east": {"uv": [9.125, 10.125, 9.75, 10.25], "rotation": 90, "texture": "#0"},
				"south": {"uv": [9.125, 10.125, 9.75, 10.25], "rotation": 90, "texture": "#0"},
				"west": {"uv": [9.125, 10.125, 9.75, 10.25], "rotation": 90, "texture": "#0"},
				"up": {"uv": [9.125, 10.125, 9.75, 10.25], "rotation": 90, "texture": "#0"},
				"down": {"uv": [9.125, 10.125, 9.75, 10.25], "rotation": 90, "texture": "#0"}
			}
		},
		{
			"from": [7.0625, 10.5875, -1.825],
			"to": [7.3125, 10.8375, -1.6],
			"rotation": {"angle": -45, "axis": "z", "origin": [7.2375, 10.7625, -1.6625]},
			"faces": {
				"north": {"uv": [14.25, 6.375, 14.5, 6.625], "texture": "#0"},
				"east": {"uv": [9.125, 10.125, 9.75, 10.25], "rotation": 90, "texture": "#0"},
				"south": {"uv": [9.125, 10.125, 9.75, 10.25], "rotation": 90, "texture": "#0"},
				"west": {"uv": [9.125, 10.125, 9.75, 10.25], "rotation": 90, "texture": "#0"},
				"up": {"uv": [9.125, 10.125, 9.75, 10.25], "rotation": 90, "texture": "#0"},
				"down": {"uv": [9.125, 10.125, 9.75, 10.25], "rotation": 90, "texture": "#0"}
			}
		},
		{
			"from": [7.77641, 8.75444, 17.8],
			"to": [8.42441, 10.00644, 18.088],
			"rotation": {"angle": 0, "axis": "y", "origin": [8.10041, 9.31644, 15.386]},
			"faces": {
				"north": {"uv": [7.125, 12.5, 7.125, 12.5], "rotation": 270, "texture": "#0"},
				"east": {"uv": [7.125, 12.5, 7.125, 12.5], "rotation": 270, "texture": "#0"},
				"south": {"uv": [7.125, 12.5, 7.125, 12.5], "rotation": 270, "texture": "#0"},
				"west": {"uv": [7.125, 12.5, 7.125, 12.5], "rotation": 270, "texture": "#0"},
				"up": {"uv": [7.125, 12.5, 7.125, 12.5], "rotation": 270, "texture": "#0"},
				"down": {"uv": [7.125, 12.5, 7.125, 12.5], "rotation": 270, "texture": "#0"}
			}
		},
		{
			"from": [8.17778, 9.9166, 17.8],
			"to": [8.34578, 10.1086, 18.088],
			"rotation": {"angle": -45, "axis": "z", "origin": [8.26178, 9.9626, 16.417]},
			"faces": {
				"north": {"uv": [7.125, 12.5, 7.125, 12.5], "rotation": 270, "texture": "#0"},
				"east": {"uv": [7.125, 12.5, 7.125, 12.5], "rotation": 270, "texture": "#0"},
				"south": {"uv": [7.125, 12.5, 7.125, 12.5], "rotation": 270, "texture": "#0"},
				"west": {"uv": [7.125, 12.5, 7.125, 12.5], "rotation": 270, "texture": "#0"},
				"up": {"uv": [7.125, 12.5, 7.125, 12.5], "rotation": 270, "texture": "#0"},
				"down": {"uv": [7.125, 12.5, 7.125, 12.5], "rotation": 270, "texture": "#0"}
			}
		},
		{
			"from": [8.06681, 10.14326, 17.8],
			"to": [8.20281, 10.33926, 18.088],
			"rotation": {"angle": -22.5, "axis": "z", "origin": [7.71623, 9.97384, -8.524]},
			"faces": {
				"north": {"uv": [7.125, 12.5, 7.125, 12.5], "rotation": 270, "texture": "#0"},
				"east": {"uv": [7.125, 12.5, 7.125, 12.5], "rotation": 270, "texture": "#0"},
				"south": {"uv": [7.125, 12.5, 7.125, 12.5], "rotation": 270, "texture": "#0"},
				"west": {"uv": [7.125, 12.5, 7.125, 12.5], "rotation": 270, "texture": "#0"},
				"up": {"uv": [7.125, 12.5, 7.125, 12.5], "rotation": 270, "texture": "#0"},
				"down": {"uv": [7.125, 12.5, 7.125, 12.5], "rotation": 270, "texture": "#0"}
			}
		},
		{
			"from": [8.02085, 9.96628, 17.768],
			"to": [8.18085, 10.17728, 18.088],
			"rotation": {"angle": 0, "axis": "y", "origin": [7.86227, 9.87586, -8.364]},
			"faces": {
				"north": {"uv": [7.125, 12.5, 7.125, 12.5], "rotation": 270, "texture": "#0"},
				"east": {"uv": [7.125, 12.5, 7.125, 12.5], "rotation": 270, "texture": "#0"},
				"south": {"uv": [7.125, 12.5, 7.125, 12.5], "rotation": 270, "texture": "#0"},
				"west": {"uv": [7.125, 12.5, 7.125, 12.5], "rotation": 270, "texture": "#0"},
				"up": {"uv": [7.125, 12.5, 7.125, 12.5], "rotation": 270, "texture": "#0"},
				"down": {"uv": [7.125, 12.5, 7.125, 12.5], "rotation": 270, "texture": "#0"}
			}
		},
		{
			"from": [7.91535, 10.02395, 17.8],
			"to": [8.05135, 10.21995, 18.088],
			"rotation": {"angle": 22.5, "axis": "z", "origin": [8.14335, 10.12195, 16.417]},
			"faces": {
				"north": {"uv": [7.125, 12.5, 7.125, 12.5], "rotation": 270, "texture": "#0"},
				"east": {"uv": [7.125, 12.5, 7.125, 12.5], "rotation": 270, "texture": "#0"},
				"south": {"uv": [7.125, 12.5, 7.125, 12.5], "rotation": 270, "texture": "#0"},
				"west": {"uv": [7.125, 12.5, 7.125, 12.5], "rotation": 270, "texture": "#0"},
				"up": {"uv": [7.125, 12.5, 7.125, 12.5], "rotation": 270, "texture": "#0"},
				"down": {"uv": [7.125, 12.5, 7.125, 12.5], "rotation": 270, "texture": "#0"}
			}
		},
		{
			"from": [8.17337, 9.71494, 17.8],
			"to": [8.34137, 9.90694, 18.088],
			"rotation": {"angle": 45, "axis": "z", "origin": [7.85479, 9.47752, -8.524]},
			"faces": {
				"north": {"uv": [7.125, 12.5, 7.125, 12.5], "rotation": 270, "texture": "#0"},
				"east": {"uv": [7.125, 12.5, 7.125, 12.5], "rotation": 270, "texture": "#0"},
				"south": {"uv": [7.125, 12.5, 7.125, 12.5], "rotation": 270, "texture": "#0"},
				"west": {"uv": [7.125, 12.5, 7.125, 12.5], "rotation": 270, "texture": "#0"},
				"up": {"uv": [7.125, 12.5, 7.125, 12.5], "rotation": 270, "texture": "#0"},
				"down": {"uv": [7.125, 12.5, 7.125, 12.5], "rotation": 270, "texture": "#0"}
			}
		},
		{
			"from": [7.77641, 7.95444, 17.8],
			"to": [8.42441, 9.11044, 18.088],
			"rotation": {"angle": 0, "axis": "y", "origin": [8.10041, 8.32444, 15.386]},
			"faces": {
				"north": {"uv": [7.125, 12.5, 7.125, 12.5], "rotation": 270, "texture": "#0"},
				"east": {"uv": [7.125, 12.5, 7.125, 12.5], "rotation": 270, "texture": "#0"},
				"south": {"uv": [7.125, 12.5, 7.125, 12.5], "rotation": 270, "texture": "#0"},
				"west": {"uv": [7.125, 12.5, 7.125, 12.5], "rotation": 270, "texture": "#0"},
				"up": {"uv": [7.125, 12.5, 7.125, 12.5], "rotation": 270, "texture": "#0"},
				"down": {"uv": [7.125, 12.5, 7.125, 12.5], "rotation": 270, "texture": "#0"}
			}
		},
		{
			"from": [7.77641, 7.28244, 17.8],
			"to": [8.42441, 8.43844, 18.088],
			"rotation": {"angle": 0, "axis": "y", "origin": [8.10041, 7.65244, 15.386]},
			"faces": {
				"north": {"uv": [7.125, 12.5, 7.125, 12.5], "rotation": 270, "texture": "#0"},
				"east": {"uv": [7.125, 12.5, 7.125, 12.5], "rotation": 270, "texture": "#0"},
				"south": {"uv": [7.125, 12.5, 7.125, 12.5], "rotation": 270, "texture": "#0"},
				"west": {"uv": [7.125, 12.5, 7.125, 12.5], "rotation": 270, "texture": "#0"},
				"up": {"uv": [7.125, 12.5, 7.125, 12.5], "rotation": 270, "texture": "#0"},
				"down": {"uv": [7.125, 12.5, 7.125, 12.5], "rotation": 270, "texture": "#0"}
			}
		},
		{
			"from": [7.875, 7.34201, 17.8],
			"to": [8.017, 7.51001, 18.088],
			"rotation": {"angle": 45, "axis": "z", "origin": [8.10041, 7.27722, 17.896]},
			"faces": {
				"north": {"uv": [7.125, 12.5, 7.125, 12.5], "rotation": 180, "texture": "#0"},
				"east": {"uv": [7.125, 12.5, 7.125, 12.5], "rotation": 180, "texture": "#0"},
				"south": {"uv": [7.125, 12.5, 7.125, 12.5], "rotation": 180, "texture": "#0"},
				"west": {"uv": [7.125, 12.5, 7.125, 12.5], "rotation": 180, "texture": "#0"},
				"up": {"uv": [7.125, 12.5, 7.125, 12.5], "rotation": 180, "texture": "#0"},
				"down": {"uv": [7.125, 12.5, 7.125, 12.5], "rotation": 180, "texture": "#0"}
			}
		},
		{
			"from": [7.96172, 7.13609, 17.8],
			"to": [8.23672, 7.30609, 18.088],
			"rotation": {"angle": 0, "axis": "y", "origin": [8.14172, 7.74609, 17.896]},
			"faces": {
				"north": {"uv": [7.125, 12.5, 7.125, 12.5], "rotation": 270, "texture": "#0"},
				"east": {"uv": [7.125, 12.5, 7.125, 12.5], "rotation": 270, "texture": "#0"},
				"south": {"uv": [7.125, 12.5, 7.125, 12.5], "rotation": 270, "texture": "#0"},
				"west": {"uv": [7.125, 12.5, 7.125, 12.5], "rotation": 270, "texture": "#0"},
				"up": {"uv": [7.125, 12.5, 7.125, 12.5], "rotation": 270, "texture": "#0"},
				"down": {"uv": [7.125, 12.5, 7.125, 12.5], "rotation": 270, "texture": "#0"}
			}
		},
		{
			"from": [8.1652, 7.05181, 17.8],
			"to": [8.3332, 7.16881, 18.088],
			"rotation": {"angle": 45, "axis": "z", "origin": [8.10041, 7.27722, 17.896]},
			"faces": {
				"north": {"uv": [7.125, 12.5, 7.125, 12.5], "rotation": 90, "texture": "#0"},
				"east": {"uv": [7.125, 12.5, 7.125, 12.5], "rotation": 90, "texture": "#0"},
				"south": {"uv": [7.125, 12.5, 7.125, 12.5], "rotation": 90, "texture": "#0"},
				"west": {"uv": [7.125, 12.5, 7.125, 12.5], "rotation": 90, "texture": "#0"},
				"up": {"uv": [7.125, 12.5, 7.125, 12.5], "rotation": 90, "texture": "#0"},
				"down": {"uv": [7.125, 12.5, 7.125, 12.5], "rotation": 90, "texture": "#0"}
			}
		},
		{
			"from": [8.17453, 7.09376, 17.8],
			"to": [8.24653, 7.26476, 18.088],
			"rotation": {"angle": 22.5, "axis": "z", "origin": [8.10041, 7.27722, 17.896]},
			"faces": {
				"north": {"uv": [7.125, 12.5, 7.125, 12.5], "rotation": 90, "texture": "#0"},
				"east": {"uv": [7.125, 12.5, 7.125, 12.5], "rotation": 90, "texture": "#0"},
				"south": {"uv": [7.125, 12.5, 7.125, 12.5], "rotation": 90, "texture": "#0"},
				"west": {"uv": [7.125, 12.5, 7.125, 12.5], "rotation": 90, "texture": "#0"},
				"up": {"uv": [7.125, 12.5, 7.125, 12.5], "rotation": 90, "texture": "#0"},
				"down": {"uv": [7.125, 12.5, 7.125, 12.5], "rotation": 90, "texture": "#0"}
			}
		},
		{
			"from": [7.95429, 7.09376, 17.8],
			"to": [8.02629, 7.26476, 18.088],
			"rotation": {"angle": -22.5, "axis": "z", "origin": [8.10041, 7.27722, 17.896]},
			"faces": {
				"north": {"uv": [7.125, 12.5, 7.125, 12.5], "rotation": 90, "texture": "#0"},
				"east": {"uv": [7.125, 12.5, 7.125, 12.5], "rotation": 90, "texture": "#0"},
				"south": {"uv": [7.125, 12.5, 7.125, 12.5], "rotation": 90, "texture": "#0"},
				"west": {"uv": [7.125, 12.5, 7.125, 12.5], "rotation": 90, "texture": "#0"},
				"up": {"uv": [7.125, 12.5, 7.125, 12.5], "rotation": 90, "texture": "#0"},
				"down": {"uv": [7.125, 12.5, 7.125, 12.5], "rotation": 90, "texture": "#0"}
			}
		}
	],
	"display": {
		"thirdperson_righthand": {
			"translation": [-0.75, -1, -1.25],
			"scale": [1.2, 1.2, 1.1]
		},
		"thirdperson_lefthand": {
			"translation": [-0.75, -1, -1.25],
			"scale": [1.2, 1.2, 1.1]
		},
		"firstperson_righthand": {
			"rotation": [-5.25, 0, 0],
			"translation": [-2.75, 1, -1.25],
			"scale": [1.2, 1.2, 1.1]
		},
		"firstperson_lefthand": {
			"rotation": [-5.25, 0, 0],
			"translation": [-2.75, 1, -1.25],
			"scale": [1.2, 1.2, 1.1]
		},
		"gui": {
			"rotation": [18, 28, 5],
			"translation": [2.75, -1.5, 0]
		},
		"fixed": {
			"rotation": [90, 45, -90],
			"translation": [-1, -0.5, -1.5],
			"scale": [1.2, 1.2, 1.1]
		}
	},
	"groups": [
		{
			"name": "gun",
			"origin": [8, 8, 8],
			"children": [0, 1, 2, 3, 4, 5, 6, 7, 8, 9, 10,
				{
					"name": "железки",
					"origin": [3.20012, 11.00238, -1.15423],
					"children": [11, 12, 13, 14, 15, 16, 17, 18, 19, 20, 21, 22, 23, 24, 25, 26, 27, 28, 29, 30, 31, 32, 33, 34, 35, 36, 37, 38, 39, 40, 41, 42, 43, 44, 45, 46, 47, 48, 49, 50, 51, 52, 53, 54, 55, 56, 57, 58, 59, 60, 61, 62, 63, 64, 65, 66, 67, 68, 69, 70, 71, 72, 73]
				},
				{
					"name": "сток",
					"origin": [8.10041, 8.07374, 7.2712],
					"children": [74, 75, 76, 77, 78, 79, 80, 81, 82, 83, 84, 85, 86, 87, 88, 89, 90, 91, 92, 93, 94, 95, 96, 97, 98, 99, 100, 101, 102, 103, 104, 105, 106, 107, 108, 109, 110, 111, 112, 113, 114, 115, 116, 117, 118, 119, 120, 121, 122, 123, 124]
				}, 125, 126, 127, 128, 129, 130, 131,
				{
					"name": "stock_hsmg_wooden",
					"origin": [8.06442, 9.17702, -13.616],
					"children": [
						{
							"name": "group",
							"origin": [8.323, 6.87722, 18.596],
							"children": [132, 133, 134, 135, 136, 137, 138, 139, 140, 141, 142, 143, 144]
						},
						{
							"name": "group",
							"origin": [8.26204, 9.52571, -0.194],
							"children": []
						}
					]
				},
				{
					"name": "pistol",
					"origin": [8.323, 7.68444, 11.014],
					"children": [
						{
							"name": "trigger",
							"origin": [8.323, 8.48343, 8.27687],
							"children": []
						}
					]
				}
			]
		}
	]
}