{
    "textures": {
        "0": "gci:items/common/all_in_one",
        "1": "gci:items/common/mpz",
        "particle": "gci:items/common/all_in_one"
    },
    "elements": [
        {
            "from": [
                7.70279,
                9.6879,
                10.61072
            ],
            "to": [
                8.26279,
                9.8979,
                12.55672
            ],
            "rotation": {
                "angle": 0,
                "axis": "y",
                "origin": [
                    7.99491,
                    10.57344,
                    12.16012
                ]
            },
            "faces": {
                "north": {
                    "uv": [
                        8.66667,
                        0.66667,
                        9.66667,
                        2
                    ],
                    "rotation": 180,
                    "texture": "#1"
                },
                "east": {
                    "uv": [
                        8.66667,
                        0.66667,
                        9.66667,
                        2
                    ],
                    "rotation": 180,
                    "texture": "#1"
                },
                "south": {
                    "uv": [
                        8.66667,
                        0.66667,
                        9.66667,
                        2
                    ],
                    "rotation": 180,
                    "texture": "#1"
                },
                "west": {
                    "uv": [
                        8.66667,
                        0.66667,
                        9.66667,
                        2
                    ],
                    "rotation": 180,
                    "texture": "#1"
                },
                "up": {
                    "uv": [
                        8.66667,
                        0.66667,
                        9.66667,
                        2
                    ],
                    "rotation": 180,
                    "texture": "#1"
                },
                "down": {
                    "uv": [
                        8.66667,
                        0.66667,
                        9.66667,
                        2
                    ],
                    "rotation": 180,
                    "texture": "#1"
                }
            }
        },
        {
            "from": [
                7.70279,
                9.83639,
                10.75921
            ],
            "to": [
                8.26279,
                10.04639,
                12.56521
            ],
            "rotation": {
                "angle": 0,
                "axis": "y",
                "origin": [
                    7.99491,
                    10.57344,
                    12.16012
                ]
            },
            "faces": {
                "north": {
                    "uv": [
                        8.66667,
                        0.66667,
                        9.66667,
                        2
                    ],
                    "rotation": 180,
                    "texture": "#1"
                },
                "east": {
                    "uv": [
                        8.66667,
                        0.66667,
                        9.66667,
                        2
                    ],
                    "rotation": 180,
                    "texture": "#1"
                },
                "south": {
                    "uv": [
                        8.66667,
                        0.66667,
                        9.66667,
                        2
                    ],
                    "rotation": 180,
                    "texture": "#1"
                },
                "west": {
                    "uv": [
                        8.66667,
                        0.66667,
                        9.66667,
                        2
                    ],
                    "rotation": 180,
                    "texture": "#1"
                },
                "up": {
                    "uv": [
                        8.66667,
                        0.66667,
                        9.66667,
                        2
                    ],
                    "rotation": 180,
                    "texture": "#1"
                },
                "down": {
                    "uv": [
                        8.66667,
                        0.66667,
                        9.66667,
                        2
                    ],
                    "rotation": 180,
                    "texture": "#1"
                }
            }
        },
        {
            "from": [
                7.70279,
                9.00017,
                11.54221
            ],
            "to": [
                8.26279,
                9.21017,
                11.75221
            ],
            "rotation": {
                "angle": 45,
                "axis": "x",
                "origin": [
                    7.99491,
                    10.57344,
                    12.16012
                ]
            },
            "faces": {
                "north": {
                    "uv": [
                        8.66667,
                        0.66667,
                        9.66667,
                        2
                    ],
                    "rotation": 180,
                    "texture": "#1"
                },
                "east": {
                    "uv": [
                        8.66667,
                        0.66667,
                        9.66667,
                        2
                    ],
                    "rotation": 180,
                    "texture": "#1"
                },
                "south": {
                    "uv": [
                        8.66667,
                        0.66667,
                        9.66667,
                        2
                    ],
                    "rotation": 180,
                    "texture": "#1"
                },
                "west": {
                    "uv": [
                        8.66667,
                        0.66667,
                        9.66667,
                        2
                    ],
                    "rotation": 180,
                    "texture": "#1"
                },
                "up": {
                    "uv": [
                        8.66667,
                        0.66667,
                        9.66667,
                        2
                    ],
                    "rotation": 180,
                    "texture": "#1"
                },
                "down": {
                    "uv": [
                        8.66667,
                        0.66667,
                        9.66667,
                        2
                    ],
                    "rotation": 180,
                    "texture": "#1"
                }
            }
        },
        {
            "from": [
                7.70279,
                9.47642,
                11.95297
            ],
            "to": [
                7.71679,
                10.24642,
                12.37297
            ],
            "rotation": {
                "angle": 45,
                "axis": "x",
                "origin": [
                    7.99491,
                    10.57344,
                    12.16012
                ]
            },
            "faces": {
                "north": {
                    "uv": [
                        8.66667,
                        0.66667,
                        9.66667,
                        2
                    ],
                    "rotation": 180,
                    "texture": "#1"
                },
                "east": {
                    "uv": [
                        8.66667,
                        0.66667,
                        9.66667,
                        2
                    ],
                    "rotation": 180,
                    "texture": "#1"
                },
                "south": {
                    "uv": [
                        8.66667,
                        0.66667,
                        9.66667,
                        2
                    ],
                    "rotation": 180,
                    "texture": "#1"
                },
                "west": {
                    "uv": [
                        8.66667,
                        0.66667,
                        9.66667,
                        2
                    ],
                    "rotation": 180,
                    "texture": "#1"
                },
                "up": {
                    "uv": [
                        8.66667,
                        0.66667,
                        9.66667,
                        2
                    ],
                    "rotation": 180,
                    "texture": "#1"
                },
                "down": {
                    "uv": [
                        8.66667,
                        0.66667,
                        9.66667,
                        2
                    ],
                    "rotation": 180,
                    "texture": "#1"
                }
            }
        },
        {
            "from": [
                7.70279,
                9.71867,
                11.7824
            ],
            "to": [
                7.71679,
                10.48867,
                12.1884
            ],
            "rotation": {
                "angle": 0,
                "axis": "y",
                "origin": [
                    7.99491,
                    10.57344,
                    12.16012
                ]
            },
            "faces": {
                "north": {
                    "uv": [
                        8.66667,
                        0.66667,
                        9.66667,
                        2
                    ],
                    "rotation": 180,
                    "texture": "#1"
                },
                "east": {
                    "uv": [
                        8.66667,
                        0.66667,
                        9.66667,
                        2
                    ],
                    "rotation": 180,
                    "texture": "#1"
                },
                "south": {
                    "uv": [
                        8.66667,
                        0.66667,
                        9.66667,
                        2
                    ],
                    "rotation": 180,
                    "texture": "#1"
                },
                "west": {
                    "uv": [
                        8.66667,
                        0.66667,
                        9.66667,
                        2
                    ],
                    "rotation": 180,
                    "texture": "#1"
                },
                "up": {
                    "uv": [
                        8.66667,
                        0.66667,
                        9.66667,
                        2
                    ],
                    "rotation": 180,
                    "texture": "#1"
                },
                "down": {
                    "uv": [
                        8.66667,
                        0.66667,
                        9.66667,
                        2
                    ],
                    "rotation": 180,
                    "texture": "#1"
                }
            }
        },
        {
            "from": [
                8.24879,
                9.71867,
                11.7824
            ],
            "to": [
                8.26279,
                10.48867,
                12.1884
            ],
            "rotation": {
                "angle": 0,
                "axis": "y",
                "origin": [
                    7.99491,
                    10.57344,
                    12.16012
                ]
            },
            "faces": {
                "north": {
                    "uv": [
                        8.66667,
                        0.66667,
                        9.66667,
                        2
                    ],
                    "rotation": 180,
                    "texture": "#1"
                },
                "east": {
                    "uv": [
                        8.66667,
                        0.66667,
                        9.66667,
                        2
                    ],
                    "rotation": 180,
                    "texture": "#1"
                },
                "south": {
                    "uv": [
                        8.66667,
                        0.66667,
                        9.66667,
                        2
                    ],
                    "rotation": 180,
                    "texture": "#1"
                },
                "west": {
                    "uv": [
                        8.66667,
                        0.66667,
                        9.66667,
                        2
                    ],
                    "rotation": 180,
                    "texture": "#1"
                },
                "up": {
                    "uv": [
                        8.66667,
                        0.66667,
                        9.66667,
                        2
                    ],
                    "rotation": 180,
                    "texture": "#1"
                },
                "down": {
                    "uv": [
                        8.66667,
                        0.66667,
                        9.66667,
                        2
                    ],
                    "rotation": 180,
                    "texture": "#1"
                }
            }
        },
        {
            "from": [
                7.70279,
                10.47467,
                11.7824
            ],
            "to": [
                8.24879,
                10.48867,
                12.1884
            ],
            "rotation": {
                "angle": 0,
                "axis": "y",
                "origin": [
                    7.99491,
                    10.57344,
                    12.16012
                ]
            },
            "faces": {
                "north": {
                    "uv": [
                        8.66667,
                        0.66667,
                        9.66667,
                        2
                    ],
                    "rotation": 180,
                    "texture": "#1"
                },
                "east": {
                    "uv": [
                        8.66667,
                        0.66667,
                        9.66667,
                        2
                    ],
                    "rotation": 180,
                    "texture": "#1"
                },
                "south": {
                    "uv": [
                        8.66667,
                        0.66667,
                        9.66667,
                        2
                    ],
                    "rotation": 180,
                    "texture": "#1"
                },
                "west": {
                    "uv": [
                        8.66667,
                        0.66667,
                        9.66667,
                        2
                    ],
                    "rotation": 180,
                    "texture": "#1"
                },
                "up": {
                    "uv": [
                        8.66667,
                        0.66667,
                        9.66667,
                        2
                    ],
                    "rotation": 180,
                    "texture": "#1"
                },
                "down": {
                    "uv": [
                        8.66667,
                        0.66667,
                        9.66667,
                        2
                    ],
                    "rotation": 180,
                    "texture": "#1"
                }
            }
        },
        {
            "from": [
                7.70279,
                9.80421,
                11.23794
            ],
            "to": [
                7.71679,
                9.94421,
                11.64394
            ],
            "rotation": {
                "angle": 0,
                "axis": "y",
                "origin": [
                    7.99491,
                    10.57344,
                    12.16012
                ]
            },
            "faces": {
                "north": {
                    "uv": [
                        8.66667,
                        0.66667,
                        9.66667,
                        2
                    ],
                    "rotation": 180,
                    "texture": "#1"
                },
                "east": {
                    "uv": [
                        8.66667,
                        0.66667,
                        9.66667,
                        2
                    ],
                    "rotation": 180,
                    "texture": "#1"
                },
                "south": {
                    "uv": [
                        8.66667,
                        0.66667,
                        9.66667,
                        2
                    ],
                    "rotation": 180,
                    "texture": "#1"
                },
                "west": {
                    "uv": [
                        8.66667,
                        0.66667,
                        9.66667,
                        2
                    ],
                    "rotation": 180,
                    "texture": "#1"
                },
                "up": {
                    "uv": [
                        8.66667,
                        0.66667,
                        9.66667,
                        2
                    ],
                    "rotation": 180,
                    "texture": "#1"
                },
                "down": {
                    "uv": [
                        8.66667,
                        0.66667,
                        9.66667,
                        2
                    ],
                    "rotation": 180,
                    "texture": "#1"
                }
            }
        },
        {
            "from": [
                8.24879,
                9.80421,
                11.23794
            ],
            "to": [
                8.26279,
                9.94421,
                11.64394
            ],
            "rotation": {
                "angle": 0,
                "axis": "y",
                "origin": [
                    7.99491,
                    10.57344,
                    12.16012
                ]
            },
            "faces": {
                "north": {
                    "uv": [
                        8.66667,
                        0.66667,
                        9.66667,
                        2
                    ],
                    "rotation": 180,
                    "texture": "#1"
                },
                "east": {
                    "uv": [
                        8.66667,
                        0.66667,
                        9.66667,
                        2
                    ],
                    "rotation": 180,
                    "texture": "#1"
                },
                "south": {
                    "uv": [
                        8.66667,
                        0.66667,
                        9.66667,
                        2
                    ],
                    "rotation": 180,
                    "texture": "#1"
                },
                "west": {
                    "uv": [
                        8.66667,
                        0.66667,
                        9.66667,
                        2
                    ],
                    "rotation": 180,
                    "texture": "#1"
                },
                "up": {
                    "uv": [
                        8.66667,
                        0.66667,
                        9.66667,
                        2
                    ],
                    "rotation": 180,
                    "texture": "#1"
                },
                "down": {
                    "uv": [
                        8.66667,
                        0.66667,
                        9.66667,
                        2
                    ],
                    "rotation": 180,
                    "texture": "#1"
                }
            }
        },
        {
            "from": [
                8.24879,
                9.47642,
                11.95297
            ],
            "to": [
                8.26279,
                10.24642,
                12.37297
            ],
            "rotation": {
                "angle": 45,
                "axis": "x",
                "origin": [
                    7.99491,
                    10.57344,
                    12.16012
                ]
            },
            "faces": {
                "north": {
                    "uv": [
                        8.66667,
                        0.66667,
                        9.66667,
                        2
                    ],
                    "rotation": 180,
                    "texture": "#1"
                },
                "east": {
                    "uv": [
                        8.66667,
                        0.66667,
                        9.66667,
                        2
                    ],
                    "rotation": 180,
                    "texture": "#1"
                },
                "south": {
                    "uv": [
                        8.66667,
                        0.66667,
                        9.66667,
                        2
                    ],
                    "rotation": 180,
                    "texture": "#1"
                },
                "west": {
                    "uv": [
                        8.66667,
                        0.66667,
                        9.66667,
                        2
                    ],
                    "rotation": 180,
                    "texture": "#1"
                },
                "up": {
                    "uv": [
                        8.66667,
                        0.66667,
                        9.66667,
                        2
                    ],
                    "rotation": 180,
                    "texture": "#1"
                },
                "down": {
                    "uv": [
                        8.66667,
                        0.66667,
                        9.66667,
                        2
                    ],
                    "rotation": 180,
                    "texture": "#1"
                }
            }
        },
        {
            "from": [
                8.01438,
                9.65331,
                10.61072
            ],
            "to": [
                8.12638,
                9.76531,
                12.55672
            ],
            "rotation": {
                "angle": -22.5,
                "axis": "z",
                "origin": [
                    7.99491,
                    10.57344,
                    12.16012
                ]
            },
            "faces": {
                "north": {
                    "uv": [
                        8.66667,
                        0.66667,
                        9.66667,
                        2
                    ],
                    "rotation": 90,
                    "texture": "#1"
                },
                "east": {
                    "uv": [
                        8.66667,
                        0.66667,
                        9.66667,
                        2
                    ],
                    "rotation": 90,
                    "texture": "#1"
                },
                "south": {
                    "uv": [
                        8.66667,
                        0.66667,
                        9.66667,
                        2
                    ],
                    "rotation": 90,
                    "texture": "#1"
                },
                "west": {
                    "uv": [
                        8.66667,
                        0.66667,
                        9.66667,
                        2
                    ],
                    "rotation": 90,
                    "texture": "#1"
                },
                "up": {
                    "uv": [
                        8.66667,
                        0.66667,
                        9.66667,
                        2
                    ],
                    "rotation": 90,
                    "texture": "#1"
                },
                "down": {
                    "uv": [
                        8.66667,
                        0.66667,
                        9.66667,
                        2
                    ],
                    "rotation": 90,
                    "texture": "#1"
                }
            }
        },
        {
            "from": [
                7.70279,
                9.7159,
                10.61072
            ],
            "to": [
                8.26279,
                9.8279,
                12.55672
            ],
            "rotation": {
                "angle": 0,
                "axis": "y",
                "origin": [
                    7.99491,
                    10.57344,
                    12.16012
                ]
            },
            "faces": {
                "north": {
                    "uv": [
                        8.66667,
                        0.66667,
                        9.66667,
                        2
                    ],
                    "rotation": 180,
                    "texture": "#1"
                },
                "east": {
                    "uv": [
                        8.66667,
                        0.66667,
                        9.66667,
                        2
                    ],
                    "rotation": 180,
                    "texture": "#1"
                },
                "south": {
                    "uv": [
                        8.66667,
                        0.66667,
                        9.66667,
                        2
                    ],
                    "rotation": 180,
                    "texture": "#1"
                },
                "west": {
                    "uv": [
                        8.66667,
                        0.66667,
                        9.66667,
                        2
                    ],
                    "rotation": 180,
                    "texture": "#1"
                },
                "up": {
                    "uv": [
                        8.66667,
                        0.66667,
                        9.66667,
                        2
                    ],
                    "rotation": 180,
                    "texture": "#1"
                },
                "down": {
                    "uv": [
                        8.66667,
                        0.66667,
                        9.66667,
                        2
                    ],
                    "rotation": 180,
                    "texture": "#1"
                }
            }
        },
        {
            "from": [
                7.66079,
                9.5759,
                10.61072
            ],
            "to": [
                8.30479,
                9.7159,
                12.55672
            ],
            "rotation": {
                "angle": 0,
                "axis": "y",
                "origin": [
                    7.99491,
                    10.57344,
                    12.16012
                ]
            },
            "faces": {
                "north": {
                    "uv": [
                        8.66667,
                        0.66667,
                        9.66667,
                        2
                    ],
                    "rotation": 180,
                    "texture": "#1"
                },
                "east": {
                    "uv": [
                        6,
                        0.66667,
                        7,
                        2
                    ],
                    "rotation": 180,
                    "texture": "#1"
                },
                "south": {
                    "uv": [
                        8.66667,
                        0.66667,
                        9.66667,
                        2
                    ],
                    "rotation": 180,
                    "texture": "#1"
                },
                "west": {
                    "uv": [
                        6,
                        0.66667,
                        7,
                        2
                    ],
                    "rotation": 180,
                    "texture": "#1"
                },
                "up": {
                    "uv": [
                        8.66667,
                        0.66667,
                        9.66667,
                        2
                    ],
                    "rotation": 180,
                    "texture": "#1"
                },
                "down": {
                    "uv": [
                        0.33333,
                        1,
                        1.33333,
                        2.33333
                    ],
                    "rotation": 180,
                    "texture": "#1"
                }
            }
        },
        {
            "from": [
                7.84104,
                9.66259,
                10.61072
            ],
            "to": [
                7.95304,
                9.77459,
                12.55672
            ],
            "rotation": {
                "angle": 22.5,
                "axis": "z",
                "origin": [
                    7.99491,
                    10.57344,
                    12.16012
                ]
            },
            "faces": {
                "north": {
                    "uv": [
                        8.66667,
                        0.66667,
                        9.66667,
                        2
                    ],
                    "rotation": 90,
                    "texture": "#1"
                },
                "east": {
                    "uv": [
                        8.66667,
                        0.66667,
                        9.66667,
                        2
                    ],
                    "rotation": 90,
                    "texture": "#1"
                },
                "south": {
                    "uv": [
                        8.66667,
                        0.66667,
                        9.66667,
                        2
                    ],
                    "rotation": 90,
                    "texture": "#1"
                },
                "west": {
                    "uv": [
                        8.66667,
                        0.66667,
                        9.66667,
                        2
                    ],
                    "rotation": 90,
                    "texture": "#1"
                },
                "up": {
                    "uv": [
                        8.66667,
                        0.66667,
                        9.66667,
                        2
                    ],
                    "rotation": 90,
                    "texture": "#1"
                },
                "down": {
                    "uv": [
                        8.66667,
                        0.66667,
                        9.66667,
                        2
                    ],
                    "rotation": 90,
                    "texture": "#1"
                }
            }
        },
        {
            "from": [
                7.98279,
                10.2591,
                11.96592
            ],
            "to": [
                7.99679,
                10.2731,
                11.96592
            ],
            "rotation": {
                "angle": 0,
                "axis": "y",
                "origin": [
                    7.99491,
                    10.57344,
                    12.16012
                ]
            },
            "faces": {
                "north": {
                    "uv": [
                        5.66667,
                        14.33333,
                        6.66667,
                        15.66667
                    ],
                    "rotation": 90,
                    "texture": "#1"
                },
                "east": {
                    "uv": [
                        5.66667,
                        14.33333,
                        6.66667,
                        15.66667
                    ],
                    "rotation": 90,
                    "texture": "#1"
                },
                "south": {
                    "uv": [
                        5.66667,
                        14.33333,
                        6.66667,
                        15.66667
                    ],
                    "rotation": 90,
                    "texture": "#1"
                },
                "west": {
                    "uv": [
                        5.66667,
                        14.33333,
                        6.66667,
                        15.66667
                    ],
                    "rotation": 90,
                    "texture": "#1"
                },
                "up": {
                    "uv": [
                        5.66667,
                        14.33333,
                        6.66667,
                        15.66667
                    ],
                    "rotation": 90,
                    "texture": "#1"
                },
                "down": {
                    "uv": [
                        5.66667,
                        14.33333,
                        6.66667,
                        15.66667
                    ],
                    "rotation": 90,
                    "texture": "#1"
                }
            }
        },
        {
            "from": [
                7.56279,
                9.52844,
                12.15072
            ],
            "to": [
                8.40279,
                9.64044,
                12.41672
            ],
            "rotation": {
                "angle": 0,
                "axis": "y",
                "origin": [
                    7.99491,
                    10.57344,
                    12.16012
                ]
            },
            "faces": {
                "north": {
                    "uv": [
                        0.66667,
                        0.66667,
                        1.66667,
                        2
                    ],
                    "rotation": 180,
                    "texture": "#1"
                },
                "east": {
                    "uv": [
                        0.66667,
                        0.66667,
                        1.66667,
                        2
                    ],
                    "rotation": 180,
                    "texture": "#1"
                },
                "south": {
                    "uv": [
                        0.66667,
                        0.66667,
                        1.66667,
                        2
                    ],
                    "rotation": 180,
                    "texture": "#1"
                },
                "west": {
                    "uv": [
                        0.66667,
                        0.66667,
                        1.66667,
                        2
                    ],
                    "rotation": 180,
                    "texture": "#1"
                },
                "up": {
                    "uv": [
                        0.66667,
                        0.66667,
                        1.66667,
                        2
                    ],
                    "rotation": 180,
                    "texture": "#1"
                },
                "down": {
                    "uv": [
                        0.66667,
                        0.66667,
                        1.66667,
                        2
                    ],
                    "rotation": 180,
                    "texture": "#1"
                }
            }
        },
        {
            "from": [
                7.56279,
                9.8285,
                12.89084
            ],
            "to": [
                8.40279,
                10.0945,
                13.00284
            ],
            "rotation": {
                "angle": 45,
                "axis": "x",
                "origin": [
                    7.99491,
                    10.57344,
                    12.16012
                ]
            },
            "faces": {
                "north": {
                    "uv": [
                        0.66667,
                        0.66667,
                        1.66667,
                        2
                    ],
                    "rotation": 90,
                    "texture": "#1"
                },
                "east": {
                    "uv": [
                        0.66667,
                        0.66667,
                        1.66667,
                        2
                    ],
                    "rotation": 90,
                    "texture": "#1"
                },
                "south": {
                    "uv": [
                        0.66667,
                        0.66667,
                        1.66667,
                        2
                    ],
                    "rotation": 90,
                    "texture": "#1"
                },
                "west": {
                    "uv": [
                        0.66667,
                        0.66667,
                        1.66667,
                        2
                    ],
                    "rotation": 90,
                    "texture": "#1"
                },
                "up": {
                    "uv": [
                        0.66667,
                        0.66667,
                        1.66667,
                        2
                    ],
                    "rotation": 90,
                    "texture": "#1"
                },
                "down": {
                    "uv": [
                        0.66667,
                        0.66667,
                        1.66667,
                        2
                    ],
                    "rotation": 90,
                    "texture": "#1"
                }
            }
        },
        {
            "from": [
                7.56279,
                9.65371,
                11.49219
            ],
            "to": [
                8.40279,
                9.91971,
                11.60419
            ],
            "rotation": {
                "angle": -45,
                "axis": "x",
                "origin": [
                    7.99491,
                    10.57344,
                    12.16012
                ]
            },
            "faces": {
                "north": {
                    "uv": [
                        0.66667,
                        0.66667,
                        1.66667,
                        2
                    ],
                    "rotation": 90,
                    "texture": "#1"
                },
                "east": {
                    "uv": [
                        0.66667,
                        0.66667,
                        1.66667,
                        2
                    ],
                    "rotation": 90,
                    "texture": "#1"
                },
                "south": {
                    "uv": [
                        0.66667,
                        0.66667,
                        1.66667,
                        2
                    ],
                    "rotation": 90,
                    "texture": "#1"
                },
                "west": {
                    "uv": [
                        0.66667,
                        0.66667,
                        1.66667,
                        2
                    ],
                    "rotation": 90,
                    "texture": "#1"
                },
                "up": {
                    "uv": [
                        0.66667,
                        0.66667,
                        1.66667,
                        2
                    ],
                    "rotation": 90,
                    "texture": "#1"
                },
                "down": {
                    "uv": [
                        0.66667,
                        0.66667,
                        1.66667,
                        2
                    ],
                    "rotation": 90,
                    "texture": "#1"
                }
            }
        },
        {
            "from": [
                7.56279,
                9.45144,
                12.22772
            ],
            "to": [
                8.40279,
                9.71744,
                12.33972
            ],
            "rotation": {
                "angle": 0,
                "axis": "y",
                "origin": [
                    7.99491,
                    10.57344,
                    12.16012
                ]
            },
            "faces": {
                "north": {
                    "uv": [
                        0.66667,
                        0.66667,
                        1.66667,
                        2
                    ],
                    "rotation": 90,
                    "texture": "#1"
                },
                "east": {
                    "uv": [
                        0.66667,
                        0.66667,
                        1.66667,
                        2
                    ],
                    "rotation": 90,
                    "texture": "#1"
                },
                "south": {
                    "uv": [
                        0.66667,
                        0.66667,
                        1.66667,
                        2
                    ],
                    "rotation": 90,
                    "texture": "#1"
                },
                "west": {
                    "uv": [
                        0.66667,
                        0.66667,
                        1.66667,
                        2
                    ],
                    "rotation": 90,
                    "texture": "#1"
                },
                "up": {
                    "uv": [
                        0.66667,
                        0.66667,
                        1.66667,
                        2
                    ],
                    "rotation": 90,
                    "texture": "#1"
                },
                "down": {
                    "uv": [
                        0.66667,
                        0.66667,
                        1.66667,
                        2
                    ],
                    "rotation": 90,
                    "texture": "#1"
                }
            }
        },
        {
            "from": [
                7.56279,
                10.64366,
                10.50224
            ],
            "to": [
                8.40279,
                10.90966,
                10.61424
            ],
            "rotation": {
                "angle": -45,
                "axis": "x",
                "origin": [
                    7.99491,
                    10.57344,
                    12.16012
                ]
            },
            "faces": {
                "north": {
                    "uv": [
                        0.66667,
                        0.66667,
                        1.66667,
                        2
                    ],
                    "rotation": 90,
                    "texture": "#1"
                },
                "east": {
                    "uv": [
                        0.66667,
                        0.66667,
                        1.66667,
                        2
                    ],
                    "rotation": 90,
                    "texture": "#1"
                },
                "south": {
                    "uv": [
                        0.66667,
                        0.66667,
                        1.66667,
                        2
                    ],
                    "rotation": 90,
                    "texture": "#1"
                },
                "west": {
                    "uv": [
                        0.66667,
                        0.66667,
                        1.66667,
                        2
                    ],
                    "rotation": 90,
                    "texture": "#1"
                },
                "up": {
                    "uv": [
                        0.66667,
                        0.66667,
                        1.66667,
                        2
                    ],
                    "rotation": 90,
                    "texture": "#1"
                },
                "down": {
                    "uv": [
                        0.66667,
                        0.66667,
                        1.66667,
                        2
                    ],
                    "rotation": 90,
                    "texture": "#1"
                }
            }
        },
        {
            "from": [
                7.56279,
                9.52844,
                10.75072
            ],
            "to": [
                8.40279,
                9.64044,
                11.01672
            ],
            "rotation": {
                "angle": 0,
                "axis": "y",
                "origin": [
                    7.99491,
                    10.57344,
                    12.16012
                ]
            },
            "faces": {
                "north": {
                    "uv": [
                        0.66667,
                        0.66667,
                        1.66667,
                        2
                    ],
                    "rotation": 180,
                    "texture": "#1"
                },
                "east": {
                    "uv": [
                        0.66667,
                        0.66667,
                        1.66667,
                        2
                    ],
                    "rotation": 180,
                    "texture": "#1"
                },
                "south": {
                    "uv": [
                        0.66667,
                        0.66667,
                        1.66667,
                        2
                    ],
                    "rotation": 180,
                    "texture": "#1"
                },
                "west": {
                    "uv": [
                        0.66667,
                        0.66667,
                        1.66667,
                        2
                    ],
                    "rotation": 180,
                    "texture": "#1"
                },
                "up": {
                    "uv": [
                        0.66667,
                        0.66667,
                        1.66667,
                        2
                    ],
                    "rotation": 180,
                    "texture": "#1"
                },
                "down": {
                    "uv": [
                        0.66667,
                        0.66667,
                        1.66667,
                        2
                    ],
                    "rotation": 180,
                    "texture": "#1"
                }
            }
        },
        {
            "from": [
                7.56279,
                8.83855,
                11.9009
            ],
            "to": [
                8.40279,
                9.10455,
                12.0129
            ],
            "rotation": {
                "angle": 45,
                "axis": "x",
                "origin": [
                    7.99491,
                    10.57344,
                    12.16012
                ]
            },
            "faces": {
                "north": {
                    "uv": [
                        0.66667,
                        0.66667,
                        1.66667,
                        2
                    ],
                    "rotation": 90,
                    "texture": "#1"
                },
                "east": {
                    "uv": [
                        0.66667,
                        0.66667,
                        1.66667,
                        2
                    ],
                    "rotation": 90,
                    "texture": "#1"
                },
                "south": {
                    "uv": [
                        0.66667,
                        0.66667,
                        1.66667,
                        2
                    ],
                    "rotation": 90,
                    "texture": "#1"
                },
                "west": {
                    "uv": [
                        0.66667,
                        0.66667,
                        1.66667,
                        2
                    ],
                    "rotation": 90,
                    "texture": "#1"
                },
                "up": {
                    "uv": [
                        0.66667,
                        0.66667,
                        1.66667,
                        2
                    ],
                    "rotation": 90,
                    "texture": "#1"
                },
                "down": {
                    "uv": [
                        0.66667,
                        0.66667,
                        1.66667,
                        2
                    ],
                    "rotation": 90,
                    "texture": "#1"
                }
            }
        },
        {
            "from": [
                7.56279,
                9.45144,
                10.82772
            ],
            "to": [
                8.40279,
                9.71744,
                10.93972
            ],
            "rotation": {
                "angle": 0,
                "axis": "y",
                "origin": [
                    7.99491,
                    10.57344,
                    12.16012
                ]
            },
            "faces": {
                "north": {
                    "uv": [
                        0.66667,
                        0.66667,
                        1.66667,
                        2
                    ],
                    "rotation": 90,
                    "texture": "#1"
                },
                "east": {
                    "uv": [
                        0.66667,
                        0.66667,
                        1.66667,
                        2
                    ],
                    "rotation": 90,
                    "texture": "#1"
                },
                "south": {
                    "uv": [
                        0.66667,
                        0.66667,
                        1.66667,
                        2
                    ],
                    "rotation": 90,
                    "texture": "#1"
                },
                "west": {
                    "uv": [
                        0.66667,
                        0.66667,
                        1.66667,
                        2
                    ],
                    "rotation": 90,
                    "texture": "#1"
                },
                "up": {
                    "uv": [
                        0.66667,
                        0.66667,
                        1.66667,
                        2
                    ],
                    "rotation": 90,
                    "texture": "#1"
                },
                "down": {
                    "uv": [
                        0.66667,
                        0.66667,
                        1.66667,
                        2
                    ],
                    "rotation": 90,
                    "texture": "#1"
                }
            }
        }
    ],
    "display": {
        "thirdperson_righthand": {
            "translation": [
                -1,
                1.75,
                -4.5
            ],
            "scale": [
                1.2,
                1.2,
                1
            ]
        },
        "thirdperson_lefthand": {
            "translation": [
                -0.25,
                1.75,
                -4.5
            ],
            "scale": [
                1.2,
                1.2,
                1
            ]
        },
        "firstperson_righthand": {
            "rotation": [
                0,
                10,
                0
            ],
            "translation": [
                -3.75,
                4.25,
                -6.25
            ],
            "scale": [
                1.2,
                1.2,
                1.2
            ]
        },
        "firstperson_lefthand": {
            "rotation": [
                0,
                10,
                0
            ],
            "translation": [
                -4.25,
                4.25,
                -6.25
            ],
            "scale": [
                1.2,
                1.2,
                1.2
            ]
        },
        "ground": {
            "rotation": [
                0,
                0,
                -90
            ],
            "translation": [
                0,
                1,
                0
            ]
        },
        "gui": {
            "rotation": [
                -24,
                149.5,
                0
            ],
            "translation": [
                -0.75,
                1.75,
                0
            ]
        },
        "head": {
            "translation": [
                0,
                11.25,
                0
            ]
        },
        "fixed": {
            "rotation": [
                90,
                45,
                -90
            ],
            "translation": [
                0,
                1.75,
                -1.75
            ],
            "scale": [
                1.4,
                1.4,
                1.4
            ]
        }
    }
}