{
	"credit": "Made with Blockbench",
	"texture_size": [48, 48],
	"textures": {
		"0": "gci:items/common/mpz",
		"particle": "gci:items/common/mpz"
	},
	"elements": [
		{
			"from": [5.47346, 4.64047, 6.3],
			"to": [5.62496, 5.36047, 6.6],
			"rotation": {"angle": 0, "axis": "y", "origin": [6.27346, 5.80047, 3.8]},
			"faces": {
				"north": {"uv": [3.66667, 0.66667, 4.733, 2.02833], "rotation": 180, "texture": "#0"},
				"east": {"uv": [3.66667, 0.66667, 4.733, 2.02833], "rotation": 180, "texture": "#0"},
				"south": {"uv": [3.66667, 0.66667, 4.733, 2.02833], "rotation": 180, "texture": "#0"},
				"west": {"uv": [3.66667, 0.66667, 4.733, 2.02833], "rotation": 180, "texture": "#0"},
				"up": {"uv": [3.66667, 0.66667, 4.733, 2.02833], "rotation": 180, "texture": "#0"},
				"down": {"uv": [3.66667, 0.66667, 4.733, 2.02833], "rotation": 180, "texture": "#0"}
			}
		},
		{
			"from": [5.47346, 4.85047, 6.09],
			"to": [5.62496, 5.15047, 6.81],
			"rotation": {"angle": 45, "axis": "x", "origin": [5.54921, 5.00047, 6.45]},
			"faces": {
				"north": {"uv": [3.66667, 0.66667, 4.733, 2.02833], "rotation": 270, "texture": "#0"},
				"east": {"uv": [3.66667, 0.66667, 4.733, 2.02833], "rotation": 270, "texture": "#0"},
				"south": {"uv": [3.66667, 0.66667, 4.733, 2.02833], "rotation": 270, "texture": "#0"},
				"west": {"uv": [3.66667, 0.66667, 4.733, 2.02833], "rotation": 270, "texture": "#0"},
				"up": {"uv": [3.66667, 0.66667, 4.733, 2.02833], "rotation": 270, "texture": "#0"},
				"down": {"uv": [3.66667, 0.66667, 4.733, 2.02833], "rotation": 270, "texture": "#0"}
			}
		},
		{
			"from": [5.47346, 4.85047, 6.09],
			"to": [5.62496, 5.15047, 6.81],
			"rotation": {"angle": 0, "axis": "y", "origin": [5.54921, 5.00047, 6.45]},
			"faces": {
				"north": {"uv": [3.66667, 0.66667, 4.733, 2.02833], "rotation": 270, "texture": "#0"},
				"east": {"uv": [3.66667, 0.66667, 4.733, 2.02833], "rotation": 270, "texture": "#0"},
				"south": {"uv": [3.66667, 0.66667, 4.733, 2.02833], "rotation": 270, "texture": "#0"},
				"west": {"uv": [3.66667, 0.66667, 4.733, 2.02833], "rotation": 270, "texture": "#0"},
				"up": {"uv": [3.66667, 0.66667, 4.733, 2.02833], "rotation": 270, "texture": "#0"},
				"down": {"uv": [3.66667, 0.66667, 4.733, 2.02833], "rotation": 270, "texture": "#0"}
			}
		},
		{
			"from": [5.47346, 3.74047, 6.3],
			"to": [5.72496, 4.56047, 6.6],
			"rotation": {"angle": 0, "axis": "y", "origin": [6.27346, 4.90047, 3.8]},
			"faces": {
				"north": {"uv": [3.66667, 0.66667, 4.733, 2.02833], "rotation": 180, "texture": "#0"},
				"east": {"uv": [3.66667, 0.66667, 4.733, 2.02833], "rotation": 180, "texture": "#0"},
				"south": {"uv": [3.66667, 0.66667, 4.733, 2.02833], "rotation": 180, "texture": "#0"},
				"west": {"uv": [3.66667, 0.66667, 4.733, 2.02833], "rotation": 180, "texture": "#0"},
				"up": {"uv": [3.66667, 0.66667, 4.733, 2.02833], "rotation": 180, "texture": "#0"},
				"down": {"uv": [3.66667, 0.66667, 4.733, 2.02833], "rotation": 180, "texture": "#0"}
			}
		},
		{
			"from": [5.47346, 4.64047, 6.3],
			"to": [5.62496, 5.36047, 6.6],
			"rotation": {"angle": 45, "axis": "x", "origin": [5.54921, 5.00047, 6.45]},
			"faces": {
				"north": {"uv": [3.66667, 0.66667, 4.733, 2.02833], "rotation": 180, "texture": "#0"},
				"east": {"uv": [3.66667, 0.66667, 4.733, 2.02833], "rotation": 180, "texture": "#0"},
				"south": {"uv": [3.66667, 0.66667, 4.733, 2.02833], "rotation": 180, "texture": "#0"},
				"west": {"uv": [3.66667, 0.66667, 4.733, 2.02833], "rotation": 180, "texture": "#0"},
				"up": {"uv": [3.66667, 0.66667, 4.733, 2.02833], "rotation": 180, "texture": "#0"},
				"down": {"uv": [3.66667, 0.66667, 4.733, 2.02833], "rotation": 180, "texture": "#0"}
			}
		},
		{
			"from": [5.21897, 3.69657, 6.3],
			"to": [5.63897, 3.94807, 6.6],
			"rotation": {"angle": 45, "axis": "z", "origin": [5.62897, 3.82232, 6.45]},
			"faces": {
				"north": {"uv": [3.66667, 0.66667, 4.733, 2.02833], "rotation": 90, "texture": "#0"},
				"east": {"uv": [3.66667, 0.66667, 4.733, 2.02833], "rotation": 90, "texture": "#0"},
				"south": {"uv": [3.66667, 0.66667, 4.733, 2.02833], "rotation": 90, "texture": "#0"},
				"west": {"uv": [3.66667, 0.66667, 4.733, 2.02833], "rotation": 90, "texture": "#0"},
				"up": {"uv": [3.66667, 0.66667, 4.733, 2.02833], "rotation": 90, "texture": "#0"},
				"down": {"uv": [3.66667, 0.66667, 4.733, 2.02833], "rotation": 90, "texture": "#0"}
			}
		},
		{
			"from": [3.87346, 3.74047, 6.3],
			"to": [4.12496, 4.56047, 6.6],
			"rotation": {"angle": 0, "axis": "y", "origin": [4.67346, 4.90047, 3.8]},
			"faces": {
				"north": {"uv": [3.66667, 0.66667, 4.733, 2.02833], "rotation": 180, "texture": "#0"},
				"east": {"uv": [3.66667, 0.66667, 4.733, 2.02833], "rotation": 180, "texture": "#0"},
				"south": {"uv": [3.66667, 0.66667, 4.733, 2.02833], "rotation": 180, "texture": "#0"},
				"west": {"uv": [3.66667, 0.66667, 4.733, 2.02833], "rotation": 180, "texture": "#0"},
				"up": {"uv": [3.66667, 0.66667, 4.733, 2.02833], "rotation": 180, "texture": "#0"},
				"down": {"uv": [3.66667, 0.66667, 4.733, 2.02833], "rotation": 180, "texture": "#0"}
			}
		},
		{
			"from": [4.12655, 3.52948, 6.3],
			"to": [4.37805, 3.94948, 6.6],
			"rotation": {"angle": 45, "axis": "z", "origin": [4.2523, 3.53948, 6.45]},
			"faces": {
				"north": {"uv": [3.66667, 0.66667, 4.733, 2.02833], "rotation": 180, "texture": "#0"},
				"east": {"uv": [3.66667, 0.66667, 4.733, 2.02833], "rotation": 180, "texture": "#0"},
				"south": {"uv": [3.66667, 0.66667, 4.733, 2.02833], "rotation": 180, "texture": "#0"},
				"west": {"uv": [3.66667, 0.66667, 4.733, 2.02833], "rotation": 180, "texture": "#0"},
				"up": {"uv": [3.66667, 0.66667, 4.733, 2.02833], "rotation": 180, "texture": "#0"},
				"down": {"uv": [3.66667, 0.66667, 4.733, 2.02833], "rotation": 180, "texture": "#0"}
			}
		},
		{
			"from": [4.6, 4.92525, 6.3],
			"to": [5, 5.04525, 6.6],
			"rotation": {"angle": 0, "axis": "y", "origin": [4.8, 4.98525, 10.5]},
			"faces": {
				"north": {"uv": [3.66667, 0.66667, 4.733, 2.02833], "rotation": 180, "texture": "#0"},
				"east": {"uv": [3.66667, 0.66667, 4.733, 2.02833], "rotation": 180, "texture": "#0"},
				"south": {"uv": [3.66667, 0.66667, 4.733, 2.02833], "rotation": 180, "texture": "#0"},
				"west": {"uv": [3.66667, 0.66667, 4.733, 2.02833], "rotation": 180, "texture": "#0"},
				"up": {"uv": [3.66667, 0.66667, 4.733, 2.02833], "rotation": 180, "texture": "#0"},
				"down": {"uv": [3.66667, 0.66667, 4.733, 2.02833], "rotation": 180, "texture": "#0"}
			}
		},
		{
			"from": [4.23819, 4.85328, 6.3],
			"to": [4.63819, 4.97328, 6.6],
			"rotation": {"angle": 22.5, "axis": "z", "origin": [4.43819, 4.91328, 10.5]},
			"faces": {
				"north": {"uv": [3.66667, 0.66667, 4.733, 2.02833], "rotation": 180, "texture": "#0"},
				"east": {"uv": [3.66667, 0.66667, 4.733, 2.02833], "rotation": 180, "texture": "#0"},
				"south": {"uv": [3.66667, 0.66667, 4.733, 2.02833], "rotation": 180, "texture": "#0"},
				"west": {"uv": [3.66667, 0.66667, 4.733, 2.02833], "rotation": 180, "texture": "#0"},
				"up": {"uv": [3.66667, 0.66667, 4.733, 2.02833], "rotation": 180, "texture": "#0"},
				"down": {"uv": [3.66667, 0.66667, 4.733, 2.02833], "rotation": 180, "texture": "#0"}
			}
		},
		{
			"from": [4.14934, 4.48444, 6.3],
			"to": [4.26934, 4.88444, 6.6],
			"rotation": {"angle": -22.5, "axis": "z", "origin": [4.20934, 4.68444, 10.5]},
			"faces": {
				"north": {"uv": [3.66667, 0.66667, 4.733, 2.02833], "rotation": 90, "texture": "#0"},
				"east": {"uv": [3.66667, 0.66667, 4.733, 2.02833], "rotation": 90, "texture": "#0"},
				"south": {"uv": [3.66667, 0.66667, 4.733, 2.02833], "rotation": 90, "texture": "#0"},
				"west": {"uv": [3.66667, 0.66667, 4.733, 2.02833], "rotation": 90, "texture": "#0"},
				"up": {"uv": [3.66667, 0.66667, 4.733, 2.02833], "rotation": 90, "texture": "#0"},
				"down": {"uv": [3.66667, 0.66667, 4.733, 2.02833], "rotation": 90, "texture": "#0"}
			}
		},
		{
			"from": [4.96181, 4.85328, 6.3],
			"to": [5.36181, 4.97328, 6.6],
			"rotation": {"angle": -22.5, "axis": "z", "origin": [5.16181, 4.91328, 10.5]},
			"faces": {
				"north": {"uv": [3.66667, 0.66667, 4.733, 2.02833], "rotation": 180, "texture": "#0"},
				"east": {"uv": [3.66667, 0.66667, 4.733, 2.02833], "rotation": 180, "texture": "#0"},
				"south": {"uv": [3.66667, 0.66667, 4.733, 2.02833], "rotation": 180, "texture": "#0"},
				"west": {"uv": [3.66667, 0.66667, 4.733, 2.02833], "rotation": 180, "texture": "#0"},
				"up": {"uv": [3.66667, 0.66667, 4.733, 2.02833], "rotation": 180, "texture": "#0"},
				"down": {"uv": [3.66667, 0.66667, 4.733, 2.02833], "rotation": 180, "texture": "#0"}
			}
		},
		{
			"from": [5.33066, 4.48444, 6.3],
			"to": [5.45066, 4.88444, 6.6],
			"rotation": {"angle": 22.5, "axis": "z", "origin": [5.39066, 4.68444, 10.5]},
			"faces": {
				"north": {"uv": [3.66667, 0.66667, 4.733, 2.02833], "rotation": 270, "texture": "#0"},
				"east": {"uv": [3.66667, 0.66667, 4.733, 2.02833], "rotation": 270, "texture": "#0"},
				"south": {"uv": [3.66667, 0.66667, 4.733, 2.02833], "rotation": 270, "texture": "#0"},
				"west": {"uv": [3.66667, 0.66667, 4.733, 2.02833], "rotation": 270, "texture": "#0"},
				"up": {"uv": [3.66667, 0.66667, 4.733, 2.02833], "rotation": 270, "texture": "#0"},
				"down": {"uv": [3.66667, 0.66667, 4.733, 2.02833], "rotation": 270, "texture": "#0"}
			}
		},
		{
			"from": [5.37346, 4.64047, 6.4],
			"to": [5.52496, 9.06047, 6.5],
			"rotation": {"angle": 0, "axis": "y", "origin": [6.17346, 5.80047, 3.8]},
			"faces": {
				"north": {"uv": [3.66667, 0.66667, 4.733, 2.02833], "rotation": 180, "texture": "#0"},
				"east": {"uv": [3.66667, 0.66667, 4.733, 2.02833], "rotation": 180, "texture": "#0"},
				"south": {"uv": [3.66667, 0.66667, 4.733, 2.02833], "rotation": 180, "texture": "#0"},
				"west": {"uv": [3.66667, 0.66667, 4.733, 2.02833], "rotation": 180, "texture": "#0"},
				"up": {"uv": [3.66667, 0.66667, 4.733, 2.02833], "rotation": 180, "texture": "#0"},
				"down": {"uv": [3.66667, 0.66667, 4.733, 2.02833], "rotation": 180, "texture": "#0"}
			}
		},
		{
			"from": [4.07346, 4.34047, 6.4],
			"to": [4.22496, 9.06047, 6.5],
			"rotation": {"angle": 0, "axis": "y", "origin": [4.77346, 5.80047, 3.8]},
			"faces": {
				"north": {"uv": [3.66667, 0.66667, 4.733, 2.02833], "rotation": 180, "texture": "#0"},
				"east": {"uv": [3.66667, 0.66667, 4.733, 2.02833], "rotation": 180, "texture": "#0"},
				"south": {"uv": [3.66667, 0.66667, 4.733, 2.02833], "rotation": 180, "texture": "#0"},
				"west": {"uv": [3.66667, 0.66667, 4.733, 2.02833], "rotation": 180, "texture": "#0"},
				"up": {"uv": [3.66667, 0.66667, 4.733, 2.02833], "rotation": 180, "texture": "#0"},
				"down": {"uv": [3.66667, 0.66667, 4.733, 2.02833], "rotation": 180, "texture": "#0"}
			}
		},
		{
			"from": [3.97346, 4.64047, 6.3],
			"to": [4.12496, 5.36047, 6.6],
			"rotation": {"angle": 0, "axis": "y", "origin": [4.67346, 5.80047, 3.8]},
			"faces": {
				"north": {"uv": [3.66667, 0.66667, 4.733, 2.02833], "rotation": 180, "texture": "#0"},
				"east": {"uv": [3.66667, 0.66667, 4.733, 2.02833], "rotation": 180, "texture": "#0"},
				"south": {"uv": [3.66667, 0.66667, 4.733, 2.02833], "rotation": 180, "texture": "#0"},
				"west": {"uv": [3.66667, 0.66667, 4.733, 2.02833], "rotation": 180, "texture": "#0"},
				"up": {"uv": [3.66667, 0.66667, 4.733, 2.02833], "rotation": 180, "texture": "#0"},
				"down": {"uv": [3.66667, 0.66667, 4.733, 2.02833], "rotation": 180, "texture": "#0"}
			}
		},
		{
			"from": [3.97346, 4.64047, 6.3],
			"to": [4.12496, 5.36047, 6.6],
			"rotation": {"angle": 45, "axis": "x", "origin": [4.04921, 5.00047, 6.45]},
			"faces": {
				"north": {"uv": [3.66667, 0.66667, 4.733, 2.02833], "rotation": 180, "texture": "#0"},
				"east": {"uv": [3.66667, 0.66667, 4.733, 2.02833], "rotation": 180, "texture": "#0"},
				"south": {"uv": [3.66667, 0.66667, 4.733, 2.02833], "rotation": 180, "texture": "#0"},
				"west": {"uv": [3.66667, 0.66667, 4.733, 2.02833], "rotation": 180, "texture": "#0"},
				"up": {"uv": [3.66667, 0.66667, 4.733, 2.02833], "rotation": 180, "texture": "#0"},
				"down": {"uv": [3.66667, 0.66667, 4.733, 2.02833], "rotation": 180, "texture": "#0"}
			}
		},
		{
			"from": [3.97346, 4.85047, 6.09],
			"to": [4.12496, 5.15047, 6.81],
			"rotation": {"angle": 0, "axis": "y", "origin": [4.04921, 5.00047, 6.45]},
			"faces": {
				"north": {"uv": [3.66667, 0.66667, 4.733, 2.02833], "rotation": 270, "texture": "#0"},
				"east": {"uv": [3.66667, 0.66667, 4.733, 2.02833], "rotation": 270, "texture": "#0"},
				"south": {"uv": [3.66667, 0.66667, 4.733, 2.02833], "rotation": 270, "texture": "#0"},
				"west": {"uv": [3.66667, 0.66667, 4.733, 2.02833], "rotation": 270, "texture": "#0"},
				"up": {"uv": [3.66667, 0.66667, 4.733, 2.02833], "rotation": 270, "texture": "#0"},
				"down": {"uv": [3.66667, 0.66667, 4.733, 2.02833], "rotation": 270, "texture": "#0"}
			}
		},
		{
			"from": [3.97346, 4.85047, 6.09],
			"to": [4.12496, 5.15047, 6.81],
			"rotation": {"angle": 45, "axis": "x", "origin": [4.04921, 5.00047, 6.45]},
			"faces": {
				"north": {"uv": [3.66667, 0.66667, 4.733, 2.02833], "rotation": 270, "texture": "#0"},
				"east": {"uv": [3.66667, 0.66667, 4.733, 2.02833], "rotation": 270, "texture": "#0"},
				"south": {"uv": [3.66667, 0.66667, 4.733, 2.02833], "rotation": 270, "texture": "#0"},
				"west": {"uv": [3.66667, 0.66667, 4.733, 2.02833], "rotation": 270, "texture": "#0"},
				"up": {"uv": [3.66667, 0.66667, 4.733, 2.02833], "rotation": 270, "texture": "#0"},
				"down": {"uv": [3.66667, 0.66667, 4.733, 2.02833], "rotation": 270, "texture": "#0"}
			}
		},
		{
			"from": [3.8235, 7.105, 6.27],
			"to": [3.8735, 7.255, 6.63],
			"rotation": {"angle": 0, "axis": "y", "origin": [3.82346, 7.18, 6.45]},
			"faces": {
				"north": {"uv": [3.66667, 0.66667, 4.733, 2.02833], "rotation": 270, "texture": "#0"},
				"east": {"uv": [3.66667, 0.66667, 4.733, 2.02833], "rotation": 270, "texture": "#0"},
				"south": {"uv": [3.66667, 0.66667, 4.733, 2.02833], "rotation": 270, "texture": "#0"},
				"west": {"uv": [3.66667, 0.66667, 4.733, 2.02833], "rotation": 270, "texture": "#0"},
				"up": {"uv": [3.66667, 0.66667, 4.733, 2.02833], "rotation": 270, "texture": "#0"},
				"down": {"uv": [3.66667, 0.66667, 4.733, 2.02833], "rotation": 270, "texture": "#0"}
			}
		},
		{
			"from": [3.8235, 7, 6.375],
			"to": [3.8735, 7.36, 6.525],
			"rotation": {"angle": 0, "axis": "y", "origin": [4.47346, 8.20047, 3.9]},
			"faces": {
				"north": {"uv": [3.66667, 0.66667, 4.733, 2.02833], "rotation": 180, "texture": "#0"},
				"east": {"uv": [3.66667, 0.66667, 4.733, 2.02833], "rotation": 180, "texture": "#0"},
				"south": {"uv": [3.66667, 0.66667, 4.733, 2.02833], "rotation": 180, "texture": "#0"},
				"west": {"uv": [3.66667, 0.66667, 4.733, 2.02833], "rotation": 180, "texture": "#0"},
				"up": {"uv": [3.66667, 0.66667, 4.733, 2.02833], "rotation": 180, "texture": "#0"},
				"down": {"uv": [3.66667, 0.66667, 4.733, 2.02833], "rotation": 180, "texture": "#0"}
			}
		},
		{
			"from": [3.8235, 7, 6.375],
			"to": [3.8735, 7.36, 6.525],
			"rotation": {"angle": 45, "axis": "x", "origin": [3.82346, 7.18, 6.45]},
			"faces": {
				"north": {"uv": [3.66667, 0.66667, 4.733, 2.02833], "rotation": 180, "texture": "#0"},
				"east": {"uv": [3.66667, 0.66667, 4.733, 2.02833], "rotation": 180, "texture": "#0"},
				"south": {"uv": [3.66667, 0.66667, 4.733, 2.02833], "rotation": 180, "texture": "#0"},
				"west": {"uv": [3.66667, 0.66667, 4.733, 2.02833], "rotation": 180, "texture": "#0"},
				"up": {"uv": [3.66667, 0.66667, 4.733, 2.02833], "rotation": 180, "texture": "#0"},
				"down": {"uv": [3.66667, 0.66667, 4.733, 2.02833], "rotation": 180, "texture": "#0"}
			}
		},
		{
			"from": [3.8235, 7.105, 6.27],
			"to": [3.8735, 7.255, 6.63],
			"rotation": {"angle": 45, "axis": "x", "origin": [3.82346, 7.18, 6.45]},
			"faces": {
				"north": {"uv": [3.66667, 0.66667, 4.733, 2.02833], "rotation": 270, "texture": "#0"},
				"east": {"uv": [3.66667, 0.66667, 4.733, 2.02833], "rotation": 270, "texture": "#0"},
				"south": {"uv": [3.66667, 0.66667, 4.733, 2.02833], "rotation": 270, "texture": "#0"},
				"west": {"uv": [3.66667, 0.66667, 4.733, 2.02833], "rotation": 270, "texture": "#0"},
				"up": {"uv": [3.66667, 0.66667, 4.733, 2.02833], "rotation": 270, "texture": "#0"},
				"down": {"uv": [3.66667, 0.66667, 4.733, 2.02833], "rotation": 270, "texture": "#0"}
			}
		},
		{
			"from": [3.87346, 7.16, 6.42],
			"to": [5.72346, 7.21, 6.47],
			"rotation": {"angle": 0, "axis": "y", "origin": [6.43346, 7.18472, 6.45]},
			"faces": {
				"north": {"uv": [3.66667, 0.66667, 4.733, 2.02833], "rotation": 90, "texture": "#0"},
				"east": {"uv": [3.66667, 0.66667, 4.733, 2.02833], "rotation": 90, "texture": "#0"},
				"south": {"uv": [3.66667, 0.66667, 4.733, 2.02833], "rotation": 90, "texture": "#0"},
				"west": {"uv": [3.66667, 0.66667, 4.733, 2.02833], "rotation": 90, "texture": "#0"},
				"up": {"uv": [3.66667, 0.66667, 4.733, 2.02833], "rotation": 90, "texture": "#0"},
				"down": {"uv": [3.66667, 0.66667, 4.733, 2.02833], "rotation": 90, "texture": "#0"}
			}
		},
		{
			"from": [3.97346, 7.10897, 6.35],
			"to": [5.62346, 7.26047, 6.55],
			"rotation": {"angle": 0, "axis": "y", "origin": [6.43346, 7.18472, 6.45]},
			"faces": {
				"north": {"uv": [3.66667, 0.66667, 4.733, 2.02833], "rotation": 90, "texture": "#0"},
				"east": {"uv": [3.66667, 0.66667, 4.733, 2.02833], "rotation": 90, "texture": "#0"},
				"south": {"uv": [3.66667, 0.66667, 4.733, 2.02833], "rotation": 90, "texture": "#0"},
				"west": {"uv": [3.66667, 0.66667, 4.733, 2.02833], "rotation": 90, "texture": "#0"},
				"up": {"uv": [3.66667, 0.66667, 4.733, 2.02833], "rotation": 90, "texture": "#0"},
				"down": {"uv": [3.66667, 0.66667, 4.733, 2.02833], "rotation": 90, "texture": "#0"}
			}
		},
		{
			"from": [5.7235, 7, 6.375],
			"to": [5.7735, 7.36, 6.525],
			"rotation": {"angle": 0, "axis": "y", "origin": [6.37346, 8.20047, 3.9]},
			"faces": {
				"north": {"uv": [3.66667, 0.66667, 4.733, 2.02833], "rotation": 180, "texture": "#0"},
				"east": {"uv": [3.66667, 0.66667, 4.733, 2.02833], "rotation": 180, "texture": "#0"},
				"south": {"uv": [3.66667, 0.66667, 4.733, 2.02833], "rotation": 180, "texture": "#0"},
				"west": {"uv": [3.66667, 0.66667, 4.733, 2.02833], "rotation": 180, "texture": "#0"},
				"up": {"uv": [3.66667, 0.66667, 4.733, 2.02833], "rotation": 180, "texture": "#0"},
				"down": {"uv": [3.66667, 0.66667, 4.733, 2.02833], "rotation": 180, "texture": "#0"}
			}
		},
		{
			"from": [5.7235, 7, 6.375],
			"to": [5.7735, 7.36, 6.525],
			"rotation": {"angle": 45, "axis": "x", "origin": [5.72346, 7.18, 6.45]},
			"faces": {
				"north": {"uv": [3.66667, 0.66667, 4.733, 2.02833], "rotation": 180, "texture": "#0"},
				"east": {"uv": [3.66667, 0.66667, 4.733, 2.02833], "rotation": 180, "texture": "#0"},
				"south": {"uv": [3.66667, 0.66667, 4.733, 2.02833], "rotation": 180, "texture": "#0"},
				"west": {"uv": [3.66667, 0.66667, 4.733, 2.02833], "rotation": 180, "texture": "#0"},
				"up": {"uv": [3.66667, 0.66667, 4.733, 2.02833], "rotation": 180, "texture": "#0"},
				"down": {"uv": [3.66667, 0.66667, 4.733, 2.02833], "rotation": 180, "texture": "#0"}
			}
		},
		{
			"from": [5.7235, 7.105, 6.27],
			"to": [5.7735, 7.255, 6.63],
			"rotation": {"angle": 0, "axis": "y", "origin": [5.72346, 7.18, 6.45]},
			"faces": {
				"north": {"uv": [3.66667, 0.66667, 4.733, 2.02833], "rotation": 270, "texture": "#0"},
				"east": {"uv": [3.66667, 0.66667, 4.733, 2.02833], "rotation": 270, "texture": "#0"},
				"south": {"uv": [3.66667, 0.66667, 4.733, 2.02833], "rotation": 270, "texture": "#0"},
				"west": {"uv": [3.66667, 0.66667, 4.733, 2.02833], "rotation": 270, "texture": "#0"},
				"up": {"uv": [3.66667, 0.66667, 4.733, 2.02833], "rotation": 270, "texture": "#0"},
				"down": {"uv": [3.66667, 0.66667, 4.733, 2.02833], "rotation": 270, "texture": "#0"}
			}
		},
		{
			"from": [5.7235, 7.105, 6.27],
			"to": [5.7735, 7.255, 6.63],
			"rotation": {"angle": 45, "axis": "x", "origin": [5.72346, 7.18, 6.45]},
			"faces": {
				"north": {"uv": [3.66667, 0.66667, 4.733, 2.02833], "rotation": 270, "texture": "#0"},
				"east": {"uv": [3.66667, 0.66667, 4.733, 2.02833], "rotation": 270, "texture": "#0"},
				"south": {"uv": [3.66667, 0.66667, 4.733, 2.02833], "rotation": 270, "texture": "#0"},
				"west": {"uv": [3.66667, 0.66667, 4.733, 2.02833], "rotation": 270, "texture": "#0"},
				"up": {"uv": [3.66667, 0.66667, 4.733, 2.02833], "rotation": 270, "texture": "#0"},
				"down": {"uv": [3.66667, 0.66667, 4.733, 2.02833], "rotation": 270, "texture": "#0"}
			}
		},
		{
			"from": [4.07346, 8.90897, 6.4],
			"to": [5.52346, 9.06047, 6.5],
			"rotation": {"angle": 0, "axis": "y", "origin": [6.43346, 8.98472, 6.45]},
			"faces": {
				"north": {"uv": [3.66667, 0.66667, 4.733, 2.02833], "rotation": 90, "texture": "#0"},
				"east": {"uv": [3.66667, 0.66667, 4.733, 2.02833], "rotation": 90, "texture": "#0"},
				"south": {"uv": [3.66667, 0.66667, 4.733, 2.02833], "rotation": 90, "texture": "#0"},
				"west": {"uv": [3.66667, 0.66667, 4.733, 2.02833], "rotation": 90, "texture": "#0"},
				"up": {"uv": [3.66667, 0.66667, 4.733, 2.02833], "rotation": 90, "texture": "#0"},
				"down": {"uv": [3.66667, 0.66667, 4.733, 2.02833], "rotation": 90, "texture": "#0"}
			}
		}
	],
	"display": {
		"thirdperson_righthand": {
			"translation": [3, 4.75, -3.75]
		},
		"thirdperson_lefthand": {
			"translation": [-3.5, 4.75, -3.75]
		},
		"firstperson_righthand": {
			"translation": [0, 7.75, 0]
		},
		"firstperson_lefthand": {
			"translation": [-7.75, 8, 0]
		},
		"ground": {
			"translation": [3, 6.5, 0]
		},
		"gui": {
			"rotation": [30, 36, -36],
			"translation": [3, 4, 0],
			"scale": [1.2, 1.2, 1.2]
		},
		"head": {
			"rotation": [90, 136, -90],
			"translation": [-3.75, -13, 1]
		},
		"fixed": {
			"rotation": [90, 45, -90],
			"translation": [1, 4, -4.5]
		}
	},
	"groups": [
		{
			"name": "Sight_up",
			"origin": [4.975, 5.47288, 2.07951],
			"children": [0, 1, 2, 3, 4, 5, 6, 7, 8, 9, 10, 11, 12, 13, 14, 15, 16, 17, 18, 19, 20, 21, 22, 23, 24, 25, 26, 27, 28, 29]
		}
	]
}
