{
    "textures": {
        "0": "gci:items/common/mpz",
        "particle": "gci:items/common/mpz"
    },
    "elements": [
        {
            "from": [
                7.05627,
                6.63615,
                22.95693
            ],
            "to": [
                8.94827,
                8.70015,
                24.66493
            ],
            "rotation": {
                "angle": -22.5,
                "axis": "x",
                "origin": [
                    8.00227,
                    7.66815,
                    24.06093
                ]
            },
            "faces": {
                "north": {
                    "uv": [
                        3,
                        5.66667,
                        4.66667,
                        7.33333
                    ],
                    "rotation": 180,
                    "texture": "#0"
                },
                "east": {
                    "uv": [
                        3,
                        5.66667,
                        4.66667,
                        7.33333
                    ],
                    "rotation": 270,
                    "texture": "#0"
                },
                "south": {
                    "uv": [
                        3,
                        5.66667,
                        4.66667,
                        7.33333
                    ],
                    "texture": "#0"
                },
                "west": {
                    "uv": [
                        3,
                        5.66667,
                        4.66667,
                        7.33333
                    ],
                    "rotation": 90,
                    "texture": "#0"
                },
                "up": {
                    "uv": [
                        3,
                        5.66667,
                        4.66667,
                        7.33333
                    ],
                    "rotation": 180,
                    "texture": "#0"
                },
                "down": {
                    "uv": [
                        3,
                        5.66667,
                        4.66667,
                        7.33333
                    ],
                    "texture": "#0"
                }
            }
        },
        {
            "from": [
                7.05627,
                5.58873,
                24.22402
            ],
            "to": [
                8.94827,
                8.85273,
                31.1
            ],
            "rotation": {
                "angle": 0,
                "axis": "y",
                "origin": [
                    8.00227,
                    7.82073,
                    25.07802
                ]
            },
            "faces": {
                "north": {
                    "uv": [
                        3,
                        5.66667,
                        4.66667,
                        7.33333
                    ],
                    "rotation": 180,
                    "texture": "#0"
                },
                "east": {
                    "uv": [
                        3,
                        5.66667,
                        4.66667,
                        7.33333
                    ],
                    "rotation": 270,
                    "texture": "#0"
                },
                "south": {
                    "uv": [
                        3,
                        5.66667,
                        4.66667,
                        7.33333
                    ],
                    "texture": "#0"
                },
                "west": {
                    "uv": [
                        3,
                        5.66667,
                        4.66667,
                        7.33333
                    ],
                    "rotation": 90,
                    "texture": "#0"
                },
                "up": {
                    "uv": [
                        3,
                        5.66667,
                        4.66667,
                        7.33333
                    ],
                    "rotation": 180,
                    "texture": "#0"
                },
                "down": {
                    "uv": [
                        3,
                        5.66667,
                        4.66667,
                        7.33333
                    ],
                    "texture": "#0"
                }
            }
        },
        {
            "from": [
                7.05627,
                4.08873,
                28.72402
            ],
            "to": [
                8.94827,
                8.85273,
                31.1
            ],
            "rotation": {
                "angle": 0,
                "axis": "y",
                "origin": [
                    8.00227,
                    7.82073,
                    25.07802
                ]
            },
            "faces": {
                "north": {
                    "uv": [
                        3,
                        5.66667,
                        4.66667,
                        7.33333
                    ],
                    "rotation": 180,
                    "texture": "#0"
                },
                "east": {
                    "uv": [
                        3,
                        5.66667,
                        4.66667,
                        7.33333
                    ],
                    "rotation": 270,
                    "texture": "#0"
                },
                "south": {
                    "uv": [
                        3,
                        5.66667,
                        4.66667,
                        7.33333
                    ],
                    "texture": "#0"
                },
                "west": {
                    "uv": [
                        3,
                        5.66667,
                        4.66667,
                        7.33333
                    ],
                    "rotation": 90,
                    "texture": "#0"
                },
                "up": {
                    "uv": [
                        3,
                        5.66667,
                        4.66667,
                        7.33333
                    ],
                    "rotation": 180,
                    "texture": "#0"
                },
                "down": {
                    "uv": [
                        3,
                        5.66667,
                        4.66667,
                        7.33333
                    ],
                    "texture": "#0"
                }
            }
        },
        {
            "from": [
                7.05627,
                2.91373,
                30.04902
            ],
            "to": [
                8.94827,
                8.85273,
                31.1
            ],
            "rotation": {
                "angle": 0,
                "axis": "y",
                "origin": [
                    8.00227,
                    7.82073,
                    25.07802
                ]
            },
            "faces": {
                "north": {
                    "uv": [
                        3,
                        5.66667,
                        4.66667,
                        7.33333
                    ],
                    "rotation": 180,
                    "texture": "#0"
                },
                "east": {
                    "uv": [
                        3,
                        5.66667,
                        4.66667,
                        7.33333
                    ],
                    "rotation": 270,
                    "texture": "#0"
                },
                "south": {
                    "uv": [
                        3,
                        5.66667,
                        4.66667,
                        7.33333
                    ],
                    "texture": "#0"
                },
                "west": {
                    "uv": [
                        3,
                        5.66667,
                        4.66667,
                        7.33333
                    ],
                    "rotation": 90,
                    "texture": "#0"
                },
                "up": {
                    "uv": [
                        3,
                        5.66667,
                        4.66667,
                        7.33333
                    ],
                    "rotation": 180,
                    "texture": "#0"
                },
                "down": {
                    "uv": [
                        3,
                        5.66667,
                        4.66667,
                        7.33333
                    ],
                    "texture": "#0"
                }
            }
        },
        {
            "from": [
                6.98059,
                2.67617,
                30.91498
            ],
            "to": [
                9.02395,
                9.09029,
                31.83404
            ],
            "rotation": {
                "angle": 0,
                "axis": "y",
                "origin": [
                    8.00227,
                    7.97573,
                    24.5743
                ]
            },
            "faces": {
                "north": {
                    "uv": [
                        3,
                        11,
                        4.66667,
                        12.66667
                    ],
                    "rotation": 180,
                    "texture": "#0"
                },
                "east": {
                    "uv": [
                        3,
                        11,
                        4.66667,
                        12.66667
                    ],
                    "rotation": 270,
                    "texture": "#0"
                },
                "south": {
                    "uv": [
                        3,
                        11,
                        4.66667,
                        12.66667
                    ],
                    "texture": "#0"
                },
                "west": {
                    "uv": [
                        3,
                        11,
                        4.66667,
                        12.66667
                    ],
                    "rotation": 90,
                    "texture": "#0"
                },
                "up": {
                    "uv": [
                        3,
                        11,
                        4.66667,
                        12.66667
                    ],
                    "rotation": 180,
                    "texture": "#0"
                },
                "down": {
                    "uv": [
                        3,
                        11,
                        4.66667,
                        12.66667
                    ],
                    "texture": "#0"
                }
            }
        },
        {
            "from": [
                7.05627,
                3.98873,
                22.62402
            ],
            "to": [
                8.94827,
                6.05273,
                30.7
            ],
            "rotation": {
                "angle": 22.5,
                "axis": "x",
                "origin": [
                    8.00227,
                    5.02073,
                    27.66201
                ]
            },
            "faces": {
                "north": {
                    "uv": [
                        3,
                        5.66667,
                        4.66667,
                        7.33333
                    ],
                    "rotation": 180,
                    "texture": "#0"
                },
                "east": {
                    "uv": [
                        3,
                        5.66667,
                        4.66667,
                        7.33333
                    ],
                    "rotation": 270,
                    "texture": "#0"
                },
                "south": {
                    "uv": [
                        3,
                        5.66667,
                        4.66667,
                        7.33333
                    ],
                    "texture": "#0"
                },
                "west": {
                    "uv": [
                        3,
                        5.66667,
                        4.66667,
                        7.33333
                    ],
                    "rotation": 90,
                    "texture": "#0"
                },
                "up": {
                    "uv": [
                        3,
                        5.66667,
                        4.66667,
                        7.33333
                    ],
                    "rotation": 180,
                    "texture": "#0"
                },
                "down": {
                    "uv": [
                        3,
                        5.66667,
                        4.66667,
                        7.33333
                    ],
                    "texture": "#0"
                }
            }
        },
        {
            "from": [
                7.05627,
                7.01435,
                21.54463
            ],
            "to": [
                8.94827,
                8.57835,
                23.75263
            ],
            "rotation": {
                "angle": 0,
                "axis": "y",
                "origin": [
                    8.00227,
                    9.14635,
                    23.44863
                ]
            },
            "faces": {
                "north": {
                    "uv": [
                        3,
                        5.66667,
                        4.66667,
                        7.33333
                    ],
                    "rotation": 180,
                    "texture": "#0"
                },
                "east": {
                    "uv": [
                        3,
                        5.66667,
                        4.66667,
                        7.33333
                    ],
                    "rotation": 270,
                    "texture": "#0"
                },
                "south": {
                    "uv": [
                        3,
                        5.66667,
                        4.66667,
                        7.33333
                    ],
                    "texture": "#0"
                },
                "west": {
                    "uv": [
                        3,
                        5.66667,
                        4.66667,
                        7.33333
                    ],
                    "rotation": 90,
                    "texture": "#0"
                },
                "up": {
                    "uv": [
                        3,
                        5.66667,
                        4.66667,
                        7.33333
                    ],
                    "rotation": 180,
                    "texture": "#0"
                },
                "down": {
                    "uv": [
                        3,
                        5.66667,
                        4.66667,
                        7.33333
                    ],
                    "texture": "#0"
                }
            }
        }
    ],
    "display": {
        "thirdperson_righthand": {
            "rotation": [
                2,
                0,
                0
            ],
            "translation": [
                0,
                -1,
                -4.25
            ],
            "scale": [
                0.6,
                0.6,
                0.6
            ]
        },
        "thirdperson_lefthand": {
            "rotation": [
                2,
                0,
                0
            ],
            "translation": [
                0,
                -1,
                -4.25
            ],
            "scale": [
                0.6,
                0.6,
                0.6
            ]
        },
        "firstperson_righthand": {
            "rotation": [
                -10.25,
                6.5,
                0
            ],
            "translation": [
                0,
                0.25,
                -4.5
            ],
            "scale": [
                0.8,
                0.8,
                0.8
            ]
        },
        "firstperson_lefthand": {
            "rotation": [
                -10.25,
                6.5,
                0
            ],
            "translation": [
                0,
                0.25,
                -4.5
            ],
            "scale": [
                0.8,
                0.8,
                0.8
            ]
        },
        "ground": {
            "scale": [
                0.8,
                0.8,
                0.8
            ]
        },
        "gui": {
            "rotation": [
                140.41,
                36.66,
                -153.73
            ],
            "translation": [
                -0.5,
                1.25,
                0
            ],
            "scale": [
                0.5,
                0.5,
                0.5
            ]
        },
        "head": {
            "rotation": [
                0,
                90,
                0
            ],
            "translation": [
                0,
                -20.75,
                -7.75
            ]
        },
        "fixed": {
            "rotation": [
                90,
                45,
                -90
            ],
            "translation": [
                0,
                1.5,
                -0.25
            ],
            "scale": [
                0.8,
                0.8,
                0.8
            ]
        }
    }
}