{
	"credit": "Made with Blockbench",
	"textures": {
		"0": "gci:items/common/all_in_one",
		"particle": "gci:items/common/all_in_one"
	},
	"elements": [
		{
			"from": [11.4, 0, 3],
			"to": [14.4, 24, 4],
			"rotation": {"angle": 0, "axis": "y", "origin": [9.4, 8, 11]},
			"faces": {
				"north": {"uv": [0, 0, 0.5, 1.875], "texture": "#0"},
				"east": {"uv": [0, 0, 0.5, 1.875], "texture": "#0"},
				"south": {"uv": [0, 0, 0.5, 1.875], "texture": "#0"},
				"west": {"uv": [0, 0, 0.5, 1.875], "texture": "#0"},
				"up": {"uv": [0, 0, 0.5, 1.875], "texture": "#0"},
				"down": {"uv": [0, 0, 0.5, 1.875], "texture": "#0"}
			}
		},
		{
			"from": [1.5, 0, 3],
			"to": [4.5, 24, 4],
			"rotation": {"angle": 0, "axis": "y", "origin": [9.5, 8, 11]},
			"faces": {
				"north": {"uv": [0, 0, 0.5, 1.875], "texture": "#0"},
				"east": {"uv": [0, 0, 0.5, 1.875], "texture": "#0"},
				"south": {"uv": [0, 0, 0.5, 1.875], "texture": "#0"},
				"west": {"uv": [0, 0, 0.5, 1.875], "texture": "#0"},
				"up": {"uv": [0, 0, 0.5, 1.875], "texture": "#0"},
				"down": {"uv": [0, 0, 0.5, 1.875], "texture": "#0"}
			}
		},
		{
			"from": [4.8, 0, 3],
			"to": [7.8, 24, 4],
			"rotation": {"angle": 0, "axis": "y", "origin": [9.8, 8, 11]},
			"faces": {
				"north": {"uv": [0, 0, 0.5, 1.875], "texture": "#0"},
				"east": {"uv": [0, 0, 0.5, 1.875], "texture": "#0"},
				"south": {"uv": [0, 0, 0.5, 1.875], "texture": "#0"},
				"west": {"uv": [0, 0, 0.5, 1.875], "texture": "#0"},
				"up": {"uv": [0, 0, 0.5, 1.875], "texture": "#0"},
				"down": {"uv": [0, 0, 0.5, 1.875], "texture": "#0"}
			}
		},
		{
			"from": [8.1, 0, 3],
			"to": [11.1, 24, 4],
			"rotation": {"angle": 0, "axis": "y", "origin": [9.1, 8, 11]},
			"faces": {
				"north": {"uv": [0, 0, 0.5, 1.875], "texture": "#0"},
				"east": {"uv": [0, 0, 0.5, 1.875], "texture": "#0"},
				"south": {"uv": [0, 0, 0.5, 1.875], "texture": "#0"},
				"west": {"uv": [0, 0, 0.5, 1.875], "texture": "#0"},
				"up": {"uv": [0, 0, 0.5, 1.875], "texture": "#0"},
				"down": {"uv": [0, 0, 0.5, 1.875], "texture": "#0"}
			}
		},
		{
			"from": [1, 19.5, 4],
			"to": [15, 22.5, 5],
			"rotation": {"angle": 0, "axis": "y", "origin": [3, 21, 4.5]},
			"faces": {
				"north": {"uv": [0, 0, 0.5, 1.875], "rotation": 270, "texture": "#0"},
				"east": {"uv": [0, 0, 0.5, 1.875], "rotation": 90, "texture": "#0"},
				"south": {"uv": [0, 0, 0.5, 1.875], "rotation": 90, "texture": "#0"},
				"west": {"uv": [0, 0, 0.5, 1.875], "rotation": 90, "texture": "#0"},
				"up": {"uv": [0, 0, 0.5, 1.875], "rotation": 90, "texture": "#0"},
				"down": {"uv": [0, 0, 0.5, 1.875], "rotation": 90, "texture": "#0"}
			}
		},
		{
			"from": [1, 1.5, 4],
			"to": [15, 4.5, 5],
			"rotation": {"angle": 0, "axis": "y", "origin": [3, 3, 4.5]},
			"faces": {
				"north": {"uv": [0, 0, 0.5, 1.875], "rotation": 270, "texture": "#0"},
				"east": {"uv": [0, 0, 0.5, 1.875], "rotation": 90, "texture": "#0"},
				"south": {"uv": [0, 0, 0.5, 1.875], "rotation": 90, "texture": "#0"},
				"west": {"uv": [0, 0, 0.5, 1.875], "rotation": 90, "texture": "#0"},
				"up": {"uv": [0, 0, 0.5, 1.875], "rotation": 90, "texture": "#0"},
				"down": {"uv": [0, 0, 0.5, 1.875], "rotation": 90, "texture": "#0"}
			}
		},
		{
			"from": [1.5, 10.5, 4],
			"to": [9, 13.5, 5],
			"rotation": {"angle": 0, "axis": "y", "origin": [3.5, 12, 4.5]},
			"faces": {
				"north": {"uv": [0, 0, 0.5, 1.875], "rotation": 270, "texture": "#0"},
				"east": {"uv": [0, 0, 0.5, 1.875], "rotation": 90, "texture": "#0"},
				"south": {"uv": [0, 0, 0.5, 1.875], "rotation": 90, "texture": "#0"},
				"west": {"uv": [0, 0, 0.5, 1.875], "rotation": 90, "texture": "#0"},
				"up": {"uv": [0, 0, 0.5, 1.875], "rotation": 90, "texture": "#0"},
				"down": {"uv": [0, 0, 0.5, 1.875], "rotation": 90, "texture": "#0"}
			}
		},
		{
			"from": [9, 10.5, 4],
			"to": [14.5, 13.5, 5],
			"rotation": {"angle": 0, "axis": "y", "origin": [12.5, 12, 4.5]},
			"faces": {
				"north": {"uv": [0, 1.875, 0.5, 0], "rotation": 270, "texture": "#0"},
				"east": {"uv": [0, 1.875, 0.5, 0], "rotation": 90, "texture": "#0"},
				"south": {"uv": [0, 1.875, 0.5, 0], "rotation": 90, "texture": "#0"},
				"west": {"uv": [0, 1.875, 0.5, 0], "rotation": 90, "texture": "#0"},
				"up": {"uv": [0, 1.875, 0.5, 0], "rotation": 90, "texture": "#0"},
				"down": {"uv": [0, 1.875, 0.5, 0], "rotation": 90, "texture": "#0"}
			}
		},
		{
			"from": [1.2, 14.7, 2.75],
			"to": [9.2, 24.9, 3.1],
			"rotation": {"angle": 0, "axis": "y", "origin": [9.2, 22.9, 10.7]},
			"faces": {
				"north": {"uv": [2.625, 12.5, 3.125, 13], "texture": "#0"},
				"east": {"uv": [2.625, 12.5, 3.125, 13], "texture": "#0"},
				"south": {"uv": [2.625, 12.5, 3.125, 13], "texture": "#0"},
				"west": {"uv": [2.625, 12.5, 3.125, 13], "texture": "#0"},
				"up": {"uv": [2.625, 12.5, 3.125, 13], "texture": "#0"},
				"down": {"uv": [2.625, 12.5, 3.125, 13], "texture": "#0"}
			}
		},
		{
			"from": [9.6, -0.3, 2.8],
			"to": [14.9, 6.7, 3.1],
			"rotation": {"angle": 0, "axis": "y", "origin": [9.6, 7.7, 10.7]},
			"faces": {
				"north": {"uv": [4.125, 10.25, 4.875, 10.875], "texture": "#0"},
				"east": {"uv": [4.125, 10.25, 4.875, 10.875], "texture": "#0"},
				"south": {"uv": [4.125, 10.25, 4.875, 10.875], "texture": "#0"},
				"west": {"uv": [4.125, 10.25, 4.875, 10.875], "texture": "#0"},
				"up": {"uv": [4.125, 10.25, 4.875, 10.875], "texture": "#0"},
				"down": {"uv": [4.125, 10.25, 4.875, 10.875], "texture": "#0"}
			}
		},
		{
			"from": [1.6, 5.7, 2.5],
			"to": [14.3, 19.7, 3.2],
			"rotation": {"angle": 0, "axis": "y", "origin": [9.4, 7.7, 10.7]},
			"faces": {
				"north": {"uv": [5.5, 12.375, 6.125, 13], "texture": "#0"},
				"east": {"uv": [5.5, 12.375, 6.125, 13], "texture": "#0"},
				"south": {"uv": [5.5, 12.375, 6.125, 13], "texture": "#0"},
				"west": {"uv": [5.5, 12.375, 6.125, 13], "texture": "#0"},
				"up": {"uv": [5.5, 12.375, 6.125, 13], "texture": "#0"},
				"down": {"uv": [5.5, 12.375, 6.125, 13], "texture": "#0"}
			}
		},
		{
			"from": [8, 18.5, 2.65],
			"to": [14.5, 25.5, 3.15],
			"rotation": {"angle": 0, "axis": "y", "origin": [13.3, 7.5, 10.6]},
			"faces": {
				"north": {"uv": [8.75, 9.875, 9.25, 10.5], "texture": "#0"},
				"east": {"uv": [8.75, 9.875, 9.25, 10.5], "texture": "#0"},
				"south": {"uv": [8.75, 9.875, 9.25, 10.5], "texture": "#0"},
				"west": {"uv": [8.75, 9.875, 9.25, 10.5], "texture": "#0"},
				"up": {"uv": [8.75, 9.875, 9.25, 10.5], "texture": "#0"},
				"down": {"uv": [8.75, 9.875, 9.25, 10.5], "texture": "#0"}
			}
		},
		{
			"from": [6.2, -0.5, 2.4],
			"to": [9.8, 7.1, 3.8],
			"rotation": {"angle": 0, "axis": "y", "origin": [14.4, -10.9, 10.2]},
			"faces": {
				"north": {"uv": [0.75, 10.5, 1.25, 11], "texture": "#0"},
				"east": {"uv": [0.75, 10.5, 1.25, 11], "texture": "#0"},
				"south": {"uv": [0.75, 10.5, 1.25, 11], "texture": "#0"},
				"west": {"uv": [0.75, 10.5, 1.25, 11], "texture": "#0"},
				"up": {"uv": [0.75, 10.5, 1.25, 11], "texture": "#0"},
				"down": {"uv": [0.75, 10.5, 1.25, 11], "texture": "#0"}
			}
		},
		{
			"from": [1.2, -0.7, 2.9],
			"to": [6.8, 6.1, 3.1],
			"rotation": {"angle": 0, "axis": "y", "origin": [1.2, -11.7, 10.7]},
			"faces": {
				"north": {"uv": [1.625, 12.625, 2.125, 13.125], "texture": "#0"},
				"east": {"uv": [1.625, 12.625, 2.125, 13.125], "texture": "#0"},
				"south": {"uv": [1.625, 12.625, 2.125, 13.125], "texture": "#0"},
				"west": {"uv": [1.625, 12.625, 2.125, 13.125], "texture": "#0"},
				"up": {"uv": [1.625, 12.625, 2.125, 13.125], "texture": "#0"},
				"down": {"uv": [1.625, 12.625, 2.125, 13.125], "texture": "#0"}
			}
		},
		{
			"from": [2.2, 4.5, 2.425],
			"to": [6.8, 9.1, 3],
			"rotation": {"angle": 0, "axis": "y", "origin": [11.4, -5.9, 10.2]},
			"faces": {
				"north": {"uv": [2, 3, 2.375, 3.25], "texture": "#0"},
				"east": {"uv": [2, 3, 2.375, 3.25], "texture": "#0"},
				"south": {"uv": [2, 3, 2.375, 3.25], "texture": "#0"},
				"west": {"uv": [2, 3, 2.375, 3.25], "texture": "#0"},
				"up": {"uv": [2, 3, 2.375, 3.25], "texture": "#0"},
				"down": {"uv": [2, 3, 2.375, 3.25], "texture": "#0"}
			}
		},
		{
			"from": [7.2, 16.5, 2.4],
			"to": [14.8, 20.1, 2.6],
			"rotation": {"angle": 22.5, "axis": "z", "origin": [11, 18.3, 2.5]},
			"faces": {
				"north": {"uv": [2.375, 3, 2, 3.25], "texture": "#0"},
				"east": {"uv": [2.375, 3, 2, 3.25], "texture": "#0"},
				"south": {"uv": [2.375, 3, 2, 3.25], "texture": "#0"},
				"west": {"uv": [2.375, 3, 2, 3.25], "texture": "#0"},
				"up": {"uv": [2.375, 3, 2, 3.25], "texture": "#0"},
				"down": {"uv": [2.375, 3, 2, 3.25], "texture": "#0"}
			}
		},
		{
			"from": [2.5, 8.2, 2.3],
			"to": [3, 8.7, 2.7],
			"rotation": {"angle": 45, "axis": "z", "origin": [2.75, 8.45, 2.2]},
			"faces": {
				"north": {"uv": [14.25, 6.375, 14.5, 6.625], "texture": "#0"},
				"east": {"uv": [14.25, 6.375, 14.5, 6.625], "texture": "#0"},
				"south": {"uv": [14.25, 6.375, 14.5, 6.625], "texture": "#0"},
				"west": {"uv": [14.25, 6.375, 14.5, 6.625], "texture": "#0"},
				"up": {"uv": [14.25, 6.375, 14.5, 6.625], "texture": "#0"},
				"down": {"uv": [14.25, 6.375, 14.5, 6.625], "texture": "#0"}
			}
		},
		{
			"from": [2.7, 5, 2.3],
			"to": [3.2, 5.5, 2.7],
			"rotation": {"angle": 45, "axis": "z", "origin": [2.95, 5.25, 2.2]},
			"faces": {
				"north": {"uv": [14.25, 6.375, 14.5, 6.625], "texture": "#0"},
				"east": {"uv": [14.25, 6.375, 14.5, 6.625], "texture": "#0"},
				"south": {"uv": [14.25, 6.375, 14.5, 6.625], "texture": "#0"},
				"west": {"uv": [14.25, 6.375, 14.5, 6.625], "texture": "#0"},
				"up": {"uv": [14.25, 6.375, 14.5, 6.625], "texture": "#0"},
				"down": {"uv": [14.25, 6.375, 14.5, 6.625], "texture": "#0"}
			}
		},
		{
			"from": [5.7, 8.1, 2.3],
			"to": [6.2, 8.6, 2.7],
			"rotation": {"angle": 45, "axis": "z", "origin": [5.95, 8.35, 2.2]},
			"faces": {
				"north": {"uv": [14.25, 6.375, 14.5, 6.625], "texture": "#0"},
				"east": {"uv": [14.25, 6.375, 14.5, 6.625], "texture": "#0"},
				"south": {"uv": [14.25, 6.375, 14.5, 6.625], "texture": "#0"},
				"west": {"uv": [14.25, 6.375, 14.5, 6.625], "texture": "#0"},
				"up": {"uv": [14.25, 6.375, 14.5, 6.625], "texture": "#0"},
				"down": {"uv": [14.25, 6.375, 14.5, 6.625], "texture": "#0"}
			}
		},
		{
			"from": [6.4, 6.4, 2.3],
			"to": [6.9, 6.9, 2.7],
			"rotation": {"angle": 45, "axis": "z", "origin": [6.65, 6.65, 2.2]},
			"faces": {
				"north": {"uv": [14.25, 6.375, 14.5, 6.625], "texture": "#0"},
				"east": {"uv": [14.25, 6.375, 14.5, 6.625], "texture": "#0"},
				"south": {"uv": [14.25, 6.375, 14.5, 6.625], "texture": "#0"},
				"west": {"uv": [14.25, 6.375, 14.5, 6.625], "texture": "#0"},
				"up": {"uv": [14.25, 6.375, 14.5, 6.625], "texture": "#0"},
				"down": {"uv": [14.25, 6.375, 14.5, 6.625], "texture": "#0"}
			}
		},
		{
			"from": [13.6, 18, 2.3],
			"to": [14.1, 18.5, 2.7],
			"rotation": {"angle": 45, "axis": "z", "origin": [13.85, 18.25, 2.2]},
			"faces": {
				"north": {"uv": [14.25, 6.375, 14.5, 6.625], "texture": "#0"},
				"east": {"uv": [14.25, 6.375, 14.5, 6.625], "texture": "#0"},
				"south": {"uv": [14.25, 6.375, 14.5, 6.625], "texture": "#0"},
				"west": {"uv": [14.25, 6.375, 14.5, 6.625], "texture": "#0"},
				"up": {"uv": [14.25, 6.375, 14.5, 6.625], "texture": "#0"},
				"down": {"uv": [14.25, 6.375, 14.5, 6.625], "texture": "#0"}
			}
		},
		{
			"from": [7.5, 17.9, 2.3],
			"to": [8, 18.4, 2.7],
			"rotation": {"angle": 45, "axis": "z", "origin": [7.75, 18.15, 2.2]},
			"faces": {
				"north": {"uv": [14.25, 6.375, 14.5, 6.625], "texture": "#0"},
				"east": {"uv": [14.25, 6.375, 14.5, 6.625], "texture": "#0"},
				"south": {"uv": [14.25, 6.375, 14.5, 6.625], "texture": "#0"},
				"west": {"uv": [14.25, 6.375, 14.5, 6.625], "texture": "#0"},
				"up": {"uv": [14.25, 6.375, 14.5, 6.625], "texture": "#0"},
				"down": {"uv": [14.25, 6.375, 14.5, 6.625], "texture": "#0"}
			}
		},
		{
			"from": [2, 18.7, 2.3],
			"to": [2.5, 19.2, 2.7],
			"rotation": {"angle": 45, "axis": "z", "origin": [2.25, 18.95, 2.2]},
			"faces": {
				"north": {"uv": [14.25, 6.375, 14.5, 6.625], "texture": "#0"},
				"east": {"uv": [14.25, 6.375, 14.5, 6.625], "texture": "#0"},
				"south": {"uv": [14.25, 6.375, 14.5, 6.625], "texture": "#0"},
				"west": {"uv": [14.25, 6.375, 14.5, 6.625], "texture": "#0"},
				"up": {"uv": [14.25, 6.375, 14.5, 6.625], "texture": "#0"},
				"down": {"uv": [14.25, 6.375, 14.5, 6.625], "texture": "#0"}
			}
		},
		{
			"from": [8.4, 16, 2.3],
			"to": [8.9, 16.5, 2.7],
			"rotation": {"angle": 45, "axis": "z", "origin": [8.65, 16.25, 2.2]},
			"faces": {
				"north": {"uv": [14.25, 6.375, 14.5, 6.625], "texture": "#0"},
				"east": {"uv": [14.25, 6.375, 14.5, 6.625], "texture": "#0"},
				"south": {"uv": [14.25, 6.375, 14.5, 6.625], "texture": "#0"},
				"west": {"uv": [14.25, 6.375, 14.5, 6.625], "texture": "#0"},
				"up": {"uv": [14.25, 6.375, 14.5, 6.625], "texture": "#0"},
				"down": {"uv": [14.25, 6.375, 14.5, 6.625], "texture": "#0"}
			}
		},
		{
			"from": [1.7, 23.1, 2.6],
			"to": [2.2, 23.6, 3],
			"rotation": {"angle": 45, "axis": "z", "origin": [1.95, 23.35, 2.5]},
			"faces": {
				"north": {"uv": [14.25, 6.375, 14.5, 6.625], "texture": "#0"},
				"east": {"uv": [14.25, 6.375, 14.5, 6.625], "texture": "#0"},
				"south": {"uv": [14.25, 6.375, 14.5, 6.625], "texture": "#0"},
				"west": {"uv": [14.25, 6.375, 14.5, 6.625], "texture": "#0"},
				"up": {"uv": [14.25, 6.375, 14.5, 6.625], "texture": "#0"},
				"down": {"uv": [14.25, 6.375, 14.5, 6.625], "texture": "#0"}
			}
		},
		{
			"from": [13.4, 11.4, 2.3],
			"to": [13.9, 11.9, 2.7],
			"rotation": {"angle": 45, "axis": "z", "origin": [13.65, 11.65, 2.2]},
			"faces": {
				"north": {"uv": [14.25, 6.375, 14.5, 6.625], "texture": "#0"},
				"east": {"uv": [14.25, 6.375, 14.5, 6.625], "texture": "#0"},
				"south": {"uv": [14.25, 6.375, 14.5, 6.625], "texture": "#0"},
				"west": {"uv": [14.25, 6.375, 14.5, 6.625], "texture": "#0"},
				"up": {"uv": [14.25, 6.375, 14.5, 6.625], "texture": "#0"},
				"down": {"uv": [14.25, 6.375, 14.5, 6.625], "texture": "#0"}
			}
		},
		{
			"from": [2.4, 11.4, 2.3],
			"to": [2.9, 11.9, 2.7],
			"rotation": {"angle": 45, "axis": "z", "origin": [2.65, 11.65, 2.2]},
			"faces": {
				"north": {"uv": [14.25, 6.375, 14.5, 6.625], "texture": "#0"},
				"east": {"uv": [14.25, 6.375, 14.5, 6.625], "texture": "#0"},
				"south": {"uv": [14.25, 6.375, 14.5, 6.625], "texture": "#0"},
				"west": {"uv": [14.25, 6.375, 14.5, 6.625], "texture": "#0"},
				"up": {"uv": [14.25, 6.375, 14.5, 6.625], "texture": "#0"},
				"down": {"uv": [14.25, 6.375, 14.5, 6.625], "texture": "#0"}
			}
		},
		{
			"from": [2, 15.4, 2.3],
			"to": [2.5, 15.9, 2.7],
			"rotation": {"angle": 45, "axis": "z", "origin": [2.25, 15.65, 2.2]},
			"faces": {
				"north": {"uv": [14.25, 6.375, 14.5, 6.625], "texture": "#0"},
				"east": {"uv": [14.25, 6.375, 14.5, 6.625], "texture": "#0"},
				"south": {"uv": [14.25, 6.375, 14.5, 6.625], "texture": "#0"},
				"west": {"uv": [14.25, 6.375, 14.5, 6.625], "texture": "#0"},
				"up": {"uv": [14.25, 6.375, 14.5, 6.625], "texture": "#0"},
				"down": {"uv": [14.25, 6.375, 14.5, 6.625], "texture": "#0"}
			}
		},
		{
			"from": [13.4, 16.4, 2.3],
			"to": [13.9, 16.9, 2.7],
			"rotation": {"angle": 45, "axis": "z", "origin": [13.65, 16.65, 2.2]},
			"faces": {
				"north": {"uv": [14.25, 6.375, 14.5, 6.625], "texture": "#0"},
				"east": {"uv": [14.25, 6.375, 14.5, 6.625], "texture": "#0"},
				"south": {"uv": [14.25, 6.375, 14.5, 6.625], "texture": "#0"},
				"west": {"uv": [14.25, 6.375, 14.5, 6.625], "texture": "#0"},
				"up": {"uv": [14.25, 6.375, 14.5, 6.625], "texture": "#0"},
				"down": {"uv": [14.25, 6.375, 14.5, 6.625], "texture": "#0"}
			}
		},
		{
			"from": [9.1, 6.4, 2.3],
			"to": [9.6, 6.9, 2.7],
			"rotation": {"angle": 45, "axis": "z", "origin": [9.35, 6.65, 2.2]},
			"faces": {
				"north": {"uv": [14.25, 6.375, 14.5, 6.625], "texture": "#0"},
				"east": {"uv": [14.25, 6.375, 14.5, 6.625], "texture": "#0"},
				"south": {"uv": [14.25, 6.375, 14.5, 6.625], "texture": "#0"},
				"west": {"uv": [14.25, 6.375, 14.5, 6.625], "texture": "#0"},
				"up": {"uv": [14.25, 6.375, 14.5, 6.625], "texture": "#0"},
				"down": {"uv": [14.25, 6.375, 14.5, 6.625], "texture": "#0"}
			}
		},
		{
			"from": [13.4, 6.4, 2.3],
			"to": [13.9, 6.9, 2.7],
			"rotation": {"angle": 45, "axis": "z", "origin": [13.65, 6.65, 2.2]},
			"faces": {
				"north": {"uv": [14.25, 6.375, 14.5, 6.625], "texture": "#0"},
				"east": {"uv": [14.25, 6.375, 14.5, 6.625], "texture": "#0"},
				"south": {"uv": [14.25, 6.375, 14.5, 6.625], "texture": "#0"},
				"west": {"uv": [14.25, 6.375, 14.5, 6.625], "texture": "#0"},
				"up": {"uv": [14.25, 6.375, 14.5, 6.625], "texture": "#0"},
				"down": {"uv": [14.25, 6.375, 14.5, 6.625], "texture": "#0"}
			}
		},
		{
			"from": [6.4, 0.8, 2.3],
			"to": [6.9, 1.3, 2.7],
			"rotation": {"angle": 45, "axis": "z", "origin": [6.65, 1.05, 2.2]},
			"faces": {
				"north": {"uv": [14.25, 6.375, 14.5, 6.625], "texture": "#0"},
				"east": {"uv": [14.25, 6.375, 14.5, 6.625], "texture": "#0"},
				"south": {"uv": [14.25, 6.375, 14.5, 6.625], "texture": "#0"},
				"west": {"uv": [14.25, 6.375, 14.5, 6.625], "texture": "#0"},
				"up": {"uv": [14.25, 6.375, 14.5, 6.625], "texture": "#0"},
				"down": {"uv": [14.25, 6.375, 14.5, 6.625], "texture": "#0"}
			}
		},
		{
			"from": [8.7, 0.4, 2.3],
			"to": [9.2, 0.9, 2.7],
			"rotation": {"angle": 45, "axis": "z", "origin": [8.95, 0.65, 2.2]},
			"faces": {
				"north": {"uv": [14.25, 6.375, 14.5, 6.625], "texture": "#0"},
				"east": {"uv": [14.25, 6.375, 14.5, 6.625], "texture": "#0"},
				"south": {"uv": [14.25, 6.375, 14.5, 6.625], "texture": "#0"},
				"west": {"uv": [14.25, 6.375, 14.5, 6.625], "texture": "#0"},
				"up": {"uv": [14.25, 6.375, 14.5, 6.625], "texture": "#0"},
				"down": {"uv": [14.25, 6.375, 14.5, 6.625], "texture": "#0"}
			}
		},
		{
			"from": [13.4, 0.4, 2.6],
			"to": [13.9, 0.9, 3],
			"rotation": {"angle": 45, "axis": "z", "origin": [13.65, 0.65, 2.5]},
			"faces": {
				"north": {"uv": [14.25, 6.375, 14.5, 6.625], "texture": "#0"},
				"east": {"uv": [14.25, 6.375, 14.5, 6.625], "texture": "#0"},
				"south": {"uv": [14.25, 6.375, 14.5, 6.625], "texture": "#0"},
				"west": {"uv": [14.25, 6.375, 14.5, 6.625], "texture": "#0"},
				"up": {"uv": [14.25, 6.375, 14.5, 6.625], "texture": "#0"},
				"down": {"uv": [14.25, 6.375, 14.5, 6.625], "texture": "#0"}
			}
		},
		{
			"from": [13.4, 3.4, 2.6],
			"to": [13.9, 3.9, 3],
			"rotation": {"angle": 45, "axis": "z", "origin": [13.65, 3.65, 2.5]},
			"faces": {
				"north": {"uv": [14.25, 6.375, 14.5, 6.625], "texture": "#0"},
				"east": {"uv": [14.25, 6.375, 14.5, 6.625], "texture": "#0"},
				"south": {"uv": [14.25, 6.375, 14.5, 6.625], "texture": "#0"},
				"west": {"uv": [14.25, 6.375, 14.5, 6.625], "texture": "#0"},
				"up": {"uv": [14.25, 6.375, 14.5, 6.625], "texture": "#0"},
				"down": {"uv": [14.25, 6.375, 14.5, 6.625], "texture": "#0"}
			}
		},
		{
			"from": [2.4, 2.4, 2.7],
			"to": [2.9, 2.9, 3.1],
			"rotation": {"angle": 45, "axis": "z", "origin": [2.65, 2.65, 2.6]},
			"faces": {
				"north": {"uv": [14.25, 6.375, 14.5, 6.625], "texture": "#0"},
				"east": {"uv": [14.25, 6.375, 14.5, 6.625], "texture": "#0"},
				"south": {"uv": [14.25, 6.375, 14.5, 6.625], "texture": "#0"},
				"west": {"uv": [14.25, 6.375, 14.5, 6.625], "texture": "#0"},
				"up": {"uv": [14.25, 6.375, 14.5, 6.625], "texture": "#0"},
				"down": {"uv": [14.25, 6.375, 14.5, 6.625], "texture": "#0"}
			}
		},
		{
			"from": [5.1, 0.6, 2.7],
			"to": [5.6, 1.1, 3.1],
			"rotation": {"angle": 45, "axis": "z", "origin": [5.35, 0.85, 2.6]},
			"faces": {
				"north": {"uv": [14.25, 6.375, 14.5, 6.625], "texture": "#0"},
				"east": {"uv": [14.25, 6.375, 14.5, 6.625], "texture": "#0"},
				"south": {"uv": [14.25, 6.375, 14.5, 6.625], "texture": "#0"},
				"west": {"uv": [14.25, 6.375, 14.5, 6.625], "texture": "#0"},
				"up": {"uv": [14.25, 6.375, 14.5, 6.625], "texture": "#0"},
				"down": {"uv": [14.25, 6.375, 14.5, 6.625], "texture": "#0"}
			}
		},
		{
			"from": [13.4, 23, 2.5],
			"to": [13.9, 23.5, 3],
			"rotation": {"angle": 45, "axis": "z", "origin": [13.65, 23.25, 2.5]},
			"faces": {
				"north": {"uv": [14.25, 6.375, 14.5, 6.625], "texture": "#0"},
				"east": {"uv": [14.25, 6.375, 14.5, 6.625], "texture": "#0"},
				"south": {"uv": [14.25, 6.375, 14.5, 6.625], "texture": "#0"},
				"west": {"uv": [14.25, 6.375, 14.5, 6.625], "texture": "#0"},
				"up": {"uv": [14.25, 6.375, 14.5, 6.625], "texture": "#0"},
				"down": {"uv": [14.25, 6.375, 14.5, 6.625], "texture": "#0"}
			}
		},
		{
			"from": [6.4, 23.4, 2.6],
			"to": [6.9, 23.9, 3],
			"rotation": {"angle": 45, "axis": "z", "origin": [6.65, 23.65, 2.5]},
			"faces": {
				"north": {"uv": [14.25, 6.375, 14.5, 6.625], "texture": "#0"},
				"east": {"uv": [14.25, 6.375, 14.5, 6.625], "texture": "#0"},
				"south": {"uv": [14.25, 6.375, 14.5, 6.625], "texture": "#0"},
				"west": {"uv": [14.25, 6.375, 14.5, 6.625], "texture": "#0"},
				"up": {"uv": [14.25, 6.375, 14.5, 6.625], "texture": "#0"},
				"down": {"uv": [14.25, 6.375, 14.5, 6.625], "texture": "#0"}
			}
		},
		{
			"from": [9.1, 22.5, 2.5],
			"to": [9.6, 23, 3],
			"rotation": {"angle": 45, "axis": "z", "origin": [9.35, 22.75, 2.5]},
			"faces": {
				"north": {"uv": [14.25, 6.375, 14.5, 6.625], "texture": "#0"},
				"east": {"uv": [14.25, 6.375, 14.5, 6.625], "texture": "#0"},
				"south": {"uv": [14.25, 6.375, 14.5, 6.625], "texture": "#0"},
				"west": {"uv": [14.25, 6.375, 14.5, 6.625], "texture": "#0"},
				"up": {"uv": [14.25, 6.375, 14.5, 6.625], "texture": "#0"},
				"down": {"uv": [14.25, 6.375, 14.5, 6.625], "texture": "#0"}
			}
		},
		{
			"from": [13.2, 20.4, 2.3],
			"to": [13.7, 20.9, 2.7],
			"rotation": {"angle": 45, "axis": "z", "origin": [13.45, 20.65, 2.2]},
			"faces": {
				"north": {"uv": [14.25, 6.375, 14.5, 6.625], "texture": "#0"},
				"east": {"uv": [14.25, 6.375, 14.5, 6.625], "texture": "#0"},
				"south": {"uv": [14.25, 6.375, 14.5, 6.625], "texture": "#0"},
				"west": {"uv": [14.25, 6.375, 14.5, 6.625], "texture": "#0"},
				"up": {"uv": [14.25, 6.375, 14.5, 6.625], "texture": "#0"},
				"down": {"uv": [14.25, 6.375, 14.5, 6.625], "texture": "#0"}
			}
		},
		{
			"from": [5.4, 18.6, 2.3],
			"to": [5.9, 19.1, 2.7],
			"rotation": {"angle": 45, "axis": "z", "origin": [5.65, 18.85, 2.2]},
			"faces": {
				"north": {"uv": [14.25, 6.375, 14.5, 6.625], "texture": "#0"},
				"east": {"uv": [14.25, 6.375, 14.5, 6.625], "texture": "#0"},
				"south": {"uv": [14.25, 6.375, 14.5, 6.625], "texture": "#0"},
				"west": {"uv": [14.25, 6.375, 14.5, 6.625], "texture": "#0"},
				"up": {"uv": [14.25, 6.375, 14.5, 6.625], "texture": "#0"},
				"down": {"uv": [14.25, 6.375, 14.5, 6.625], "texture": "#0"}
			}
		},
		{
			"from": [4, 9.5, 4],
			"to": [12, 14.5, 4.5],
			"rotation": {"angle": 0, "axis": "y", "origin": [8, 14, 4.25]},
			"faces": {
				"north": {"uv": [5.75, 12.5, 6.125, 12.875], "rotation": 270, "texture": "#0"},
				"east": {"uv": [5.75, 12.5, 6.125, 12.875], "rotation": 90, "texture": "#0"},
				"south": {"uv": [5.75, 12.5, 6.125, 12.875], "rotation": 90, "texture": "#0"},
				"west": {"uv": [5.75, 12.5, 6.125, 12.875], "rotation": 90, "texture": "#0"},
				"up": {"uv": [5.75, 12.5, 6.125, 12.875], "rotation": 90, "texture": "#0"},
				"down": {"uv": [5.75, 12.5, 6.125, 12.875], "rotation": 90, "texture": "#0"}
			}
		},
		{
			"from": [7.5, 9.3, 4],
			"to": [8.5, 14.7, 5.5],
			"rotation": {"angle": 0, "axis": "y", "origin": [20.5, 10, 12]},
			"faces": {
				"north": {"uv": [5.75, 12.5, 6.125, 12.875], "texture": "#0"},
				"east": {"uv": [5.75, 12.5, 6.125, 12.875], "texture": "#0"},
				"south": {"uv": [5.75, 12.5, 6.125, 12.875], "texture": "#0"},
				"west": {"uv": [5.75, 12.5, 6.125, 12.875], "texture": "#0"},
				"up": {"uv": [5.75, 12.5, 6.125, 12.875], "texture": "#0"},
				"down": {"uv": [5.75, 12.5, 6.125, 12.875], "texture": "#0"}
			}
		},
		{
			"from": [7.5, 9.3, 5.5],
			"to": [8.5, 10, 10.2],
			"rotation": {"angle": 0, "axis": "y", "origin": [8, 10.875, 7.875]},
			"faces": {
				"north": {"uv": [5.75, 12.5, 6.125, 12.875], "texture": "#0"},
				"east": {"uv": [5.75, 12.5, 6.125, 12.875], "texture": "#0"},
				"south": {"uv": [5.75, 12.5, 6.125, 12.875], "texture": "#0"},
				"west": {"uv": [5.75, 12.5, 6.125, 12.875], "texture": "#0"},
				"up": {"uv": [5.75, 12.5, 6.125, 12.875], "texture": "#0"},
				"down": {"uv": [5.75, 12.5, 6.125, 12.875], "texture": "#0"}
			}
		},
		{
			"from": [7.5, 10, 9.5],
			"to": [8.5, 14, 10.2],
			"rotation": {"angle": 0, "axis": "y", "origin": [8, 10.875, 8.875]},
			"faces": {
				"north": {"uv": [5.75, 12.5, 6.125, 12.875], "texture": "#0"},
				"east": {"uv": [5.75, 12.5, 6.125, 12.875], "texture": "#0"},
				"south": {"uv": [5.75, 12.5, 6.125, 12.875], "texture": "#0"},
				"west": {"uv": [5.75, 12.5, 6.125, 12.875], "texture": "#0"},
				"up": {"uv": [5.75, 12.5, 6.125, 12.875], "texture": "#0"},
				"down": {"uv": [5.75, 12.5, 6.125, 12.875], "texture": "#0"}
			}
		},
		{
			"from": [7.5, 14, 5.5],
			"to": [8.5, 14.7, 10.2],
			"rotation": {"angle": 0, "axis": "y", "origin": [8, 14.25, 7]},
			"faces": {
				"north": {"uv": [5.75, 12.5, 6.125, 12.875], "texture": "#0"},
				"east": {"uv": [5.75, 12.5, 6.125, 12.875], "texture": "#0"},
				"south": {"uv": [5.75, 12.5, 6.125, 12.875], "texture": "#0"},
				"west": {"uv": [5.75, 12.5, 6.125, 12.875], "texture": "#0"},
				"up": {"uv": [5.75, 12.5, 6.125, 12.875], "texture": "#0"},
				"down": {"uv": [5.75, 12.5, 6.125, 12.875], "texture": "#0"}
			}
		}
	],
	"display": {
		"thirdperson_righthand": {
			"rotation": [0, -90, 0],
			"translation": [-0.5, -6, 2.75]
		},
		"thirdperson_lefthand": {
			"rotation": [0, -90, 0],
			"translation": [-0.5, -6, 2.75]
		},
		"firstperson_righthand": {
			"rotation": [-5, -77, 13],
			"translation": [-0.25, -4.5, -0.5]
		},
		"firstperson_lefthand": {
			"rotation": [-5, -77, 13],
			"translation": [-0.25, -4.5, -0.5]
		},
		"ground": {
			"rotation": [-90, 0, 0],
			"translation": [0, 2.5, 4.5]
		},
		"gui": {
			"rotation": [0, 141, 39],
			"translation": [1, -1.75, 0],
			"scale": [0.55, 0.55, 0.55]
		},
		"head": {
			"translation": [0, -29.25, 0],
			"scale": [2, 2, 2]
		},
		"fixed": {
			"translation": [0, -4, 3]
		}
	},
	"groups": [0, 1, 2, 3, 4, 5, 6, 7, 8, 9, 10, 11, 12, 13, 14, 15,
		{
			"name": "group",
			"origin": [13.65, 6.65, 2.2],
			"children": [16, 17, 18, 19, 20, 21, 22, 23, 24, 25, 26, 27, 28, 29, 30, 31, 32, 33, 34, 35, 36, 37, 38, 39, 40, 41]
		}, 42, 43, 44, 45, 46]
}