{
	"credit": "Made with Blockbench",
	"texture_size": [48, 48],
	"textures": {
		"0": "gci:items/common/mpz",
		"particle": "gci:items/common/mpz"
	},
	"elements": [
		{
			"from": [0.98514, 5.52863, 4.90749],
			"to": [1.68153, 5.75311, 13.87236],
			"rotation": {"angle": 45, "axis": "z", "origin": [1.33333, 5.72087, 8.65752]},
			"faces": {
				"north": {"uv": [11.63889, 6.66667, 12.25, 7.27778], "rotation": 270, "texture": "#0"},
				"east": {"uv": [11.63889, 6.66667, 12.25, 7.27778], "rotation": 270, "texture": "#0"},
				"south": {"uv": [11.63889, 6.66667, 12.25, 7.27778], "rotation": 270, "texture": "#0"},
				"west": {"uv": [11.63889, 6.66667, 12.25, 7.27778], "rotation": 270, "texture": "#0"},
				"up": {"uv": [11.63889, 6.66667, 12.25, 7.27778], "rotation": 270, "texture": "#0"},
				"down": {"uv": [11.63889, 6.66667, 12.25, 7.27778], "rotation": 270, "texture": "#0"}
			}
		},
		{
			"from": [1.06432, 4.80107, 4.90749],
			"to": [1.2888, 5.49745, 13.87236],
			"rotation": {"angle": 0, "axis": "y", "origin": [1.09656, 5.14926, 8.65752]},
			"faces": {
				"north": {"uv": [11.63889, 6.66667, 12.25, 7.27778], "rotation": 270, "texture": "#0"},
				"east": {"uv": [11.63889, 6.66667, 12.25, 7.27778], "rotation": 270, "texture": "#0"},
				"south": {"uv": [11.63889, 6.66667, 12.25, 7.27778], "rotation": 270, "texture": "#0"},
				"west": {"uv": [11.63889, 6.66667, 12.25, 7.27778], "rotation": 270, "texture": "#0"},
				"up": {"uv": [11.63889, 6.66667, 12.25, 7.27778], "rotation": 270, "texture": "#0"},
				"down": {"uv": [11.63889, 6.66667, 12.25, 7.27778], "rotation": 270, "texture": "#0"}
			}
		},
		{
			"from": [1.55674, 5.7654, 4.90749],
			"to": [2.25312, 5.98988, 13.87235],
			"rotation": {"angle": 0, "axis": "y", "origin": [1.07127, 5.7802, -27.78013]},
			"faces": {
				"north": {"uv": [11.63889, 6.66667, 12.25, 7.27778], "rotation": 270, "texture": "#0"},
				"east": {"uv": [11.63889, 6.66667, 12.25, 7.27778], "rotation": 270, "texture": "#0"},
				"south": {"uv": [11.63889, 6.66667, 12.25, 7.27778], "rotation": 270, "texture": "#0"},
				"west": {"uv": [11.63889, 6.66667, 12.25, 7.27778], "rotation": 270, "texture": "#0"},
				"up": {"uv": [11.63889, 6.66667, 12.25, 7.27778], "rotation": 270, "texture": "#0"},
				"down": {"uv": [11.63889, 6.66667, 12.25, 7.27778], "rotation": 270, "texture": "#0"}
			}
		},
		{
			"from": [1.30109, 4.22945, 4.90749],
			"to": [1.52557, 4.92584, 13.87236],
			"rotation": {"angle": 45, "axis": "z", "origin": [1.33333, 4.57764, 8.65752]},
			"faces": {
				"north": {"uv": [11.63889, 6.66667, 12.25, 7.27778], "rotation": 270, "texture": "#0"},
				"east": {"uv": [11.63889, 6.66667, 12.25, 7.27778], "rotation": 270, "texture": "#0"},
				"south": {"uv": [11.63889, 6.66667, 12.25, 7.27778], "rotation": 270, "texture": "#0"},
				"west": {"uv": [11.63889, 6.66667, 12.25, 7.27778], "rotation": 270, "texture": "#0"},
				"up": {"uv": [11.63889, 6.66667, 12.25, 7.27778], "rotation": 270, "texture": "#0"},
				"down": {"uv": [11.63889, 6.66667, 12.25, 7.27778], "rotation": 270, "texture": "#0"}
			}
		},
		{
			"from": [1.55676, 4.30863, 4.90749],
			"to": [2.25314, 4.53311, 13.87236],
			"rotation": {"angle": 0, "axis": "y", "origin": [1.90495, 4.34087, 8.65752]},
			"faces": {
				"north": {"uv": [11.63889, 6.66667, 12.25, 7.27778], "rotation": 270, "texture": "#0"},
				"east": {"uv": [11.63889, 6.66667, 12.25, 7.27778], "rotation": 270, "texture": "#0"},
				"south": {"uv": [11.63889, 6.66667, 12.25, 7.27778], "rotation": 270, "texture": "#0"},
				"west": {"uv": [11.63889, 6.66667, 12.25, 7.27778], "rotation": 270, "texture": "#0"},
				"up": {"uv": [11.63889, 6.66667, 12.25, 7.27778], "rotation": 270, "texture": "#0"},
				"down": {"uv": [11.63889, 6.66667, 12.25, 7.27778], "rotation": 270, "texture": "#0"}
			}
		},
		{
			"from": [2.12834, 4.5454, 4.90749],
			"to": [2.82472, 4.76988, 13.87236],
			"rotation": {"angle": 45, "axis": "z", "origin": [2.47653, 4.57764, 8.65752]},
			"faces": {
				"north": {"uv": [11.63889, 6.66667, 12.25, 7.27778], "rotation": 270, "texture": "#0"},
				"east": {"uv": [11.63889, 6.66667, 12.25, 7.27778], "rotation": 270, "texture": "#0"},
				"south": {"uv": [11.63889, 6.66667, 12.25, 7.27778], "rotation": 270, "texture": "#0"},
				"west": {"uv": [11.63889, 6.66667, 12.25, 7.27778], "rotation": 270, "texture": "#0"},
				"up": {"uv": [11.63889, 6.66667, 12.25, 7.27778], "rotation": 270, "texture": "#0"},
				"down": {"uv": [11.63889, 6.66667, 12.25, 7.27778], "rotation": 270, "texture": "#0"}
			}
		},
		{
			"from": [2.52106, 4.80107, 4.90749],
			"to": [2.74554, 5.49745, 13.87236],
			"rotation": {"angle": 0, "axis": "y", "origin": [2.7133, 5.14926, 8.65752]},
			"faces": {
				"north": {"uv": [11.63889, 6.66667, 12.25, 7.27778], "rotation": 270, "texture": "#0"},
				"east": {"uv": [11.63889, 6.66667, 12.25, 7.27778], "rotation": 270, "texture": "#0"},
				"south": {"uv": [11.63889, 6.66667, 12.25, 7.27778], "rotation": 270, "texture": "#0"},
				"west": {"uv": [11.63889, 6.66667, 12.25, 7.27778], "rotation": 270, "texture": "#0"},
				"up": {"uv": [11.63889, 6.66667, 12.25, 7.27778], "rotation": 270, "texture": "#0"},
				"down": {"uv": [11.63889, 6.66667, 12.25, 7.27778], "rotation": 270, "texture": "#0"}
			}
		},
		{
			"from": [1.65706, 4.89707, 5.06749],
			"to": [2.13754, 5.40145, 13.29636],
			"rotation": {"angle": 45, "axis": "z", "origin": [1.8973, 5.14926, 9.18192]},
			"faces": {
				"north": {"uv": [0.97222, 1, 1.58333, 1.61111], "rotation": 270, "texture": "#0"},
				"east": {"uv": [0.97222, 1, 1.58333, 1.61111], "rotation": 270, "texture": "#0"},
				"south": {"uv": [0.97222, 1, 1.58333, 1.61111], "rotation": 270, "texture": "#0"},
				"west": {"uv": [0.97222, 1, 1.58333, 1.61111], "rotation": 270, "texture": "#0"},
				"up": {"uv": [0.97222, 1, 1.58333, 1.61111], "rotation": 270, "texture": "#0"},
				"down": {"uv": [0.97222, 1, 1.58333, 1.61111], "rotation": 270, "texture": "#0"}
			}
		},
		{
			"from": [1.78506, 5.02507, 3.43549],
			"to": [2.00954, 5.27345, 10.80036],
			"rotation": {"angle": 0, "axis": "y", "origin": [1.8973, 5.14926, 6.68592]},
			"faces": {
				"north": {"uv": [9.13889, 9.08333, 9.75, 9.69444], "rotation": 270, "texture": "#0"},
				"east": {"uv": [9.13889, 9.08333, 9.75, 9.69444], "rotation": 270, "texture": "#0"},
				"south": {"uv": [9.13889, 9.08333, 9.75, 9.69444], "rotation": 270, "texture": "#0"},
				"west": {"uv": [9.13889, 9.08333, 9.75, 9.69444], "rotation": 270, "texture": "#0"},
				"up": {"uv": [9.13889, 9.08333, 9.75, 9.69444], "rotation": 270, "texture": "#0"},
				"down": {"uv": [9.13889, 9.08333, 9.75, 9.69444], "rotation": 270, "texture": "#0"}
			}
		},
		{
			"from": [1.78506, 5.92142, 2.37374],
			"to": [2.00954, 6.1698, 3.3066],
			"rotation": {"angle": -22.5, "axis": "x", "origin": [1.8973, 6.04561, 5.62417]},
			"faces": {
				"north": {"uv": [9.13889, 9.08333, 9.75, 9.69444], "rotation": 270, "texture": "#0"},
				"east": {"uv": [9.13889, 9.08333, 9.75, 9.69444], "rotation": 270, "texture": "#0"},
				"south": {"uv": [9.13889, 9.08333, 9.75, 9.69444], "rotation": 270, "texture": "#0"},
				"west": {"uv": [9.13889, 9.08333, 9.75, 9.69444], "rotation": 270, "texture": "#0"},
				"up": {"uv": [9.13889, 9.08333, 9.75, 9.69444], "rotation": 270, "texture": "#0"},
				"down": {"uv": [9.13889, 9.08333, 9.75, 9.69444], "rotation": 270, "texture": "#0"}
			}
		},
		{
			"from": [1.78506, 2.46211, 2.87628],
			"to": [2.00954, 2.71049, 3.80914],
			"rotation": {"angle": 0, "axis": "y", "origin": [1.8973, 2.5863, 3.34271]},
			"faces": {
				"north": {"uv": [9.13889, 9.08333, 9.75, 9.69444], "rotation": 270, "texture": "#0"},
				"east": {"uv": [9.13889, 9.08333, 9.75, 9.69444], "rotation": 270, "texture": "#0"},
				"south": {"uv": [9.13889, 9.08333, 9.75, 9.69444], "rotation": 270, "texture": "#0"},
				"west": {"uv": [9.13889, 9.08333, 9.75, 9.69444], "rotation": 270, "texture": "#0"},
				"up": {"uv": [9.13889, 9.08333, 9.75, 9.69444], "rotation": 270, "texture": "#0"},
				"down": {"uv": [9.13889, 9.08333, 9.75, 9.69444], "rotation": 270, "texture": "#0"}
			}
		},
		{
			"from": [1.78506, 2.63115, 3.72611],
			"to": [2.00954, 2.87953, 4.65898],
			"rotation": {"angle": -22.5, "axis": "x", "origin": [1.8973, 2.75534, 4.19255]},
			"faces": {
				"north": {"uv": [9.13889, 9.08333, 9.75, 9.69444], "rotation": 270, "texture": "#0"},
				"east": {"uv": [9.13889, 9.08333, 9.75, 9.69444], "rotation": 270, "texture": "#0"},
				"south": {"uv": [9.13889, 9.08333, 9.75, 9.69444], "rotation": 270, "texture": "#0"},
				"west": {"uv": [9.13889, 9.08333, 9.75, 9.69444], "rotation": 270, "texture": "#0"},
				"up": {"uv": [9.13889, 9.08333, 9.75, 9.69444], "rotation": 270, "texture": "#0"},
				"down": {"uv": [9.13889, 9.08333, 9.75, 9.69444], "rotation": 270, "texture": "#0"}
			}
		},
		{
			"from": [1.78506, 3.75965, 3.45108],
			"to": [2.00954, 4.69252, 3.69946],
			"rotation": {"angle": 22.5, "axis": "x", "origin": [1.8973, 7.01009, 3.57527]},
			"faces": {
				"north": {"uv": [9.13889, 9.08333, 9.75, 9.69444], "rotation": 90, "texture": "#0"},
				"east": {"uv": [9.13889, 9.08333, 9.75, 9.69444], "texture": "#0"},
				"south": {"uv": [9.13889, 9.08333, 9.75, 9.69444], "rotation": 270, "texture": "#0"},
				"west": {"uv": [9.13889, 9.08333, 9.75, 9.69444], "rotation": 180, "texture": "#0"},
				"up": {"uv": [9.13889, 9.08333, 9.75, 9.69444], "rotation": 270, "texture": "#0"},
				"down": {"uv": [9.13889, 9.08333, 9.75, 9.69444], "rotation": 90, "texture": "#0"}
			}
		},
		{
			"from": [1.78506, 3.12174, 2.21665],
			"to": [2.00954, 4.05461, 2.46503],
			"rotation": {"angle": 0, "axis": "y", "origin": [1.8973, 3.23396, 2.48756]},
			"faces": {
				"north": {"uv": [9.13889, 9.08333, 9.75, 9.69444], "rotation": 90, "texture": "#0"},
				"east": {"uv": [9.13889, 9.08333, 9.75, 9.69444], "texture": "#0"},
				"south": {"uv": [9.13889, 9.08333, 9.75, 9.69444], "rotation": 270, "texture": "#0"},
				"west": {"uv": [9.13889, 9.08333, 9.75, 9.69444], "rotation": 180, "texture": "#0"},
				"up": {"uv": [9.13889, 9.08333, 9.75, 9.69444], "rotation": 270, "texture": "#0"},
				"down": {"uv": [9.13889, 9.08333, 9.75, 9.69444], "rotation": 90, "texture": "#0"}
			}
		},
		{
			"from": [1.78506, 2.96304, 2.37534],
			"to": [2.00954, 3.21143, 3.30821],
			"rotation": {"angle": 45, "axis": "x", "origin": [1.8973, 3.23396, 2.48756]},
			"faces": {
				"north": {"uv": [9.13889, 9.08333, 9.75, 9.69444], "rotation": 90, "texture": "#0"},
				"east": {"uv": [9.13889, 9.08333, 9.75, 9.69444], "rotation": 90, "texture": "#0"},
				"south": {"uv": [9.13889, 9.08333, 9.75, 9.69444], "rotation": 90, "texture": "#0"},
				"west": {"uv": [9.13889, 9.08333, 9.75, 9.69444], "rotation": 90, "texture": "#0"},
				"up": {"uv": [9.13889, 9.08333, 9.75, 9.69444], "rotation": 270, "texture": "#0"},
				"down": {"uv": [9.13889, 9.08333, 9.75, 9.69444], "rotation": 270, "texture": "#0"}
			}
		},
		{
			"from": [1.78506, 2.80019, 4.57595],
			"to": [2.00954, 3.04858, 11.94081],
			"rotation": {"angle": 0, "axis": "y", "origin": [1.8973, 2.92438, 7.82638]},
			"faces": {
				"north": {"uv": [9.13889, 9.08333, 9.75, 9.69444], "rotation": 270, "texture": "#0"},
				"east": {"uv": [9.13889, 9.08333, 9.75, 9.69444], "rotation": 270, "texture": "#0"},
				"south": {"uv": [9.13889, 9.08333, 9.75, 9.69444], "rotation": 270, "texture": "#0"},
				"west": {"uv": [9.13889, 9.08333, 9.75, 9.69444], "rotation": 270, "texture": "#0"},
				"up": {"uv": [9.13889, 9.08333, 9.75, 9.69444], "rotation": 270, "texture": "#0"},
				"down": {"uv": [9.13889, 9.08333, 9.75, 9.69444], "rotation": 270, "texture": "#0"}
			}
		},
		{
			"from": [2.28429, 5.37268, 4.90749],
			"to": [2.50877, 6.06907, 13.87236],
			"rotation": {"angle": 45, "axis": "z", "origin": [2.47653, 5.72087, 8.65752]},
			"faces": {
				"north": {"uv": [11.63889, 6.66667, 12.25, 7.27778], "rotation": 270, "texture": "#0"},
				"east": {"uv": [11.63889, 6.66667, 12.25, 7.27778], "rotation": 270, "texture": "#0"},
				"south": {"uv": [11.63889, 6.66667, 12.25, 7.27778], "rotation": 270, "texture": "#0"},
				"west": {"uv": [11.63889, 6.66667, 12.25, 7.27778], "rotation": 270, "texture": "#0"},
				"up": {"uv": [11.63889, 6.66667, 12.25, 7.27778], "rotation": 270, "texture": "#0"},
				"down": {"uv": [11.63889, 6.66667, 12.25, 7.27778], "rotation": 270, "texture": "#0"}
			}
		},
		{
			"from": [0.93363, 5.71884, 12.35276],
			"to": [1.66901, 5.78693, 13.49402],
			"rotation": {"angle": 45, "axis": "z", "origin": [1.30132, 5.75288, 12.02966]},
			"faces": {
				"north": {"uv": [2.88889, 0.22222, 3.38889, 0.72222], "rotation": 270, "texture": "#0"},
				"east": {"uv": [2.88889, 0.22222, 3.38889, 0.72222], "rotation": 270, "texture": "#0"},
				"south": {"uv": [2.88889, 0.22222, 3.38889, 0.72222], "rotation": 270, "texture": "#0"},
				"west": {"uv": [2.88889, 0.22222, 3.38889, 0.72222], "rotation": 270, "texture": "#0"},
				"up": {"uv": [2.88889, 0.22222, 3.38889, 0.72222], "rotation": 270, "texture": "#0"},
				"down": {"uv": [2.88889, 0.22222, 3.38889, 0.72222], "rotation": 270, "texture": "#0"}
			}
		},
		{
			"from": [1.01725, 4.78157, 12.35276],
			"to": [1.08534, 5.51695, 13.49402],
			"rotation": {"angle": 0, "axis": "y", "origin": [1.05129, 5.14926, 12.02966]},
			"faces": {
				"north": {"uv": [2.88889, 0.22222, 3.38889, 0.72222], "rotation": 180, "texture": "#0"},
				"east": {"uv": [2.88889, 0.22222, 3.38889, 0.72222], "rotation": 180, "texture": "#0"},
				"south": {"uv": [2.88889, 0.22222, 3.38889, 0.72222], "rotation": 180, "texture": "#0"},
				"west": {"uv": [2.88889, 0.22222, 3.38889, 0.72222], "rotation": 180, "texture": "#0"},
				"up": {"uv": [2.88889, 0.22222, 3.38889, 0.72222], "rotation": 180, "texture": "#0"},
				"down": {"uv": [2.88889, 0.22222, 3.38889, 0.72222], "rotation": 180, "texture": "#0"}
			}
		},
		{
			"from": [1.53724, 5.96886, 12.35276],
			"to": [2.27262, 6.03695, 13.49402],
			"rotation": {"angle": 0, "axis": "y", "origin": [1.02458, 5.81554, -26.4485]},
			"faces": {
				"north": {"uv": [2.88889, 0.22222, 3.38889, 0.72222], "rotation": 270, "texture": "#0"},
				"east": {"uv": [2.88889, 0.22222, 3.38889, 0.72222], "rotation": 270, "texture": "#0"},
				"south": {"uv": [2.88889, 0.22222, 3.38889, 0.72222], "rotation": 270, "texture": "#0"},
				"west": {"uv": [2.88889, 0.22222, 3.38889, 0.72222], "rotation": 270, "texture": "#0"},
				"up": {"uv": [2.88889, 0.22222, 3.38889, 0.72222], "rotation": 270, "texture": "#0"},
				"down": {"uv": [2.88889, 0.22222, 3.38889, 0.72222], "rotation": 270, "texture": "#0"}
			}
		},
		{
			"from": [1.26728, 4.17794, 12.35276],
			"to": [1.33537, 4.91332, 13.49402],
			"rotation": {"angle": 45, "axis": "z", "origin": [1.30132, 4.54563, 12.02966]},
			"faces": {
				"north": {"uv": [2.88889, 0.22222, 3.38889, 0.72222], "rotation": 180, "texture": "#0"},
				"east": {"uv": [2.88889, 0.22222, 3.38889, 0.72222], "rotation": 180, "texture": "#0"},
				"south": {"uv": [2.88889, 0.22222, 3.38889, 0.72222], "rotation": 180, "texture": "#0"},
				"west": {"uv": [2.88889, 0.22222, 3.38889, 0.72222], "rotation": 180, "texture": "#0"},
				"up": {"uv": [2.88889, 0.22222, 3.38889, 0.72222], "rotation": 180, "texture": "#0"},
				"down": {"uv": [2.88889, 0.22222, 3.38889, 0.72222], "rotation": 180, "texture": "#0"}
			}
		},
		{
			"from": [1.53726, 4.26156, 12.35276],
			"to": [2.27264, 4.32965, 13.49402],
			"rotation": {"angle": 0, "axis": "y", "origin": [1.90495, 4.2956, 12.02966]},
			"faces": {
				"north": {"uv": [2.88889, 0.22222, 3.38889, 0.72222], "rotation": 90, "texture": "#0"},
				"east": {"uv": [2.88889, 0.22222, 3.38889, 0.72222], "rotation": 90, "texture": "#0"},
				"south": {"uv": [2.88889, 0.22222, 3.38889, 0.72222], "rotation": 90, "texture": "#0"},
				"west": {"uv": [2.88889, 0.22222, 3.38889, 0.72222], "rotation": 90, "texture": "#0"},
				"up": {"uv": [2.88889, 0.22222, 3.38889, 0.72222], "rotation": 90, "texture": "#0"},
				"down": {"uv": [2.88889, 0.22222, 3.38889, 0.72222], "rotation": 90, "texture": "#0"}
			}
		},
		{
			"from": [2.14085, 4.51159, 12.35276],
			"to": [2.87623, 4.57968, 13.49402],
			"rotation": {"angle": 45, "axis": "z", "origin": [2.50854, 4.54563, 12.02966]},
			"faces": {
				"north": {"uv": [2.88889, 0.22222, 3.38889, 0.72222], "rotation": 90, "texture": "#0"},
				"east": {"uv": [2.88889, 0.22222, 3.38889, 0.72222], "rotation": 90, "texture": "#0"},
				"south": {"uv": [2.88889, 0.22222, 3.38889, 0.72222], "rotation": 90, "texture": "#0"},
				"west": {"uv": [2.88889, 0.22222, 3.38889, 0.72222], "rotation": 90, "texture": "#0"},
				"up": {"uv": [2.88889, 0.22222, 3.38889, 0.72222], "rotation": 90, "texture": "#0"},
				"down": {"uv": [2.88889, 0.22222, 3.38889, 0.72222], "rotation": 90, "texture": "#0"}
			}
		},
		{
			"from": [2.72453, 4.78157, 12.35276],
			"to": [2.79262, 5.51695, 13.49402],
			"rotation": {"angle": 0, "axis": "y", "origin": [2.75857, 5.14926, 12.02966]},
			"faces": {
				"north": {"uv": [2.88889, 0.22222, 3.38889, 0.72222], "texture": "#0"},
				"east": {"uv": [2.88889, 0.22222, 3.38889, 0.72222], "texture": "#0"},
				"south": {"uv": [2.88889, 0.22222, 3.38889, 0.72222], "texture": "#0"},
				"west": {"uv": [2.88889, 0.22222, 3.38889, 0.72222], "texture": "#0"},
				"up": {"uv": [2.88889, 0.22222, 3.38889, 0.72222], "texture": "#0"},
				"down": {"uv": [2.88889, 0.22222, 3.38889, 0.72222], "texture": "#0"}
			}
		},
		{
			"from": [2.4745, 5.38519, 12.35276],
			"to": [2.54259, 6.12058, 13.49402],
			"rotation": {"angle": 45, "axis": "z", "origin": [2.50854, 5.75288, 12.02966]},
			"faces": {
				"north": {"uv": [2.88889, 0.22222, 3.38889, 0.72222], "texture": "#0"},
				"east": {"uv": [2.88889, 0.22222, 3.38889, 0.72222], "texture": "#0"},
				"south": {"uv": [2.88889, 0.22222, 3.38889, 0.72222], "texture": "#0"},
				"west": {"uv": [2.88889, 0.22222, 3.38889, 0.72222], "texture": "#0"},
				"up": {"uv": [2.88889, 0.22222, 3.38889, 0.72222], "texture": "#0"},
				"down": {"uv": [2.88889, 0.22222, 3.38889, 0.72222], "texture": "#0"}
			}
		},
		{
			"from": [0.93363, 5.71884, 5.48076],
			"to": [1.66901, 5.78693, 6.62202],
			"rotation": {"angle": 45, "axis": "z", "origin": [1.30132, 5.75288, 5.15766]},
			"faces": {
				"north": {"uv": [2.88889, 0.22222, 3.38889, 0.72222], "rotation": 270, "texture": "#0"},
				"east": {"uv": [2.88889, 0.22222, 3.38889, 0.72222], "rotation": 270, "texture": "#0"},
				"south": {"uv": [2.88889, 0.22222, 3.38889, 0.72222], "rotation": 270, "texture": "#0"},
				"west": {"uv": [2.88889, 0.22222, 3.38889, 0.72222], "rotation": 270, "texture": "#0"},
				"up": {"uv": [2.88889, 0.22222, 3.38889, 0.72222], "rotation": 270, "texture": "#0"},
				"down": {"uv": [2.88889, 0.22222, 3.38889, 0.72222], "rotation": 270, "texture": "#0"}
			}
		},
		{
			"from": [1.01725, 4.78157, 5.48076],
			"to": [1.08534, 5.51695, 6.62202],
			"rotation": {"angle": 0, "axis": "y", "origin": [1.05129, 5.14926, 5.15766]},
			"faces": {
				"north": {"uv": [2.88889, 0.22222, 3.38889, 0.72222], "rotation": 180, "texture": "#0"},
				"east": {"uv": [2.88889, 0.22222, 3.38889, 0.72222], "rotation": 180, "texture": "#0"},
				"south": {"uv": [2.88889, 0.22222, 3.38889, 0.72222], "rotation": 180, "texture": "#0"},
				"west": {"uv": [2.88889, 0.22222, 3.38889, 0.72222], "rotation": 180, "texture": "#0"},
				"up": {"uv": [2.88889, 0.22222, 3.38889, 0.72222], "rotation": 180, "texture": "#0"},
				"down": {"uv": [2.88889, 0.22222, 3.38889, 0.72222], "rotation": 180, "texture": "#0"}
			}
		},
		{
			"from": [1.53724, 5.96886, 5.48076],
			"to": [2.27262, 6.03695, 6.62202],
			"rotation": {"angle": 0, "axis": "y", "origin": [1.02458, 5.81554, -33.3205]},
			"faces": {
				"north": {"uv": [2.88889, 0.22222, 3.38889, 0.72222], "rotation": 270, "texture": "#0"},
				"east": {"uv": [2.88889, 0.22222, 3.38889, 0.72222], "rotation": 270, "texture": "#0"},
				"south": {"uv": [2.88889, 0.22222, 3.38889, 0.72222], "rotation": 270, "texture": "#0"},
				"west": {"uv": [2.88889, 0.22222, 3.38889, 0.72222], "rotation": 270, "texture": "#0"},
				"up": {"uv": [2.88889, 0.22222, 3.38889, 0.72222], "rotation": 270, "texture": "#0"},
				"down": {"uv": [2.88889, 0.22222, 3.38889, 0.72222], "rotation": 270, "texture": "#0"}
			}
		},
		{
			"from": [1.26728, 4.17794, 5.48076],
			"to": [1.33537, 4.91332, 6.62202],
			"rotation": {"angle": 45, "axis": "z", "origin": [1.30132, 4.54563, 5.15766]},
			"faces": {
				"north": {"uv": [2.88889, 0.22222, 3.38889, 0.72222], "rotation": 180, "texture": "#0"},
				"east": {"uv": [2.88889, 0.22222, 3.38889, 0.72222], "rotation": 180, "texture": "#0"},
				"south": {"uv": [2.88889, 0.22222, 3.38889, 0.72222], "rotation": 180, "texture": "#0"},
				"west": {"uv": [2.88889, 0.22222, 3.38889, 0.72222], "rotation": 180, "texture": "#0"},
				"up": {"uv": [2.88889, 0.22222, 3.38889, 0.72222], "rotation": 180, "texture": "#0"},
				"down": {"uv": [2.88889, 0.22222, 3.38889, 0.72222], "rotation": 180, "texture": "#0"}
			}
		},
		{
			"from": [1.53726, 4.26156, 5.48076],
			"to": [2.27264, 4.32965, 6.62202],
			"rotation": {"angle": 0, "axis": "y", "origin": [1.90495, 4.2956, 5.15766]},
			"faces": {
				"north": {"uv": [2.88889, 0.22222, 3.38889, 0.72222], "rotation": 90, "texture": "#0"},
				"east": {"uv": [2.88889, 0.22222, 3.38889, 0.72222], "rotation": 90, "texture": "#0"},
				"south": {"uv": [2.88889, 0.22222, 3.38889, 0.72222], "rotation": 90, "texture": "#0"},
				"west": {"uv": [2.88889, 0.22222, 3.38889, 0.72222], "rotation": 90, "texture": "#0"},
				"up": {"uv": [2.88889, 0.22222, 3.38889, 0.72222], "rotation": 90, "texture": "#0"},
				"down": {"uv": [2.88889, 0.22222, 3.38889, 0.72222], "rotation": 90, "texture": "#0"}
			}
		},
		{
			"from": [2.14085, 4.51159, 5.48076],
			"to": [2.87623, 4.57968, 6.62202],
			"rotation": {"angle": 45, "axis": "z", "origin": [2.50854, 4.54563, 5.15766]},
			"faces": {
				"north": {"uv": [2.88889, 0.22222, 3.38889, 0.72222], "rotation": 90, "texture": "#0"},
				"east": {"uv": [2.88889, 0.22222, 3.38889, 0.72222], "rotation": 90, "texture": "#0"},
				"south": {"uv": [2.88889, 0.22222, 3.38889, 0.72222], "rotation": 90, "texture": "#0"},
				"west": {"uv": [2.88889, 0.22222, 3.38889, 0.72222], "rotation": 90, "texture": "#0"},
				"up": {"uv": [2.88889, 0.22222, 3.38889, 0.72222], "rotation": 90, "texture": "#0"},
				"down": {"uv": [2.88889, 0.22222, 3.38889, 0.72222], "rotation": 90, "texture": "#0"}
			}
		},
		{
			"from": [2.72453, 4.78157, 5.48076],
			"to": [2.79262, 5.51695, 6.62202],
			"rotation": {"angle": 0, "axis": "y", "origin": [2.75857, 5.14926, 5.15766]},
			"faces": {
				"north": {"uv": [2.88889, 0.22222, 3.38889, 0.72222], "texture": "#0"},
				"east": {"uv": [2.88889, 0.22222, 3.38889, 0.72222], "texture": "#0"},
				"south": {"uv": [2.88889, 0.22222, 3.38889, 0.72222], "texture": "#0"},
				"west": {"uv": [2.88889, 0.22222, 3.38889, 0.72222], "texture": "#0"},
				"up": {"uv": [2.88889, 0.22222, 3.38889, 0.72222], "texture": "#0"},
				"down": {"uv": [2.88889, 0.22222, 3.38889, 0.72222], "texture": "#0"}
			}
		},
		{
			"from": [2.4745, 5.38519, 5.48076],
			"to": [2.54259, 6.12058, 6.62202],
			"rotation": {"angle": 45, "axis": "z", "origin": [2.50854, 5.75288, 5.15766]},
			"faces": {
				"north": {"uv": [2.88889, 0.22222, 3.38889, 0.72222], "texture": "#0"},
				"east": {"uv": [2.88889, 0.22222, 3.38889, 0.72222], "texture": "#0"},
				"south": {"uv": [2.88889, 0.22222, 3.38889, 0.72222], "texture": "#0"},
				"west": {"uv": [2.88889, 0.22222, 3.38889, 0.72222], "texture": "#0"},
				"up": {"uv": [2.88889, 0.22222, 3.38889, 0.72222], "texture": "#0"},
				"down": {"uv": [2.88889, 0.22222, 3.38889, 0.72222], "texture": "#0"}
			}
		},
		{
			"from": [1.46074, 4.4214, 5.09949],
			"to": [2.34912, 5.79788, 13.68035],
			"rotation": {"angle": 0, "axis": "y", "origin": [1.07127, 5.5882, -27.78013]},
			"faces": {
				"north": {"uv": [3.72222, 8.75, 4.33333, 9.36111], "rotation": 270, "texture": "#0"},
				"east": {"uv": [3.72222, 8.75, 4.33333, 9.36111], "rotation": 270, "texture": "#0"},
				"south": {"uv": [3.72222, 8.75, 4.33333, 9.36111], "rotation": 270, "texture": "#0"},
				"west": {"uv": [3.72222, 8.75, 4.33333, 9.36111], "rotation": 270, "texture": "#0"},
				"up": {"uv": [3.72222, 8.75, 4.33333, 9.36111], "rotation": 270, "texture": "#0"},
				"down": {"uv": [3.72222, 8.75, 4.33333, 9.36111], "rotation": 270, "texture": "#0"}
			}
		},
		{
			"from": [1.28832, 4.70507, 5.09949],
			"to": [2.6008, 5.59345, 13.68036],
			"rotation": {"angle": 0, "axis": "y", "origin": [1.32056, 5.14926, 8.65752]},
			"faces": {
				"north": {"uv": [3.72222, 8.75, 4.33333, 9.36111], "rotation": 270, "texture": "#0"},
				"east": {"uv": [3.72222, 8.75, 4.33333, 9.36111], "rotation": 270, "texture": "#0"},
				"south": {"uv": [3.72222, 8.75, 4.33333, 9.36111], "rotation": 270, "texture": "#0"},
				"west": {"uv": [3.72222, 8.75, 4.33333, 9.36111], "rotation": 270, "texture": "#0"},
				"up": {"uv": [3.72222, 8.75, 4.33333, 9.36111], "rotation": 270, "texture": "#0"},
				"down": {"uv": [3.72222, 8.75, 4.33333, 9.36111], "rotation": 270, "texture": "#0"}
			}
		}
	],
	"display": {
		"thirdperson_righthand": {
			"rotation": [90, 0, 0],
			"translation": [6, 0.25, 3.75]
		},
		"thirdperson_lefthand": {
			"rotation": [90, 0, 0],
			"translation": [-6.5, 0.25, 3.75]
		},
		"firstperson_righthand": {
			"rotation": [74, 34, 0],
			"translation": [2.5, 7.75, 5.75]
		},
		"firstperson_lefthand": {
			"rotation": [74, 34, 0],
			"translation": [-8.5, 0.75, 9.25]
		},
		"ground": {
			"rotation": [55, 0, 0],
			"translation": [5.75, 5, -0.25]
		},
		"gui": {
			"rotation": [69, 33, -30],
			"translation": [11, 7.5, 0],
			"scale": [1.84, 1.88, 1.62]
		},
		"head": {
			"translation": [6.25, 0, 0]
		},
		"fixed": {
			"rotation": [90, 45, -90],
			"translation": [2.5, 3.5, -7.5]
		}
	},
	"groups": [
		{
			"name": "mods",
			"origin": [8, 8, 8],
			"color": 0,
			"children": [
				{
					"name": "uni_carbine_mortar",
					"origin": [8, 8, 8],
					"color": 0,
					"children": [
						{
							"name": "group",
							"origin": [8, 8, 8],
							"color": 0,
							"children": [
								{
									"name": "Ringo",
									"origin": [8.323, 10.45186, -9.018],
									"color": 0,
									"children": [0, 1, 2, 3, 4, 5, 6, 7, 8, 9, 10, 11, 12, 13, 14, 15, 16]
								},
								{
									"name": "Ringo",
									"origin": [8.323, 10.45186, -9.018],
									"color": 0,
									"children": [17, 18, 19, 20, 21, 22, 23, 24]
								},
								{
									"name": "Ringo",
									"origin": [8.323, 10.45186, -9.018],
									"color": 0,
									"children": [25, 26, 27, 28, 29, 30, 31, 32]
								}
							]
						},
						33,
						34
					]
				}
			]
		}
	]
}