{
	"credit": "Made with Blockbench",
	"textures": {
		"0": "gci:items/common/mpz",
		"particle": "gci:items/common/mpz"
	},
	"elements": [
		{
			"from": [2, 5, 5.6],
			"to": [4, 5.15, 8],
			"rotation": {"angle": 0, "axis": "y", "origin": [10, 12.2, 13]},
			"faces": {
				"north": {"uv": [3.33333, 11.33333, 4.66667, 12.33333], "texture": "#0"},
				"east": {"uv": [3.33333, 11.33333, 4.66667, 12.33333], "texture": "#0"},
				"south": {"uv": [3.33333, 11.33333, 4.66667, 12.33333], "texture": "#0"},
				"west": {"uv": [3.33333, 11.33333, 4.66667, 12.33333], "texture": "#0"},
				"up": {"uv": [3.33333, 11.33333, 4.66667, 12.33333], "texture": "#0"},
				"down": {"uv": [3.33333, 11.33333, 4.66667, 12.33333], "texture": "#0"}
			}
		},
		{
			"from": [2, 5, 5],
			"to": [2.2, 5.15, 5.6],
			"rotation": {"angle": 0, "axis": "y", "origin": [10, 12.2, 12.4]},
			"faces": {
				"north": {"uv": [3.33333, 11.33333, 4.66667, 12.33333], "texture": "#0"},
				"east": {"uv": [3.33333, 11.33333, 4.66667, 12.33333], "texture": "#0"},
				"south": {"uv": [3.33333, 11.33333, 4.66667, 12.33333], "texture": "#0"},
				"west": {"uv": [3.33333, 11.33333, 4.66667, 12.33333], "texture": "#0"},
				"up": {"uv": [3.33333, 11.33333, 4.66667, 12.33333], "texture": "#0"},
				"down": {"uv": [3.33333, 11.33333, 4.66667, 12.33333], "texture": "#0"}
			}
		},
		{
			"from": [2, 4.8, 5],
			"to": [4, 5, 8],
			"rotation": {"angle": 0, "axis": "y", "origin": [10, 12, 13]},
			"faces": {
				"north": {"uv": [3.33333, 11.33333, 4.66667, 12.33333], "texture": "#0"},
				"east": {"uv": [3.33333, 11.33333, 4.66667, 12.33333], "texture": "#0"},
				"south": {"uv": [3.33333, 11.33333, 4.66667, 12.33333], "texture": "#0"},
				"west": {"uv": [3.33333, 11.33333, 4.66667, 12.33333], "texture": "#0"},
				"up": {"uv": [3.33333, 11.33333, 4.66667, 12.33333], "texture": "#0"},
				"down": {"uv": [3.33333, 11.33333, 4.66667, 12.33333], "texture": "#0"}
			}
		},
		{
			"from": [3.6, 5, 5],
			"to": [4, 5.15, 5.6],
			"rotation": {"angle": 0, "axis": "y", "origin": [11.8, 12.2, 12.4]},
			"faces": {
				"north": {"uv": [3.33333, 11.33333, 4.66667, 12.33333], "texture": "#0"},
				"east": {"uv": [3.33333, 11.33333, 4.66667, 12.33333], "texture": "#0"},
				"south": {"uv": [3.33333, 11.33333, 4.66667, 12.33333], "texture": "#0"},
				"west": {"uv": [3.33333, 11.33333, 4.66667, 12.33333], "texture": "#0"},
				"up": {"uv": [3.33333, 11.33333, 4.66667, 12.33333], "texture": "#0"},
				"down": {"uv": [3.33333, 11.33333, 4.66667, 12.33333], "texture": "#0"}
			}
		},
		{
			"from": [1.95, 4.95, 5.1],
			"to": [2.05, 5.1, 7.9],
			"rotation": {"angle": 0, "axis": "y", "origin": [10, 12.2, 13]},
			"faces": {
				"north": {"uv": [5.66667, 0.66667, 7.33333, 2], "texture": "#0"},
				"east": {"uv": [5.66667, 0.66667, 7.33333, 2], "texture": "#0"},
				"south": {"uv": [5.66667, 0.66667, 7.33333, 2], "texture": "#0"},
				"west": {"uv": [5.66667, 0.66667, 7.33333, 2], "texture": "#0"},
				"up": {"uv": [5.66667, 0.66667, 7.33333, 2], "texture": "#0"},
				"down": {"uv": [5.66667, 0.66667, 7.33333, 2], "texture": "#0"}
			}
		},
		{
			"from": [1.95, 4.75, 5.1],
			"to": [4.05, 4.95, 7.9],
			"rotation": {"angle": 0, "axis": "y", "origin": [10, 12, 13]},
			"faces": {
				"north": {"uv": [5.66667, 0.66667, 7.33333, 2], "texture": "#0"},
				"east": {"uv": [5.66667, 0.66667, 7.33333, 2], "texture": "#0"},
				"south": {"uv": [5.66667, 0.66667, 7.33333, 2], "texture": "#0"},
				"west": {"uv": [5.66667, 0.66667, 7.33333, 2], "texture": "#0"},
				"up": {"uv": [5.66667, 0.66667, 7.33333, 2], "texture": "#0"},
				"down": {"uv": [5.66667, 0.66667, 7.33333, 2], "texture": "#0"}
			}
		},
		{
			"from": [3.95, 4.95, 5.1],
			"to": [4.05, 5.1, 7.9],
			"rotation": {"angle": 0, "axis": "y", "origin": [12, 12.2, 13]},
			"faces": {
				"north": {"uv": [5.66667, 0.66667, 7.33333, 2], "texture": "#0"},
				"east": {"uv": [5.66667, 0.66667, 7.33333, 2], "texture": "#0"},
				"south": {"uv": [5.66667, 0.66667, 7.33333, 2], "texture": "#0"},
				"west": {"uv": [5.66667, 0.66667, 7.33333, 2], "texture": "#0"},
				"up": {"uv": [5.66667, 0.66667, 7.33333, 2], "texture": "#0"},
				"down": {"uv": [5.66667, 0.66667, 7.33333, 2], "texture": "#0"}
			}
		},
		{
			"from": [2.1, 5.11, 5.7],
			"to": [2.3, 5.16, 5.781],
			"rotation": {"angle": 0, "axis": "y", "origin": [10.1, 12.3, 13.1]},
			"faces": {
				"north": {"uv": [9, 3.33333, 9.66667, 4], "texture": "#0"},
				"east": {"uv": [9, 3.33333, 9.66667, 4], "texture": "#0"},
				"south": {"uv": [9, 3.33333, 9.66667, 4], "texture": "#0"},
				"west": {"uv": [9, 3.33333, 9.66667, 4], "texture": "#0"},
				"up": {"uv": [9, 3.33333, 9.66667, 4], "texture": "#0"},
				"down": {"uv": [9, 3.33333, 9.66667, 4], "texture": "#0"}
			}
		},
		{
			"from": [2.1, 5.11, 5.7],
			"to": [2.3, 5.16, 5.781],
			"rotation": {"angle": 45, "axis": "y", "origin": [2.2, 5.135, 5.7405]},
			"faces": {
				"north": {"uv": [9, 3.33333, 9.66667, 4], "texture": "#0"},
				"east": {"uv": [9, 3.33333, 9.66667, 4], "texture": "#0"},
				"south": {"uv": [9, 3.33333, 9.66667, 4], "texture": "#0"},
				"west": {"uv": [9, 3.33333, 9.66667, 4], "texture": "#0"},
				"up": {"uv": [9, 3.33333, 9.66667, 4], "texture": "#0"},
				"down": {"uv": [9, 3.33333, 9.66667, 4], "texture": "#0"}
			}
		},
		{
			"from": [2.1595, 5.11, 5.6405],
			"to": [2.2405, 5.16, 5.8405],
			"rotation": {"angle": 45, "axis": "y", "origin": [2.2, 5.135, 5.7405]},
			"faces": {
				"north": {"uv": [9, 3.33333, 9.66667, 4], "texture": "#0"},
				"east": {"uv": [9, 3.33333, 9.66667, 4], "texture": "#0"},
				"south": {"uv": [9, 3.33333, 9.66667, 4], "texture": "#0"},
				"west": {"uv": [9, 3.33333, 9.66667, 4], "texture": "#0"},
				"up": {"uv": [9, 3.33333, 9.66667, 4], "texture": "#0"},
				"down": {"uv": [9, 3.33333, 9.66667, 4], "texture": "#0"}
			}
		},
		{
			"from": [2.1595, 5.11, 5.6405],
			"to": [2.2405, 5.16, 5.8405],
			"rotation": {"angle": 0, "axis": "y", "origin": [2.2, 5.135, 5.7405]},
			"faces": {
				"north": {"uv": [9, 3.33333, 9.66667, 4], "texture": "#0"},
				"east": {"uv": [9, 3.33333, 9.66667, 4], "texture": "#0"},
				"south": {"uv": [9, 3.33333, 9.66667, 4], "texture": "#0"},
				"west": {"uv": [9, 3.33333, 9.66667, 4], "texture": "#0"},
				"up": {"uv": [9, 3.33333, 9.66667, 4], "texture": "#0"},
				"down": {"uv": [9, 3.33333, 9.66667, 4], "texture": "#0"}
			}
		},
		{
			"from": [3.7, 5.11, 5.7],
			"to": [3.9, 5.16, 5.781],
			"rotation": {"angle": 0, "axis": "y", "origin": [11.7, 12.3, 13.1]},
			"faces": {
				"north": {"uv": [9, 3.66667, 9.66667, 4.33333], "texture": "#0"},
				"east": {"uv": [9, 3.66667, 9.66667, 4.33333], "texture": "#0"},
				"south": {"uv": [9, 3.66667, 9.66667, 4.33333], "texture": "#0"},
				"west": {"uv": [9, 3.66667, 9.66667, 4.33333], "texture": "#0"},
				"up": {"uv": [9, 3.66667, 9.66667, 4.33333], "texture": "#0"},
				"down": {"uv": [9, 3.66667, 9.66667, 4.33333], "texture": "#0"}
			}
		},
		{
			"from": [3.7, 5.11, 5.7],
			"to": [3.9, 5.16, 5.781],
			"rotation": {"angle": 45, "axis": "y", "origin": [3.8, 5.135, 5.7405]},
			"faces": {
				"north": {"uv": [9, 3.66667, 9.66667, 4.33333], "texture": "#0"},
				"east": {"uv": [9, 3.66667, 9.66667, 4.33333], "texture": "#0"},
				"south": {"uv": [9, 3.66667, 9.66667, 4.33333], "texture": "#0"},
				"west": {"uv": [9, 3.66667, 9.66667, 4.33333], "texture": "#0"},
				"up": {"uv": [9, 3.66667, 9.66667, 4.33333], "texture": "#0"},
				"down": {"uv": [9, 3.66667, 9.66667, 4.33333], "texture": "#0"}
			}
		},
		{
			"from": [3.7595, 5.11, 5.6405],
			"to": [3.8405, 5.16, 5.8405],
			"rotation": {"angle": 45, "axis": "y", "origin": [3.8, 5.135, 5.7405]},
			"faces": {
				"north": {"uv": [9, 3.66667, 9.66667, 4.33333], "texture": "#0"},
				"east": {"uv": [9, 3.66667, 9.66667, 4.33333], "texture": "#0"},
				"south": {"uv": [9, 3.66667, 9.66667, 4.33333], "texture": "#0"},
				"west": {"uv": [9, 3.66667, 9.66667, 4.33333], "texture": "#0"},
				"up": {"uv": [9, 3.66667, 9.66667, 4.33333], "texture": "#0"},
				"down": {"uv": [9, 3.66667, 9.66667, 4.33333], "texture": "#0"}
			}
		},
		{
			"from": [3.7595, 5.11, 5.6405],
			"to": [3.8405, 5.16, 5.8405],
			"rotation": {"angle": 0, "axis": "y", "origin": [3.8, 5.135, 5.7405]},
			"faces": {
				"north": {"uv": [9, 3.66667, 9.66667, 4.33333], "texture": "#0"},
				"east": {"uv": [9, 3.66667, 9.66667, 4.33333], "texture": "#0"},
				"south": {"uv": [9, 3.66667, 9.66667, 4.33333], "texture": "#0"},
				"west": {"uv": [9, 3.66667, 9.66667, 4.33333], "texture": "#0"},
				"up": {"uv": [9, 3.66667, 9.66667, 4.33333], "texture": "#0"},
				"down": {"uv": [9, 3.66667, 9.66667, 4.33333], "texture": "#0"}
			}
		},
		{
			"from": [3.7, 5.11, 7.7],
			"to": [3.9, 5.16, 7.781],
			"rotation": {"angle": 0, "axis": "y", "origin": [11.7, 12.3, 15.1]},
			"faces": {
				"north": {"uv": [9, 4, 10, 4.66667], "texture": "#0"},
				"east": {"uv": [9, 4, 10, 4.66667], "texture": "#0"},
				"south": {"uv": [9, 4, 10, 4.66667], "texture": "#0"},
				"west": {"uv": [9, 4, 10, 4.66667], "texture": "#0"},
				"up": {"uv": [9, 4, 10, 4.66667], "texture": "#0"},
				"down": {"uv": [9, 4, 10, 4.66667], "texture": "#0"}
			}
		},
		{
			"from": [3.7, 5.11, 7.7],
			"to": [3.9, 5.16, 7.781],
			"rotation": {"angle": 45, "axis": "y", "origin": [3.8, 5.135, 7.7405]},
			"faces": {
				"north": {"uv": [9, 4, 10, 4.66667], "texture": "#0"},
				"east": {"uv": [9, 4, 10, 4.66667], "texture": "#0"},
				"south": {"uv": [9, 4, 10, 4.66667], "texture": "#0"},
				"west": {"uv": [9, 4, 10, 4.66667], "texture": "#0"},
				"up": {"uv": [9, 4, 10, 4.66667], "texture": "#0"},
				"down": {"uv": [9, 4, 10, 4.66667], "texture": "#0"}
			}
		},
		{
			"from": [3.7595, 5.11, 7.6405],
			"to": [3.8405, 5.16, 7.8405],
			"rotation": {"angle": 45, "axis": "y", "origin": [3.8, 5.135, 7.7405]},
			"faces": {
				"north": {"uv": [9, 4, 10, 4.66667], "texture": "#0"},
				"east": {"uv": [9, 4, 10, 4.66667], "texture": "#0"},
				"south": {"uv": [9, 4, 10, 4.66667], "texture": "#0"},
				"west": {"uv": [9, 4, 10, 4.66667], "texture": "#0"},
				"up": {"uv": [9, 4, 10, 4.66667], "texture": "#0"},
				"down": {"uv": [9, 4, 10, 4.66667], "texture": "#0"}
			}
		},
		{
			"from": [3.7595, 5.11, 7.6405],
			"to": [3.8405, 5.16, 7.8405],
			"rotation": {"angle": 0, "axis": "y", "origin": [3.8, 5.135, 7.7405]},
			"faces": {
				"north": {"uv": [9, 4, 10, 4.66667], "texture": "#0"},
				"east": {"uv": [9, 4, 10, 4.66667], "texture": "#0"},
				"south": {"uv": [9, 4, 10, 4.66667], "texture": "#0"},
				"west": {"uv": [9, 4, 10, 4.66667], "texture": "#0"},
				"up": {"uv": [9, 4, 10, 4.66667], "texture": "#0"},
				"down": {"uv": [9, 4, 10, 4.66667], "texture": "#0"}
			}
		},
		{
			"from": [2.1, 5.11, 7.7],
			"to": [2.3, 5.16, 7.781],
			"rotation": {"angle": 0, "axis": "y", "origin": [10.1, 12.3, 15.1]},
			"faces": {
				"north": {"uv": [8.66667, 3.66667, 9.66667, 4.33333], "texture": "#0"},
				"east": {"uv": [8.66667, 3.66667, 9.66667, 4.33333], "texture": "#0"},
				"south": {"uv": [8.66667, 3.66667, 9.66667, 4.33333], "texture": "#0"},
				"west": {"uv": [8.66667, 3.66667, 9.66667, 4.33333], "texture": "#0"},
				"up": {"uv": [8.66667, 3.66667, 9.66667, 4.33333], "texture": "#0"},
				"down": {"uv": [8.66667, 3.66667, 9.66667, 4.33333], "texture": "#0"}
			}
		},
		{
			"from": [2.1, 5.11, 7.7],
			"to": [2.3, 5.16, 7.781],
			"rotation": {"angle": 45, "axis": "y", "origin": [2.2, 5.135, 7.7405]},
			"faces": {
				"north": {"uv": [8.66667, 3.66667, 9.66667, 4.33333], "texture": "#0"},
				"east": {"uv": [8.66667, 3.66667, 9.66667, 4.33333], "texture": "#0"},
				"south": {"uv": [8.66667, 3.66667, 9.66667, 4.33333], "texture": "#0"},
				"west": {"uv": [8.66667, 3.66667, 9.66667, 4.33333], "texture": "#0"},
				"up": {"uv": [8.66667, 3.66667, 9.66667, 4.33333], "texture": "#0"},
				"down": {"uv": [8.66667, 3.66667, 9.66667, 4.33333], "texture": "#0"}
			}
		},
		{
			"from": [2.1595, 5.11, 7.6405],
			"to": [2.2405, 5.16, 7.8405],
			"rotation": {"angle": 45, "axis": "y", "origin": [2.2, 5.135, 7.7405]},
			"faces": {
				"north": {"uv": [8.66667, 3.66667, 9.66667, 4.33333], "texture": "#0"},
				"east": {"uv": [8.66667, 3.66667, 9.66667, 4.33333], "texture": "#0"},
				"south": {"uv": [8.66667, 3.66667, 9.66667, 4.33333], "texture": "#0"},
				"west": {"uv": [8.66667, 3.66667, 9.66667, 4.33333], "texture": "#0"},
				"up": {"uv": [8.66667, 3.66667, 9.66667, 4.33333], "texture": "#0"},
				"down": {"uv": [8.66667, 3.66667, 9.66667, 4.33333], "texture": "#0"}
			}
		},
		{
			"from": [2.1595, 5.11, 7.6405],
			"to": [2.2405, 5.16, 7.8405],
			"rotation": {"angle": 0, "axis": "y", "origin": [2.2, 5.135, 7.7405]},
			"faces": {
				"north": {"uv": [8.66667, 3.66667, 9.66667, 4.33333], "texture": "#0"},
				"east": {"uv": [8.66667, 3.66667, 9.66667, 4.33333], "texture": "#0"},
				"south": {"uv": [8.66667, 3.66667, 9.66667, 4.33333], "texture": "#0"},
				"west": {"uv": [8.66667, 3.66667, 9.66667, 4.33333], "texture": "#0"},
				"up": {"uv": [8.66667, 3.66667, 9.66667, 4.33333], "texture": "#0"},
				"down": {"uv": [8.66667, 3.66667, 9.66667, 4.33333], "texture": "#0"}
			}
		},
		{
			"from": [2.9, 5.05, 5.1],
			"to": [3.5, 5.1, 5.6],
			"rotation": {"angle": 0, "axis": "y", "origin": [11.3, 12.2, 12.4]},
			"faces": {
				"north": {"uv": [3.33333, 11.66667, 4, 12.33333], "texture": "#0"},
				"east": {"uv": [3.33333, 11.66667, 4, 12.33333], "texture": "#0"},
				"south": {"uv": [3.33333, 11.66667, 4, 12.33333], "texture": "#0"},
				"west": {"uv": [3.33333, 11.66667, 4, 12.33333], "texture": "#0"},
				"up": {"uv": [3.33333, 11.66667, 4, 12.33333], "texture": "#0"},
				"down": {"uv": [3.33333, 11.66667, 4, 12.33333], "texture": "#0"}
			}
		},
		{
			"from": [2.925, 5.055, 5.15],
			"to": [2.975, 5.105, 5.55],
			"rotation": {"angle": 0, "axis": "y", "origin": [11.3, 12.25, 12.4]},
			"faces": {
				"north": {"uv": [11.33333, 4, 12, 4.66667], "texture": "#0"},
				"east": {"uv": [11.33333, 4, 12, 4.66667], "texture": "#0"},
				"south": {"uv": [11.33333, 4, 12, 4.66667], "texture": "#0"},
				"west": {"uv": [11.33333, 4, 12, 4.66667], "texture": "#0"},
				"up": {"uv": [11.33333, 4, 12, 4.66667], "texture": "#0"},
				"down": {"uv": [11.33333, 4, 12, 4.66667], "texture": "#0"}
			}
		},
		{
			"from": [3.025, 5.055, 5.15],
			"to": [3.075, 5.105, 5.55],
			"rotation": {"angle": 0, "axis": "y", "origin": [11.4, 12.25, 12.4]},
			"faces": {
				"north": {"uv": [11.33333, 4, 12, 4.66667], "texture": "#0"},
				"east": {"uv": [11.33333, 4, 12, 4.66667], "texture": "#0"},
				"south": {"uv": [11.33333, 4, 12, 4.66667], "texture": "#0"},
				"west": {"uv": [11.33333, 4, 12, 4.66667], "texture": "#0"},
				"up": {"uv": [11.33333, 4, 12, 4.66667], "texture": "#0"},
				"down": {"uv": [11.33333, 4, 12, 4.66667], "texture": "#0"}
			}
		},
		{
			"from": [3.125, 5.055, 5.15],
			"to": [3.175, 5.105, 5.55],
			"rotation": {"angle": 0, "axis": "y", "origin": [11.5, 12.25, 12.4]},
			"faces": {
				"north": {"uv": [11.33333, 4, 12, 4.66667], "texture": "#0"},
				"east": {"uv": [11.33333, 4, 12, 4.66667], "texture": "#0"},
				"south": {"uv": [11.33333, 4, 12, 4.66667], "texture": "#0"},
				"west": {"uv": [11.33333, 4, 12, 4.66667], "texture": "#0"},
				"up": {"uv": [11.33333, 4, 12, 4.66667], "texture": "#0"},
				"down": {"uv": [11.33333, 4, 12, 4.66667], "texture": "#0"}
			}
		},
		{
			"from": [3.225, 5.055, 5.15],
			"to": [3.275, 5.105, 5.55],
			"rotation": {"angle": 0, "axis": "y", "origin": [11.6, 12.25, 12.4]},
			"faces": {
				"north": {"uv": [11.33333, 4, 12, 4.66667], "texture": "#0"},
				"east": {"uv": [11.33333, 4, 12, 4.66667], "texture": "#0"},
				"south": {"uv": [11.33333, 4, 12, 4.66667], "texture": "#0"},
				"west": {"uv": [11.33333, 4, 12, 4.66667], "texture": "#0"},
				"up": {"uv": [11.33333, 4, 12, 4.66667], "texture": "#0"},
				"down": {"uv": [11.33333, 4, 12, 4.66667], "texture": "#0"}
			}
		},
		{
			"from": [3.325, 5.055, 5.15],
			"to": [3.375, 5.105, 5.55],
			"rotation": {"angle": 0, "axis": "y", "origin": [11.7, 12.25, 12.4]},
			"faces": {
				"north": {"uv": [11.33333, 4, 12, 4.66667], "texture": "#0"},
				"east": {"uv": [11.33333, 4, 12, 4.66667], "texture": "#0"},
				"south": {"uv": [11.33333, 4, 12, 4.66667], "texture": "#0"},
				"west": {"uv": [11.33333, 4, 12, 4.66667], "texture": "#0"},
				"up": {"uv": [11.33333, 4, 12, 4.66667], "texture": "#0"},
				"down": {"uv": [11.33333, 4, 12, 4.66667], "texture": "#0"}
			}
		},
		{
			"from": [3.425, 5.055, 5.15],
			"to": [3.475, 5.105, 5.55],
			"rotation": {"angle": 0, "axis": "y", "origin": [11.8, 12.25, 12.4]},
			"faces": {
				"north": {"uv": [11.33333, 4, 12, 4.66667], "texture": "#0"},
				"east": {"uv": [11.33333, 4, 12, 4.66667], "texture": "#0"},
				"south": {"uv": [11.33333, 4, 12, 4.66667], "texture": "#0"},
				"west": {"uv": [11.33333, 4, 12, 4.66667], "texture": "#0"},
				"up": {"uv": [11.33333, 4, 12, 4.66667], "texture": "#0"},
				"down": {"uv": [11.33333, 4, 12, 4.66667], "texture": "#0"}
			}
		},
		{
			"from": [2.3, 5.05, 5.1],
			"to": [2.7, 5.1, 5.6],
			"rotation": {"angle": 0, "axis": "y", "origin": [10.7, 12.2, 12.4]},
			"faces": {
				"north": {"uv": [4, 11.33333, 4.66667, 12], "texture": "#0"},
				"east": {"uv": [4, 11.33333, 4.66667, 12], "texture": "#0"},
				"south": {"uv": [4, 11.33333, 4.66667, 12], "texture": "#0"},
				"west": {"uv": [4, 11.33333, 4.66667, 12], "texture": "#0"},
				"up": {"uv": [4, 11.33333, 4.66667, 12], "texture": "#0"},
				"down": {"uv": [4, 11.33333, 4.66667, 12], "texture": "#0"}
			}
		},
		{
			"from": [2.625, 5.055, 5.15],
			"to": [2.675, 5.105, 5.55],
			"rotation": {"angle": 0, "axis": "y", "origin": [11, 12.25, 12.4]},
			"faces": {
				"north": {"uv": [11.66667, 3.66667, 12.33333, 4.33333], "texture": "#0"},
				"east": {"uv": [11.66667, 3.66667, 12.33333, 4.33333], "texture": "#0"},
				"south": {"uv": [11.66667, 3.66667, 12.33333, 4.33333], "texture": "#0"},
				"west": {"uv": [11.66667, 3.66667, 12.33333, 4.33333], "texture": "#0"},
				"up": {"uv": [11.66667, 3.66667, 12.33333, 4.33333], "texture": "#0"},
				"down": {"uv": [11.66667, 3.66667, 12.33333, 4.33333], "texture": "#0"}
			}
		},
		{
			"from": [2.525, 5.055, 5.15],
			"to": [2.575, 5.105, 5.55],
			"rotation": {"angle": 0, "axis": "y", "origin": [10.9, 12.25, 12.4]},
			"faces": {
				"north": {"uv": [11.66667, 3.66667, 12.33333, 4.33333], "texture": "#0"},
				"east": {"uv": [11.66667, 3.66667, 12.33333, 4.33333], "texture": "#0"},
				"south": {"uv": [11.66667, 3.66667, 12.33333, 4.33333], "texture": "#0"},
				"west": {"uv": [11.66667, 3.66667, 12.33333, 4.33333], "texture": "#0"},
				"up": {"uv": [11.66667, 3.66667, 12.33333, 4.33333], "texture": "#0"},
				"down": {"uv": [11.66667, 3.66667, 12.33333, 4.33333], "texture": "#0"}
			}
		},
		{
			"from": [2.425, 5.055, 5.15],
			"to": [2.475, 5.105, 5.55],
			"rotation": {"angle": 0, "axis": "y", "origin": [10.8, 12.25, 12.4]},
			"faces": {
				"north": {"uv": [11.66667, 3.66667, 12.33333, 4.33333], "texture": "#0"},
				"east": {"uv": [11.66667, 3.66667, 12.33333, 4.33333], "texture": "#0"},
				"south": {"uv": [11.66667, 3.66667, 12.33333, 4.33333], "texture": "#0"},
				"west": {"uv": [11.66667, 3.66667, 12.33333, 4.33333], "texture": "#0"},
				"up": {"uv": [11.66667, 3.66667, 12.33333, 4.33333], "texture": "#0"},
				"down": {"uv": [11.66667, 3.66667, 12.33333, 4.33333], "texture": "#0"}
			}
		},
		{
			"from": [2.325, 5.055, 5.15],
			"to": [2.375, 5.105, 5.55],
			"rotation": {"angle": 0, "axis": "y", "origin": [10.7, 12.25, 12.4]},
			"faces": {
				"north": {"uv": [11.66667, 3.66667, 12.33333, 4.33333], "texture": "#0"},
				"east": {"uv": [11.66667, 3.66667, 12.33333, 4.33333], "texture": "#0"},
				"south": {"uv": [11.66667, 3.66667, 12.33333, 4.33333], "texture": "#0"},
				"west": {"uv": [11.66667, 3.66667, 12.33333, 4.33333], "texture": "#0"},
				"up": {"uv": [11.66667, 3.66667, 12.33333, 4.33333], "texture": "#0"},
				"down": {"uv": [11.66667, 3.66667, 12.33333, 4.33333], "texture": "#0"}
			}
		},
		{
			"name": "Sticker",
			"from": [2.2, 5.01, 6],
			"to": [3.8, 5.152, 7.5],
			"rotation": {"angle": 0, "axis": "y", "origin": [10, 12.2, 13]},
			"faces": {
				"north": {"uv": [3, 3.66667, 4.66667, 4.33333], "texture": "#0"},
				"east": {"uv": [3, 3.66667, 4.66667, 4.33333], "texture": "#0"},
				"south": {"uv": [3, 3.66667, 4.66667, 4.33333], "texture": "#0"},
				"west": {"uv": [3, 3.66667, 4.66667, 4.33333], "texture": "#0"},
				"up": {"uv": [3, 3.66667, 4.66667, 4.33333], "texture": "#0"},
				"down": {"uv": [3, 3.66667, 4.66667, 4.33333], "texture": "#0"}
			}
		}
	],
	"display": {
		"thirdperson_righthand": {
			"rotation": [90, 0, 0],
			"translation": [4.5, -1.75, 4.25]
		},
		"thirdperson_lefthand": {
			"rotation": [90, 0, 0],
			"translation": [-5.25, -1.75, 4]
		},
		"firstperson_righthand": {
			"rotation": [50, 0, 0],
			"translation": [0, 3.5, 7.5]
		},
		"firstperson_lefthand": {
			"rotation": [59, 0, 0],
			"translation": [-9, 2.5, 6.25]
		},
		"ground": {
			"translation": [6.25, 1.75, 0]
		},
		"gui": {
			"rotation": [44, -23, -14],
			"translation": [13.75, -3.25, 0],
			"scale": [3, 3, 3]
		},
		"head": {
			"rotation": [-90, 0, 0],
			"translation": [0, -22, 0.5]
		},
		"fixed": {
			"rotation": [-90, -45, 0],
			"translation": [2.5, 5, -4.5]
		}
	},
	"groups": [
		{
			"name": "base",
			"origin": [8, 8, 8],
			"children": [
				{
					"name": "Chassis",
					"origin": [11.8, 12.2, 12.4],
					"children": [0, 1, 2, 3,
						{
							"name": "box",
							"origin": [12, 12.2, 13],
							"children": [4, 5, 6]
						},
						{
							"name": "bolt",
							"origin": [2.2, 5.135, 5.7405],
							"children": [7, 8, 9, 10]
						},
						{
							"name": "bolt",
							"origin": [2.2, 5.135, 5.7405],
							"children": [11, 12, 13, 14]
						},
						{
							"name": "bolt",
							"origin": [2.2, 5.135, 5.7405],
							"children": [15, 16, 17, 18]
						},
						{
							"name": "bolt",
							"origin": [2.2, 5.135, 5.7405],
							"children": [19, 20, 21, 22]
						}
					]
				},
				{
					"name": "Data_cleat",
					"origin": [11.3, 12.2, 12.4],
					"children": [23, 24, 25, 26, 27, 28, 29]
				},
				{
					"name": "Power_cleat",
					"origin": [10.7, 12.25, 12.4],
					"children": [30, 31, 32, 33, 34]
				}, 35]
		}
	]
}