{
	"credit": "Made with Blockbench",
	"textures": {
		"0": "gci:items/common/mpz",
		"particle": "gci:items/common/mpz"
	},
	"elements": [
		{
			"from": [3.88, 7.1, 5.3],
			"to": [3.98, 7.9, 5.63],
			"rotation": {"angle": 0, "axis": "y", "origin": [3.93, 7.5, 5.465]},
			"faces": {
				"north": {"uv": [1, 3.66667, 1.66667, 4.33333], "texture": "#0"},
				"east": {"uv": [1, 3.66667, 1.66667, 4.33333], "texture": "#0"},
				"south": {"uv": [1, 3.66667, 1.66667, 4.33333], "texture": "#0"},
				"west": {"uv": [1, 3.66667, 1.66667, 4.33333], "texture": "#0"},
				"up": {"uv": [1, 3.66667, 1.66667, 4.33333], "texture": "#0"},
				"down": {"uv": [1, 3.66667, 1.66667, 4.33333], "texture": "#0"}
			}
		},
		{
			"from": [3.88, 7.1, 0.9],
			"to": [3.98, 7.2, 5.63],
			"rotation": {"angle": 0, "axis": "y", "origin": [3.93, 6.8, 1.065]},
			"faces": {
				"north": {"uv": [1, 3.66667, 1.66667, 4.33333], "texture": "#0"},
				"east": {"uv": [1, 3.66667, 1.66667, 4.33333], "texture": "#0"},
				"south": {"uv": [1, 3.66667, 1.66667, 4.33333], "texture": "#0"},
				"west": {"uv": [1, 3.66667, 1.66667, 4.33333], "texture": "#0"},
				"up": {"uv": [1, 3.66667, 1.66667, 4.33333], "texture": "#0"},
				"down": {"uv": [1, 3.66667, 1.66667, 4.33333], "texture": "#0"}
			}
		},
		{
			"from": [3.88, 7.1, 6],
			"to": [3.98, 7.2, 10.73],
			"rotation": {"angle": 0, "axis": "y", "origin": [3.93, 6.8, 6.165]},
			"faces": {
				"north": {"uv": [1, 3.66667, 1.66667, 4.33333], "texture": "#0"},
				"east": {"uv": [1, 3.66667, 1.66667, 4.33333], "texture": "#0"},
				"south": {"uv": [1, 3.66667, 1.66667, 4.33333], "texture": "#0"},
				"west": {"uv": [1, 3.66667, 1.66667, 4.33333], "texture": "#0"},
				"up": {"uv": [1, 3.66667, 1.66667, 4.33333], "texture": "#0"},
				"down": {"uv": [1, 3.66667, 1.66667, 4.33333], "texture": "#0"}
			}
		},
		{
			"from": [3.88, 7.335, 5.065],
			"to": [3.98, 7.665, 5.865],
			"rotation": {"angle": 45, "axis": "x", "origin": [3.93, 7.5, 5.465]},
			"faces": {
				"north": {"uv": [1, 3.66667, 1.66667, 4.33333], "rotation": 180, "texture": "#0"},
				"east": {"uv": [1, 3.66667, 1.66667, 4.33333], "rotation": 180, "texture": "#0"},
				"south": {"uv": [1, 3.66667, 1.66667, 4.33333], "rotation": 180, "texture": "#0"},
				"west": {"uv": [1, 3.66667, 1.66667, 4.33333], "rotation": 180, "texture": "#0"},
				"up": {"uv": [1, 3.66667, 1.66667, 4.33333], "rotation": 180, "texture": "#0"},
				"down": {"uv": [1, 3.66667, 1.66667, 4.33333], "rotation": 180, "texture": "#0"}
			}
		},
		{
			"from": [3.88, 7.335, 5.065],
			"to": [3.98, 7.665, 5.865],
			"rotation": {"angle": 0, "axis": "x", "origin": [3.93, 7.5, 5.465]},
			"faces": {
				"north": {"uv": [1, 3.66667, 1.66667, 4.33333], "rotation": 180, "texture": "#0"},
				"east": {"uv": [1, 3.66667, 1.66667, 4.33333], "rotation": 180, "texture": "#0"},
				"south": {"uv": [1, 3.66667, 1.66667, 4.33333], "rotation": 180, "texture": "#0"},
				"west": {"uv": [1, 3.66667, 1.66667, 4.33333], "rotation": 180, "texture": "#0"},
				"up": {"uv": [1, 3.66667, 1.66667, 4.33333], "rotation": 180, "texture": "#0"},
				"down": {"uv": [1, 3.66667, 1.66667, 4.33333], "rotation": 180, "texture": "#0"}
			}
		},
		{
			"from": [3.88, 7.1, 5.3],
			"to": [3.98, 7.9, 5.63],
			"rotation": {"angle": 45, "axis": "x", "origin": [3.93, 7.5, 5.465]},
			"faces": {
				"north": {"uv": [1, 3.66667, 1.66667, 4.33333], "texture": "#0"},
				"east": {"uv": [1, 3.66667, 1.66667, 4.33333], "texture": "#0"},
				"south": {"uv": [1, 3.66667, 1.66667, 4.33333], "texture": "#0"},
				"west": {"uv": [1, 3.66667, 1.66667, 4.33333], "texture": "#0"},
				"up": {"uv": [1, 3.66667, 1.66667, 4.33333], "texture": "#0"},
				"down": {"uv": [1, 3.66667, 1.66667, 4.33333], "texture": "#0"}
			}
		},
		{
			"from": [3.76, 7.1, 5.3],
			"to": [3.86, 7.9, 5.63],
			"rotation": {"angle": 0, "axis": "y", "origin": [3.83, 7.5, 5.465]},
			"faces": {
				"north": {"uv": [1, 3.66667, 1.66667, 4.33333], "texture": "#0"},
				"east": {"uv": [1, 3.66667, 1.66667, 4.33333], "texture": "#0"},
				"south": {"uv": [1, 3.66667, 1.66667, 4.33333], "texture": "#0"},
				"west": {"uv": [1, 3.66667, 1.66667, 4.33333], "texture": "#0"},
				"up": {"uv": [1, 3.66667, 1.66667, 4.33333], "texture": "#0"},
				"down": {"uv": [1, 3.66667, 1.66667, 4.33333], "texture": "#0"}
			}
		},
		{
			"from": [3.76, 7.335, 5.065],
			"to": [3.86, 7.665, 5.865],
			"rotation": {"angle": 45, "axis": "x", "origin": [3.83, 7.5, 5.465]},
			"faces": {
				"north": {"uv": [1, 3.66667, 1.66667, 4.33333], "rotation": 180, "texture": "#0"},
				"east": {"uv": [1, 3.66667, 1.66667, 4.33333], "rotation": 180, "texture": "#0"},
				"south": {"uv": [1, 3.66667, 1.66667, 4.33333], "rotation": 180, "texture": "#0"},
				"west": {"uv": [1, 3.66667, 1.66667, 4.33333], "rotation": 180, "texture": "#0"},
				"up": {"uv": [1, 3.66667, 1.66667, 4.33333], "rotation": 180, "texture": "#0"},
				"down": {"uv": [1, 3.66667, 1.66667, 4.33333], "rotation": 180, "texture": "#0"}
			}
		},
		{
			"from": [3.76, 7.335, 5.065],
			"to": [3.86, 7.665, 5.865],
			"rotation": {"angle": 0, "axis": "x", "origin": [3.83, 7.5, 5.465]},
			"faces": {
				"north": {"uv": [1, 3.66667, 1.66667, 4.33333], "rotation": 180, "texture": "#0"},
				"east": {"uv": [1, 3.66667, 1.66667, 4.33333], "rotation": 180, "texture": "#0"},
				"south": {"uv": [1, 3.66667, 1.66667, 4.33333], "rotation": 180, "texture": "#0"},
				"west": {"uv": [1, 3.66667, 1.66667, 4.33333], "rotation": 180, "texture": "#0"},
				"up": {"uv": [1, 3.66667, 1.66667, 4.33333], "rotation": 180, "texture": "#0"},
				"down": {"uv": [1, 3.66667, 1.66667, 4.33333], "rotation": 180, "texture": "#0"}
			}
		},
		{
			"from": [3.76, 7.1, 5.3],
			"to": [3.86, 7.9, 5.63],
			"rotation": {"angle": 45, "axis": "x", "origin": [3.83, 7.5, 5.465]},
			"faces": {
				"north": {"uv": [1, 3.66667, 1.66667, 4.33333], "texture": "#0"},
				"east": {"uv": [1, 3.66667, 1.66667, 4.33333], "texture": "#0"},
				"south": {"uv": [1, 3.66667, 1.66667, 4.33333], "texture": "#0"},
				"west": {"uv": [1, 3.66667, 1.66667, 4.33333], "texture": "#0"},
				"up": {"uv": [1, 3.66667, 1.66667, 4.33333], "texture": "#0"},
				"down": {"uv": [1, 3.66667, 1.66667, 4.33333], "texture": "#0"}
			}
		},
		{
			"from": [3.76, 8.75815, 1.29688],
			"to": [3.86, 8.85815, 6.02688],
			"rotation": {"angle": 45, "axis": "x", "origin": [3.81, 8.80815, 3.66188]},
			"faces": {
				"north": {"uv": [1, 3.66667, 1.66667, 4.33333], "texture": "#0"},
				"east": {"uv": [1, 3.66667, 1.66667, 4.33333], "texture": "#0"},
				"south": {"uv": [1, 3.66667, 1.66667, 4.33333], "texture": "#0"},
				"west": {"uv": [1, 3.66667, 1.66667, 4.33333], "texture": "#0"},
				"up": {"uv": [1, 3.66667, 1.66667, 4.33333], "texture": "#0"},
				"down": {"uv": [1, 3.66667, 1.66667, 4.33333], "texture": "#0"}
			}
		},
		{
			"from": [3.76, 7.1, 6],
			"to": [3.86, 7.2, 10.73],
			"rotation": {"angle": 0, "axis": "y", "origin": [3.81, 6.8, 6.165]},
			"faces": {
				"north": {"uv": [1, 3.66667, 1.66667, 4.33333], "texture": "#0"},
				"east": {"uv": [1, 3.66667, 1.66667, 4.33333], "texture": "#0"},
				"south": {"uv": [1, 3.66667, 1.66667, 4.33333], "texture": "#0"},
				"west": {"uv": [1, 3.66667, 1.66667, 4.33333], "texture": "#0"},
				"up": {"uv": [1, 3.66667, 1.66667, 4.33333], "texture": "#0"},
				"down": {"uv": [1, 3.66667, 1.66667, 4.33333], "texture": "#0"}
			}
		},
		{
			"from": [3.64, 7.1, 5.3],
			"to": [3.74, 7.9, 5.63],
			"rotation": {"angle": 0, "axis": "y", "origin": [3.73, 7.5, 5.465]},
			"faces": {
				"north": {"uv": [1, 3.66667, 1.66667, 4.33333], "texture": "#0"},
				"east": {"uv": [1, 3.66667, 1.66667, 4.33333], "texture": "#0"},
				"south": {"uv": [1, 3.66667, 1.66667, 4.33333], "texture": "#0"},
				"west": {"uv": [1, 3.66667, 1.66667, 4.33333], "texture": "#0"},
				"up": {"uv": [1, 3.66667, 1.66667, 4.33333], "texture": "#0"},
				"down": {"uv": [1, 3.66667, 1.66667, 4.33333], "texture": "#0"}
			}
		},
		{
			"from": [3.64, 7.335, 5.065],
			"to": [3.74, 7.665, 5.865],
			"rotation": {"angle": 45, "axis": "x", "origin": [3.73, 7.5, 5.465]},
			"faces": {
				"north": {"uv": [1, 3.66667, 1.66667, 4.33333], "rotation": 180, "texture": "#0"},
				"east": {"uv": [1, 3.66667, 1.66667, 4.33333], "rotation": 180, "texture": "#0"},
				"south": {"uv": [1, 3.66667, 1.66667, 4.33333], "rotation": 180, "texture": "#0"},
				"west": {"uv": [1, 3.66667, 1.66667, 4.33333], "rotation": 180, "texture": "#0"},
				"up": {"uv": [1, 3.66667, 1.66667, 4.33333], "rotation": 180, "texture": "#0"},
				"down": {"uv": [1, 3.66667, 1.66667, 4.33333], "rotation": 180, "texture": "#0"}
			}
		},
		{
			"from": [3.64, 7.335, 5.065],
			"to": [3.74, 7.665, 5.865],
			"rotation": {"angle": 0, "axis": "x", "origin": [3.73, 7.5, 5.465]},
			"faces": {
				"north": {"uv": [1, 3.66667, 1.66667, 4.33333], "rotation": 180, "texture": "#0"},
				"east": {"uv": [1, 3.66667, 1.66667, 4.33333], "rotation": 180, "texture": "#0"},
				"south": {"uv": [1, 3.66667, 1.66667, 4.33333], "rotation": 180, "texture": "#0"},
				"west": {"uv": [1, 3.66667, 1.66667, 4.33333], "rotation": 180, "texture": "#0"},
				"up": {"uv": [1, 3.66667, 1.66667, 4.33333], "rotation": 180, "texture": "#0"},
				"down": {"uv": [1, 3.66667, 1.66667, 4.33333], "rotation": 180, "texture": "#0"}
			}
		},
		{
			"from": [3.64, 7.1, 5.3],
			"to": [3.74, 7.9, 5.63],
			"rotation": {"angle": 45, "axis": "x", "origin": [3.73, 7.5, 5.465]},
			"faces": {
				"north": {"uv": [1, 3.66667, 1.66667, 4.33333], "texture": "#0"},
				"east": {"uv": [1, 3.66667, 1.66667, 4.33333], "texture": "#0"},
				"south": {"uv": [1, 3.66667, 1.66667, 4.33333], "texture": "#0"},
				"west": {"uv": [1, 3.66667, 1.66667, 4.33333], "texture": "#0"},
				"up": {"uv": [1, 3.66667, 1.66667, 4.33333], "texture": "#0"},
				"down": {"uv": [1, 3.66667, 1.66667, 4.33333], "texture": "#0"}
			}
		},
		{
			"from": [3.64, 7.8, 5.3],
			"to": [3.74, 7.9, 10.03],
			"rotation": {"angle": 0, "axis": "y", "origin": [3.69, 7.5, 5.465]},
			"faces": {
				"north": {"uv": [1, 3.66667, 1.66667, 4.33333], "texture": "#0"},
				"east": {"uv": [1, 3.66667, 1.66667, 4.33333], "texture": "#0"},
				"south": {"uv": [1, 3.66667, 1.66667, 4.33333], "texture": "#0"},
				"west": {"uv": [1, 3.66667, 1.66667, 4.33333], "texture": "#0"},
				"up": {"uv": [1, 3.66667, 1.66667, 4.33333], "texture": "#0"},
				"down": {"uv": [1, 3.66667, 1.66667, 4.33333], "texture": "#0"}
			}
		},
		{
			"from": [3.64, 7.1, 6],
			"to": [3.74, 7.2, 10.73],
			"rotation": {"angle": 0, "axis": "y", "origin": [3.69, 6.8, 6.165]},
			"faces": {
				"north": {"uv": [1, 3.66667, 1.66667, 4.33333], "texture": "#0"},
				"east": {"uv": [1, 3.66667, 1.66667, 4.33333], "texture": "#0"},
				"south": {"uv": [1, 3.66667, 1.66667, 4.33333], "texture": "#0"},
				"west": {"uv": [1, 3.66667, 1.66667, 4.33333], "texture": "#0"},
				"up": {"uv": [1, 3.66667, 1.66667, 4.33333], "texture": "#0"},
				"down": {"uv": [1, 3.66667, 1.66667, 4.33333], "texture": "#0"}
			}
		},
		{
			"from": [3.52, 7.1, 5.3],
			"to": [3.62, 7.9, 5.63],
			"rotation": {"angle": 0, "axis": "y", "origin": [3.63, 7.5, 5.465]},
			"faces": {
				"north": {"uv": [1, 3.66667, 1.66667, 4.33333], "texture": "#0"},
				"east": {"uv": [1, 3.66667, 1.66667, 4.33333], "texture": "#0"},
				"south": {"uv": [1, 3.66667, 1.66667, 4.33333], "texture": "#0"},
				"west": {"uv": [1, 3.66667, 1.66667, 4.33333], "texture": "#0"},
				"up": {"uv": [1, 3.66667, 1.66667, 4.33333], "texture": "#0"},
				"down": {"uv": [1, 3.66667, 1.66667, 4.33333], "texture": "#0"}
			}
		},
		{
			"from": [3.52, 7.335, 5.065],
			"to": [3.62, 7.665, 5.865],
			"rotation": {"angle": 45, "axis": "x", "origin": [3.63, 7.5, 5.465]},
			"faces": {
				"north": {"uv": [1, 3.66667, 1.66667, 4.33333], "rotation": 180, "texture": "#0"},
				"east": {"uv": [1, 3.66667, 1.66667, 4.33333], "rotation": 180, "texture": "#0"},
				"south": {"uv": [1, 3.66667, 1.66667, 4.33333], "rotation": 180, "texture": "#0"},
				"west": {"uv": [1, 3.66667, 1.66667, 4.33333], "rotation": 180, "texture": "#0"},
				"up": {"uv": [1, 3.66667, 1.66667, 4.33333], "rotation": 180, "texture": "#0"},
				"down": {"uv": [1, 3.66667, 1.66667, 4.33333], "rotation": 180, "texture": "#0"}
			}
		},
		{
			"from": [3.52, 7.335, 5.065],
			"to": [3.62, 7.665, 5.865],
			"rotation": {"angle": 0, "axis": "x", "origin": [3.63, 7.5, 5.465]},
			"faces": {
				"north": {"uv": [1, 3.66667, 1.66667, 4.33333], "rotation": 180, "texture": "#0"},
				"east": {"uv": [1, 3.66667, 1.66667, 4.33333], "rotation": 180, "texture": "#0"},
				"south": {"uv": [1, 3.66667, 1.66667, 4.33333], "rotation": 180, "texture": "#0"},
				"west": {"uv": [1, 3.66667, 1.66667, 4.33333], "rotation": 180, "texture": "#0"},
				"up": {"uv": [1, 3.66667, 1.66667, 4.33333], "rotation": 180, "texture": "#0"},
				"down": {"uv": [1, 3.66667, 1.66667, 4.33333], "rotation": 180, "texture": "#0"}
			}
		},
		{
			"from": [3.52, 7.1, 5.3],
			"to": [3.62, 7.9, 5.63],
			"rotation": {"angle": 45, "axis": "x", "origin": [3.63, 7.5, 5.465]},
			"faces": {
				"north": {"uv": [1, 3.66667, 1.66667, 4.33333], "texture": "#0"},
				"east": {"uv": [1, 3.66667, 1.66667, 4.33333], "texture": "#0"},
				"south": {"uv": [1, 3.66667, 1.66667, 4.33333], "texture": "#0"},
				"west": {"uv": [1, 3.66667, 1.66667, 4.33333], "texture": "#0"},
				"up": {"uv": [1, 3.66667, 1.66667, 4.33333], "texture": "#0"},
				"down": {"uv": [1, 3.66667, 1.66667, 4.33333], "texture": "#0"}
			}
		},
		{
			"from": [3.52, 7.8, 5.3],
			"to": [3.62, 7.9, 10.03],
			"rotation": {"angle": 0, "axis": "y", "origin": [3.57, 7.5, 5.465]},
			"faces": {
				"north": {"uv": [1, 3.66667, 1.66667, 4.33333], "texture": "#0"},
				"east": {"uv": [1, 3.66667, 1.66667, 4.33333], "texture": "#0"},
				"south": {"uv": [1, 3.66667, 1.66667, 4.33333], "texture": "#0"},
				"west": {"uv": [1, 3.66667, 1.66667, 4.33333], "texture": "#0"},
				"up": {"uv": [1, 3.66667, 1.66667, 4.33333], "texture": "#0"},
				"down": {"uv": [1, 3.66667, 1.66667, 4.33333], "texture": "#0"}
			}
		},
		{
			"from": [3.52, 7.1, 6],
			"to": [3.62, 7.2, 10.73],
			"rotation": {"angle": 0, "axis": "y", "origin": [3.57, 6.8, 6.165]},
			"faces": {
				"north": {"uv": [1, 3.66667, 1.66667, 4.33333], "texture": "#0"},
				"east": {"uv": [1, 3.66667, 1.66667, 4.33333], "texture": "#0"},
				"south": {"uv": [1, 3.66667, 1.66667, 4.33333], "texture": "#0"},
				"west": {"uv": [1, 3.66667, 1.66667, 4.33333], "texture": "#0"},
				"up": {"uv": [1, 3.66667, 1.66667, 4.33333], "texture": "#0"},
				"down": {"uv": [1, 3.66667, 1.66667, 4.33333], "texture": "#0"}
			}
		},
		{
			"from": [3.4, 7.1, 5.3],
			"to": [3.5, 7.9, 5.63],
			"rotation": {"angle": 0, "axis": "y", "origin": [3.53, 7.5, 5.465]},
			"faces": {
				"north": {"uv": [1, 3.66667, 1.66667, 4.33333], "texture": "#0"},
				"east": {"uv": [1, 3.66667, 1.66667, 4.33333], "texture": "#0"},
				"south": {"uv": [1, 3.66667, 1.66667, 4.33333], "texture": "#0"},
				"west": {"uv": [1, 3.66667, 1.66667, 4.33333], "texture": "#0"},
				"up": {"uv": [1, 3.66667, 1.66667, 4.33333], "texture": "#0"},
				"down": {"uv": [1, 3.66667, 1.66667, 4.33333], "texture": "#0"}
			}
		},
		{
			"from": [3.4, 7.335, 5.065],
			"to": [3.5, 7.665, 5.865],
			"rotation": {"angle": 45, "axis": "x", "origin": [3.53, 7.5, 5.465]},
			"faces": {
				"north": {"uv": [1, 3.66667, 1.66667, 4.33333], "rotation": 180, "texture": "#0"},
				"east": {"uv": [1, 3.66667, 1.66667, 4.33333], "rotation": 180, "texture": "#0"},
				"south": {"uv": [1, 3.66667, 1.66667, 4.33333], "rotation": 180, "texture": "#0"},
				"west": {"uv": [1, 3.66667, 1.66667, 4.33333], "rotation": 180, "texture": "#0"},
				"up": {"uv": [1, 3.66667, 1.66667, 4.33333], "rotation": 180, "texture": "#0"},
				"down": {"uv": [1, 3.66667, 1.66667, 4.33333], "rotation": 180, "texture": "#0"}
			}
		},
		{
			"from": [3.4, 7.335, 5.065],
			"to": [3.5, 7.665, 5.865],
			"rotation": {"angle": 0, "axis": "x", "origin": [3.53, 7.5, 5.465]},
			"faces": {
				"north": {"uv": [1, 3.66667, 1.66667, 4.33333], "rotation": 180, "texture": "#0"},
				"east": {"uv": [1, 3.66667, 1.66667, 4.33333], "rotation": 180, "texture": "#0"},
				"south": {"uv": [1, 3.66667, 1.66667, 4.33333], "rotation": 180, "texture": "#0"},
				"west": {"uv": [1, 3.66667, 1.66667, 4.33333], "rotation": 180, "texture": "#0"},
				"up": {"uv": [1, 3.66667, 1.66667, 4.33333], "rotation": 180, "texture": "#0"},
				"down": {"uv": [1, 3.66667, 1.66667, 4.33333], "rotation": 180, "texture": "#0"}
			}
		},
		{
			"from": [3.4, 7.1, 5.3],
			"to": [3.5, 7.9, 5.63],
			"rotation": {"angle": 45, "axis": "x", "origin": [3.53, 7.5, 5.465]},
			"faces": {
				"north": {"uv": [1, 3.66667, 1.66667, 4.33333], "texture": "#0"},
				"east": {"uv": [1, 3.66667, 1.66667, 4.33333], "texture": "#0"},
				"south": {"uv": [1, 3.66667, 1.66667, 4.33333], "texture": "#0"},
				"west": {"uv": [1, 3.66667, 1.66667, 4.33333], "texture": "#0"},
				"up": {"uv": [1, 3.66667, 1.66667, 4.33333], "texture": "#0"},
				"down": {"uv": [1, 3.66667, 1.66667, 4.33333], "texture": "#0"}
			}
		},
		{
			"from": [3.4, 7.8, 5.3],
			"to": [3.5, 7.9, 10.03],
			"rotation": {"angle": 0, "axis": "y", "origin": [3.45, 7.5, 5.465]},
			"faces": {
				"north": {"uv": [1, 3.66667, 1.66667, 4.33333], "texture": "#0"},
				"east": {"uv": [1, 3.66667, 1.66667, 4.33333], "texture": "#0"},
				"south": {"uv": [1, 3.66667, 1.66667, 4.33333], "texture": "#0"},
				"west": {"uv": [1, 3.66667, 1.66667, 4.33333], "texture": "#0"},
				"up": {"uv": [1, 3.66667, 1.66667, 4.33333], "texture": "#0"},
				"down": {"uv": [1, 3.66667, 1.66667, 4.33333], "texture": "#0"}
			}
		},
		{
			"from": [3.4, 7.1, 6],
			"to": [3.5, 7.2, 10.73],
			"rotation": {"angle": 0, "axis": "y", "origin": [3.45, 6.8, 6.165]},
			"faces": {
				"north": {"uv": [1, 3.66667, 1.66667, 4.33333], "texture": "#0"},
				"east": {"uv": [1, 3.66667, 1.66667, 4.33333], "texture": "#0"},
				"south": {"uv": [1, 3.66667, 1.66667, 4.33333], "texture": "#0"},
				"west": {"uv": [1, 3.66667, 1.66667, 4.33333], "texture": "#0"},
				"up": {"uv": [1, 3.66667, 1.66667, 4.33333], "texture": "#0"},
				"down": {"uv": [1, 3.66667, 1.66667, 4.33333], "texture": "#0"}
			}
		},
		{
			"from": [3.28, 7.1, 5.3],
			"to": [3.38, 7.9, 5.63],
			"rotation": {"angle": 0, "axis": "y", "origin": [3.43, 7.5, 5.465]},
			"faces": {
				"north": {"uv": [1, 3.66667, 1.66667, 4.33333], "texture": "#0"},
				"east": {"uv": [1, 3.66667, 1.66667, 4.33333], "texture": "#0"},
				"south": {"uv": [1, 3.66667, 1.66667, 4.33333], "texture": "#0"},
				"west": {"uv": [1, 3.66667, 1.66667, 4.33333], "texture": "#0"},
				"up": {"uv": [1, 3.66667, 1.66667, 4.33333], "texture": "#0"},
				"down": {"uv": [1, 3.66667, 1.66667, 4.33333], "texture": "#0"}
			}
		},
		{
			"from": [3.28, 7.335, 5.065],
			"to": [3.38, 7.665, 5.865],
			"rotation": {"angle": 45, "axis": "x", "origin": [3.43, 7.5, 5.465]},
			"faces": {
				"north": {"uv": [1, 3.66667, 1.66667, 4.33333], "rotation": 180, "texture": "#0"},
				"east": {"uv": [1, 3.66667, 1.66667, 4.33333], "rotation": 180, "texture": "#0"},
				"south": {"uv": [1, 3.66667, 1.66667, 4.33333], "rotation": 180, "texture": "#0"},
				"west": {"uv": [1, 3.66667, 1.66667, 4.33333], "rotation": 180, "texture": "#0"},
				"up": {"uv": [1, 3.66667, 1.66667, 4.33333], "rotation": 180, "texture": "#0"},
				"down": {"uv": [1, 3.66667, 1.66667, 4.33333], "rotation": 180, "texture": "#0"}
			}
		},
		{
			"from": [3.28, 7.335, 5.065],
			"to": [3.38, 7.665, 5.865],
			"rotation": {"angle": 0, "axis": "x", "origin": [3.43, 7.5, 5.465]},
			"faces": {
				"north": {"uv": [1, 3.66667, 1.66667, 4.33333], "rotation": 180, "texture": "#0"},
				"east": {"uv": [1, 3.66667, 1.66667, 4.33333], "rotation": 180, "texture": "#0"},
				"south": {"uv": [1, 3.66667, 1.66667, 4.33333], "rotation": 180, "texture": "#0"},
				"west": {"uv": [1, 3.66667, 1.66667, 4.33333], "rotation": 180, "texture": "#0"},
				"up": {"uv": [1, 3.66667, 1.66667, 4.33333], "rotation": 180, "texture": "#0"},
				"down": {"uv": [1, 3.66667, 1.66667, 4.33333], "rotation": 180, "texture": "#0"}
			}
		},
		{
			"from": [3.28, 7.1, 5.3],
			"to": [3.38, 7.9, 5.63],
			"rotation": {"angle": 45, "axis": "x", "origin": [3.43, 7.5, 5.465]},
			"faces": {
				"north": {"uv": [1, 3.66667, 1.66667, 4.33333], "texture": "#0"},
				"east": {"uv": [1, 3.66667, 1.66667, 4.33333], "texture": "#0"},
				"south": {"uv": [1, 3.66667, 1.66667, 4.33333], "texture": "#0"},
				"west": {"uv": [1, 3.66667, 1.66667, 4.33333], "texture": "#0"},
				"up": {"uv": [1, 3.66667, 1.66667, 4.33333], "texture": "#0"},
				"down": {"uv": [1, 3.66667, 1.66667, 4.33333], "texture": "#0"}
			}
		},
		{
			"from": [3.28, 7.8, 5.3],
			"to": [3.38, 7.9, 10.03],
			"rotation": {"angle": 0, "axis": "y", "origin": [3.33, 7.5, 5.465]},
			"faces": {
				"north": {"uv": [1, 3.66667, 1.66667, 4.33333], "texture": "#0"},
				"east": {"uv": [1, 3.66667, 1.66667, 4.33333], "texture": "#0"},
				"south": {"uv": [1, 3.66667, 1.66667, 4.33333], "texture": "#0"},
				"west": {"uv": [1, 3.66667, 1.66667, 4.33333], "texture": "#0"},
				"up": {"uv": [1, 3.66667, 1.66667, 4.33333], "texture": "#0"},
				"down": {"uv": [1, 3.66667, 1.66667, 4.33333], "texture": "#0"}
			}
		},
		{
			"from": [3.28, 7.1, 6],
			"to": [3.38, 7.2, 10.73],
			"rotation": {"angle": 0, "axis": "y", "origin": [3.33, 6.8, 6.165]},
			"faces": {
				"north": {"uv": [1, 3.66667, 1.66667, 4.33333], "texture": "#0"},
				"east": {"uv": [1, 3.66667, 1.66667, 4.33333], "texture": "#0"},
				"south": {"uv": [1, 3.66667, 1.66667, 4.33333], "texture": "#0"},
				"west": {"uv": [1, 3.66667, 1.66667, 4.33333], "texture": "#0"},
				"up": {"uv": [1, 3.66667, 1.66667, 4.33333], "texture": "#0"},
				"down": {"uv": [1, 3.66667, 1.66667, 4.33333], "texture": "#0"}
			}
		},
		{
			"from": [3.88, 7.1, 10.4],
			"to": [3.98, 7.9, 10.73],
			"rotation": {"angle": 0, "axis": "y", "origin": [3.93, 7.5, 10.565]},
			"faces": {
				"north": {"uv": [1, 3.33333, 1.66667, 4], "texture": "#0"},
				"east": {"uv": [1, 3.33333, 1.66667, 4], "texture": "#0"},
				"south": {"uv": [1, 3.33333, 1.66667, 4], "texture": "#0"},
				"west": {"uv": [1, 3.33333, 1.66667, 4], "texture": "#0"},
				"up": {"uv": [1, 3.33333, 1.66667, 4], "texture": "#0"},
				"down": {"uv": [1, 3.33333, 1.66667, 4], "texture": "#0"}
			}
		},
		{
			"from": [3.88, 7.335, 10.165],
			"to": [3.98, 7.665, 10.965],
			"rotation": {"angle": 45, "axis": "x", "origin": [3.93, 7.5, 10.565]},
			"faces": {
				"north": {"uv": [1, 3.33333, 1.66667, 4], "rotation": 180, "texture": "#0"},
				"east": {"uv": [1, 3.33333, 1.66667, 4], "rotation": 180, "texture": "#0"},
				"south": {"uv": [1, 3.33333, 1.66667, 4], "rotation": 180, "texture": "#0"},
				"west": {"uv": [1, 3.33333, 1.66667, 4], "rotation": 180, "texture": "#0"},
				"up": {"uv": [1, 3.33333, 1.66667, 4], "rotation": 180, "texture": "#0"},
				"down": {"uv": [1, 3.33333, 1.66667, 4], "rotation": 180, "texture": "#0"}
			}
		},
		{
			"from": [3.88, 7.335, 10.165],
			"to": [3.98, 7.665, 10.965],
			"rotation": {"angle": 0, "axis": "x", "origin": [3.93, 7.5, 10.565]},
			"faces": {
				"north": {"uv": [1, 3.33333, 1.66667, 4], "rotation": 180, "texture": "#0"},
				"east": {"uv": [1, 3.33333, 1.66667, 4], "rotation": 180, "texture": "#0"},
				"south": {"uv": [1, 3.33333, 1.66667, 4], "rotation": 180, "texture": "#0"},
				"west": {"uv": [1, 3.33333, 1.66667, 4], "rotation": 180, "texture": "#0"},
				"up": {"uv": [1, 3.33333, 1.66667, 4], "rotation": 180, "texture": "#0"},
				"down": {"uv": [1, 3.33333, 1.66667, 4], "rotation": 180, "texture": "#0"}
			}
		},
		{
			"from": [3.88, 7.1, 10.4],
			"to": [3.98, 7.9, 10.73],
			"rotation": {"angle": 45, "axis": "x", "origin": [3.93, 7.5, 10.565]},
			"faces": {
				"north": {"uv": [1, 3.33333, 1.66667, 4], "texture": "#0"},
				"east": {"uv": [1, 3.33333, 1.66667, 4], "texture": "#0"},
				"south": {"uv": [1, 3.33333, 1.66667, 4], "texture": "#0"},
				"west": {"uv": [1, 3.33333, 1.66667, 4], "texture": "#0"},
				"up": {"uv": [1, 3.33333, 1.66667, 4], "texture": "#0"},
				"down": {"uv": [1, 3.33333, 1.66667, 4], "texture": "#0"}
			}
		},
		{
			"from": [3.76, 7.1, 10.4],
			"to": [3.86, 7.9, 10.73],
			"rotation": {"angle": 0, "axis": "y", "origin": [3.83, 7.5, 10.565]},
			"faces": {
				"north": {"uv": [1, 3.33333, 1.66667, 4], "texture": "#0"},
				"east": {"uv": [1, 3.33333, 1.66667, 4], "texture": "#0"},
				"south": {"uv": [1, 3.33333, 1.66667, 4], "texture": "#0"},
				"west": {"uv": [1, 3.33333, 1.66667, 4], "texture": "#0"},
				"up": {"uv": [1, 3.33333, 1.66667, 4], "texture": "#0"},
				"down": {"uv": [1, 3.33333, 1.66667, 4], "texture": "#0"}
			}
		},
		{
			"from": [3.76, 7.335, 10.165],
			"to": [3.86, 7.665, 10.965],
			"rotation": {"angle": 45, "axis": "x", "origin": [3.83, 7.5, 10.565]},
			"faces": {
				"north": {"uv": [1, 3.33333, 1.66667, 4], "rotation": 180, "texture": "#0"},
				"east": {"uv": [1, 3.33333, 1.66667, 4], "rotation": 180, "texture": "#0"},
				"south": {"uv": [1, 3.33333, 1.66667, 4], "rotation": 180, "texture": "#0"},
				"west": {"uv": [1, 3.33333, 1.66667, 4], "rotation": 180, "texture": "#0"},
				"up": {"uv": [1, 3.33333, 1.66667, 4], "rotation": 180, "texture": "#0"},
				"down": {"uv": [1, 3.33333, 1.66667, 4], "rotation": 180, "texture": "#0"}
			}
		},
		{
			"from": [3.76, 7.335, 10.165],
			"to": [3.86, 7.665, 10.965],
			"rotation": {"angle": 0, "axis": "x", "origin": [3.83, 7.5, 10.565]},
			"faces": {
				"north": {"uv": [1, 3.33333, 1.66667, 4], "rotation": 180, "texture": "#0"},
				"east": {"uv": [1, 3.33333, 1.66667, 4], "rotation": 180, "texture": "#0"},
				"south": {"uv": [1, 3.33333, 1.66667, 4], "rotation": 180, "texture": "#0"},
				"west": {"uv": [1, 3.33333, 1.66667, 4], "rotation": 180, "texture": "#0"},
				"up": {"uv": [1, 3.33333, 1.66667, 4], "rotation": 180, "texture": "#0"},
				"down": {"uv": [1, 3.33333, 1.66667, 4], "rotation": 180, "texture": "#0"}
			}
		},
		{
			"from": [3.76, 7.1, 10.4],
			"to": [3.86, 7.9, 10.73],
			"rotation": {"angle": 45, "axis": "x", "origin": [3.83, 7.5, 10.565]},
			"faces": {
				"north": {"uv": [1, 3.33333, 1.66667, 4], "texture": "#0"},
				"east": {"uv": [1, 3.33333, 1.66667, 4], "texture": "#0"},
				"south": {"uv": [1, 3.33333, 1.66667, 4], "texture": "#0"},
				"west": {"uv": [1, 3.33333, 1.66667, 4], "texture": "#0"},
				"up": {"uv": [1, 3.33333, 1.66667, 4], "texture": "#0"},
				"down": {"uv": [1, 3.33333, 1.66667, 4], "texture": "#0"}
			}
		},
		{
			"from": [3.64, 7.1, 10.4],
			"to": [3.74, 7.9, 10.73],
			"rotation": {"angle": 0, "axis": "y", "origin": [3.73, 7.5, 10.565]},
			"faces": {
				"north": {"uv": [1, 3.33333, 1.66667, 4], "texture": "#0"},
				"east": {"uv": [1, 3.33333, 1.66667, 4], "texture": "#0"},
				"south": {"uv": [1, 3.33333, 1.66667, 4], "texture": "#0"},
				"west": {"uv": [1, 3.33333, 1.66667, 4], "texture": "#0"},
				"up": {"uv": [1, 3.33333, 1.66667, 4], "texture": "#0"},
				"down": {"uv": [1, 3.33333, 1.66667, 4], "texture": "#0"}
			}
		},
		{
			"from": [3.64, 7.335, 10.165],
			"to": [3.74, 7.665, 10.965],
			"rotation": {"angle": 45, "axis": "x", "origin": [3.73, 7.5, 10.565]},
			"faces": {
				"north": {"uv": [1, 3.33333, 1.66667, 4], "rotation": 180, "texture": "#0"},
				"east": {"uv": [1, 3.33333, 1.66667, 4], "rotation": 180, "texture": "#0"},
				"south": {"uv": [1, 3.33333, 1.66667, 4], "rotation": 180, "texture": "#0"},
				"west": {"uv": [1, 3.33333, 1.66667, 4], "rotation": 180, "texture": "#0"},
				"up": {"uv": [1, 3.33333, 1.66667, 4], "rotation": 180, "texture": "#0"},
				"down": {"uv": [1, 3.33333, 1.66667, 4], "rotation": 180, "texture": "#0"}
			}
		},
		{
			"from": [3.64, 7.335, 10.165],
			"to": [3.74, 7.665, 10.965],
			"rotation": {"angle": 0, "axis": "x", "origin": [3.73, 7.5, 10.565]},
			"faces": {
				"north": {"uv": [1, 3.33333, 1.66667, 4], "rotation": 180, "texture": "#0"},
				"east": {"uv": [1, 3.33333, 1.66667, 4], "rotation": 180, "texture": "#0"},
				"south": {"uv": [1, 3.33333, 1.66667, 4], "rotation": 180, "texture": "#0"},
				"west": {"uv": [1, 3.33333, 1.66667, 4], "rotation": 180, "texture": "#0"},
				"up": {"uv": [1, 3.33333, 1.66667, 4], "rotation": 180, "texture": "#0"},
				"down": {"uv": [1, 3.33333, 1.66667, 4], "rotation": 180, "texture": "#0"}
			}
		},
		{
			"from": [3.64, 7.1, 10.4],
			"to": [3.74, 7.9, 10.73],
			"rotation": {"angle": 45, "axis": "x", "origin": [3.73, 7.5, 10.565]},
			"faces": {
				"north": {"uv": [1, 3.33333, 1.66667, 4], "texture": "#0"},
				"east": {"uv": [1, 3.33333, 1.66667, 4], "texture": "#0"},
				"south": {"uv": [1, 3.33333, 1.66667, 4], "texture": "#0"},
				"west": {"uv": [1, 3.33333, 1.66667, 4], "texture": "#0"},
				"up": {"uv": [1, 3.33333, 1.66667, 4], "texture": "#0"},
				"down": {"uv": [1, 3.33333, 1.66667, 4], "texture": "#0"}
			}
		},
		{
			"from": [3.52, 7.1, 10.4],
			"to": [3.62, 7.9, 10.73],
			"rotation": {"angle": 0, "axis": "y", "origin": [3.63, 7.5, 10.565]},
			"faces": {
				"north": {"uv": [1, 3.33333, 1.66667, 4], "texture": "#0"},
				"east": {"uv": [1, 3.33333, 1.66667, 4], "texture": "#0"},
				"south": {"uv": [1, 3.33333, 1.66667, 4], "texture": "#0"},
				"west": {"uv": [1, 3.33333, 1.66667, 4], "texture": "#0"},
				"up": {"uv": [1, 3.33333, 1.66667, 4], "texture": "#0"},
				"down": {"uv": [1, 3.33333, 1.66667, 4], "texture": "#0"}
			}
		},
		{
			"from": [3.52, 7.335, 10.165],
			"to": [3.62, 7.665, 10.965],
			"rotation": {"angle": 45, "axis": "x", "origin": [3.63, 7.5, 10.565]},
			"faces": {
				"north": {"uv": [1, 3.33333, 1.66667, 4], "rotation": 180, "texture": "#0"},
				"east": {"uv": [1, 3.33333, 1.66667, 4], "rotation": 180, "texture": "#0"},
				"south": {"uv": [1, 3.33333, 1.66667, 4], "rotation": 180, "texture": "#0"},
				"west": {"uv": [1, 3.33333, 1.66667, 4], "rotation": 180, "texture": "#0"},
				"up": {"uv": [1, 3.33333, 1.66667, 4], "rotation": 180, "texture": "#0"},
				"down": {"uv": [1, 3.33333, 1.66667, 4], "rotation": 180, "texture": "#0"}
			}
		},
		{
			"from": [3.52, 7.335, 10.165],
			"to": [3.62, 7.665, 10.965],
			"rotation": {"angle": 0, "axis": "x", "origin": [3.63, 7.5, 10.565]},
			"faces": {
				"north": {"uv": [1, 3.33333, 1.66667, 4], "rotation": 180, "texture": "#0"},
				"east": {"uv": [1, 3.33333, 1.66667, 4], "rotation": 180, "texture": "#0"},
				"south": {"uv": [1, 3.33333, 1.66667, 4], "rotation": 180, "texture": "#0"},
				"west": {"uv": [1, 3.33333, 1.66667, 4], "rotation": 180, "texture": "#0"},
				"up": {"uv": [1, 3.33333, 1.66667, 4], "rotation": 180, "texture": "#0"},
				"down": {"uv": [1, 3.33333, 1.66667, 4], "rotation": 180, "texture": "#0"}
			}
		},
		{
			"from": [3.52, 7.1, 10.4],
			"to": [3.62, 7.9, 10.73],
			"rotation": {"angle": 45, "axis": "x", "origin": [3.63, 7.5, 10.565]},
			"faces": {
				"north": {"uv": [1, 3.33333, 1.66667, 4], "texture": "#0"},
				"east": {"uv": [1, 3.33333, 1.66667, 4], "texture": "#0"},
				"south": {"uv": [1, 3.33333, 1.66667, 4], "texture": "#0"},
				"west": {"uv": [1, 3.33333, 1.66667, 4], "texture": "#0"},
				"up": {"uv": [1, 3.33333, 1.66667, 4], "texture": "#0"},
				"down": {"uv": [1, 3.33333, 1.66667, 4], "texture": "#0"}
			}
		},
		{
			"from": [3.4, 7.1, 10.4],
			"to": [3.5, 7.9, 10.73],
			"rotation": {"angle": 0, "axis": "y", "origin": [3.53, 7.5, 10.565]},
			"faces": {
				"north": {"uv": [1, 3.33333, 1.66667, 4], "texture": "#0"},
				"east": {"uv": [1, 3.33333, 1.66667, 4], "texture": "#0"},
				"south": {"uv": [1, 3.33333, 1.66667, 4], "texture": "#0"},
				"west": {"uv": [1, 3.33333, 1.66667, 4], "texture": "#0"},
				"up": {"uv": [1, 3.33333, 1.66667, 4], "texture": "#0"},
				"down": {"uv": [1, 3.33333, 1.66667, 4], "texture": "#0"}
			}
		},
		{
			"from": [3.4, 7.335, 10.165],
			"to": [3.5, 7.665, 10.965],
			"rotation": {"angle": 45, "axis": "x", "origin": [3.53, 7.5, 10.565]},
			"faces": {
				"north": {"uv": [1, 3.33333, 1.66667, 4], "rotation": 180, "texture": "#0"},
				"east": {"uv": [1, 3.33333, 1.66667, 4], "rotation": 180, "texture": "#0"},
				"south": {"uv": [1, 3.33333, 1.66667, 4], "rotation": 180, "texture": "#0"},
				"west": {"uv": [1, 3.33333, 1.66667, 4], "rotation": 180, "texture": "#0"},
				"up": {"uv": [1, 3.33333, 1.66667, 4], "rotation": 180, "texture": "#0"},
				"down": {"uv": [1, 3.33333, 1.66667, 4], "rotation": 180, "texture": "#0"}
			}
		},
		{
			"from": [3.4, 7.335, 10.165],
			"to": [3.5, 7.665, 10.965],
			"rotation": {"angle": 0, "axis": "x", "origin": [3.53, 7.5, 10.565]},
			"faces": {
				"north": {"uv": [1, 3.33333, 1.66667, 4], "rotation": 180, "texture": "#0"},
				"east": {"uv": [1, 3.33333, 1.66667, 4], "rotation": 180, "texture": "#0"},
				"south": {"uv": [1, 3.33333, 1.66667, 4], "rotation": 180, "texture": "#0"},
				"west": {"uv": [1, 3.33333, 1.66667, 4], "rotation": 180, "texture": "#0"},
				"up": {"uv": [1, 3.33333, 1.66667, 4], "rotation": 180, "texture": "#0"},
				"down": {"uv": [1, 3.33333, 1.66667, 4], "rotation": 180, "texture": "#0"}
			}
		},
		{
			"from": [3.4, 7.1, 10.4],
			"to": [3.5, 7.9, 10.73],
			"rotation": {"angle": 45, "axis": "x", "origin": [3.53, 7.5, 10.565]},
			"faces": {
				"north": {"uv": [1, 3.33333, 1.66667, 4], "texture": "#0"},
				"east": {"uv": [1, 3.33333, 1.66667, 4], "texture": "#0"},
				"south": {"uv": [1, 3.33333, 1.66667, 4], "texture": "#0"},
				"west": {"uv": [1, 3.33333, 1.66667, 4], "texture": "#0"},
				"up": {"uv": [1, 3.33333, 1.66667, 4], "texture": "#0"},
				"down": {"uv": [1, 3.33333, 1.66667, 4], "texture": "#0"}
			}
		},
		{
			"from": [3.28, 7.1, 10.4],
			"to": [3.38, 7.9, 10.73],
			"rotation": {"angle": 0, "axis": "y", "origin": [3.43, 7.5, 10.565]},
			"faces": {
				"north": {"uv": [1, 3.33333, 1.66667, 4], "texture": "#0"},
				"east": {"uv": [1, 3.33333, 1.66667, 4], "texture": "#0"},
				"south": {"uv": [1, 3.33333, 1.66667, 4], "texture": "#0"},
				"west": {"uv": [1, 3.33333, 1.66667, 4], "texture": "#0"},
				"up": {"uv": [1, 3.33333, 1.66667, 4], "texture": "#0"},
				"down": {"uv": [1, 3.33333, 1.66667, 4], "texture": "#0"}
			}
		},
		{
			"from": [3.28, 7.335, 10.165],
			"to": [3.38, 7.665, 10.965],
			"rotation": {"angle": 45, "axis": "x", "origin": [3.43, 7.5, 10.565]},
			"faces": {
				"north": {"uv": [1, 3.33333, 1.66667, 4], "rotation": 180, "texture": "#0"},
				"east": {"uv": [1, 3.33333, 1.66667, 4], "rotation": 180, "texture": "#0"},
				"south": {"uv": [1, 3.33333, 1.66667, 4], "rotation": 180, "texture": "#0"},
				"west": {"uv": [1, 3.33333, 1.66667, 4], "rotation": 180, "texture": "#0"},
				"up": {"uv": [1, 3.33333, 1.66667, 4], "rotation": 180, "texture": "#0"},
				"down": {"uv": [1, 3.33333, 1.66667, 4], "rotation": 180, "texture": "#0"}
			}
		},
		{
			"from": [3.28, 7.335, 10.165],
			"to": [3.38, 7.665, 10.965],
			"rotation": {"angle": 0, "axis": "x", "origin": [3.43, 7.5, 10.565]},
			"faces": {
				"north": {"uv": [1, 3.33333, 1.66667, 4], "rotation": 180, "texture": "#0"},
				"east": {"uv": [1, 3.33333, 1.66667, 4], "rotation": 180, "texture": "#0"},
				"south": {"uv": [1, 3.33333, 1.66667, 4], "rotation": 180, "texture": "#0"},
				"west": {"uv": [1, 3.33333, 1.66667, 4], "rotation": 180, "texture": "#0"},
				"up": {"uv": [1, 3.33333, 1.66667, 4], "rotation": 180, "texture": "#0"},
				"down": {"uv": [1, 3.33333, 1.66667, 4], "rotation": 180, "texture": "#0"}
			}
		},
		{
			"from": [3.28, 7.1, 10.4],
			"to": [3.38, 7.9, 10.73],
			"rotation": {"angle": 45, "axis": "x", "origin": [3.43, 7.5, 10.565]},
			"faces": {
				"north": {"uv": [1, 3.33333, 1.66667, 4], "texture": "#0"},
				"east": {"uv": [1, 3.33333, 1.66667, 4], "texture": "#0"},
				"south": {"uv": [1, 3.33333, 1.66667, 4], "texture": "#0"},
				"west": {"uv": [1, 3.33333, 1.66667, 4], "texture": "#0"},
				"up": {"uv": [1, 3.33333, 1.66667, 4], "texture": "#0"},
				"down": {"uv": [1, 3.33333, 1.66667, 4], "texture": "#0"}
			}
		},
		{
			"from": [4, 7.33548, 4.96617],
			"to": [4.2, 7.66548, 5.76617],
			"rotation": {"angle": 45, "axis": "x", "origin": [4.05, 7.50048, 5.36617]},
			"faces": {
				"north": {"uv": [6.66667, 3.66667, 7, 4.33333], "rotation": 180, "texture": "#0"},
				"east": {"uv": [6.66667, 3.66667, 7, 4.33333], "rotation": 180, "texture": "#0"},
				"south": {"uv": [6.66667, 3.66667, 7, 4.33333], "rotation": 180, "texture": "#0"},
				"west": {"uv": [6.66667, 3.66667, 7, 4.33333], "rotation": 180, "texture": "#0"},
				"up": {"uv": [6.66667, 3.66667, 7, 4.33333], "rotation": 180, "texture": "#0"},
				"down": {"uv": [6.66667, 3.66667, 7, 4.33333], "rotation": 180, "texture": "#0"}
			}
		},
		{
			"from": [4, 7.33548, 4.96617],
			"to": [4.2, 7.66548, 5.76617],
			"rotation": {"angle": 0, "axis": "y", "origin": [4.05, 7.50048, 5.36617]},
			"faces": {
				"north": {"uv": [6.66667, 3.66667, 7, 4.33333], "rotation": 180, "texture": "#0"},
				"east": {"uv": [6.66667, 3.66667, 7, 4.33333], "rotation": 180, "texture": "#0"},
				"south": {"uv": [6.66667, 3.66667, 7, 4.33333], "rotation": 180, "texture": "#0"},
				"west": {"uv": [6.66667, 3.66667, 7, 4.33333], "rotation": 180, "texture": "#0"},
				"up": {"uv": [6.66667, 3.66667, 7, 4.33333], "rotation": 180, "texture": "#0"},
				"down": {"uv": [6.66667, 3.66667, 7, 4.33333], "rotation": 180, "texture": "#0"}
			}
		},
		{
			"from": [4, 7.10048, 5.20117],
			"to": [4.2, 7.90048, 5.53117],
			"rotation": {"angle": 45, "axis": "x", "origin": [4.05, 7.50048, 5.36617]},
			"faces": {
				"north": {"uv": [6.66667, 3.66667, 7, 4.33333], "texture": "#0"},
				"east": {"uv": [6.66667, 3.66667, 7, 4.33333], "texture": "#0"},
				"south": {"uv": [6.66667, 3.66667, 7, 4.33333], "texture": "#0"},
				"west": {"uv": [6.66667, 3.66667, 7, 4.33333], "texture": "#0"},
				"up": {"uv": [6.66667, 3.66667, 7, 4.33333], "texture": "#0"},
				"down": {"uv": [6.66667, 3.66667, 7, 4.33333], "texture": "#0"}
			}
		},
		{
			"from": [4, 7.1, 5.2],
			"to": [4.2, 7.9, 10.8],
			"rotation": {"angle": 0, "axis": "y", "origin": [4.5, 7.5, 8]},
			"faces": {
				"north": {"uv": [6.66667, 3.66667, 7, 4.33333], "texture": "#0"},
				"east": {"uv": [6.66667, 3.66667, 7, 4.33333], "texture": "#0"},
				"south": {"uv": [6.66667, 3.66667, 7, 4.33333], "texture": "#0"},
				"west": {"uv": [6.66667, 3.66667, 7, 4.33333], "texture": "#0"},
				"up": {"uv": [6.66667, 3.66667, 7, 4.33333], "texture": "#0"},
				"down": {"uv": [6.66667, 3.66667, 7, 4.33333], "texture": "#0"}
			}
		},
		{
			"from": [4, 7.10048, 10.46883],
			"to": [4.2, 7.90048, 10.79883],
			"rotation": {"angle": 45, "axis": "x", "origin": [4.05, 7.50048, 10.63383]},
			"faces": {
				"north": {"uv": [6.66667, 3.66667, 7, 4.33333], "texture": "#0"},
				"east": {"uv": [6.66667, 3.66667, 7, 4.33333], "texture": "#0"},
				"south": {"uv": [6.66667, 3.66667, 7, 4.33333], "texture": "#0"},
				"west": {"uv": [6.66667, 3.66667, 7, 4.33333], "texture": "#0"},
				"up": {"uv": [6.66667, 3.66667, 7, 4.33333], "texture": "#0"},
				"down": {"uv": [6.66667, 3.66667, 7, 4.33333], "texture": "#0"}
			}
		},
		{
			"from": [4, 7.33548, 10.23383],
			"to": [4.2, 7.66548, 11.03383],
			"rotation": {"angle": 0, "axis": "y", "origin": [4.05, 7.50048, 10.63383]},
			"faces": {
				"north": {"uv": [6.66667, 3.66667, 7, 4.33333], "rotation": 180, "texture": "#0"},
				"east": {"uv": [6.66667, 3.66667, 7, 4.33333], "rotation": 180, "texture": "#0"},
				"south": {"uv": [6.66667, 3.66667, 7, 4.33333], "rotation": 180, "texture": "#0"},
				"west": {"uv": [6.66667, 3.66667, 7, 4.33333], "rotation": 180, "texture": "#0"},
				"up": {"uv": [6.66667, 3.66667, 7, 4.33333], "rotation": 180, "texture": "#0"},
				"down": {"uv": [6.66667, 3.66667, 7, 4.33333], "rotation": 180, "texture": "#0"}
			}
		},
		{
			"from": [4, 7.33548, 10.23383],
			"to": [4.2, 7.66548, 11.03383],
			"rotation": {"angle": 45, "axis": "x", "origin": [4.05, 7.50048, 10.63383]},
			"faces": {
				"north": {"uv": [6.66667, 3.66667, 7, 4.33333], "rotation": 180, "texture": "#0"},
				"east": {"uv": [6.66667, 3.66667, 7, 4.33333], "rotation": 180, "texture": "#0"},
				"south": {"uv": [6.66667, 3.66667, 7, 4.33333], "rotation": 180, "texture": "#0"},
				"west": {"uv": [6.66667, 3.66667, 7, 4.33333], "rotation": 180, "texture": "#0"},
				"up": {"uv": [6.66667, 3.66667, 7, 4.33333], "rotation": 180, "texture": "#0"},
				"down": {"uv": [6.66667, 3.66667, 7, 4.33333], "rotation": 180, "texture": "#0"}
			}
		},
		{
			"from": [4.2, 7.33548, 4.96617],
			"to": [4.3, 7.66548, 5.76617],
			"rotation": {"angle": 45, "axis": "x", "origin": [4.15, 7.50048, 5.36617]},
			"faces": {
				"north": {"uv": [1, 5.66667, 1.66667, 7], "rotation": 180, "texture": "#0"},
				"east": {"uv": [1, 5.66667, 1.66667, 7], "rotation": 180, "texture": "#0"},
				"south": {"uv": [1, 5.66667, 1.66667, 7], "rotation": 180, "texture": "#0"},
				"west": {"uv": [1, 5.66667, 1.66667, 7], "rotation": 180, "texture": "#0"},
				"up": {"uv": [1, 5.66667, 1.66667, 7], "rotation": 180, "texture": "#0"},
				"down": {"uv": [1, 5.66667, 1.66667, 7], "rotation": 180, "texture": "#0"}
			}
		},
		{
			"from": [4.2, 7.33548, 4.96617],
			"to": [4.3, 7.66548, 5.76617],
			"rotation": {"angle": 0, "axis": "y", "origin": [4.15, 7.50048, 5.36617]},
			"faces": {
				"north": {"uv": [1, 5.66667, 1.66667, 7], "rotation": 180, "texture": "#0"},
				"east": {"uv": [1, 5.66667, 1.66667, 7], "rotation": 180, "texture": "#0"},
				"south": {"uv": [1, 5.66667, 1.66667, 7], "rotation": 180, "texture": "#0"},
				"west": {"uv": [1, 5.66667, 1.66667, 7], "rotation": 180, "texture": "#0"},
				"up": {"uv": [1, 5.66667, 1.66667, 7], "rotation": 180, "texture": "#0"},
				"down": {"uv": [1, 5.66667, 1.66667, 7], "rotation": 180, "texture": "#0"}
			}
		},
		{
			"from": [4.2, 7.10048, 5.20117],
			"to": [4.3, 7.90048, 5.53117],
			"rotation": {"angle": 45, "axis": "x", "origin": [4.15, 7.50048, 5.36617]},
			"faces": {
				"north": {"uv": [1, 5.66667, 1.66667, 7], "texture": "#0"},
				"east": {"uv": [1, 5.66667, 1.66667, 7], "texture": "#0"},
				"south": {"uv": [1, 5.66667, 1.66667, 7], "texture": "#0"},
				"west": {"uv": [1, 5.66667, 1.66667, 7], "texture": "#0"},
				"up": {"uv": [1, 5.66667, 1.66667, 7], "texture": "#0"},
				"down": {"uv": [1, 5.66667, 1.66667, 7], "texture": "#0"}
			}
		},
		{
			"from": [4.2, 7.1, 5.2],
			"to": [4.3, 7.9, 10.8],
			"rotation": {"angle": 0, "axis": "y", "origin": [4.6, 7.5, 8]},
			"faces": {
				"north": {"uv": [1, 5.66667, 1.66667, 7], "texture": "#0"},
				"east": {"uv": [1, 5.66667, 1.66667, 7], "texture": "#0"},
				"south": {"uv": [1, 5.66667, 1.66667, 7], "texture": "#0"},
				"west": {"uv": [1, 5.66667, 1.66667, 7], "texture": "#0"},
				"up": {"uv": [1, 5.66667, 1.66667, 7], "texture": "#0"},
				"down": {"uv": [1, 5.66667, 1.66667, 7], "texture": "#0"}
			}
		},
		{
			"from": [4.2, 7.10048, 10.46883],
			"to": [4.3, 7.90048, 10.79883],
			"rotation": {"angle": 45, "axis": "x", "origin": [4.15, 7.50048, 10.63383]},
			"faces": {
				"north": {"uv": [1, 5.66667, 1.66667, 7], "texture": "#0"},
				"east": {"uv": [1, 5.66667, 1.66667, 7], "texture": "#0"},
				"south": {"uv": [1, 5.66667, 1.66667, 7], "texture": "#0"},
				"west": {"uv": [1, 5.66667, 1.66667, 7], "texture": "#0"},
				"up": {"uv": [1, 5.66667, 1.66667, 7], "texture": "#0"},
				"down": {"uv": [1, 5.66667, 1.66667, 7], "texture": "#0"}
			}
		},
		{
			"from": [4.2, 7.33548, 10.23383],
			"to": [4.3, 7.66548, 11.03383],
			"rotation": {"angle": 0, "axis": "y", "origin": [4.15, 7.50048, 10.63383]},
			"faces": {
				"north": {"uv": [1, 5.66667, 1.66667, 7], "rotation": 180, "texture": "#0"},
				"east": {"uv": [1, 5.66667, 1.66667, 7], "rotation": 180, "texture": "#0"},
				"south": {"uv": [1, 5.66667, 1.66667, 7], "rotation": 180, "texture": "#0"},
				"west": {"uv": [1, 5.66667, 1.66667, 7], "rotation": 180, "texture": "#0"},
				"up": {"uv": [1, 5.66667, 1.66667, 7], "rotation": 180, "texture": "#0"},
				"down": {"uv": [1, 5.66667, 1.66667, 7], "rotation": 180, "texture": "#0"}
			}
		},
		{
			"from": [4.2, 7.33548, 10.23383],
			"to": [4.3, 7.66548, 11.03383],
			"rotation": {"angle": 45, "axis": "x", "origin": [4.15, 7.50048, 10.63383]},
			"faces": {
				"north": {"uv": [1, 5.66667, 1.66667, 7], "rotation": 180, "texture": "#0"},
				"east": {"uv": [1, 5.66667, 1.66667, 7], "rotation": 180, "texture": "#0"},
				"south": {"uv": [1, 5.66667, 1.66667, 7], "rotation": 180, "texture": "#0"},
				"west": {"uv": [1, 5.66667, 1.66667, 7], "rotation": 180, "texture": "#0"},
				"up": {"uv": [1, 5.66667, 1.66667, 7], "rotation": 180, "texture": "#0"},
				"down": {"uv": [1, 5.66667, 1.66667, 7], "rotation": 180, "texture": "#0"}
			}
		},
		{
			"from": [3.05, 7.1, 5.2],
			"to": [3.25, 7.9, 10.8],
			"rotation": {"angle": 0, "axis": "y", "origin": [3.5, 7.5, 8]},
			"faces": {
				"north": {"uv": [6.66667, 3.66667, 7, 4.33333], "texture": "#0"},
				"east": {"uv": [6.66667, 3.66667, 7, 4.33333], "texture": "#0"},
				"south": {"uv": [6.66667, 3.66667, 7, 4.33333], "texture": "#0"},
				"west": {"uv": [6.66667, 3.66667, 7, 4.33333], "texture": "#0"},
				"up": {"uv": [6.66667, 3.66667, 7, 4.33333], "texture": "#0"},
				"down": {"uv": [6.66667, 3.66667, 7, 4.33333], "texture": "#0"}
			}
		},
		{
			"from": [3.05, 7.33548, 4.96617],
			"to": [3.25, 7.66548, 5.76617],
			"rotation": {"angle": 45, "axis": "x", "origin": [3.1, 7.50048, 5.36617]},
			"faces": {
				"north": {"uv": [6.66667, 3.66667, 7, 4.33333], "rotation": 180, "texture": "#0"},
				"east": {"uv": [6.66667, 3.66667, 7, 4.33333], "rotation": 180, "texture": "#0"},
				"south": {"uv": [6.66667, 3.66667, 7, 4.33333], "rotation": 180, "texture": "#0"},
				"west": {"uv": [6.66667, 3.66667, 7, 4.33333], "rotation": 180, "texture": "#0"},
				"up": {"uv": [6.66667, 3.66667, 7, 4.33333], "rotation": 180, "texture": "#0"},
				"down": {"uv": [6.66667, 3.66667, 7, 4.33333], "rotation": 180, "texture": "#0"}
			}
		},
		{
			"from": [3.05, 7.33548, 4.96617],
			"to": [3.25, 7.66548, 5.76617],
			"rotation": {"angle": 0, "axis": "y", "origin": [3.1, 7.50048, 5.36617]},
			"faces": {
				"north": {"uv": [6.66667, 3.66667, 7, 4.33333], "rotation": 180, "texture": "#0"},
				"east": {"uv": [6.66667, 3.66667, 7, 4.33333], "rotation": 180, "texture": "#0"},
				"south": {"uv": [6.66667, 3.66667, 7, 4.33333], "rotation": 180, "texture": "#0"},
				"west": {"uv": [6.66667, 3.66667, 7, 4.33333], "rotation": 180, "texture": "#0"},
				"up": {"uv": [6.66667, 3.66667, 7, 4.33333], "rotation": 180, "texture": "#0"},
				"down": {"uv": [6.66667, 3.66667, 7, 4.33333], "rotation": 180, "texture": "#0"}
			}
		},
		{
			"from": [2.93, 7.4, 5.26617],
			"to": [4.33, 7.6, 5.46617],
			"rotation": {"angle": 45, "axis": "x", "origin": [3.6, 7.5, 5.36617]},
			"faces": {
				"north": {"uv": [9.33333, 1, 9.66667, 1.66667], "rotation": 180, "texture": "#0"},
				"east": {"uv": [9.33333, 1, 9.66667, 1.66667], "rotation": 180, "texture": "#0"},
				"south": {"uv": [9.33333, 1, 9.66667, 1.66667], "rotation": 180, "texture": "#0"},
				"west": {"uv": [9.33333, 1, 9.66667, 1.66667], "rotation": 180, "texture": "#0"},
				"up": {"uv": [9.33333, 1, 9.66667, 1.66667], "rotation": 180, "texture": "#0"},
				"down": {"uv": [9.33333, 1, 9.66667, 1.66667], "rotation": 180, "texture": "#0"}
			}
		},
		{
			"from": [2.93, 7.4, 10.46617],
			"to": [4.33, 7.6, 10.66617],
			"rotation": {"angle": 45, "axis": "x", "origin": [3.6, 7.5, 10.56617]},
			"faces": {
				"north": {"uv": [9.33333, 1, 9.66667, 1.66667], "rotation": 180, "texture": "#0"},
				"east": {"uv": [9.33333, 1, 9.66667, 1.66667], "rotation": 180, "texture": "#0"},
				"south": {"uv": [9.33333, 1, 9.66667, 1.66667], "rotation": 180, "texture": "#0"},
				"west": {"uv": [9.33333, 1, 9.66667, 1.66667], "rotation": 180, "texture": "#0"},
				"up": {"uv": [9.33333, 1, 9.66667, 1.66667], "rotation": 180, "texture": "#0"},
				"down": {"uv": [9.33333, 1, 9.66667, 1.66667], "rotation": 180, "texture": "#0"}
			}
		},
		{
			"from": [3.05, 7.10048, 5.20117],
			"to": [3.25, 7.90048, 5.53117],
			"rotation": {"angle": 45, "axis": "x", "origin": [3.1, 7.50048, 5.36617]},
			"faces": {
				"north": {"uv": [6.66667, 3.66667, 7, 4.33333], "texture": "#0"},
				"east": {"uv": [6.66667, 3.66667, 7, 4.33333], "texture": "#0"},
				"south": {"uv": [6.66667, 3.66667, 7, 4.33333], "texture": "#0"},
				"west": {"uv": [6.66667, 3.66667, 7, 4.33333], "texture": "#0"},
				"up": {"uv": [6.66667, 3.66667, 7, 4.33333], "texture": "#0"},
				"down": {"uv": [6.66667, 3.66667, 7, 4.33333], "texture": "#0"}
			}
		},
		{
			"from": [3.05, 7.10048, 10.46883],
			"to": [3.25, 7.90048, 10.79883],
			"rotation": {"angle": 45, "axis": "x", "origin": [3.1, 7.50048, 10.63383]},
			"faces": {
				"north": {"uv": [6.66667, 3.66667, 7, 4.33333], "texture": "#0"},
				"east": {"uv": [6.66667, 3.66667, 7, 4.33333], "texture": "#0"},
				"south": {"uv": [6.66667, 3.66667, 7, 4.33333], "texture": "#0"},
				"west": {"uv": [6.66667, 3.66667, 7, 4.33333], "texture": "#0"},
				"up": {"uv": [6.66667, 3.66667, 7, 4.33333], "texture": "#0"},
				"down": {"uv": [6.66667, 3.66667, 7, 4.33333], "texture": "#0"}
			}
		},
		{
			"from": [3.05, 7.33548, 10.23383],
			"to": [3.25, 7.66548, 11.03383],
			"rotation": {"angle": 0, "axis": "y", "origin": [3.1, 7.50048, 10.63383]},
			"faces": {
				"north": {"uv": [6.66667, 3.66667, 7, 4.33333], "rotation": 180, "texture": "#0"},
				"east": {"uv": [6.66667, 3.66667, 7, 4.33333], "rotation": 180, "texture": "#0"},
				"south": {"uv": [6.66667, 3.66667, 7, 4.33333], "rotation": 180, "texture": "#0"},
				"west": {"uv": [6.66667, 3.66667, 7, 4.33333], "rotation": 180, "texture": "#0"},
				"up": {"uv": [6.66667, 3.66667, 7, 4.33333], "rotation": 180, "texture": "#0"},
				"down": {"uv": [6.66667, 3.66667, 7, 4.33333], "rotation": 180, "texture": "#0"}
			}
		},
		{
			"from": [3.05, 7.33548, 10.23383],
			"to": [3.25, 7.66548, 11.03383],
			"rotation": {"angle": 45, "axis": "x", "origin": [3.1, 7.50048, 10.63383]},
			"faces": {
				"north": {"uv": [6.66667, 3.66667, 7, 4.33333], "rotation": 180, "texture": "#0"},
				"east": {"uv": [6.66667, 3.66667, 7, 4.33333], "rotation": 180, "texture": "#0"},
				"south": {"uv": [6.66667, 3.66667, 7, 4.33333], "rotation": 180, "texture": "#0"},
				"west": {"uv": [6.66667, 3.66667, 7, 4.33333], "rotation": 180, "texture": "#0"},
				"up": {"uv": [6.66667, 3.66667, 7, 4.33333], "rotation": 180, "texture": "#0"},
				"down": {"uv": [6.66667, 3.66667, 7, 4.33333], "rotation": 180, "texture": "#0"}
			}
		},
		{
			"from": [2.95, 7.1, 5.2],
			"to": [3.05, 7.9, 10.8],
			"rotation": {"angle": 0, "axis": "y", "origin": [3.5, 7.5, 8]},
			"faces": {
				"north": {"uv": [1, 5.66667, 1.66667, 7], "texture": "#0"},
				"east": {"uv": [1, 5.66667, 1.66667, 7], "texture": "#0"},
				"south": {"uv": [1, 5.66667, 1.66667, 7], "texture": "#0"},
				"west": {"uv": [1, 5.66667, 1.66667, 7], "texture": "#0"},
				"up": {"uv": [1, 5.66667, 1.66667, 7], "texture": "#0"},
				"down": {"uv": [1, 5.66667, 1.66667, 7], "texture": "#0"}
			}
		},
		{
			"from": [2.95, 7.33548, 4.96617],
			"to": [3.05, 7.66548, 5.76617],
			"rotation": {"angle": 45, "axis": "x", "origin": [3.1, 7.50048, 5.36617]},
			"faces": {
				"north": {"uv": [1, 5.66667, 1.66667, 7], "rotation": 180, "texture": "#0"},
				"east": {"uv": [1, 5.66667, 1.66667, 7], "rotation": 180, "texture": "#0"},
				"south": {"uv": [1, 5.66667, 1.66667, 7], "rotation": 180, "texture": "#0"},
				"west": {"uv": [1, 5.66667, 1.66667, 7], "rotation": 180, "texture": "#0"},
				"up": {"uv": [1, 5.66667, 1.66667, 7], "rotation": 180, "texture": "#0"},
				"down": {"uv": [1, 5.66667, 1.66667, 7], "rotation": 180, "texture": "#0"}
			}
		},
		{
			"from": [2.95, 7.33548, 4.96617],
			"to": [3.05, 7.66548, 5.76617],
			"rotation": {"angle": 0, "axis": "y", "origin": [3.1, 7.50048, 5.36617]},
			"faces": {
				"north": {"uv": [1, 5.66667, 1.66667, 7], "rotation": 180, "texture": "#0"},
				"east": {"uv": [1, 5.66667, 1.66667, 7], "rotation": 180, "texture": "#0"},
				"south": {"uv": [1, 5.66667, 1.66667, 7], "rotation": 180, "texture": "#0"},
				"west": {"uv": [1, 5.66667, 1.66667, 7], "rotation": 180, "texture": "#0"},
				"up": {"uv": [1, 5.66667, 1.66667, 7], "rotation": 180, "texture": "#0"},
				"down": {"uv": [1, 5.66667, 1.66667, 7], "rotation": 180, "texture": "#0"}
			}
		},
		{
			"from": [2.95, 7.10048, 5.20117],
			"to": [3.05, 7.90048, 5.53117],
			"rotation": {"angle": 45, "axis": "x", "origin": [3.1, 7.50048, 5.36617]},
			"faces": {
				"north": {"uv": [1, 5.66667, 1.66667, 7], "texture": "#0"},
				"east": {"uv": [1, 5.66667, 1.66667, 7], "texture": "#0"},
				"south": {"uv": [1, 5.66667, 1.66667, 7], "texture": "#0"},
				"west": {"uv": [1, 5.66667, 1.66667, 7], "texture": "#0"},
				"up": {"uv": [1, 5.66667, 1.66667, 7], "texture": "#0"},
				"down": {"uv": [1, 5.66667, 1.66667, 7], "texture": "#0"}
			}
		},
		{
			"from": [2.95, 7.10048, 10.46883],
			"to": [3.05, 7.90048, 10.79883],
			"rotation": {"angle": 45, "axis": "x", "origin": [3.1, 7.50048, 10.63383]},
			"faces": {
				"north": {"uv": [1, 5.66667, 1.66667, 7], "texture": "#0"},
				"east": {"uv": [1, 5.66667, 1.66667, 7], "texture": "#0"},
				"south": {"uv": [1, 5.66667, 1.66667, 7], "texture": "#0"},
				"west": {"uv": [1, 5.66667, 1.66667, 7], "texture": "#0"},
				"up": {"uv": [1, 5.66667, 1.66667, 7], "texture": "#0"},
				"down": {"uv": [1, 5.66667, 1.66667, 7], "texture": "#0"}
			}
		},
		{
			"from": [2.95, 7.33548, 10.23383],
			"to": [3.05, 7.66548, 11.03383],
			"rotation": {"angle": 0, "axis": "y", "origin": [3.1, 7.50048, 10.63383]},
			"faces": {
				"north": {"uv": [1, 5.66667, 1.66667, 7], "rotation": 180, "texture": "#0"},
				"east": {"uv": [1, 5.66667, 1.66667, 7], "rotation": 180, "texture": "#0"},
				"south": {"uv": [1, 5.66667, 1.66667, 7], "rotation": 180, "texture": "#0"},
				"west": {"uv": [1, 5.66667, 1.66667, 7], "rotation": 180, "texture": "#0"},
				"up": {"uv": [1, 5.66667, 1.66667, 7], "rotation": 180, "texture": "#0"},
				"down": {"uv": [1, 5.66667, 1.66667, 7], "rotation": 180, "texture": "#0"}
			}
		},
		{
			"from": [2.95, 7.33548, 10.23383],
			"to": [3.05, 7.66548, 11.03383],
			"rotation": {"angle": 45, "axis": "x", "origin": [3.1, 7.50048, 10.63383]},
			"faces": {
				"north": {"uv": [1, 5.66667, 1.66667, 7], "rotation": 180, "texture": "#0"},
				"east": {"uv": [1, 5.66667, 1.66667, 7], "rotation": 180, "texture": "#0"},
				"south": {"uv": [1, 5.66667, 1.66667, 7], "rotation": 180, "texture": "#0"},
				"west": {"uv": [1, 5.66667, 1.66667, 7], "rotation": 180, "texture": "#0"},
				"up": {"uv": [1, 5.66667, 1.66667, 7], "rotation": 180, "texture": "#0"},
				"down": {"uv": [1, 5.66667, 1.66667, 7], "rotation": 180, "texture": "#0"}
			}
		},
		{
			"from": [3.25, 7.4, 6],
			"to": [4, 7.6, 10],
			"rotation": {"angle": 0, "axis": "y", "origin": [3.7, 7.5, 8]},
			"faces": {
				"north": {"uv": [6.33333, 3.33333, 7, 4.33333], "texture": "#0"},
				"east": {"uv": [6.33333, 3.33333, 7, 4.33333], "texture": "#0"},
				"south": {"uv": [6.33333, 3.33333, 7, 4.33333], "texture": "#0"},
				"west": {"uv": [6.33333, 3.33333, 7, 4.33333], "texture": "#0"},
				"up": {"uv": [6.33333, 3.33333, 7, 4.33333], "texture": "#0"},
				"down": {"uv": [6.33333, 3.33333, 7, 4.33333], "texture": "#0"}
			}
		}
	],
	"display": {
		"thirdperson_righthand": {
			"rotation": [90, 0, 0],
			"translation": [4.25, -2, 1.75]
		},
		"thirdperson_lefthand": {
			"rotation": [90, 0, 0],
			"translation": [-4.5, -2, 1.75]
		},
		"firstperson_righthand": {
			"rotation": [40, 2, -2],
			"translation": [1.75, 1.25, 2]
		},
		"firstperson_lefthand": {
			"rotation": [49, 12, -2],
			"translation": [-5, 0.5, 2.5]
		},
		"ground": {
			"translation": [5.25, 1, 4.5]
		},
		"gui": {
			"rotation": [44, 35, 0],
			"translation": [5.75, 1.5, 0],
			"scale": [1.5, 1.5, 1.5]
		},
		"head": {
			"rotation": [0, 90, 0],
			"translation": [0, -23.5, -0.5]
		},
		"fixed": {
			"rotation": [90, 45, 90],
			"translation": [0, -0.5, 3]
		}
	},
	"groups": [
		{
			"name": "base",
			"origin": [8, 8, 8],
			"children": [
				{
					"name": "rings",
					"origin": [8, 8, 8],
					"children": [
						{
							"name": "group",
							"origin": [3.93, 7.5, 5.465],
							"children": [0, 1, 2, 3, 4, 5]
						},
						{
							"name": "group",
							"origin": [3.93, 7.5, 5.465],
							"children": [6, 7, 8, 9, 10, 11]
						},
						{
							"name": "group",
							"origin": [3.93, 7.5, 5.465],
							"children": [12, 13, 14, 15, 16, 17]
						},
						{
							"name": "group",
							"origin": [3.93, 7.5, 5.465],
							"children": [18, 19, 20, 21, 22, 23]
						},
						{
							"name": "group",
							"origin": [3.93, 7.5, 5.465],
							"children": [24, 25, 26, 27, 28, 29]
						},
						{
							"name": "group",
							"origin": [3.93, 7.5, 5.465],
							"children": [30, 31, 32, 33, 34, 35]
						}
					]
				},
				{
					"name": "rings",
					"origin": [8, 8, 8],
					"children": [
						{
							"name": "group",
							"origin": [3.93, 7.5, 5.465],
							"children": [36, 37, 38, 39]
						},
						{
							"name": "group",
							"origin": [3.93, 7.5, 5.465],
							"children": [40, 41, 42, 43]
						},
						{
							"name": "group",
							"origin": [3.93, 7.5, 5.465],
							"children": [44, 45, 46, 47]
						},
						{
							"name": "group",
							"origin": [3.93, 7.5, 5.465],
							"children": [48, 49, 50, 51]
						},
						{
							"name": "group",
							"origin": [3.93, 7.5, 5.465],
							"children": [52, 53, 54, 55]
						},
						{
							"name": "group",
							"origin": [3.93, 7.5, 5.465],
							"children": [56, 57, 58, 59]
						}
					]
				},
				{
					"name": "group",
					"origin": [8, 8, 8],
					"children": [
						{
							"name": "group",
							"origin": [4.05, 7.50048, 10.63383],
							"children": [60, 61, 62, 63, 64, 65, 66]
						},
						{
							"name": "group",
							"origin": [4.05, 7.50048, 10.63383],
							"children": [67, 68, 69, 70, 71, 72, 73]
						},
						{
							"name": "group",
							"origin": [3.1, 7.50048, 10.63383],
							"children": [74, 75, 76, 77, 78, 79, 80, 81, 82]
						},
						{
							"name": "group",
							"origin": [3.1, 7.50048, 10.63383],
							"children": [83, 84, 85, 86, 87, 88, 89]
						}, 90]
				}
			]
		}
	]
}