{
	"credit": "Made with Blockbench",
	"textures": {
		"0": "gci:items/common/mpz",
		"particle": "gci:items/common/mpz"
	},
	"elements": [
		{
			"from": [3.95, 5, 7.4],
			"to": [4.15, 5.2, 9.9],
			"rotation": {"angle": 0, "axis": "y", "origin": [4.1, 13.1, 11.9]},
			"faces": {
				"north": {"uv": [9, 1, 9.66667, 1.33333], "texture": "#0"},
				"east": {"uv": [9, 1, 9.66667, 1.33333], "texture": "#0"},
				"south": {"uv": [9, 1, 9.66667, 1.33333], "texture": "#0"},
				"west": {"uv": [9, 1, 9.66667, 1.33333], "texture": "#0"},
				"up": {"uv": [9, 1, 9.66667, 1.33333], "texture": "#0"},
				"down": {"uv": [9, 1, 9.66667, 1.33333], "texture": "#0"}
			}
		},
		{
			"from": [3.81464, 4.94393, 7.4],
			"to": [4.01464, 5.14393, 9.9],
			"rotation": {"angle": 45, "axis": "z", "origin": [3.91464, 5.09393, 8.65]},
			"faces": {
				"north": {"uv": [9, 1, 9.66667, 1.33333], "texture": "#0"},
				"east": {"uv": [9, 1, 9.66667, 1.33333], "texture": "#0"},
				"south": {"uv": [9, 1, 9.66667, 1.33333], "texture": "#0"},
				"west": {"uv": [9, 1, 9.66667, 1.33333], "texture": "#0"},
				"up": {"uv": [9, 1, 9.66667, 1.33333], "texture": "#0"},
				"down": {"uv": [9, 1, 9.66667, 1.33333], "texture": "#0"}
			}
		},
		{
			"from": [4.08536, 4.94393, 7.4],
			"to": [4.28536, 5.14393, 9.9],
			"rotation": {"angle": -45, "axis": "z", "origin": [4.18536, 5.09393, 8.65]},
			"faces": {
				"north": {"uv": [9, 1, 9.66667, 1.33333], "texture": "#0"},
				"east": {"uv": [9, 1, 9.66667, 1.33333], "texture": "#0"},
				"south": {"uv": [9, 1, 9.66667, 1.33333], "texture": "#0"},
				"west": {"uv": [9, 1, 9.66667, 1.33333], "texture": "#0"},
				"up": {"uv": [9, 1, 9.66667, 1.33333], "texture": "#0"},
				"down": {"uv": [9, 1, 9.66667, 1.33333], "texture": "#0"}
			}
		},
		{
			"from": [3.80858, 4.55858, 7.4],
			"to": [4.00858, 5.05858, 9.9],
			"rotation": {"angle": 0, "axis": "z", "origin": [3.85858, 4.95858, 8.65]},
			"faces": {
				"north": {"uv": [9, 1, 9.66667, 1.33333], "rotation": 90, "texture": "#0"},
				"east": {"uv": [9, 1, 9.66667, 1.33333], "rotation": 90, "texture": "#0"},
				"south": {"uv": [9, 1, 9.66667, 1.33333], "rotation": 90, "texture": "#0"},
				"west": {"uv": [9, 1, 9.66667, 1.33333], "rotation": 90, "texture": "#0"},
				"up": {"uv": [9, 1, 9.66667, 1.33333], "rotation": 90, "texture": "#0"},
				"down": {"uv": [9, 1, 9.66667, 1.33333], "rotation": 90, "texture": "#0"}
			}
		},
		{
			"from": [4.09142, 4.55858, 7.4],
			"to": [4.29142, 5.05858, 9.9],
			"rotation": {"angle": 0, "axis": "z", "origin": [4.24142, 4.95858, 8.65]},
			"faces": {
				"north": {"uv": [9, 1, 9.66667, 1.33333], "rotation": 270, "texture": "#0"},
				"east": {"uv": [9, 1, 9.66667, 1.33333], "rotation": 270, "texture": "#0"},
				"south": {"uv": [9, 1, 9.66667, 1.33333], "rotation": 270, "texture": "#0"},
				"west": {"uv": [9, 1, 9.66667, 1.33333], "rotation": 270, "texture": "#0"},
				"up": {"uv": [9, 1, 9.66667, 1.33333], "rotation": 270, "texture": "#0"},
				"down": {"uv": [9, 1, 9.66667, 1.33333], "rotation": 270, "texture": "#0"}
			}
		},
		{
			"from": [3.9175, 4.51346, 7.4],
			"to": [4.1175, 4.71346, 9.9],
			"rotation": {"angle": 45, "axis": "z", "origin": [4.05, 4.50453, 8.65]},
			"faces": {
				"north": {"uv": [9, 1, 9.66667, 1.33333], "rotation": 90, "texture": "#0"},
				"east": {"uv": [9, 1, 9.66667, 1.33333], "rotation": 90, "texture": "#0"},
				"south": {"uv": [9, 1, 9.66667, 1.33333], "rotation": 90, "texture": "#0"},
				"west": {"uv": [9, 1, 9.66667, 1.33333], "rotation": 90, "texture": "#0"},
				"up": {"uv": [9, 1, 9.66667, 1.33333], "rotation": 90, "texture": "#0"},
				"down": {"uv": [9, 1, 9.66667, 1.33333], "rotation": 90, "texture": "#0"}
			}
		},
		{
			"from": [3.95, 4.41716, 7.4],
			"to": [4.15, 4.61716, 9.9],
			"rotation": {"angle": 0, "axis": "z", "origin": [4.05, 4.50453, 8.65]},
			"faces": {
				"north": {"uv": [9, 1, 9.66667, 1.33333], "rotation": 180, "texture": "#0"},
				"east": {"uv": [9, 1, 9.66667, 1.33333], "rotation": 180, "texture": "#0"},
				"south": {"uv": [9, 1, 9.66667, 1.33333], "rotation": 180, "texture": "#0"},
				"west": {"uv": [9, 1, 9.66667, 1.33333], "rotation": 180, "texture": "#0"},
				"up": {"uv": [9, 1, 9.66667, 1.33333], "rotation": 180, "texture": "#0"},
				"down": {"uv": [9, 1, 9.66667, 1.33333], "rotation": 180, "texture": "#0"}
			}
		},
		{
			"from": [3.95, 4.21716, 7.4],
			"to": [4.15, 4.71716, 7.5],
			"rotation": {"angle": 0, "axis": "x", "origin": [4.05, 4.31716, 7.5]},
			"faces": {
				"north": {"uv": [9, 1, 9.66667, 1.33333], "texture": "#0"},
				"east": {"uv": [9, 1, 9.66667, 1.33333], "rotation": 90, "texture": "#0"},
				"south": {"uv": [9, 1, 9.66667, 1.33333], "rotation": 180, "texture": "#0"},
				"west": {"uv": [9, 1, 9.66667, 1.33333], "rotation": 270, "texture": "#0"},
				"up": {"uv": [9, 1, 9.66667, 1.33333], "texture": "#0"},
				"down": {"uv": [9, 1, 9.66667, 1.33333], "rotation": 180, "texture": "#0"}
			}
		},
		{
			"from": [3.95, 4.32322, 7.48536],
			"to": [4.15, 4.52322, 7.58536],
			"rotation": {"angle": 45, "axis": "x", "origin": [4.05, 4.42322, 7.53536]},
			"faces": {
				"north": {"uv": [9, 1, 9.66667, 1.33333], "texture": "#0"},
				"east": {"uv": [9, 1, 9.66667, 1.33333], "rotation": 90, "texture": "#0"},
				"south": {"uv": [9, 1, 9.66667, 1.33333], "rotation": 180, "texture": "#0"},
				"west": {"uv": [9, 1, 9.66667, 1.33333], "rotation": 270, "texture": "#0"},
				"up": {"uv": [9, 1, 9.66667, 1.33333], "texture": "#0"},
				"down": {"uv": [9, 1, 9.66667, 1.33333], "rotation": 180, "texture": "#0"}
			}
		},
		{
			"from": [3.95, 4.50101, 7.49899],
			"to": [4.15, 5.00101, 7.65899],
			"rotation": {"angle": 45, "axis": "x", "origin": [4.05, 4.60101, 7.59899]},
			"faces": {
				"north": {"uv": [9, 1, 9.66667, 1.33333], "texture": "#0"},
				"east": {"uv": [9, 1, 9.66667, 1.33333], "rotation": 90, "texture": "#0"},
				"south": {"uv": [9, 1, 9.66667, 1.33333], "rotation": 180, "texture": "#0"},
				"west": {"uv": [9, 1, 9.66667, 1.33333], "rotation": 270, "texture": "#0"},
				"up": {"uv": [9, 1, 9.66667, 1.33333], "texture": "#0"},
				"down": {"uv": [9, 1, 9.66667, 1.33333], "rotation": 180, "texture": "#0"}
			}
		},
		{
			"from": [4.05893, 4.37204, 7.4],
			"to": [4.25893, 4.57204, 9.9],
			"rotation": {"angle": 45, "axis": "z", "origin": [4.05, 4.50453, 8.65]},
			"faces": {
				"north": {"uv": [9, 1, 9.66667, 1.33333], "rotation": 180, "texture": "#0"},
				"east": {"uv": [9, 1, 9.66667, 1.33333], "rotation": 180, "texture": "#0"},
				"south": {"uv": [9, 1, 9.66667, 1.33333], "rotation": 180, "texture": "#0"},
				"west": {"uv": [9, 1, 9.66667, 1.33333], "rotation": 180, "texture": "#0"},
				"up": {"uv": [9, 1, 9.66667, 1.33333], "rotation": 180, "texture": "#0"},
				"down": {"uv": [9, 1, 9.66667, 1.33333], "rotation": 180, "texture": "#0"}
			}
		},
		{
			"from": [3.95, 5.1, 9.9],
			"to": [4.15, 5.2, 10.1],
			"rotation": {"angle": 0, "axis": "y", "origin": [4.1, 13.1, 12.1]},
			"faces": {
				"north": {"uv": [6, 1, 6.66667, 1.66667], "texture": "#0"},
				"east": {"uv": [6, 1, 6.66667, 1.66667], "texture": "#0"},
				"south": {"uv": [6, 1, 6.66667, 1.66667], "texture": "#0"},
				"west": {"uv": [6, 1, 6.66667, 1.66667], "texture": "#0"},
				"up": {"uv": [6, 1, 6.66667, 1.66667], "texture": "#0"},
				"down": {"uv": [6, 1, 6.66667, 1.66667], "texture": "#0"}
			}
		},
		{
			"from": [3.81464, 4.84393, 9.9],
			"to": [4.01464, 5.14393, 10.1],
			"rotation": {"angle": 45, "axis": "z", "origin": [3.91464, 5.09393, 8.85]},
			"faces": {
				"north": {"uv": [6, 1, 6.66667, 1.66667], "texture": "#0"},
				"east": {"uv": [6, 1, 6.66667, 1.66667], "texture": "#0"},
				"south": {"uv": [6, 1, 6.66667, 1.66667], "texture": "#0"},
				"west": {"uv": [6, 1, 6.66667, 1.66667], "texture": "#0"},
				"up": {"uv": [6, 1, 6.66667, 1.66667], "texture": "#0"},
				"down": {"uv": [6, 1, 6.66667, 1.66667], "texture": "#0"}
			}
		},
		{
			"from": [4.08536, 4.84393, 9.9],
			"to": [4.28536, 5.14393, 10.1],
			"rotation": {"angle": -45, "axis": "z", "origin": [4.18536, 5.09393, 8.85]},
			"faces": {
				"north": {"uv": [6, 1, 6.66667, 1.66667], "texture": "#0"},
				"east": {"uv": [6, 1, 6.66667, 1.66667], "texture": "#0"},
				"south": {"uv": [6, 1, 6.66667, 1.66667], "texture": "#0"},
				"west": {"uv": [6, 1, 6.66667, 1.66667], "texture": "#0"},
				"up": {"uv": [6, 1, 6.66667, 1.66667], "texture": "#0"},
				"down": {"uv": [6, 1, 6.66667, 1.66667], "texture": "#0"}
			}
		},
		{
			"from": [3.80858, 4.45858, 9.9],
			"to": [4.00858, 5.05858, 10.1],
			"rotation": {"angle": 0, "axis": "z", "origin": [3.85858, 4.95858, 8.85]},
			"faces": {
				"north": {"uv": [6, 1, 6.66667, 1.66667], "rotation": 90, "texture": "#0"},
				"east": {"uv": [6, 1, 6.66667, 1.66667], "rotation": 90, "texture": "#0"},
				"south": {"uv": [6, 1, 6.66667, 1.66667], "rotation": 90, "texture": "#0"},
				"west": {"uv": [6, 1, 6.66667, 1.66667], "rotation": 90, "texture": "#0"},
				"up": {"uv": [6, 1, 6.66667, 1.66667], "rotation": 90, "texture": "#0"},
				"down": {"uv": [6, 1, 6.66667, 1.66667], "rotation": 90, "texture": "#0"}
			}
		},
		{
			"from": [3.99142, 4.45858, 9.9],
			"to": [4.29142, 5.05858, 10.1],
			"rotation": {"angle": 0, "axis": "z", "origin": [4.24142, 4.95858, 8.85]},
			"faces": {
				"north": {"uv": [6, 1, 6.66667, 1.66667], "rotation": 270, "texture": "#0"},
				"east": {"uv": [6, 1, 6.66667, 1.66667], "rotation": 270, "texture": "#0"},
				"south": {"uv": [6, 1, 6.66667, 1.66667], "rotation": 270, "texture": "#0"},
				"west": {"uv": [6, 1, 6.66667, 1.66667], "rotation": 270, "texture": "#0"},
				"up": {"uv": [6, 1, 6.66667, 1.66667], "rotation": 270, "texture": "#0"},
				"down": {"uv": [6, 1, 6.66667, 1.66667], "rotation": 270, "texture": "#0"}
			}
		},
		{
			"from": [3.9175, 4.41346, 9.9],
			"to": [4.2175, 4.61346, 10.1],
			"rotation": {"angle": 45, "axis": "z", "origin": [4.05, 4.40453, 8.85]},
			"faces": {
				"north": {"uv": [6, 1, 6.66667, 1.66667], "rotation": 90, "texture": "#0"},
				"east": {"uv": [6, 1, 6.66667, 1.66667], "rotation": 90, "texture": "#0"},
				"south": {"uv": [6, 1, 6.66667, 1.66667], "rotation": 90, "texture": "#0"},
				"west": {"uv": [6, 1, 6.66667, 1.66667], "rotation": 90, "texture": "#0"},
				"up": {"uv": [6, 1, 6.66667, 1.66667], "rotation": 90, "texture": "#0"},
				"down": {"uv": [6, 1, 6.66667, 1.66667], "rotation": 90, "texture": "#0"}
			}
		},
		{
			"from": [3.95, 4.31716, 9.9],
			"to": [4.15, 4.51716, 10.1],
			"rotation": {"angle": 0, "axis": "z", "origin": [4.05, 4.40453, 8.85]},
			"faces": {
				"north": {"uv": [6, 1, 6.66667, 1.66667], "rotation": 180, "texture": "#0"},
				"east": {"uv": [6, 1, 6.66667, 1.66667], "rotation": 180, "texture": "#0"},
				"south": {"uv": [6, 1, 6.66667, 1.66667], "rotation": 180, "texture": "#0"},
				"west": {"uv": [6, 1, 6.66667, 1.66667], "rotation": 180, "texture": "#0"},
				"up": {"uv": [6, 1, 6.66667, 1.66667], "rotation": 180, "texture": "#0"},
				"down": {"uv": [6, 1, 6.66667, 1.66667], "rotation": 180, "texture": "#0"}
			}
		},
		{
			"from": [4.05893, 4.27204, 9.9],
			"to": [4.25893, 4.57204, 10.1],
			"rotation": {"angle": 45, "axis": "z", "origin": [4.05, 4.40453, 8.85]},
			"faces": {
				"north": {"uv": [6, 1, 6.66667, 1.66667], "rotation": 180, "texture": "#0"},
				"east": {"uv": [6, 1, 6.66667, 1.66667], "rotation": 180, "texture": "#0"},
				"south": {"uv": [6, 1, 6.66667, 1.66667], "rotation": 180, "texture": "#0"},
				"west": {"uv": [6, 1, 6.66667, 1.66667], "rotation": 180, "texture": "#0"},
				"up": {"uv": [6, 1, 6.66667, 1.66667], "rotation": 180, "texture": "#0"},
				"down": {"uv": [6, 1, 6.66667, 1.66667], "rotation": 180, "texture": "#0"}
			}
		},
		{
			"from": [4, 4.95, 4.02071],
			"to": [4.1, 5.09, 4.62071],
			"rotation": {"angle": 45, "axis": "x", "origin": [4.05, 5, 4.07071]},
			"faces": {
				"north": {"uv": [9, 4, 9.66667, 4.66667], "texture": "#0"},
				"east": {"uv": [9, 4, 9.66667, 4.66667], "texture": "#0"},
				"south": {"uv": [9, 4, 9.66667, 4.66667], "texture": "#0"},
				"west": {"uv": [9, 4, 9.66667, 4.66667], "texture": "#0"},
				"up": {"uv": [9, 4, 9.66667, 4.66667], "texture": "#0"},
				"down": {"uv": [9, 4, 9.66667, 4.66667], "texture": "#0"}
			}
		},
		{
			"from": [4, 4.57574, 4.42426],
			"to": [4.1, 4.67574, 7.42426],
			"rotation": {"angle": 0, "axis": "x", "origin": [4.05, 4.62574, 4.47426]},
			"faces": {
				"north": {"uv": [9, 4, 9.66667, 4.66667], "texture": "#0"},
				"east": {"uv": [9, 4, 9.66667, 4.66667], "texture": "#0"},
				"south": {"uv": [9, 4, 9.66667, 4.66667], "texture": "#0"},
				"west": {"uv": [9, 4, 9.66667, 4.66667], "texture": "#0"},
				"up": {"uv": [9, 4, 9.66667, 4.66667], "texture": "#0"},
				"down": {"uv": [9, 4, 9.66667, 4.66667], "texture": "#0"}
			}
		},
		{
			"from": [3.95, 5, 4.1],
			"to": [4.15, 5.1, 7.4],
			"rotation": {"angle": 0, "axis": "y", "origin": [4.1, 13, 12.1]},
			"faces": {
				"north": {"uv": [9, 1, 9.66667, 1.66667], "texture": "#0"},
				"east": {"uv": [9, 1, 9.66667, 1.66667], "texture": "#0"},
				"south": {"uv": [9, 1, 9.66667, 1.66667], "texture": "#0"},
				"west": {"uv": [9, 1, 9.66667, 1.66667], "texture": "#0"},
				"up": {"uv": [9, 1, 9.66667, 1.66667], "texture": "#0"},
				"down": {"uv": [9, 1, 9.66667, 1.66667], "texture": "#0"}
			}
		},
		{
			"from": [3.95, 4.9, 4.2],
			"to": [4.15, 5, 7.4],
			"rotation": {"angle": 0, "axis": "y", "origin": [4.1, 12.9, 12.1]},
			"faces": {
				"north": {"uv": [9, 1, 9.66667, 1.66667], "texture": "#0"},
				"east": {"uv": [9, 1, 9.66667, 1.66667], "texture": "#0"},
				"south": {"uv": [9, 1, 9.66667, 1.66667], "texture": "#0"},
				"west": {"uv": [9, 1, 9.66667, 1.66667], "texture": "#0"},
				"up": {"uv": [9, 1, 9.66667, 1.66667], "texture": "#0"},
				"down": {"uv": [9, 1, 9.66667, 1.66667], "texture": "#0"}
			}
		},
		{
			"from": [3.95, 4.8, 4.3],
			"to": [4.15, 4.9, 7.4],
			"rotation": {"angle": 0, "axis": "y", "origin": [4.1, 12.8, 12.1]},
			"faces": {
				"north": {"uv": [9, 1, 9.66667, 1.66667], "texture": "#0"},
				"east": {"uv": [9, 1, 9.66667, 1.66667], "texture": "#0"},
				"south": {"uv": [9, 1, 9.66667, 1.66667], "texture": "#0"},
				"west": {"uv": [9, 1, 9.66667, 1.66667], "texture": "#0"},
				"up": {"uv": [9, 1, 9.66667, 1.66667], "texture": "#0"},
				"down": {"uv": [9, 1, 9.66667, 1.66667], "texture": "#0"}
			}
		},
		{
			"from": [3.95, 4.7, 4.4],
			"to": [4.15, 4.8, 7.4],
			"rotation": {"angle": 0, "axis": "y", "origin": [4.1, 12.7, 12.1]},
			"faces": {
				"north": {"uv": [9, 1, 9.66667, 1.66667], "texture": "#0"},
				"east": {"uv": [9, 1, 9.66667, 1.66667], "texture": "#0"},
				"south": {"uv": [9, 1, 9.66667, 1.66667], "texture": "#0"},
				"west": {"uv": [9, 1, 9.66667, 1.66667], "texture": "#0"},
				"up": {"uv": [9, 1, 9.66667, 1.66667], "texture": "#0"},
				"down": {"uv": [9, 1, 9.66667, 1.66667], "texture": "#0"}
			}
		},
		{
			"from": [3.95, 4.95, 4.12071],
			"to": [4.15, 5.05, 4.62071],
			"rotation": {"angle": 45, "axis": "x", "origin": [4.05, 5, 4.17071]},
			"faces": {
				"north": {"uv": [9, 1, 9.66667, 1.66667], "texture": "#0"},
				"east": {"uv": [9, 1, 9.66667, 1.66667], "texture": "#0"},
				"south": {"uv": [9, 1, 9.66667, 1.66667], "texture": "#0"},
				"west": {"uv": [9, 1, 9.66667, 1.66667], "texture": "#0"},
				"up": {"uv": [9, 1, 9.66667, 1.66667], "texture": "#0"},
				"down": {"uv": [9, 1, 9.66667, 1.66667], "texture": "#0"}
			}
		},
		{
			"from": [3.95, 4.64645, 4.45355],
			"to": [4.15, 4.74645, 7.45355],
			"rotation": {"angle": 0, "axis": "x", "origin": [4.05, 4.69645, 4.50355]},
			"faces": {
				"north": {"uv": [9, 1, 9.66667, 1.66667], "texture": "#0"},
				"east": {"uv": [9, 1, 9.66667, 1.66667], "texture": "#0"},
				"south": {"uv": [9, 1, 9.66667, 1.66667], "texture": "#0"},
				"west": {"uv": [9, 1, 9.66667, 1.66667], "texture": "#0"},
				"up": {"uv": [9, 1, 9.66667, 1.66667], "texture": "#0"},
				"down": {"uv": [9, 1, 9.66667, 1.66667], "texture": "#0"}
			}
		}
	],
	"display": {
		"thirdperson_righthand": {
			"rotation": [90, 0, 0],
			"translation": [6, -0.75, 6],
			"scale": [1.5, 1.5, 1.5]
		},
		"thirdperson_lefthand": {
			"rotation": [90, 0, 0],
			"translation": [-6, -0.75, 6],
			"scale": [1.5, 1.5, 1.5]
		},
		"firstperson_righthand": {
			"rotation": [45, -6, -2],
			"translation": [2, 3.75, 3.5],
			"scale": [1.5, 1.5, 1.5]
		},
		"firstperson_lefthand": {
			"rotation": [45, -6, -2],
			"translation": [-8, 4, 3],
			"scale": [1.5, 1.5, 1.5]
		},
		"ground": {
			"rotation": [46, 0, 0],
			"translation": [6.75, 4.75, 3.5],
			"scale": [1.5, 1.5, 1.5]
		},
		"gui": {
			"rotation": [58, 43, -50],
			"translation": [12.25, 6, 0],
			"scale": [3, 3, 3]
		},
		"head": {
			"rotation": [46, -180, 0],
			"translation": [-12.75, -21.75, 3.25],
			"scale": [1.5, 1.5, 1.5]
		},
		"fixed": {
			"rotation": [90, 135, -90],
			"translation": [-2, 4.5, -7.5],
			"scale": [1.5, 1.5, 1.5]
		}
	},
	"groups": [
		{
			"name": "base",
			"origin": [8, 8, 8],
			"children": [
				{
					"name": "Grip",
					"origin": [8, 8, 8],
					"children": [
						{
							"name": "Handle",
							"origin": [4.1, 13, 12.3],
							"children": [0, 1, 2, 3, 4, 5, 6, 7, 8, 9, 10]
						},
						{
							"name": "Back",
							"origin": [4.1, 13, 12.3],
							"children": [11, 12, 13, 14, 15, 16, 17, 18]
						}
					]
				},
				{
					"name": "Steel",
					"origin": [8, 8, 8],
					"children": [
						{
							"name": "Razor",
							"origin": [4.1, 13, 12],
							"children": [19, 20]
						},
						{
							"name": "Blade",
							"origin": [4.1, 13, 12.1],
							"children": [21, 22, 23, 24, 25, 26]
						}
					]
				}
			]
		}
	]
}