{
	"credit": "Made with Blockbench",
	"textures": {
		"1": "gci:items/common/vsmelee",
		"particle": "gci:items/common/vsmelee"
	},
	"elements": [
		{
			"from": [8.358, 1.162, 15.744],
			"to": [9.392, 2.274, 16.41],
			"rotation": {"angle": 0, "axis": "y", "origin": [8.875, 2.09547, 2.71467]},
			"faces": {
				"north": {"uv": [0.625, 2.89583, 0.69792, 2.92708], "rotation": 90, "texture": "#1"},
				"east": {"uv": [0.625, 2.89583, 0.88542, 3.36458], "texture": "#1"},
				"south": {"uv": [0.625, 2.89583, 0.69792, 2.92708], "rotation": 90, "texture": "#1"},
				"west": {"uv": [0.65625, 3.08333, 0.91667, 3.55208], "texture": "#1"},
				"up": {"uv": [0.625, 2.89583, 0.82292, 3.67708], "rotation": 90, "texture": "#1"},
				"down": {"uv": [0.65625, 3.02083, 0.85417, 3.80208], "texture": "#1"}
			}
		},
		{
			"from": [8.582, 1.002, 12],
			"to": [9.168, 2.498, 15.738],
			"rotation": {"angle": 0, "axis": "y", "origin": [8.875, 2.09547, 2.04267]},
			"faces": {
				"north": {"uv": [0.625, 2.89583, 0.69792, 2.92708], "rotation": 90, "texture": "#1"},
				"east": {"uv": [0.84375, 2.95833, 0.57292, 3.05208], "texture": "#1"},
				"south": {"uv": [0.625, 2.89583, 0.69792, 2.92708], "rotation": 90, "texture": "#1"},
				"west": {"uv": [0.57292, 2.95833, 0.84375, 3.05208], "texture": "#1"},
				"up": {"uv": [0.625, 2.89583, 0.82292, 2.95833], "rotation": 90, "texture": "#1"},
				"down": {"uv": [0.65625, 3.02083, 0.85417, 3.80208], "texture": "#1"}
			}
		},
		{
			"from": [8.582, 2.474, 10.528],
			"to": [9.168, 2.498, 12.506],
			"rotation": {"angle": 0, "axis": "y", "origin": [8.875, 2.09547, 2.61867]},
			"faces": {
				"north": {"uv": [0.625, 2.89583, 0.69792, 2.92708], "rotation": 90, "texture": "#1"},
				"east": {"uv": [0.65625, 4.17708, 0.63542, 4.27083], "texture": "#1"},
				"south": {"uv": [0.625, 2.89583, 0.69792, 2.92708], "rotation": 90, "texture": "#1"},
				"west": {"uv": [0.65625, 4.17708, 0.63542, 4.27083], "texture": "#1"},
				"up": {"uv": [0.625, 2.89583, 0.82292, 3.67708], "rotation": 90, "texture": "#1"},
				"down": {"uv": [0.65625, 3.02083, 0.85417, 3.80208], "texture": "#1"}
			}
		},
		{
			"from": [8.582, 2.122, 10.88],
			"to": [9.168, 2.466, 12.506],
			"rotation": {"angle": 0, "axis": "y", "origin": [8.875, 2.06347, 2.61867]},
			"faces": {
				"north": {"uv": [0.625, 2.89583, 0.69792, 2.92708], "rotation": 90, "texture": "#1"},
				"east": {"uv": [0.65625, 4.17708, 0.63542, 4.27083], "texture": "#1"},
				"south": {"uv": [0.625, 2.89583, 0.69792, 2.92708], "rotation": 90, "texture": "#1"},
				"west": {"uv": [0.65625, 4.17708, 0.63542, 4.27083], "texture": "#1"},
				"up": {"uv": [0.625, 2.89583, 0.82292, 3.67708], "rotation": 90, "texture": "#1"},
				"down": {"uv": [0.65625, 3.02083, 0.85417, 3.80208], "texture": "#1"}
			}
		},
		{
			"from": [8.582, 2.41, 10.592],
			"to": [9.168, 2.498, 12.186],
			"rotation": {"angle": 0, "axis": "y", "origin": [8.875, 2.09547, 2.29867]},
			"faces": {
				"north": {"uv": [0.625, 2.89583, 0.69792, 2.92708], "rotation": 90, "texture": "#1"},
				"east": {"uv": [0.65625, 4.17708, 0.63542, 4.27083], "texture": "#1"},
				"south": {"uv": [0.625, 2.89583, 0.69792, 2.92708], "rotation": 90, "texture": "#1"},
				"west": {"uv": [0.65625, 4.17708, 0.63542, 4.27083], "texture": "#1"},
				"up": {"uv": [0.625, 2.89583, 0.82292, 3.67708], "rotation": 90, "texture": "#1"},
				"down": {"uv": [0.65625, 3.02083, 0.85417, 3.80208], "texture": "#1"}
			}
		},
		{
			"from": [8.582, 1.19897, 10.6425],
			"to": [9.168, 1.86037, 12.08855],
			"rotation": {"angle": 45, "axis": "x", "origin": [8.875, 1.20737, 11.8065]},
			"faces": {
				"north": {"uv": [0.625, 2.89583, 0.82292, 3.67708], "rotation": 270, "texture": "#1"},
				"east": {"uv": [0.65625, 4.17708, 0.63542, 4.27083], "rotation": 90, "texture": "#1"},
				"south": {"uv": [0.65625, 3.02083, 0.85417, 3.80208], "texture": "#1"},
				"west": {"uv": [0.65625, 4.17708, 0.63542, 4.27083], "rotation": 270, "texture": "#1"},
				"up": {"uv": [0.625, 2.89583, 0.69792, 2.92708], "rotation": 90, "texture": "#1"},
				"down": {"uv": [0.625, 2.89583, 0.69792, 2.92708], "rotation": 270, "texture": "#1"}
			}
		},
		{
			"from": [8.518, 1.13497, 10.2585],
			"to": [9.232, 1.79637, 11.38455],
			"rotation": {"angle": 45, "axis": "x", "origin": [8.875, 1.14337, 11.4225]},
			"faces": {
				"north": {"uv": [0.625, 2.89583, 0.82292, 3.67708], "rotation": 270, "texture": "#1"},
				"east": {"uv": [1.40625, 4.14583, 1.38542, 4.23958], "rotation": 90, "texture": "#1"},
				"south": {"uv": [0.65625, 3.02083, 0.85417, 3.80208], "texture": "#1"},
				"west": {"uv": [1.40625, 4.14583, 1.38542, 4.23958], "rotation": 90, "texture": "#1"},
				"up": {"uv": [0.625, 2.89583, 0.69792, 2.92708], "rotation": 90, "texture": "#1"},
				"down": {"uv": [0.625, 2.89583, 0.69792, 2.92708], "rotation": 270, "texture": "#1"}
			}
		},
		{
			"from": [8.582, 1.19897, 10.9945],
			"to": [9.168, 1.86037, 12.44055],
			"rotation": {"angle": 45, "axis": "x", "origin": [8.875, 1.20737, 12.1585]},
			"faces": {
				"north": {"uv": [0.625, 2.89583, 0.82292, 3.67708], "rotation": 270, "texture": "#1"},
				"east": {"uv": [0.65625, 4.17708, 0.63542, 4.27083], "rotation": 90, "texture": "#1"},
				"south": {"uv": [0.65625, 3.02083, 0.85417, 3.80208], "texture": "#1"},
				"west": {"uv": [0.65625, 4.17708, 0.63542, 4.27083], "rotation": 270, "texture": "#1"},
				"up": {"uv": [0.625, 2.89583, 0.69792, 2.92708], "rotation": 90, "texture": "#1"},
				"down": {"uv": [0.625, 2.89583, 0.69792, 2.92708], "rotation": 270, "texture": "#1"}
			}
		},
		{
			"from": [8.582, 1.64697, 10.1945],
			"to": [9.168, 1.66837, 11.64055],
			"rotation": {"angle": 45, "axis": "x", "origin": [8.875, 1.65537, 11.3585]},
			"faces": {
				"north": {"uv": [0.625, 2.89583, 0.82292, 3.67708], "rotation": 270, "texture": "#1"},
				"east": {"uv": [0.65625, 4.17708, 0.63542, 4.27083], "rotation": 90, "texture": "#1"},
				"south": {"uv": [0.65625, 3.02083, 0.85417, 3.80208], "texture": "#1"},
				"west": {"uv": [0.65625, 4.17708, 0.63542, 4.27083], "rotation": 270, "texture": "#1"},
				"up": {"uv": [0.625, 2.89583, 0.69792, 2.92708], "rotation": 90, "texture": "#1"},
				"down": {"uv": [0.625, 2.89583, 0.69792, 2.92708], "rotation": 270, "texture": "#1"}
			}
		},
		{
			"from": [8.582, 1.64697, 10.2265],
			"to": [9.168, 1.66837, 11.67255],
			"rotation": {"angle": 45, "axis": "x", "origin": [8.875, 1.65537, 11.3905]},
			"faces": {
				"north": {"uv": [0.625, 2.89583, 0.82292, 3.67708], "rotation": 270, "texture": "#1"},
				"east": {"uv": [0.65625, 4.17708, 0.63542, 4.27083], "rotation": 90, "texture": "#1"},
				"south": {"uv": [0.65625, 3.02083, 0.85417, 3.80208], "texture": "#1"},
				"west": {"uv": [0.65625, 4.17708, 0.63542, 4.27083], "rotation": 270, "texture": "#1"},
				"up": {"uv": [0.625, 2.89583, 0.69792, 2.92708], "rotation": 90, "texture": "#1"},
				"down": {"uv": [0.625, 2.89583, 0.69792, 2.92708], "rotation": 270, "texture": "#1"}
			}
		},
		{
			"from": [8.582, 1.61497, 10.2905],
			"to": [9.168, 1.70037, 11.73655],
			"rotation": {"angle": 45, "axis": "x", "origin": [8.875, 1.62337, 11.4545]},
			"faces": {
				"north": {"uv": [0.625, 2.89583, 0.82292, 3.67708], "rotation": 270, "texture": "#1"},
				"east": {"uv": [0.65625, 4.17708, 0.63542, 4.27083], "rotation": 90, "texture": "#1"},
				"south": {"uv": [0.65625, 3.02083, 0.85417, 3.80208], "texture": "#1"},
				"west": {"uv": [0.65625, 4.17708, 0.63542, 4.27083], "rotation": 270, "texture": "#1"},
				"up": {"uv": [0.625, 2.89583, 0.69792, 2.92708], "rotation": 90, "texture": "#1"},
				"down": {"uv": [0.625, 2.89583, 0.69792, 2.92708], "rotation": 270, "texture": "#1"}
			}
		},
		{
			"from": [8.582, 1.61497, 10.3865],
			"to": [9.168, 1.70037, 11.83255],
			"rotation": {"angle": 45, "axis": "x", "origin": [8.875, 1.62337, 11.5505]},
			"faces": {
				"north": {"uv": [0.625, 2.89583, 0.82292, 3.67708], "rotation": 270, "texture": "#1"},
				"east": {"uv": [0.65625, 4.17708, 0.63542, 4.27083], "rotation": 90, "texture": "#1"},
				"south": {"uv": [0.65625, 3.02083, 0.85417, 3.80208], "texture": "#1"},
				"west": {"uv": [0.65625, 4.17708, 0.63542, 4.27083], "rotation": 270, "texture": "#1"},
				"up": {"uv": [0.625, 2.89583, 0.69792, 2.92708], "rotation": 90, "texture": "#1"},
				"down": {"uv": [0.625, 2.89583, 0.69792, 2.92708], "rotation": 270, "texture": "#1"}
			}
		},
		{
			"from": [8.492, 1.46616, 11.27921],
			"to": [9.258, 1.74216, 11.55921],
			"rotation": {"angle": -45, "axis": "x", "origin": [8.875, 1.60416, 11.41921]},
			"faces": {
				"north": {"uv": [0.09375, 3.39583, 0.3125, 4.20833], "rotation": 180, "texture": "#1"},
				"east": {"uv": [0.09375, 3.39583, 0.3125, 4.20833], "rotation": 270, "texture": "#1"},
				"south": {"uv": [0.09375, 3.39583, 0.3125, 4.20833], "texture": "#1"},
				"west": {"uv": [0.09375, 3.39583, 0.3125, 4.20833], "rotation": 90, "texture": "#1"},
				"up": {"uv": [0.09375, 3.39583, 0.3125, 4.20833], "rotation": 180, "texture": "#1"},
				"down": {"uv": [0.09375, 3.39583, 0.3125, 4.20833], "texture": "#1"}
			}
		},
		{
			"from": [8.492, 1.85016, 10.89521],
			"to": [9.258, 2.12616, 11.17521],
			"rotation": {"angle": -45, "axis": "x", "origin": [8.875, 1.98816, 11.03521]},
			"faces": {
				"north": {"uv": [0.09375, 3.39583, 0.3125, 4.20833], "rotation": 180, "texture": "#1"},
				"east": {"uv": [0.09375, 3.39583, 0.3125, 4.20833], "rotation": 270, "texture": "#1"},
				"south": {"uv": [0.09375, 3.39583, 0.3125, 4.20833], "texture": "#1"},
				"west": {"uv": [0.09375, 3.39583, 0.3125, 4.20833], "rotation": 90, "texture": "#1"},
				"up": {"uv": [0.09375, 3.39583, 0.3125, 4.20833], "rotation": 180, "texture": "#1"},
				"down": {"uv": [0.09375, 3.39583, 0.3125, 4.20833], "texture": "#1"}
			}
		},
		{
			"from": [8.357, 2, 15.743],
			"to": [9.3923, 2.216, 16.411],
			"rotation": {"angle": 0, "axis": "y", "origin": [8.875, 2.58147, 2.71467]},
			"faces": {
				"north": {"uv": [1.8125, 3.27083, 2.07292, 3.73958], "texture": "#1"},
				"east": {"uv": [1.8125, 3.27083, 2.07292, 3.73958], "texture": "#1"},
				"south": {"uv": [1.8125, 3.27083, 2.07292, 3.73958], "texture": "#1"},
				"west": {"uv": [1.8125, 3.27083, 2.07292, 3.73958], "texture": "#1"},
				"up": {"uv": [0.625, 2.89583, 0.82292, 3.67708], "rotation": 90, "texture": "#1"},
				"down": {"uv": [0.65625, 3.02083, 0.85417, 3.80208], "texture": "#1"}
			}
		},
		{
			"from": [8.11627, 1.74558, 15.744],
			"to": [8.688, 2.21, 16.41],
			"rotation": {"angle": -45, "axis": "z", "origin": [8.875, 1.718, 16.077]},
			"faces": {
				"north": {"uv": [0.625, 2.89583, 0.69792, 2.92708], "rotation": 90, "texture": "#1"},
				"east": {"uv": [0.625, 2.89583, 0.88542, 3.36458], "texture": "#1"},
				"south": {"uv": [0.625, 2.89583, 0.69792, 2.92708], "rotation": 90, "texture": "#1"},
				"west": {"uv": [0.625, 2.89583, 0.69792, 2.92708], "rotation": 90, "texture": "#1"},
				"up": {"uv": [0.625, 2.89583, 0.82292, 3.67708], "rotation": 90, "texture": "#1"},
				"down": {"uv": [0.65625, 3.02083, 0.85417, 3.80208], "texture": "#1"}
			}
		},
		{
			"from": [8.53518, 2.2724, 15.744],
			"to": [8.9996, 2.84412, 16.41],
			"rotation": {"angle": -45, "axis": "z", "origin": [8.5076, 2.0854, 16.077]},
			"faces": {
				"north": {"uv": [0.625, 2.89583, 0.69792, 2.92708], "rotation": 90, "texture": "#1"},
				"east": {"uv": [0.625, 2.89583, 0.82292, 3.67708], "rotation": 180, "texture": "#1"},
				"south": {"uv": [0.625, 2.89583, 0.69792, 2.92708], "rotation": 90, "texture": "#1"},
				"west": {"uv": [0.65625, 3.02083, 0.85417, 3.80208], "rotation": 90, "texture": "#1"},
				"up": {"uv": [0.625, 2.89583, 0.69792, 2.92708], "rotation": 90, "texture": "#1"},
				"down": {"uv": [0.625, 2.89583, 0.88542, 3.36458], "rotation": 90, "texture": "#1"}
			}
		},
		{
			"from": [8.68227, 0.83577, 15.744],
			"to": [9.14669, 1.4075, 16.41],
			"rotation": {"angle": 45, "axis": "z", "origin": [8.875, 1.29523, 16.077]},
			"faces": {
				"north": {"uv": [0.625, 2.89583, 0.69792, 2.92708], "rotation": 90, "texture": "#1"},
				"east": {"uv": [0.65625, 3.02083, 0.85417, 3.80208], "rotation": 270, "texture": "#1"},
				"south": {"uv": [0.625, 2.89583, 0.69792, 2.92708], "texture": "#1"},
				"west": {"uv": [0.625, 2.89583, 0.82292, 3.67708], "texture": "#1"},
				"up": {"uv": [0.625, 2.89583, 0.88542, 3.36458], "rotation": 270, "texture": "#1"},
				"down": {"uv": [0.625, 2.89583, 0.69792, 2.92708], "texture": "#1"}
			}
		},
		{
			"from": [8.6864, 0.83406, 15.744],
			"to": [9.0636, 2.6024, 16.41],
			"rotation": {"angle": 0, "axis": "z", "origin": [8.875, 1.29523, 16.077]},
			"faces": {
				"north": {"uv": [0.625, 2.89583, 0.69792, 2.92708], "rotation": 90, "texture": "#1"},
				"east": {"uv": [0.65625, 3.08333, 0.91667, 3.55208], "rotation": 180, "texture": "#1"},
				"south": {"uv": [0.625, 2.89583, 0.69792, 2.92708], "rotation": 270, "texture": "#1"},
				"west": {"uv": [0.625, 2.89583, 0.88542, 3.36458], "rotation": 180, "texture": "#1"},
				"up": {"uv": [0.625, 2.89583, 0.69792, 2.92708], "rotation": 90, "texture": "#1"},
				"down": {"uv": [0.625, 2.89583, 0.69792, 2.92708], "rotation": 270, "texture": "#1"}
			}
		},
		{
			"from": [8.41554, 1.1025, 15.744],
			"to": [8.98727, 1.56692, 16.41],
			"rotation": {"angle": 45, "axis": "z", "origin": [8.875, 1.29523, 16.077]},
			"faces": {
				"north": {"uv": [0.625, 2.89583, 0.69792, 2.92708], "rotation": 90, "texture": "#1"},
				"east": {"uv": [0.625, 2.89583, 0.88542, 3.36458], "texture": "#1"},
				"south": {"uv": [0.625, 2.89583, 0.69792, 2.92708], "texture": "#1"},
				"west": {"uv": [0.625, 2.89583, 0.69792, 2.92708], "texture": "#1"},
				"up": {"uv": [0.625, 2.89583, 0.82292, 3.67708], "rotation": 90, "texture": "#1"},
				"down": {"uv": [0.65625, 3.02083, 0.85417, 3.80208], "texture": "#1"}
			}
		},
		{
			"from": [8.5845, 1.3125, 16.2125],
			"to": [9.1595, 2.1375, 21.9375],
			"rotation": {"angle": 0, "axis": "y", "origin": [8.875, 1.725, 16.375]},
			"faces": {
				"north": {"uv": [3.61458, 14.25, 5.61458, 15.91667], "texture": "#1"},
				"east": {"uv": [4.89583, 0.03125, 5.61458, 2.10417], "rotation": 90, "texture": "#1"},
				"south": {"uv": [3.86458, 12.15625, 5.86458, 13.82292], "texture": "#1"},
				"west": {"uv": [4.89583, 0.03125, 5.61458, 2.07292], "rotation": 90, "texture": "#1"},
				"up": {"uv": [5.11458, 0, 4.89583, 2.10417], "texture": "#1"},
				"down": {"uv": [5.61458, 2.10417, 5.39583, 0], "texture": "#1"}
			}
		},
		{
			"from": [8.4885, 1.1905, 16.2125],
			"to": [9.2555, 2.2595, 17.4055],
			"rotation": {"angle": 0, "axis": "y", "origin": [8.875, 1.725, 16.375]},
			"faces": {
				"north": {"uv": [3.61458, 14.25, 5.61458, 15.91667], "texture": "#1"},
				"east": {"uv": [0.48958, 1.29167, 2.48958, 0.875], "rotation": 90, "texture": "#1"},
				"south": {"uv": [1.73958, 2.03125, 2.77083, 2.04167], "texture": "#1"},
				"west": {"uv": [0.45833, 0.875, 2.45833, 1.29167], "rotation": 90, "texture": "#1"},
				"up": {"uv": [2.45833, 1.29167, 0.45833, 0.875], "texture": "#1"},
				"down": {"uv": [2.45833, 0.875, 0.45833, 1.29167], "texture": "#1"}
			}
		},
		{
			"from": [8.4885, 0.8385, 14.0045],
			"to": [9.2555, 2.6115, 15.7415],
			"rotation": {"angle": 0, "axis": "y", "origin": [8.875, 1.725, 14.647]},
			"faces": {
				"north": {"uv": [1.73958, 2.03125, 2.77083, 2.04167], "texture": "#1"},
				"east": {"uv": [0.48958, 0.875, 2.48958, 1.35417], "rotation": 90, "texture": "#1"},
				"south": {"uv": [1.73958, 2.03125, 2.77083, 2.04167], "texture": "#1"},
				"west": {"uv": [0.48958, 1.35417, 2.48958, 0.875], "rotation": 90, "texture": "#1"},
				"up": {"uv": [2.48958, 1.35417, 0.48958, 0.875], "rotation": 180, "texture": "#1"},
				"down": {"uv": [2.48958, 0.875, 0.48958, 1.35417], "rotation": 180, "texture": "#1"}
			}
		},
		{
			"from": [8.4885, 1.2865, 21.3405],
			"to": [9.2555, 2.1635, 21.9575],
			"rotation": {"angle": 0, "axis": "y", "origin": [8.875, 1.725, 16.375]},
			"faces": {
				"north": {"uv": [0.45833, 0.875, 2.45833, 1.26042], "rotation": 90, "texture": "#1"},
				"east": {"uv": [0.45833, 0.875, 2.45833, 1.13542], "rotation": 270, "texture": "#1"},
				"south": {"uv": [1.73958, 2.03125, 2.77083, 2.04167], "texture": "#1"},
				"west": {"uv": [0.45833, 0.875, 2.45833, 1.13542], "rotation": 90, "texture": "#1"},
				"up": {"uv": [0.45833, 0.875, 2.45833, 1.13542], "rotation": 180, "texture": "#1"},
				"down": {"uv": [0.45833, 1.13542, 2.45833, 0.875], "rotation": 180, "texture": "#1"}
			}
		},
		{
			"from": [8.5845, 1.49823, 21.57851],
			"to": [9.1595, 2.12091, 22.19864],
			"rotation": {"angle": -45, "axis": "x", "origin": [8.872, 1.84985, 22.02358]},
			"faces": {
				"north": {"uv": [0.45833, 0.875, 2.45833, 1.26042], "rotation": 90, "texture": "#1"},
				"east": {"uv": [0.45833, 0.875, 2.39583, 0.97917], "rotation": 90, "texture": "#1"},
				"south": {"uv": [0.45833, 0.875, 2.52083, 1.16667], "rotation": 90, "texture": "#1"},
				"west": {"uv": [0.45833, 0.875, 2.39583, 0.97917], "rotation": 90, "texture": "#1"},
				"up": {"uv": [2.45833, 0.875, 0.45833, 1.26042], "rotation": 180, "texture": "#1"},
				"down": {"uv": [0.45833, 0.875, 2.52083, 1.16667], "rotation": 90, "texture": "#1"}
			}
		},
		{
			"from": [8.5848, 1.14623, 22.09051],
			"to": [9.1578, 1.73691, 22.61464],
			"rotation": {"angle": -45, "axis": "x", "origin": [8.872, 1.33785, 22.43958]},
			"faces": {
				"north": {"uv": [0.45833, 0.875, 2.39583, 0.97917], "rotation": 90, "texture": "#1"},
				"east": {"uv": [0.45833, 0.875, 2.52083, 1.16667], "rotation": 90, "texture": "#1"},
				"south": {"uv": [0.45833, 0.875, 2.52083, 1.16667], "rotation": 90, "texture": "#1"},
				"west": {"uv": [0.45833, 1.16667, 2.52083, 0.875], "rotation": 90, "texture": "#1"},
				"up": {"uv": [2.45833, 0.875, 0.45833, 1.26042], "rotation": 180, "texture": "#1"},
				"down": {"uv": [0.45833, 0.875, 2.52083, 1.16667], "rotation": 180, "texture": "#1"}
			}
		},
		{
			"from": [8.67188, 1.42737, 21.91712],
			"to": [9.07813, 2.02262, 22.22287],
			"rotation": {"angle": 0, "axis": "y", "origin": [8.875, 2.00783, 22.55282]},
			"faces": {
				"north": {"uv": [0.67708, 2.9375, 0.875, 3.0625], "texture": "#1"},
				"east": {"uv": [0.67708, 2.9375, 0.875, 3.0625], "texture": "#1"},
				"south": {"uv": [0.67708, 3.40625, 0.90625, 3.59375], "texture": "#1"},
				"west": {"uv": [0.625, 2.89583, 0.69792, 2.98958], "texture": "#1"},
				"up": {"uv": [0.67708, 2.9375, 0.875, 3.0625], "texture": "#1"},
				"down": {"uv": [0.67708, 2.9375, 0.875, 3.0625], "texture": "#1"}
			}
		},
		{
			"from": [8.67188, 1.56879, 22.09285],
			"to": [9.07813, 2.16404, 22.3986],
			"rotation": {"angle": 45, "axis": "x", "origin": [8.875, 2.00783, 22.55282]},
			"faces": {
				"north": {"uv": [0.67708, 2.9375, 0.875, 3.0625], "texture": "#1"},
				"east": {"uv": [0.67708, 2.9375, 0.875, 3.0625], "texture": "#1"},
				"south": {"uv": [0.67708, 3.40625, 0.90625, 3.59375], "texture": "#1"},
				"west": {"uv": [0.625, 2.89583, 0.69792, 2.98958], "texture": "#1"},
				"up": {"uv": [0.67708, 2.9375, 0.875, 3.0625], "texture": "#1"},
				"down": {"uv": [0.67708, 2.9375, 0.875, 3.0625], "texture": "#1"}
			}
		},
		{
			"from": [8.67188, 2.27919, 22.51376],
			"to": [9.07813, 2.58494, 23.10901],
			"rotation": {"angle": 45, "axis": "x", "origin": [8.875, 2.00783, 22.55282]},
			"faces": {
				"north": {"uv": [0.67708, 2.9375, 0.875, 3.0625], "rotation": 180, "texture": "#1"},
				"east": {"uv": [0.67708, 2.9375, 0.875, 3.0625], "rotation": 270, "texture": "#1"},
				"south": {"uv": [0.67708, 2.9375, 0.875, 3.0625], "texture": "#1"},
				"west": {"uv": [0.625, 2.89583, 0.69792, 2.98958], "rotation": 90, "texture": "#1"},
				"up": {"uv": [0.67708, 2.9375, 0.875, 3.0625], "rotation": 180, "texture": "#1"},
				"down": {"uv": [0.67708, 3.40625, 0.90625, 3.59375], "texture": "#1"}
			}
		},
		{
			"from": [8.67188, 2.13778, 22.33803],
			"to": [9.07813, 2.44353, 22.93328],
			"rotation": {"angle": 0, "axis": "x", "origin": [8.875, 2.00783, 22.55282]},
			"faces": {
				"north": {"uv": [0.67708, 2.9375, 0.875, 3.0625], "rotation": 180, "texture": "#1"},
				"east": {"uv": [0.67708, 2.9375, 0.875, 3.0625], "rotation": 270, "texture": "#1"},
				"south": {"uv": [0.67708, 2.9375, 0.875, 3.0625], "texture": "#1"},
				"west": {"uv": [0.625, 2.89583, 0.69792, 2.98958], "rotation": 90, "texture": "#1"},
				"up": {"uv": [0.67708, 2.9375, 0.875, 3.0625], "rotation": 180, "texture": "#1"},
				"down": {"uv": [0.67708, 3.40625, 0.90625, 3.59375], "texture": "#1"}
			}
		},
		{
			"from": [8.67188, 0.86506, 22.1623],
			"to": [9.07813, 1.17081, 22.75755],
			"rotation": {"angle": 45, "axis": "x", "origin": [8.875, 1.44217, 22.71849]},
			"faces": {
				"north": {"uv": [0.67708, 2.9375, 0.875, 3.0625], "rotation": 180, "texture": "#1"},
				"east": {"uv": [0.67708, 2.9375, 0.875, 3.0625], "rotation": 90, "texture": "#1"},
				"south": {"uv": [0.67708, 2.9375, 0.875, 3.0625], "texture": "#1"},
				"west": {"uv": [0.625, 2.89583, 0.69792, 2.98958], "rotation": 270, "texture": "#1"},
				"up": {"uv": [0.67708, 3.40625, 0.90625, 3.59375], "texture": "#1"},
				"down": {"uv": [0.67708, 2.9375, 0.875, 3.0625], "rotation": 180, "texture": "#1"}
			}
		},
		{
			"from": [8.67188, 1.00647, 22.33803],
			"to": [9.07813, 1.31222, 22.93328],
			"rotation": {"angle": 0, "axis": "x", "origin": [8.875, 1.44217, 22.71849]},
			"faces": {
				"north": {"uv": [0.67708, 2.9375, 0.875, 3.0625], "rotation": 180, "texture": "#1"},
				"east": {"uv": [0.67708, 2.9375, 0.875, 3.0625], "rotation": 90, "texture": "#1"},
				"south": {"uv": [0.67708, 2.9375, 0.875, 3.0625], "texture": "#1"},
				"west": {"uv": [0.625, 2.89583, 0.69792, 2.98958], "rotation": 270, "texture": "#1"},
				"up": {"uv": [0.67708, 3.40625, 0.90625, 3.59375], "texture": "#1"},
				"down": {"uv": [0.67708, 2.9375, 0.875, 3.0625], "rotation": 180, "texture": "#1"}
			}
		},
		{
			"from": [8.67188, 1.28596, 22.87271],
			"to": [9.07813, 1.88121, 23.17846],
			"rotation": {"angle": 45, "axis": "x", "origin": [8.875, 1.44217, 22.71849]},
			"faces": {
				"north": {"uv": [0.67708, 3.40625, 0.90625, 3.59375], "rotation": 180, "texture": "#1"},
				"east": {"uv": [0.67708, 2.9375, 0.875, 3.0625], "rotation": 180, "texture": "#1"},
				"south": {"uv": [0.67708, 2.9375, 0.875, 3.0625], "rotation": 180, "texture": "#1"},
				"west": {"uv": [0.625, 2.89583, 0.69792, 2.98958], "rotation": 180, "texture": "#1"},
				"up": {"uv": [0.67708, 2.9375, 0.875, 3.0625], "texture": "#1"},
				"down": {"uv": [0.67708, 2.9375, 0.875, 3.0625], "texture": "#1"}
			}
		},
		{
			"from": [8.67188, 1.42737, 23.04844],
			"to": [9.07813, 2.02262, 23.35419],
			"rotation": {"angle": 0, "axis": "x", "origin": [8.875, 1.44217, 22.71849]},
			"faces": {
				"north": {"uv": [0.67708, 3.40625, 0.90625, 3.59375], "rotation": 180, "texture": "#1"},
				"east": {"uv": [0.67708, 2.9375, 0.875, 3.0625], "rotation": 180, "texture": "#1"},
				"south": {"uv": [0.67708, 2.9375, 0.875, 3.0625], "rotation": 180, "texture": "#1"},
				"west": {"uv": [0.625, 2.89583, 0.69792, 2.98958], "rotation": 180, "texture": "#1"},
				"up": {"uv": [0.67708, 2.9375, 0.875, 3.0625], "texture": "#1"},
				"down": {"uv": [0.67708, 2.9375, 0.875, 3.0625], "texture": "#1"}
			}
		},
		{
			"from": [8.75, 1.48, -1.544],
			"to": [9, 2.18, 16],
			"rotation": {"angle": 0, "axis": "y", "origin": [8.875, 2.09547, 2.71467]},
			"faces": {
				"north": {"uv": [2.47917, 2.89583, 2.41667, 3.23958], "texture": "#1"},
				"east": {"uv": [2.41667, 2.89583, 2.60417, 8.11458], "rotation": 90, "texture": "#1"},
				"south": {"uv": [13.66667, 0.33333, 15.66667, 2.33333], "texture": "#1"},
				"west": {"uv": [2.41667, 2.89583, 2.60417, 8.11458], "rotation": 90, "texture": "#1"},
				"up": {"uv": [2.41667, 2.89583, 2.41667, 8.11458], "texture": "#1"},
				"down": {"uv": [2.41667, 2.89583, 2.79167, 4.55208], "texture": "#1"}
			}
		},
		{
			"from": [8.745, 1.046, -1],
			"to": [9.005, 1.476, 15.75],
			"rotation": {"angle": 0, "axis": "y", "origin": [8.875, 1.07147, 2.71467]},
			"faces": {
				"north": {"uv": [0.09375, 3.39583, 0.3125, 4.20833], "texture": "#1"},
				"east": {"uv": [0.09375, 3.39583, 0.3125, 4.20833], "texture": "#1"},
				"south": {"uv": [13.66667, 0.33333, 15.66667, 2.33333], "texture": "#1"},
				"west": {"uv": [0.09375, 3.39583, 0.3125, 4.20833], "texture": "#1"},
				"up": {"uv": [13.66667, 0.33333, 15.66667, 2.33333], "texture": "#1"},
				"down": {"uv": [0.09375, 3.39583, 0.3125, 4.20833], "texture": "#1"}
			}
		},
		{
			"from": [8.745, 0.694, -1.352],
			"to": [9.005, 2.404, -0.986],
			"rotation": {"angle": 0, "axis": "y", "origin": [8.875, 1.07147, 0.98667]},
			"faces": {
				"north": {"uv": [0.09375, 3.39583, 0.3125, 4.20833], "texture": "#1"},
				"east": {"uv": [0.09375, 3.39583, 0.3125, 4.20833], "texture": "#1"},
				"south": {"uv": [0.09375, 3.39583, 0.3125, 4.20833], "texture": "#1"},
				"west": {"uv": [0.09375, 3.39583, 0.3125, 4.20833], "texture": "#1"},
				"up": {"uv": [0.09375, 3.39583, 0.3125, 4.20833], "rotation": 180, "texture": "#1"},
				"down": {"uv": [0.09375, 3.39583, 0.3125, 4.20833], "texture": "#1"}
			}
		},
		{
			"from": [8.745, 1.078, -1.064],
			"to": [9.005, 2.212, -0.538],
			"rotation": {"angle": 0, "axis": "y", "origin": [8.875, 1.07147, 1.43467]},
			"faces": {
				"north": {"uv": [0.09375, 3.39583, 0.3125, 4.20833], "texture": "#1"},
				"east": {"uv": [0.09375, 3.39583, 0.3125, 4.20833], "texture": "#1"},
				"south": {"uv": [0.09375, 3.39583, 0.3125, 4.20833], "texture": "#1"},
				"west": {"uv": [0.09375, 3.39583, 0.3125, 4.20833], "texture": "#1"},
				"up": {"uv": [13.66667, 0.33333, 15.66667, 2.33333], "texture": "#1"},
				"down": {"uv": [0.09375, 3.39583, 0.3125, 4.20833], "texture": "#1"}
			}
		},
		{
			"from": [8.745, 0.48405, -1.74437],
			"to": [9.005, 1.35819, -0.8106],
			"rotation": {"angle": 22.5, "axis": "x", "origin": [8.875, 0.92112, -1.45348]},
			"faces": {
				"north": {"uv": [0.09375, 3.39583, 0.3125, 4.20833], "texture": "#1"},
				"east": {"uv": [0.09375, 3.39583, 0.3125, 4.20833], "texture": "#1"},
				"south": {"uv": [0.09375, 3.39583, 0.3125, 4.20833], "rotation": 90, "texture": "#1"},
				"west": {"uv": [0.09375, 3.39583, 0.3125, 4.20833], "texture": "#1"},
				"up": {"uv": [13.66667, 0.33333, 15.66667, 2.33333], "texture": "#1"},
				"down": {"uv": [0.09375, 3.39583, 0.3125, 4.20833], "texture": "#1"}
			}
		},
		{
			"from": [8.745, 0.86805, -1.32837],
			"to": [9.005, 1.32619, -0.0426],
			"rotation": {"angle": -22.5, "axis": "x", "origin": [8.875, 1.30512, -0.62148]},
			"faces": {
				"north": {"uv": [0.09375, 3.39583, 0.3125, 4.20833], "texture": "#1"},
				"east": {"uv": [0.09375, 3.39583, 0.3125, 4.20833], "texture": "#1"},
				"south": {"uv": [13.66667, 0.33333, 15.66667, 2.33333], "texture": "#1"},
				"west": {"uv": [0.09375, 3.39583, 0.3125, 4.20833], "texture": "#1"},
				"up": {"uv": [13.66667, 0.33333, 15.66667, 2.33333], "texture": "#1"},
				"down": {"uv": [0.09375, 3.39583, 0.3125, 4.20833], "texture": "#1"}
			}
		},
		{
			"from": [8.745, 1.78223, -1.18655],
			"to": [9.005, 2.588, -0.31241],
			"rotation": {"angle": 22.5, "axis": "x", "origin": [8.875, 2.29712, -0.74948]},
			"faces": {
				"north": {"uv": [13.66667, 0.33333, 15.66667, 2.33333], "rotation": 180, "texture": "#1"},
				"east": {"uv": [0.09375, 3.39583, 0.3125, 4.20833], "rotation": 90, "texture": "#1"},
				"south": {"uv": [0.09375, 3.39583, 0.3125, 4.20833], "texture": "#1"},
				"west": {"uv": [0.09375, 3.39583, 0.3125, 4.20833], "rotation": 270, "texture": "#1"},
				"up": {"uv": [0.09375, 3.39583, 0.3125, 4.20833], "rotation": 90, "texture": "#1"},
				"down": {"uv": [0.09375, 3.39583, 0.3125, 4.20833], "rotation": 180, "texture": "#1"}
			}
		},
		{
			"from": [8.745, 0.60396, -1.82992],
			"to": [9.005, 1.81146, -1.39955],
			"rotation": {"angle": 45, "axis": "x", "origin": [8.875, 1.20771, -1.61473]},
			"faces": {
				"north": {"uv": [0.09375, 3.39583, 0.3125, 4.20833], "texture": "#1"},
				"east": {"uv": [0.09375, 3.39583, 0.3125, 4.20833], "texture": "#1"},
				"south": {"uv": [13.66667, 0.33333, 15.66667, 2.33333], "texture": "#1"},
				"west": {"uv": [0.09375, 3.39583, 0.3125, 4.20833], "texture": "#1"},
				"up": {"uv": [13.66667, 0.33333, 15.66667, 2.33333], "texture": "#1"},
				"down": {"uv": [0.09375, 3.39583, 0.3125, 4.20833], "texture": "#1"}
			}
		},
		{
			"from": [8.745, 1.12902, -2.30969],
			"to": [9.005, 1.51552, -1.20811],
			"rotation": {"angle": -22.5, "axis": "x", "origin": [8.875, 1.32227, -1.7589]},
			"faces": {
				"north": {"uv": [0.09375, 3.39583, 0.3125, 4.20833], "rotation": 180, "texture": "#1"},
				"east": {"uv": [0.09375, 3.39583, 0.3125, 4.20833], "rotation": 270, "texture": "#1"},
				"south": {"uv": [13.66667, 0.33333, 15.66667, 2.33333], "texture": "#1"},
				"west": {"uv": [0.09375, 3.39583, 0.3125, 4.20833], "rotation": 90, "texture": "#1"},
				"up": {"uv": [0.09375, 3.39583, 0.3125, 4.20833], "rotation": 180, "texture": "#1"},
				"down": {"uv": [13.66667, 0.33333, 15.66667, 2.33333], "texture": "#1"}
			}
		},
		{
			"from": [8.745, 1.83302, -1.28569],
			"to": [9.005, 2.09152, 0.10389],
			"rotation": {"angle": -22.5, "axis": "x", "origin": [8.875, 2.02627, -0.7349]},
			"faces": {
				"north": {"uv": [0.09375, 3.39583, 0.3125, 4.20833], "rotation": 180, "texture": "#1"},
				"east": {"uv": [0.09375, 3.39583, 0.3125, 4.20833], "rotation": 270, "texture": "#1"},
				"south": {"uv": [13.66667, 0.33333, 15.66667, 2.33333], "texture": "#1"},
				"west": {"uv": [0.09375, 3.39583, 0.3125, 4.20833], "rotation": 90, "texture": "#1"},
				"up": {"uv": [0.09375, 3.39583, 0.3125, 4.20833], "rotation": 180, "texture": "#1"},
				"down": {"uv": [13.66667, 0.33333, 15.66667, 2.33333], "texture": "#1"}
			}
		},
		{
			"from": [8.745, 1.477, -1.27216],
			"to": [9.005, 1.7355, 0.11742],
			"rotation": {"angle": 22.5, "axis": "x", "origin": [8.875, 1.60625, -0.57737]},
			"faces": {
				"north": {"uv": [0.09375, 3.39583, 0.3125, 4.20833], "rotation": 180, "texture": "#1"},
				"east": {"uv": [0.09375, 3.39583, 0.3125, 4.20833], "rotation": 270, "texture": "#1"},
				"south": {"uv": [13.66667, 0.33333, 15.66667, 2.33333], "texture": "#1"},
				"west": {"uv": [0.09375, 3.39583, 0.3125, 4.20833], "rotation": 90, "texture": "#1"},
				"up": {"uv": [0.09375, 3.39583, 0.3125, 4.20833], "rotation": 180, "texture": "#1"},
				"down": {"uv": [13.66667, 0.33333, 15.66667, 2.33333], "texture": "#1"}
			}
		},
		{
			"from": [8.745, 1.814, -1.448],
			"to": [9.005, 2.68814, -0.51423],
			"rotation": {"angle": -22.5, "axis": "x", "origin": [8.875, 1.549, -1.521]},
			"faces": {
				"north": {"uv": [0.09375, 3.39583, 0.3125, 4.20833], "texture": "#1"},
				"east": {"uv": [0.09375, 3.39583, 0.3125, 4.20833], "texture": "#1"},
				"south": {"uv": [0.09375, 3.39583, 0.3125, 4.20833], "rotation": 90, "texture": "#1"},
				"west": {"uv": [0.09375, 3.39583, 0.3125, 4.20833], "texture": "#1"},
				"up": {"uv": [0.09375, 3.39583, 0.3125, 4.20833], "rotation": 180, "texture": "#1"},
				"down": {"uv": [0.09375, 3.39583, 0.3125, 4.20833], "texture": "#1"}
			}
		},
		{
			"from": [8.745, 1.622, -2.54549],
			"to": [9.005, 2.05237, -1.338],
			"rotation": {"angle": 45, "axis": "x", "origin": [8.875, 1.549, -1.521]},
			"faces": {
				"north": {"uv": [0.09375, 3.39583, 0.3125, 4.20833], "rotation": 180, "texture": "#1"},
				"east": {"uv": [0.09375, 3.39583, 0.3125, 4.20833], "rotation": 90, "texture": "#1"},
				"south": {"uv": [0.09375, 3.39583, 0.3125, 4.20833], "texture": "#1"},
				"west": {"uv": [0.09375, 3.39583, 0.3125, 4.20833], "rotation": 270, "texture": "#1"},
				"up": {"uv": [13.66667, 0.33333, 15.66667, 2.33333], "texture": "#1"},
				"down": {"uv": [0.09375, 3.39583, 0.3125, 4.20833], "rotation": 180, "texture": "#1"}
			}
		},
		{
			"from": [8.745, 1.622, -2.43957],
			"to": [9.005, 2.0085, -1.338],
			"rotation": {"angle": 22.5, "axis": "x", "origin": [8.875, 1.549, -1.521]},
			"faces": {
				"north": {"uv": [0.09375, 3.39583, 0.3125, 4.20833], "rotation": 180, "texture": "#1"},
				"east": {"uv": [0.09375, 3.39583, 0.3125, 4.20833], "rotation": 90, "texture": "#1"},
				"south": {"uv": [0.09375, 3.39583, 0.3125, 4.20833], "texture": "#1"},
				"west": {"uv": [0.09375, 3.39583, 0.3125, 4.20833], "rotation": 270, "texture": "#1"},
				"up": {"uv": [13.66667, 0.33333, 15.66667, 2.33333], "texture": "#1"},
				"down": {"uv": [0.09375, 3.39583, 0.3125, 4.20833], "rotation": 180, "texture": "#1"}
			}
		},
		{
			"from": [8.745, 1.29003, -2.34171],
			"to": [9.005, 1.96797, -1.338],
			"rotation": {"angle": 0, "axis": "x", "origin": [8.875, 1.709, -1.521]},
			"faces": {
				"north": {"uv": [0.09375, 3.39583, 0.3125, 4.20833], "rotation": 180, "texture": "#1"},
				"east": {"uv": [0.09375, 3.39583, 0.3125, 4.20833], "rotation": 90, "texture": "#1"},
				"south": {"uv": [0.09375, 3.39583, 0.3125, 4.20833], "texture": "#1"},
				"west": {"uv": [0.09375, 3.39583, 0.3125, 4.20833], "rotation": 270, "texture": "#1"},
				"up": {"uv": [13.66667, 0.33333, 15.66667, 2.33333], "texture": "#1"},
				"down": {"uv": [0.09375, 3.39583, 0.3125, 4.20833], "rotation": 180, "texture": "#1"}
			}
		},
		{
			"from": [8.745, 2.166, -1],
			"to": [9.005, 2.436, 15.75],
			"rotation": {"angle": 0, "axis": "y", "origin": [8.875, 2.22347, 2.71467]},
			"faces": {
				"north": {"uv": [0.09375, 3.39583, 0.3125, 4.20833], "texture": "#1"},
				"east": {"uv": [0.09375, 3.39583, 0.3125, 4.20833], "texture": "#1"},
				"south": {"uv": [13.66667, 0.33333, 15.66667, 2.33333], "texture": "#1"},
				"west": {"uv": [0.09375, 3.39583, 0.3125, 4.20833], "texture": "#1"},
				"up": {"uv": [0.09375, 3.39583, 0.3125, 4.20833], "texture": "#1"},
				"down": {"uv": [0.09375, 3.39583, 0.3125, 4.20833], "texture": "#1"}
			}
		}
	],
	"display": {
		"thirdperson_righthand": {
			"rotation": [90, 0, 0],
			"translation": [0, 9, 7.25]
		},
		"thirdperson_lefthand": {
			"rotation": [90, 0, 0],
			"translation": [1.5, 9, 7.25]
		},
		"firstperson_righthand": {
			"rotation": [45, 0, 0],
			"translation": [-1.5, 13, 0]
		},
		"firstperson_lefthand": {
			"rotation": [45, 0, 0],
			"translation": [-1.5, 13, 0]
		},
		"ground": {
			"translation": [0, 4.75, 0],
			"scale": [1, 0.65, 1]
		},
		"gui": {
			"rotation": [90, 46, 90],
			"translation": [-6.25, -3.5, 0],
			"scale": [1, 1.16, 0.85]
		},
		"fixed": {
			"rotation": [90, 135, 90],
			"translation": [3.25, -5.5, -2.25]
		}
	},
	"groups": [
		{
			"name": "handle",
			"origin": [8.875, 2.09547, 2.71467],
			"color": 0,
			"children": [
				{
					"name": "guard",
					"origin": [8.875, 0.3429, 21.75063],
					"color": 0,
					"children": [
						0,
						1,
						2,
						3,
						4,
						5,
						6,
						7,
						8,
						9,
						10,
						11,
						12,
						13,
						14,
						{
							"name": "group",
							"origin": [8.5076, 2.0854, 16.077],
							"color": 0,
							"children": [15, 16]
						},
						{
							"name": "group",
							"origin": [8.5076, 2.0854, 16.077],
							"color": 0,
							"children": [17, 18, 19]
						}
					]
				},
				{
					"name": "handle",
					"origin": [8.875, 1.725, 16.375],
					"color": 0,
					"children": [20, 21, 22, 23, 24, 25]
				},
				{
					"name": "pommel",
					"origin": [8.875, 1.725, 16.375],
					"color": 0,
					"children": [26, 27, 28, 29, 30, 31, 32, 33]
				}
			]
		},
		{
			"name": "blade",
			"origin": [8.875, 2.73782, -3.29063],
			"color": 0,
			"children": [34, 35, 36, 37, 38, 39, 40, 41, 42, 43, 44, 45, 46, 47, 48, 49]
		}
	]
}