{
    "textures": {
        "0": "gci:items/common/mpz",
        "1": "gci:items/common/all_in_one",
        "particle": "MPZ"
    },
    "elements": [
        {
            "from": [
                7.5,
                0.81299,
                12.69291
            ],
            "to": [
                8.5,
                3.71299,
                13.49291
            ],
            "rotation": {
                "angle": 0,
                "axis": "y",
                "origin": [
                    8,
                    1.61299,
                    13.41791
                ]
            },
            "faces": {
                "north": {
                    "uv": [
                        0.66667,
                        13.66667,
                        1.33333,
                        14.66667
                    ],
                    "rotation": 180,
                    "texture": "#0"
                },
                "east": {
                    "uv": [
                        0.66667,
                        13.66667,
                        1.56667,
                        14.66667
                    ],
                    "rotation": 270,
                    "texture": "#0"
                },
                "south": {
                    "uv": [
                        0.66667,
                        13.66667,
                        1.33333,
                        14.66667
                    ],
                    "texture": "#0"
                },
                "west": {
                    "uv": [
                        0.66667,
                        13.66667,
                        1.56667,
                        14.66667
                    ],
                    "rotation": 90,
                    "texture": "#0"
                },
                "up": {
                    "uv": [
                        0.66667,
                        13.66667,
                        1.33333,
                        14.66667
                    ],
                    "rotation": 180,
                    "texture": "#0"
                },
                "down": {
                    "uv": [
                        0.66667,
                        13.66667,
                        1.33333,
                        14.66667
                    ],
                    "texture": "#0"
                }
            }
        },
        {
            "from": [
                7.6,
                1.31299,
                12.69291
            ],
            "to": [
                8.4,
                3.61299,
                19.49291
            ],
            "rotation": {
                "angle": 0,
                "axis": "y",
                "origin": [
                    8,
                    1.61299,
                    13.41791
                ]
            },
            "faces": {
                "north": {
                    "uv": [
                        0.66667,
                        13.66667,
                        1.33333,
                        14.66667
                    ],
                    "rotation": 180,
                    "texture": "#0"
                },
                "east": {
                    "uv": [
                        0.66667,
                        13.66667,
                        1.33333,
                        14.66667
                    ],
                    "rotation": 270,
                    "texture": "#0"
                },
                "south": {
                    "uv": [
                        0.66667,
                        13.66667,
                        1.33333,
                        14.66667
                    ],
                    "texture": "#0"
                },
                "west": {
                    "uv": [
                        0.66667,
                        13.66667,
                        1.33333,
                        14.66667
                    ],
                    "rotation": 90,
                    "texture": "#0"
                },
                "up": {
                    "uv": [
                        0.66667,
                        13.66667,
                        1.33333,
                        14.66667
                    ],
                    "rotation": 180,
                    "texture": "#0"
                },
                "down": {
                    "uv": [
                        0.66667,
                        13.66667,
                        1.33333,
                        14.66667
                    ],
                    "texture": "#0"
                }
            }
        },
        {
            "from": [
                7.5,
                1.06299,
                19.19291
            ],
            "to": [
                8.5,
                3.86299,
                19.74291
            ],
            "rotation": {
                "angle": 0,
                "axis": "y",
                "origin": [
                    8,
                    1.61299,
                    13.41791
                ]
            },
            "faces": {
                "north": {
                    "uv": [
                        0.66667,
                        13.66667,
                        1.33333,
                        14.66667
                    ],
                    "rotation": 180,
                    "texture": "#0"
                },
                "east": {
                    "uv": [
                        0.66667,
                        13.66667,
                        1.33333,
                        14.66667
                    ],
                    "rotation": 270,
                    "texture": "#0"
                },
                "south": {
                    "uv": [
                        0.66667,
                        13.66667,
                        1.33333,
                        14.66667
                    ],
                    "texture": "#0"
                },
                "west": {
                    "uv": [
                        0.66667,
                        13.66667,
                        1.33333,
                        14.66667
                    ],
                    "rotation": 90,
                    "texture": "#0"
                },
                "up": {
                    "uv": [
                        0.66667,
                        13.66667,
                        1.33333,
                        14.66667
                    ],
                    "rotation": 180,
                    "texture": "#0"
                },
                "down": {
                    "uv": [
                        0.66667,
                        13.66667,
                        1.33333,
                        14.66667
                    ],
                    "texture": "#0"
                }
            }
        },
        {
            "from": [
                7.5,
                0.81299,
                13.44291
            ],
            "to": [
                8.5,
                1.21299,
                13.99291
            ],
            "rotation": {
                "angle": 0,
                "axis": "y",
                "origin": [
                    8,
                    1.61299,
                    13.41791
                ]
            },
            "faces": {
                "north": {
                    "uv": [
                        0.66667,
                        13.66667,
                        1.33333,
                        14.66667
                    ],
                    "rotation": 180,
                    "texture": "#0"
                },
                "east": {
                    "uv": [
                        0.66667,
                        13.66667,
                        1.33333,
                        14.66667
                    ],
                    "rotation": 270,
                    "texture": "#0"
                },
                "south": {
                    "uv": [
                        0.66667,
                        13.66667,
                        1.33333,
                        14.66667
                    ],
                    "texture": "#0"
                },
                "west": {
                    "uv": [
                        0.66667,
                        13.66667,
                        1.33333,
                        14.66667
                    ],
                    "rotation": 90,
                    "texture": "#0"
                },
                "up": {
                    "uv": [
                        0.66667,
                        13.66667,
                        1.33333,
                        14.66667
                    ],
                    "rotation": 180,
                    "texture": "#0"
                },
                "down": {
                    "uv": [
                        0.66667,
                        13.66667,
                        1.33333,
                        14.66667
                    ],
                    "texture": "#0"
                }
            }
        },
        {
            "from": [
                7.5,
                1.21957,
                13.36132
            ],
            "to": [
                8.5,
                1.61957,
                14.16132
            ],
            "rotation": {
                "angle": 45,
                "axis": "x",
                "origin": [
                    8,
                    1.61957,
                    13.58632
                ]
            },
            "faces": {
                "north": {
                    "uv": [
                        0.66667,
                        13.66667,
                        1.33333,
                        14.66667
                    ],
                    "rotation": 180,
                    "texture": "#0"
                },
                "east": {
                    "uv": [
                        0.66667,
                        13.66667,
                        1.33333,
                        14.66667
                    ],
                    "rotation": 270,
                    "texture": "#0"
                },
                "south": {
                    "uv": [
                        0.66667,
                        13.66667,
                        1.33333,
                        14.66667
                    ],
                    "texture": "#0"
                },
                "west": {
                    "uv": [
                        0.66667,
                        13.66667,
                        1.33333,
                        14.66667
                    ],
                    "rotation": 90,
                    "texture": "#0"
                },
                "up": {
                    "uv": [
                        0.66667,
                        13.66667,
                        1.33333,
                        14.66667
                    ],
                    "rotation": 180,
                    "texture": "#0"
                },
                "down": {
                    "uv": [
                        0.66667,
                        13.66667,
                        1.33333,
                        14.66667
                    ],
                    "texture": "#0"
                }
            }
        }
    ],
    "display": {
        "thirdperson_righthand": {
            "translation": [
                0,
                5,
                -3.25
            ]
        },
        "thirdperson_lefthand": {
            "translation": [
                0,
                5,
                -2.75
            ]
        },
        "firstperson_righthand": {
            "translation": [
                -3.5,
                7,
                2.25
            ]
        },
        "firstperson_lefthand": {
            "translation": [
                -3.5,
                7,
                2.25
            ]
        },
        "ground": {
            "rotation": [
                45,
                90,
                0
            ],
            "translation": [
                0,
                1.5,
                3.25
            ]
        },
        "gui": {
            "rotation": [
                90,
                -45,
                90
            ],
            "translation": [
                -4.25,
                1.5,
                0
            ]
        },
        "fixed": {
            "rotation": [
                90,
                -45,
                90
            ],
            "translation": [
                -4,
                1.75,
                -1
            ]
        }
    }
}