{
    "textures": {
        "6": "gci:items/common/all_in_one",
        "particle": "gci:items/common/mpz"
    },
    "elements": [
        {
            "from": [
                7.87011,
                10.88653,
                -0.17085
            ],
            "to": [
                8.14011,
                11.08653,
                3.82915
            ],
            "rotation": {
                "angle": 0,
                "axis": "y",
                "origin": [
                    7.86082,
                    10.91153,
                    3.74171
                ]
            },
            "faces": {
                "north": {
                    "uv": [
                        2.77778,
                        0,
                        3.22222,
                        0.66667
                    ],
                    "rotation": 180,
                    "texture": "#particle"
                },
                "east": {
                    "uv": [
                        2.77778,
                        0,
                        3.22222,
                        0.66667
                    ],
                    "rotation": 180,
                    "texture": "#particle"
                },
                "south": {
                    "uv": [
                        2.77778,
                        0,
                        3.22222,
                        0.66667
                    ],
                    "rotation": 180,
                    "texture": "#particle"
                },
                "west": {
                    "uv": [
                        2.77778,
                        0,
                        3.22222,
                        0.66667
                    ],
                    "rotation": 180,
                    "texture": "#particle"
                },
                "up": {
                    "uv": [
                        2.77778,
                        0,
                        3.22222,
                        0.66667
                    ],
                    "rotation": 180,
                    "texture": "#particle"
                },
                "down": {
                    "uv": [
                        2.77778,
                        0,
                        3.22222,
                        0.66667
                    ],
                    "rotation": 180,
                    "texture": "#particle"
                }
            }
        },
        {
            "from": [
                7.87011,
                10.4347,
                -0.17085
            ],
            "to": [
                8.14011,
                10.6347,
                3.82915
            ],
            "rotation": {
                "angle": 0,
                "axis": "y",
                "origin": [
                    7.86082,
                    10.46968,
                    3.74171
                ]
            },
            "faces": {
                "north": {
                    "uv": [
                        2.77778,
                        0,
                        3.22222,
                        0.66667
                    ],
                    "rotation": 180,
                    "texture": "#particle"
                },
                "east": {
                    "uv": [
                        2.77778,
                        0,
                        3.22222,
                        0.66667
                    ],
                    "rotation": 180,
                    "texture": "#particle"
                },
                "south": {
                    "uv": [
                        2.77778,
                        0,
                        3.22222,
                        0.66667
                    ],
                    "rotation": 180,
                    "texture": "#particle"
                },
                "west": {
                    "uv": [
                        2.77778,
                        0,
                        3.22222,
                        0.66667
                    ],
                    "rotation": 180,
                    "texture": "#particle"
                },
                "up": {
                    "uv": [
                        2.77778,
                        0,
                        3.22222,
                        0.66667
                    ],
                    "rotation": 180,
                    "texture": "#particle"
                },
                "down": {
                    "uv": [
                        2.77778,
                        0,
                        3.22222,
                        0.66667
                    ],
                    "rotation": 180,
                    "texture": "#particle"
                }
            }
        },
        {
            "from": [
                7.67919,
                10.62561,
                -0.17085
            ],
            "to": [
                7.87919,
                10.89561,
                3.82915
            ],
            "rotation": {
                "angle": 0,
                "axis": "y",
                "origin": [
                    7.85419,
                    10.62132,
                    3.74171
                ]
            },
            "faces": {
                "north": {
                    "uv": [
                        2.77778,
                        0,
                        3.22222,
                        0.66667
                    ],
                    "rotation": 270,
                    "texture": "#particle"
                },
                "east": {
                    "uv": [
                        2.77778,
                        0,
                        3.22222,
                        0.66667
                    ],
                    "rotation": 270,
                    "texture": "#particle"
                },
                "south": {
                    "uv": [
                        2.77778,
                        0,
                        3.22222,
                        0.66667
                    ],
                    "rotation": 270,
                    "texture": "#particle"
                },
                "west": {
                    "uv": [
                        2.77778,
                        0,
                        3.22222,
                        0.66667
                    ],
                    "rotation": 270,
                    "texture": "#particle"
                },
                "up": {
                    "uv": [
                        2.77778,
                        0,
                        3.22222,
                        0.66667
                    ],
                    "rotation": 270,
                    "texture": "#particle"
                },
                "down": {
                    "uv": [
                        2.77778,
                        0,
                        3.22222,
                        0.66667
                    ],
                    "rotation": 270,
                    "texture": "#particle"
                }
            }
        },
        {
            "from": [
                8.13103,
                10.62561,
                -0.17085
            ],
            "to": [
                8.33103,
                10.89561,
                3.82915
            ],
            "rotation": {
                "angle": 0,
                "axis": "y",
                "origin": [
                    8.30603,
                    10.62132,
                    3.74171
                ]
            },
            "faces": {
                "north": {
                    "uv": [
                        2.77778,
                        0,
                        3.22222,
                        0.66667
                    ],
                    "rotation": 270,
                    "texture": "#particle"
                },
                "east": {
                    "uv": [
                        2.77778,
                        0,
                        3.22222,
                        0.66667
                    ],
                    "rotation": 270,
                    "texture": "#particle"
                },
                "south": {
                    "uv": [
                        2.77778,
                        0,
                        3.22222,
                        0.66667
                    ],
                    "rotation": 270,
                    "texture": "#particle"
                },
                "west": {
                    "uv": [
                        2.77778,
                        0,
                        3.22222,
                        0.66667
                    ],
                    "rotation": 270,
                    "texture": "#particle"
                },
                "up": {
                    "uv": [
                        2.77778,
                        0,
                        3.22222,
                        0.66667
                    ],
                    "rotation": 270,
                    "texture": "#particle"
                },
                "down": {
                    "uv": [
                        2.77778,
                        0,
                        3.22222,
                        0.66667
                    ],
                    "rotation": 270,
                    "texture": "#particle"
                }
            }
        },
        {
            "from": [
                7.80126,
                10.75091,
                -0.17085
            ],
            "to": [
                8.07126,
                10.95091,
                3.82915
            ],
            "rotation": {
                "angle": 45,
                "axis": "z",
                "origin": [
                    7.80697,
                    10.77591,
                    3.74171
                ]
            },
            "faces": {
                "north": {
                    "uv": [
                        2.77778,
                        0,
                        3.22222,
                        0.66667
                    ],
                    "rotation": 180,
                    "texture": "#particle"
                },
                "east": {
                    "uv": [
                        2.77778,
                        0,
                        3.22222,
                        0.66667
                    ],
                    "rotation": 180,
                    "texture": "#particle"
                },
                "south": {
                    "uv": [
                        2.77778,
                        0,
                        3.22222,
                        0.66667
                    ],
                    "rotation": 180,
                    "texture": "#particle"
                },
                "west": {
                    "uv": [
                        2.77778,
                        0,
                        3.22222,
                        0.66667
                    ],
                    "rotation": 180,
                    "texture": "#particle"
                },
                "up": {
                    "uv": [
                        2.77778,
                        0,
                        3.22222,
                        0.66667
                    ],
                    "rotation": 180,
                    "texture": "#particle"
                },
                "down": {
                    "uv": [
                        2.77778,
                        0,
                        3.22222,
                        0.66667
                    ],
                    "rotation": 180,
                    "texture": "#particle"
                }
            }
        },
        {
            "from": [
                8.12076,
                10.43141,
                -0.17085
            ],
            "to": [
                8.39076,
                10.63141,
                3.82915
            ],
            "rotation": {
                "angle": 45,
                "axis": "z",
                "origin": [
                    8.12647,
                    10.45641,
                    3.74171
                ]
            },
            "faces": {
                "north": {
                    "uv": [
                        2.77778,
                        0,
                        3.22222,
                        0.66667
                    ],
                    "rotation": 180,
                    "texture": "#particle"
                },
                "east": {
                    "uv": [
                        2.77778,
                        0,
                        3.22222,
                        0.66667
                    ],
                    "rotation": 180,
                    "texture": "#particle"
                },
                "south": {
                    "uv": [
                        2.77778,
                        0,
                        3.22222,
                        0.66667
                    ],
                    "rotation": 180,
                    "texture": "#particle"
                },
                "west": {
                    "uv": [
                        2.77778,
                        0,
                        3.22222,
                        0.66667
                    ],
                    "rotation": 180,
                    "texture": "#particle"
                },
                "up": {
                    "uv": [
                        2.77778,
                        0,
                        3.22222,
                        0.66667
                    ],
                    "rotation": 180,
                    "texture": "#particle"
                },
                "down": {
                    "uv": [
                        2.77778,
                        0,
                        3.22222,
                        0.66667
                    ],
                    "rotation": 180,
                    "texture": "#particle"
                }
            }
        },
        {
            "from": [
                8.01469,
                10.93375,
                -0.17085
            ],
            "to": [
                8.28469,
                11.13375,
                3.82915
            ],
            "rotation": {
                "angle": -45,
                "axis": "z",
                "origin": [
                    8.0204,
                    10.95875,
                    3.74171
                ]
            },
            "faces": {
                "north": {
                    "uv": [
                        2.77778,
                        0,
                        3.22222,
                        0.66667
                    ],
                    "rotation": 180,
                    "texture": "#particle"
                },
                "east": {
                    "uv": [
                        2.77778,
                        0,
                        3.22222,
                        0.66667
                    ],
                    "rotation": 180,
                    "texture": "#particle"
                },
                "south": {
                    "uv": [
                        2.77778,
                        0,
                        3.22222,
                        0.66667
                    ],
                    "rotation": 180,
                    "texture": "#particle"
                },
                "west": {
                    "uv": [
                        2.77778,
                        0,
                        3.22222,
                        0.66667
                    ],
                    "rotation": 180,
                    "texture": "#particle"
                },
                "up": {
                    "uv": [
                        2.77778,
                        0,
                        3.22222,
                        0.66667
                    ],
                    "rotation": 180,
                    "texture": "#particle"
                },
                "down": {
                    "uv": [
                        2.77778,
                        0,
                        3.22222,
                        0.66667
                    ],
                    "rotation": 180,
                    "texture": "#particle"
                }
            }
        },
        {
            "from": [
                7.6952,
                10.61425,
                -0.17085
            ],
            "to": [
                7.9652,
                10.81425,
                3.82915
            ],
            "rotation": {
                "angle": -45,
                "axis": "z",
                "origin": [
                    7.70091,
                    10.63925,
                    3.74171
                ]
            },
            "faces": {
                "north": {
                    "uv": [
                        2.77778,
                        0,
                        3.22222,
                        0.66667
                    ],
                    "rotation": 180,
                    "texture": "#particle"
                },
                "east": {
                    "uv": [
                        2.77778,
                        0,
                        3.22222,
                        0.66667
                    ],
                    "rotation": 180,
                    "texture": "#particle"
                },
                "south": {
                    "uv": [
                        2.77778,
                        0,
                        3.22222,
                        0.66667
                    ],
                    "rotation": 180,
                    "texture": "#particle"
                },
                "west": {
                    "uv": [
                        2.77778,
                        0,
                        3.22222,
                        0.66667
                    ],
                    "rotation": 180,
                    "texture": "#particle"
                },
                "up": {
                    "uv": [
                        2.77778,
                        0,
                        3.22222,
                        0.66667
                    ],
                    "rotation": 180,
                    "texture": "#particle"
                },
                "down": {
                    "uv": [
                        2.77778,
                        0,
                        3.22222,
                        0.66667
                    ],
                    "rotation": 180,
                    "texture": "#particle"
                }
            }
        }
    ],
    "display": {
        "thirdperson_righthand": {
            "translation": [
                0,
                -2.75,
                2.5
            ],
            "scale": [
                1.6,
                1.6,
                1.6
            ]
        },
        "thirdperson_lefthand": {
            "translation": [
                0,
                -2.75,
                2.5
            ],
            "scale": [
                1.6,
                1.6,
                1.6
            ]
        },
        "firstperson_righthand": {
            "translation": [
                3,
                -2,
                -0.75
            ],
            "scale": [
                2,
                2,
                2
            ]
        },
        "firstperson_lefthand": {
            "translation": [
                3,
                -2,
                -0.75
            ],
            "scale": [
                2,
                2,
                2
            ]
        },
        "ground": {
            "rotation": [
                0,
                0,
                -90
            ],
            "translation": [
                -2.75,
                -1.5,
                2.75
            ],
            "scale": [
                2,
                2,
                2
            ]
        },
        "gui": {
            "rotation": [
                8,
                123,
                3
            ],
            "translation": [
                3.25,
                -3.75,
                0
            ],
            "scale": [
                2.3,
                2.3,
                2.3
            ]
        },
        "head": {
            "rotation": [
                0,
                90,
                90
            ],
            "translation": [
                6,
                7.25,
                -4
            ],
            "scale": [
                3,
                3,
                3
            ]
        },
        "fixed": {
            "rotation": [
                90,
                45,
                -90
            ],
            "translation": [
                -0.5,
                -4,
                -1.5
            ],
            "scale": [
                1.6,
                1.6,
                1.6
            ]
        }
    }
}