{
    "textures": {
        "0": "gci:items/common/all_in_one",
        "particle": "gci:items/common/all_in_one"
    },
    "elements": [
        {
            "from": [
                7.56575,
                5.02173,
                13.471
            ],
            "to": [
                8.38875,
                8.72173,
                14.671
            ],
            "rotation": {
                "angle": -22.5,
                "axis": "x",
                "origin": [
                    7.97725,
                    8.67173,
                    13.921
                ]
            },
            "faces": {
                "north": {
                    "uv": [
                        2.875,
                        2.75,
                        2.875,
                        2.75
                    ],
                    "texture": "#0"
                },
                "east": {
                    "uv": [
                        2.875,
                        2.75,
                        2.875,
                        2.75
                    ],
                    "texture": "#0"
                },
                "south": {
                    "uv": [
                        2.875,
                        2.75,
                        2.875,
                        2.75
                    ],
                    "texture": "#0"
                },
                "west": {
                    "uv": [
                        2.875,
                        2.75,
                        2.875,
                        2.75
                    ],
                    "texture": "#0"
                },
                "up": {
                    "uv": [
                        2.875,
                        2.75,
                        2.875,
                        2.75
                    ],
                    "texture": "#0"
                },
                "down": {
                    "uv": [
                        2.875,
                        2.75,
                        2.875,
                        2.75
                    ],
                    "texture": "#0"
                }
            }
        },
        {
            "from": [
                7.53375,
                5.66173,
                13.535
            ],
            "to": [
                8.42075,
                8.24173,
                14.607
            ],
            "rotation": {
                "angle": -22.5,
                "axis": "x",
                "origin": [
                    7.94525,
                    8.67173,
                    13.921
                ]
            },
            "faces": {
                "north": {
                    "uv": [
                        3.75,
                        2.375,
                        4.5,
                        4.125
                    ],
                    "texture": "#0"
                },
                "east": {
                    "uv": [
                        3.75,
                        2.375,
                        4.5,
                        4.125
                    ],
                    "texture": "#0"
                },
                "south": {
                    "uv": [
                        3.75,
                        2.375,
                        4.5,
                        4.125
                    ],
                    "texture": "#0"
                },
                "west": {
                    "uv": [
                        3.75,
                        2.375,
                        4.5,
                        4.125
                    ],
                    "texture": "#0"
                },
                "up": {
                    "uv": [
                        3.75,
                        2.375,
                        4.5,
                        4.125
                    ],
                    "texture": "#0"
                },
                "down": {
                    "uv": [
                        3.75,
                        2.375,
                        4.5,
                        4.125
                    ],
                    "texture": "#0"
                }
            }
        },
        {
            "from": [
                7.50175,
                7.01205,
                14.57828
            ],
            "to": [
                8.45275,
                7.28805,
                14.85428
            ],
            "rotation": {
                "angle": 22.5,
                "axis": "x",
                "origin": [
                    7.97725,
                    7.15005,
                    14.71628
                ]
            },
            "faces": {
                "north": {
                    "uv": [
                        2.375,
                        2.625,
                        2.375,
                        2.625
                    ],
                    "rotation": 180,
                    "texture": "#0"
                },
                "east": {
                    "uv": [
                        2.375,
                        2.625,
                        2.375,
                        2.625
                    ],
                    "rotation": 90,
                    "texture": "#0"
                },
                "south": {
                    "uv": [
                        2.375,
                        2.625,
                        2.375,
                        2.625
                    ],
                    "texture": "#0"
                },
                "west": {
                    "uv": [
                        2.375,
                        2.625,
                        2.375,
                        2.625
                    ],
                    "rotation": 270,
                    "texture": "#0"
                },
                "up": {
                    "uv": [
                        2.375,
                        2.625,
                        2.375,
                        2.625
                    ],
                    "texture": "#0"
                },
                "down": {
                    "uv": [
                        2.375,
                        2.625,
                        2.375,
                        2.625
                    ],
                    "rotation": 180,
                    "texture": "#0"
                }
            }
        },
        {
            "from": [
                7.53375,
                8.58005,
                15.05828
            ],
            "to": [
                8.42075,
                8.76005,
                15.23828
            ],
            "rotation": {
                "angle": 45,
                "axis": "x",
                "origin": [
                    7.97725,
                    8.65405,
                    15.13228
                ]
            },
            "faces": {
                "north": {
                    "uv": [
                        2.375,
                        2.625,
                        2.375,
                        2.625
                    ],
                    "rotation": 180,
                    "texture": "#0"
                },
                "east": {
                    "uv": [
                        2.375,
                        2.625,
                        2.375,
                        2.625
                    ],
                    "rotation": 90,
                    "texture": "#0"
                },
                "south": {
                    "uv": [
                        2.375,
                        2.625,
                        2.375,
                        2.625
                    ],
                    "texture": "#0"
                },
                "west": {
                    "uv": [
                        2.375,
                        2.625,
                        2.375,
                        2.625
                    ],
                    "rotation": 270,
                    "texture": "#0"
                },
                "up": {
                    "uv": [
                        2.375,
                        2.625,
                        2.375,
                        2.625
                    ],
                    "texture": "#0"
                },
                "down": {
                    "uv": [
                        2.375,
                        2.625,
                        2.375,
                        2.625
                    ],
                    "rotation": 180,
                    "texture": "#0"
                }
            }
        },
        {
            "from": [
                7.75775,
                7.55605,
                13.10628
            ],
            "to": [
                8.19675,
                7.73605,
                13.28628
            ],
            "rotation": {
                "angle": 45,
                "axis": "x",
                "origin": [
                    7.97725,
                    7.63005,
                    13.18028
                ]
            },
            "faces": {
                "north": {
                    "uv": [
                        2.375,
                        2.625,
                        2.375,
                        2.625
                    ],
                    "rotation": 180,
                    "texture": "#0"
                },
                "east": {
                    "uv": [
                        2.375,
                        2.625,
                        2.375,
                        2.625
                    ],
                    "rotation": 90,
                    "texture": "#0"
                },
                "south": {
                    "uv": [
                        2.375,
                        2.625,
                        2.375,
                        2.625
                    ],
                    "texture": "#0"
                },
                "west": {
                    "uv": [
                        2.375,
                        2.625,
                        2.375,
                        2.625
                    ],
                    "rotation": 270,
                    "texture": "#0"
                },
                "up": {
                    "uv": [
                        2.375,
                        2.625,
                        2.375,
                        2.625
                    ],
                    "texture": "#0"
                },
                "down": {
                    "uv": [
                        2.375,
                        2.625,
                        2.375,
                        2.625
                    ],
                    "rotation": 180,
                    "texture": "#0"
                }
            }
        },
        {
            "from": [
                7.56575,
                5.12736,
                14.40205
            ],
            "to": [
                8.38875,
                6.32736,
                14.90205
            ],
            "rotation": {
                "angle": 0,
                "axis": "y",
                "origin": [
                    7.97725,
                    7.17736,
                    14.65205
                ]
            },
            "faces": {
                "north": {
                    "uv": [
                        2.875,
                        2.75,
                        2.875,
                        2.75
                    ],
                    "texture": "#0"
                },
                "east": {
                    "uv": [
                        2.875,
                        2.75,
                        2.875,
                        2.75
                    ],
                    "texture": "#0"
                },
                "south": {
                    "uv": [
                        2.875,
                        2.75,
                        2.875,
                        2.75
                    ],
                    "texture": "#0"
                },
                "west": {
                    "uv": [
                        2.875,
                        2.75,
                        2.875,
                        2.75
                    ],
                    "texture": "#0"
                },
                "up": {
                    "uv": [
                        2.875,
                        2.75,
                        2.875,
                        2.75
                    ],
                    "texture": "#0"
                },
                "down": {
                    "uv": [
                        2.875,
                        2.75,
                        2.875,
                        2.75
                    ],
                    "texture": "#0"
                }
            }
        },
        {
            "from": [
                7.46575,
                5.18658,
                14.5107
            ],
            "to": [
                8.48875,
                5.58658,
                16.0427
            ],
            "rotation": {
                "angle": 0,
                "axis": "y",
                "origin": [
                    7.97725,
                    7.13658,
                    15.7607
                ]
            },
            "faces": {
                "north": {
                    "uv": [
                        7.125,
                        11.75,
                        7.125,
                        11.75
                    ],
                    "texture": "#0"
                },
                "east": {
                    "uv": [
                        7.125,
                        11.75,
                        7.125,
                        11.75
                    ],
                    "texture": "#0"
                },
                "south": {
                    "uv": [
                        7.125,
                        11.75,
                        7.125,
                        11.75
                    ],
                    "texture": "#0"
                },
                "west": {
                    "uv": [
                        7.125,
                        11.75,
                        7.125,
                        11.75
                    ],
                    "texture": "#0"
                },
                "up": {
                    "uv": [
                        7.125,
                        11.75,
                        7.125,
                        11.75
                    ],
                    "texture": "#0"
                },
                "down": {
                    "uv": [
                        7.125,
                        11.75,
                        7.125,
                        11.75
                    ],
                    "texture": "#0"
                }
            }
        },
        {
            "from": [
                7.46575,
                5.19493,
                14.34448
            ],
            "to": [
                8.48875,
                5.59493,
                14.54448
            ],
            "rotation": {
                "angle": 22.5,
                "axis": "x",
                "origin": [
                    7.97725,
                    5.39493,
                    14.44448
                ]
            },
            "faces": {
                "north": {
                    "uv": [
                        7.125,
                        11.75,
                        7.125,
                        11.75
                    ],
                    "rotation": 270,
                    "texture": "#0"
                },
                "east": {
                    "uv": [
                        7.125,
                        11.75,
                        7.125,
                        11.75
                    ],
                    "rotation": 270,
                    "texture": "#0"
                },
                "south": {
                    "uv": [
                        7.125,
                        11.75,
                        7.125,
                        11.75
                    ],
                    "rotation": 270,
                    "texture": "#0"
                },
                "west": {
                    "uv": [
                        7.125,
                        11.75,
                        7.125,
                        11.75
                    ],
                    "rotation": 270,
                    "texture": "#0"
                },
                "up": {
                    "uv": [
                        7.125,
                        11.75,
                        7.125,
                        11.75
                    ],
                    "rotation": 270,
                    "texture": "#0"
                },
                "down": {
                    "uv": [
                        7.125,
                        11.75,
                        7.125,
                        11.75
                    ],
                    "rotation": 270,
                    "texture": "#0"
                }
            }
        },
        {
            "from": [
                7.76575,
                7.42173,
                13.171
            ],
            "to": [
                8.18875,
                8.52173,
                14.771
            ],
            "rotation": {
                "angle": 0,
                "axis": "y",
                "origin": [
                    7.97725,
                    7.67173,
                    13.121
                ]
            },
            "faces": {
                "north": {
                    "uv": [
                        2.875,
                        2.875,
                        2.875,
                        2.875
                    ],
                    "rotation": 270,
                    "texture": "#0"
                },
                "east": {
                    "uv": [
                        2.875,
                        2.875,
                        2.875,
                        2.875
                    ],
                    "rotation": 270,
                    "texture": "#0"
                },
                "south": {
                    "uv": [
                        2.875,
                        2.875,
                        2.875,
                        2.875
                    ],
                    "rotation": 270,
                    "texture": "#0"
                },
                "west": {
                    "uv": [
                        2.875,
                        2.875,
                        2.875,
                        2.875
                    ],
                    "rotation": 270,
                    "texture": "#0"
                },
                "up": {
                    "uv": [
                        2.875,
                        2.875,
                        2.875,
                        2.875
                    ],
                    "rotation": 270,
                    "texture": "#0"
                },
                "down": {
                    "uv": [
                        2.875,
                        2.875,
                        2.875,
                        2.875
                    ],
                    "rotation": 270,
                    "texture": "#0"
                }
            }
        },
        {
            "from": [
                7.76575,
                7.32173,
                12.271
            ],
            "to": [
                8.18875,
                7.52173,
                13.071
            ],
            "rotation": {
                "angle": 0,
                "axis": "y",
                "origin": [
                    7.97725,
                    6.77173,
                    12.321
                ]
            },
            "faces": {
                "north": {
                    "uv": [
                        2.875,
                        2.875,
                        2.875,
                        2.875
                    ],
                    "rotation": 270,
                    "texture": "#0"
                },
                "east": {
                    "uv": [
                        2.875,
                        2.875,
                        2.875,
                        2.875
                    ],
                    "rotation": 270,
                    "texture": "#0"
                },
                "south": {
                    "uv": [
                        2.875,
                        2.875,
                        2.875,
                        2.875
                    ],
                    "rotation": 270,
                    "texture": "#0"
                },
                "west": {
                    "uv": [
                        2.875,
                        2.875,
                        2.875,
                        2.875
                    ],
                    "rotation": 270,
                    "texture": "#0"
                },
                "up": {
                    "uv": [
                        2.875,
                        2.875,
                        2.875,
                        2.875
                    ],
                    "rotation": 270,
                    "texture": "#0"
                },
                "down": {
                    "uv": [
                        2.875,
                        2.875,
                        2.875,
                        2.875
                    ],
                    "rotation": 270,
                    "texture": "#0"
                }
            }
        },
        {
            "from": [
                7.76575,
                7.421,
                11.97194
            ],
            "to": [
                8.18875,
                7.621,
                12.07194
            ],
            "rotation": {
                "angle": 22.5,
                "axis": "x",
                "origin": [
                    7.97725,
                    6.871,
                    11.92194
                ]
            },
            "faces": {
                "north": {
                    "uv": [
                        2.875,
                        2.875,
                        2.875,
                        2.875
                    ],
                    "rotation": 270,
                    "texture": "#0"
                },
                "east": {
                    "uv": [
                        2.875,
                        2.875,
                        2.875,
                        2.875
                    ],
                    "rotation": 270,
                    "texture": "#0"
                },
                "south": {
                    "uv": [
                        2.875,
                        2.875,
                        2.875,
                        2.875
                    ],
                    "rotation": 270,
                    "texture": "#0"
                },
                "west": {
                    "uv": [
                        2.875,
                        2.875,
                        2.875,
                        2.875
                    ],
                    "rotation": 270,
                    "texture": "#0"
                },
                "up": {
                    "uv": [
                        2.875,
                        2.875,
                        2.875,
                        2.875
                    ],
                    "rotation": 270,
                    "texture": "#0"
                },
                "down": {
                    "uv": [
                        2.875,
                        2.875,
                        2.875,
                        2.875
                    ],
                    "rotation": 270,
                    "texture": "#0"
                }
            }
        },
        {
            "from": [
                7.76575,
                7.46719,
                13.00228
            ],
            "to": [
                8.18875,
                7.66719,
                13.80228
            ],
            "rotation": {
                "angle": -22.5,
                "axis": "x",
                "origin": [
                    7.97725,
                    7.56719,
                    13.40228
                ]
            },
            "faces": {
                "north": {
                    "uv": [
                        2.875,
                        2.875,
                        2.875,
                        2.875
                    ],
                    "rotation": 270,
                    "texture": "#0"
                },
                "east": {
                    "uv": [
                        2.875,
                        2.875,
                        2.875,
                        2.875
                    ],
                    "rotation": 270,
                    "texture": "#0"
                },
                "south": {
                    "uv": [
                        2.875,
                        2.875,
                        2.875,
                        2.875
                    ],
                    "rotation": 270,
                    "texture": "#0"
                },
                "west": {
                    "uv": [
                        2.875,
                        2.875,
                        2.875,
                        2.875
                    ],
                    "rotation": 270,
                    "texture": "#0"
                },
                "up": {
                    "uv": [
                        2.875,
                        2.875,
                        2.875,
                        2.875
                    ],
                    "rotation": 270,
                    "texture": "#0"
                },
                "down": {
                    "uv": [
                        2.875,
                        2.875,
                        2.875,
                        2.875
                    ],
                    "rotation": 270,
                    "texture": "#0"
                }
            }
        },
        {
            "from": [
                7.76575,
                7.46719,
                12.40228
            ],
            "to": [
                8.18875,
                7.66719,
                13.30228
            ],
            "rotation": {
                "angle": -22.5,
                "axis": "x",
                "origin": [
                    7.97725,
                    7.56719,
                    12.80228
                ]
            },
            "faces": {
                "north": {
                    "uv": [
                        2.875,
                        2.875,
                        2.875,
                        2.875
                    ],
                    "rotation": 270,
                    "texture": "#0"
                },
                "east": {
                    "uv": [
                        2.875,
                        2.875,
                        2.875,
                        2.875
                    ],
                    "rotation": 270,
                    "texture": "#0"
                },
                "south": {
                    "uv": [
                        2.875,
                        2.875,
                        2.875,
                        2.875
                    ],
                    "rotation": 270,
                    "texture": "#0"
                },
                "west": {
                    "uv": [
                        2.875,
                        2.875,
                        2.875,
                        2.875
                    ],
                    "rotation": 270,
                    "texture": "#0"
                },
                "up": {
                    "uv": [
                        2.875,
                        2.875,
                        2.875,
                        2.875
                    ],
                    "rotation": 270,
                    "texture": "#0"
                },
                "down": {
                    "uv": [
                        2.875,
                        2.875,
                        2.875,
                        2.875
                    ],
                    "rotation": 270,
                    "texture": "#0"
                }
            }
        },
        {
            "from": [
                7.76575,
                7.46719,
                12.50228
            ],
            "to": [
                8.18875,
                7.66719,
                13.30228
            ],
            "rotation": {
                "angle": -22.5,
                "axis": "x",
                "origin": [
                    7.97725,
                    7.56719,
                    12.90228
                ]
            },
            "faces": {
                "north": {
                    "uv": [
                        2.875,
                        2.875,
                        2.875,
                        2.875
                    ],
                    "rotation": 270,
                    "texture": "#0"
                },
                "east": {
                    "uv": [
                        2.875,
                        2.875,
                        2.875,
                        2.875
                    ],
                    "rotation": 270,
                    "texture": "#0"
                },
                "south": {
                    "uv": [
                        2.875,
                        2.875,
                        2.875,
                        2.875
                    ],
                    "rotation": 270,
                    "texture": "#0"
                },
                "west": {
                    "uv": [
                        2.875,
                        2.875,
                        2.875,
                        2.875
                    ],
                    "rotation": 270,
                    "texture": "#0"
                },
                "up": {
                    "uv": [
                        2.875,
                        2.875,
                        2.875,
                        2.875
                    ],
                    "rotation": 270,
                    "texture": "#0"
                },
                "down": {
                    "uv": [
                        2.875,
                        2.875,
                        2.875,
                        2.875
                    ],
                    "rotation": 270,
                    "texture": "#0"
                }
            }
        },
        {
            "from": [
                7.56575,
                8.14593,
                13.58255
            ],
            "to": [
                8.38875,
                9.14593,
                15.25755
            ],
            "rotation": {
                "angle": 22.5,
                "axis": "x",
                "origin": [
                    7.97725,
                    8.49593,
                    14.50755
                ]
            },
            "faces": {
                "north": {
                    "uv": [
                        2.875,
                        2.75,
                        2.875,
                        2.75
                    ],
                    "texture": "#0"
                },
                "east": {
                    "uv": [
                        2.875,
                        2.75,
                        2.875,
                        2.75
                    ],
                    "texture": "#0"
                },
                "south": {
                    "uv": [
                        2.875,
                        2.75,
                        2.875,
                        2.75
                    ],
                    "texture": "#0"
                },
                "west": {
                    "uv": [
                        2.875,
                        2.75,
                        2.875,
                        2.75
                    ],
                    "texture": "#0"
                },
                "up": {
                    "uv": [
                        2.875,
                        2.75,
                        2.875,
                        2.75
                    ],
                    "texture": "#0"
                },
                "down": {
                    "uv": [
                        2.875,
                        2.75,
                        2.875,
                        2.75
                    ],
                    "texture": "#0"
                }
            }
        },
        {
            "from": [
                7.66575,
                8.12173,
                14.171
            ],
            "to": [
                8.28875,
                9.12174,
                15.371
            ],
            "rotation": {
                "angle": 0,
                "axis": "y",
                "origin": [
                    7.97725,
                    8.87173,
                    14.621
                ]
            },
            "faces": {
                "north": {
                    "uv": [
                        2.875,
                        2.875,
                        2.875,
                        2.875
                    ],
                    "rotation": 90,
                    "texture": "#0"
                },
                "east": {
                    "uv": [
                        2.875,
                        2.875,
                        2.875,
                        2.875
                    ],
                    "rotation": 90,
                    "texture": "#0"
                },
                "south": {
                    "uv": [
                        2.875,
                        2.875,
                        2.875,
                        2.875
                    ],
                    "rotation": 90,
                    "texture": "#0"
                },
                "west": {
                    "uv": [
                        2.875,
                        2.875,
                        2.875,
                        2.875
                    ],
                    "rotation": 90,
                    "texture": "#0"
                },
                "up": {
                    "uv": [
                        2.875,
                        2.875,
                        2.875,
                        2.875
                    ],
                    "rotation": 90,
                    "texture": "#0"
                },
                "down": {
                    "uv": [
                        2.875,
                        2.875,
                        2.875,
                        2.875
                    ],
                    "rotation": 90,
                    "texture": "#0"
                }
            }
        },
        {
            "from": [
                7.66575,
                8.28394,
                14.1237
            ],
            "to": [
                8.28875,
                8.88394,
                15.7637
            ],
            "rotation": {
                "angle": 0,
                "axis": "y",
                "origin": [
                    7.97725,
                    8.58394,
                    14.9437
                ]
            },
            "faces": {
                "north": {
                    "uv": [
                        2.875,
                        2.875,
                        2.875,
                        2.875
                    ],
                    "rotation": 90,
                    "texture": "#0"
                },
                "east": {
                    "uv": [
                        2.875,
                        2.875,
                        2.875,
                        2.875
                    ],
                    "rotation": 90,
                    "texture": "#0"
                },
                "south": {
                    "uv": [
                        2.875,
                        2.875,
                        2.875,
                        2.875
                    ],
                    "rotation": 90,
                    "texture": "#0"
                },
                "west": {
                    "uv": [
                        2.875,
                        2.875,
                        2.875,
                        2.875
                    ],
                    "rotation": 90,
                    "texture": "#0"
                },
                "up": {
                    "uv": [
                        2.875,
                        2.875,
                        2.875,
                        2.875
                    ],
                    "rotation": 90,
                    "texture": "#0"
                },
                "down": {
                    "uv": [
                        2.875,
                        2.875,
                        2.875,
                        2.875
                    ],
                    "rotation": 90,
                    "texture": "#0"
                }
            }
        },
        {
            "from": [
                7.66575,
                7.62173,
                14.171
            ],
            "to": [
                8.28875,
                8.22173,
                15.671
            ],
            "rotation": {
                "angle": -22.5,
                "axis": "x",
                "origin": [
                    7.97725,
                    7.97173,
                    14.621
                ]
            },
            "faces": {
                "north": {
                    "uv": [
                        2.875,
                        2.875,
                        2.875,
                        2.875
                    ],
                    "rotation": 90,
                    "texture": "#0"
                },
                "east": {
                    "uv": [
                        2.875,
                        2.875,
                        2.875,
                        2.875
                    ],
                    "rotation": 90,
                    "texture": "#0"
                },
                "south": {
                    "uv": [
                        2.875,
                        2.875,
                        2.875,
                        2.875
                    ],
                    "rotation": 90,
                    "texture": "#0"
                },
                "west": {
                    "uv": [
                        2.875,
                        2.875,
                        2.875,
                        2.875
                    ],
                    "rotation": 90,
                    "texture": "#0"
                },
                "up": {
                    "uv": [
                        2.875,
                        2.875,
                        2.875,
                        2.875
                    ],
                    "rotation": 90,
                    "texture": "#0"
                },
                "down": {
                    "uv": [
                        2.875,
                        2.875,
                        2.875,
                        2.875
                    ],
                    "rotation": 90,
                    "texture": "#0"
                }
            }
        },
        {
            "from": [
                7.66575,
                8.36032,
                14.56224
            ],
            "to": [
                8.28875,
                9.06032,
                15.56224
            ],
            "rotation": {
                "angle": -22.5,
                "axis": "x",
                "origin": [
                    7.97725,
                    8.61032,
                    15.31224
                ]
            },
            "faces": {
                "north": {
                    "uv": [
                        2.875,
                        2.875,
                        2.875,
                        2.875
                    ],
                    "rotation": 180,
                    "texture": "#0"
                },
                "east": {
                    "uv": [
                        2.875,
                        2.875,
                        2.875,
                        2.875
                    ],
                    "rotation": 180,
                    "texture": "#0"
                },
                "south": {
                    "uv": [
                        2.875,
                        2.875,
                        2.875,
                        2.875
                    ],
                    "rotation": 180,
                    "texture": "#0"
                },
                "west": {
                    "uv": [
                        2.875,
                        2.875,
                        2.875,
                        2.875
                    ],
                    "rotation": 180,
                    "texture": "#0"
                },
                "up": {
                    "uv": [
                        2.875,
                        2.875,
                        2.875,
                        2.875
                    ],
                    "rotation": 180,
                    "texture": "#0"
                },
                "down": {
                    "uv": [
                        2.875,
                        2.875,
                        2.875,
                        2.875
                    ],
                    "rotation": 180,
                    "texture": "#0"
                }
            }
        },
        {
            "from": [
                7.56575,
                5.02173,
                13.471
            ],
            "to": [
                8.38875,
                8.72173,
                14.671
            ],
            "rotation": {
                "angle": -22.5,
                "axis": "x",
                "origin": [
                    7.97725,
                    8.67173,
                    13.921
                ]
            },
            "faces": {
                "north": {
                    "uv": [
                        2.875,
                        2.75,
                        2.875,
                        2.75
                    ],
                    "texture": "#0"
                },
                "east": {
                    "uv": [
                        2.875,
                        2.75,
                        2.875,
                        2.75
                    ],
                    "texture": "#0"
                },
                "south": {
                    "uv": [
                        2.875,
                        2.75,
                        2.875,
                        2.75
                    ],
                    "texture": "#0"
                },
                "west": {
                    "uv": [
                        2.875,
                        2.75,
                        2.875,
                        2.75
                    ],
                    "texture": "#0"
                },
                "up": {
                    "uv": [
                        2.875,
                        2.75,
                        2.875,
                        2.75
                    ],
                    "texture": "#0"
                },
                "down": {
                    "uv": [
                        2.875,
                        2.75,
                        2.875,
                        2.75
                    ],
                    "texture": "#0"
                }
            }
        },
        {
            "from": [
                7.53375,
                5.66173,
                13.535
            ],
            "to": [
                8.42075,
                8.24173,
                14.607
            ],
            "rotation": {
                "angle": -22.5,
                "axis": "x",
                "origin": [
                    7.94525,
                    8.67173,
                    13.921
                ]
            },
            "faces": {
                "north": {
                    "uv": [
                        3.75,
                        2.375,
                        4.5,
                        4.125
                    ],
                    "texture": "#0"
                },
                "east": {
                    "uv": [
                        3.75,
                        2.375,
                        4.5,
                        4.125
                    ],
                    "texture": "#0"
                },
                "south": {
                    "uv": [
                        3.75,
                        2.375,
                        4.5,
                        4.125
                    ],
                    "texture": "#0"
                },
                "west": {
                    "uv": [
                        3.75,
                        2.375,
                        4.5,
                        4.125
                    ],
                    "texture": "#0"
                },
                "up": {
                    "uv": [
                        3.75,
                        2.375,
                        4.5,
                        4.125
                    ],
                    "texture": "#0"
                },
                "down": {
                    "uv": [
                        3.75,
                        2.375,
                        4.5,
                        4.125
                    ],
                    "texture": "#0"
                }
            }
        },
        {
            "from": [
                7.50175,
                7.01205,
                14.57828
            ],
            "to": [
                8.45275,
                7.28805,
                14.85428
            ],
            "rotation": {
                "angle": 22.5,
                "axis": "x",
                "origin": [
                    7.97725,
                    7.15005,
                    14.71628
                ]
            },
            "faces": {
                "north": {
                    "uv": [
                        2.375,
                        2.625,
                        2.375,
                        2.625
                    ],
                    "rotation": 180,
                    "texture": "#0"
                },
                "east": {
                    "uv": [
                        2.375,
                        2.625,
                        2.375,
                        2.625
                    ],
                    "rotation": 90,
                    "texture": "#0"
                },
                "south": {
                    "uv": [
                        2.375,
                        2.625,
                        2.375,
                        2.625
                    ],
                    "texture": "#0"
                },
                "west": {
                    "uv": [
                        2.375,
                        2.625,
                        2.375,
                        2.625
                    ],
                    "rotation": 270,
                    "texture": "#0"
                },
                "up": {
                    "uv": [
                        2.375,
                        2.625,
                        2.375,
                        2.625
                    ],
                    "texture": "#0"
                },
                "down": {
                    "uv": [
                        2.375,
                        2.625,
                        2.375,
                        2.625
                    ],
                    "rotation": 180,
                    "texture": "#0"
                }
            }
        },
        {
            "from": [
                7.53375,
                8.58005,
                15.05828
            ],
            "to": [
                8.42075,
                8.76005,
                15.23828
            ],
            "rotation": {
                "angle": 45,
                "axis": "x",
                "origin": [
                    7.97725,
                    8.65405,
                    15.13228
                ]
            },
            "faces": {
                "north": {
                    "uv": [
                        2.375,
                        2.625,
                        2.375,
                        2.625
                    ],
                    "rotation": 180,
                    "texture": "#0"
                },
                "east": {
                    "uv": [
                        2.375,
                        2.625,
                        2.375,
                        2.625
                    ],
                    "rotation": 90,
                    "texture": "#0"
                },
                "south": {
                    "uv": [
                        2.375,
                        2.625,
                        2.375,
                        2.625
                    ],
                    "texture": "#0"
                },
                "west": {
                    "uv": [
                        2.375,
                        2.625,
                        2.375,
                        2.625
                    ],
                    "rotation": 270,
                    "texture": "#0"
                },
                "up": {
                    "uv": [
                        2.375,
                        2.625,
                        2.375,
                        2.625
                    ],
                    "texture": "#0"
                },
                "down": {
                    "uv": [
                        2.375,
                        2.625,
                        2.375,
                        2.625
                    ],
                    "rotation": 180,
                    "texture": "#0"
                }
            }
        },
        {
            "from": [
                7.75775,
                7.55605,
                13.10628
            ],
            "to": [
                8.19675,
                7.73605,
                13.28628
            ],
            "rotation": {
                "angle": 45,
                "axis": "x",
                "origin": [
                    7.97725,
                    7.63005,
                    13.18028
                ]
            },
            "faces": {
                "north": {
                    "uv": [
                        2.375,
                        2.625,
                        2.375,
                        2.625
                    ],
                    "rotation": 180,
                    "texture": "#0"
                },
                "east": {
                    "uv": [
                        2.375,
                        2.625,
                        2.375,
                        2.625
                    ],
                    "rotation": 90,
                    "texture": "#0"
                },
                "south": {
                    "uv": [
                        2.375,
                        2.625,
                        2.375,
                        2.625
                    ],
                    "texture": "#0"
                },
                "west": {
                    "uv": [
                        2.375,
                        2.625,
                        2.375,
                        2.625
                    ],
                    "rotation": 270,
                    "texture": "#0"
                },
                "up": {
                    "uv": [
                        2.375,
                        2.625,
                        2.375,
                        2.625
                    ],
                    "texture": "#0"
                },
                "down": {
                    "uv": [
                        2.375,
                        2.625,
                        2.375,
                        2.625
                    ],
                    "rotation": 180,
                    "texture": "#0"
                }
            }
        },
        {
            "from": [
                7.56575,
                5.12736,
                14.40205
            ],
            "to": [
                8.38875,
                6.32736,
                14.90205
            ],
            "rotation": {
                "angle": 0,
                "axis": "y",
                "origin": [
                    7.97725,
                    7.17736,
                    14.65205
                ]
            },
            "faces": {
                "north": {
                    "uv": [
                        2.875,
                        2.75,
                        2.875,
                        2.75
                    ],
                    "texture": "#0"
                },
                "east": {
                    "uv": [
                        2.875,
                        2.75,
                        2.875,
                        2.75
                    ],
                    "texture": "#0"
                },
                "south": {
                    "uv": [
                        2.875,
                        2.75,
                        2.875,
                        2.75
                    ],
                    "texture": "#0"
                },
                "west": {
                    "uv": [
                        2.875,
                        2.75,
                        2.875,
                        2.75
                    ],
                    "texture": "#0"
                },
                "up": {
                    "uv": [
                        2.875,
                        2.75,
                        2.875,
                        2.75
                    ],
                    "texture": "#0"
                },
                "down": {
                    "uv": [
                        2.875,
                        2.75,
                        2.875,
                        2.75
                    ],
                    "texture": "#0"
                }
            }
        },
        {
            "from": [
                7.46575,
                5.18658,
                14.5107
            ],
            "to": [
                8.48875,
                5.58658,
                16.0427
            ],
            "rotation": {
                "angle": 0,
                "axis": "y",
                "origin": [
                    7.97725,
                    7.13658,
                    15.7607
                ]
            },
            "faces": {
                "north": {
                    "uv": [
                        7.125,
                        11.75,
                        7.125,
                        11.75
                    ],
                    "texture": "#0"
                },
                "east": {
                    "uv": [
                        7.125,
                        11.75,
                        7.125,
                        11.75
                    ],
                    "texture": "#0"
                },
                "south": {
                    "uv": [
                        7.125,
                        11.75,
                        7.125,
                        11.75
                    ],
                    "texture": "#0"
                },
                "west": {
                    "uv": [
                        7.125,
                        11.75,
                        7.125,
                        11.75
                    ],
                    "texture": "#0"
                },
                "up": {
                    "uv": [
                        7.125,
                        11.75,
                        7.125,
                        11.75
                    ],
                    "texture": "#0"
                },
                "down": {
                    "uv": [
                        7.125,
                        11.75,
                        7.125,
                        11.75
                    ],
                    "texture": "#0"
                }
            }
        },
        {
            "from": [
                7.46575,
                4.92736,
                13.40205
            ],
            "to": [
                8.48875,
                5.12736,
                13.80205
            ],
            "rotation": {
                "angle": -22.5,
                "axis": "x",
                "origin": [
                    7.97725,
                    6.97736,
                    13.55205
                ]
            },
            "faces": {
                "north": {
                    "uv": [
                        7.125,
                        11.75,
                        7.125,
                        11.75
                    ],
                    "texture": "#0"
                },
                "east": {
                    "uv": [
                        7.125,
                        11.75,
                        7.125,
                        11.75
                    ],
                    "texture": "#0"
                },
                "south": {
                    "uv": [
                        7.125,
                        11.75,
                        7.125,
                        11.75
                    ],
                    "texture": "#0"
                },
                "west": {
                    "uv": [
                        7.125,
                        11.75,
                        7.125,
                        11.75
                    ],
                    "texture": "#0"
                },
                "up": {
                    "uv": [
                        7.125,
                        11.75,
                        7.125,
                        11.75
                    ],
                    "texture": "#0"
                },
                "down": {
                    "uv": [
                        7.125,
                        11.75,
                        7.125,
                        11.75
                    ],
                    "texture": "#0"
                }
            }
        },
        {
            "from": [
                7.46575,
                5.19493,
                14.34448
            ],
            "to": [
                8.48875,
                5.59493,
                14.54448
            ],
            "rotation": {
                "angle": 22.5,
                "axis": "x",
                "origin": [
                    7.97725,
                    5.39493,
                    14.44448
                ]
            },
            "faces": {
                "north": {
                    "uv": [
                        7.125,
                        11.75,
                        7.125,
                        11.75
                    ],
                    "rotation": 270,
                    "texture": "#0"
                },
                "east": {
                    "uv": [
                        7.125,
                        11.75,
                        7.125,
                        11.75
                    ],
                    "rotation": 270,
                    "texture": "#0"
                },
                "south": {
                    "uv": [
                        7.125,
                        11.75,
                        7.125,
                        11.75
                    ],
                    "rotation": 270,
                    "texture": "#0"
                },
                "west": {
                    "uv": [
                        7.125,
                        11.75,
                        7.125,
                        11.75
                    ],
                    "rotation": 270,
                    "texture": "#0"
                },
                "up": {
                    "uv": [
                        7.125,
                        11.75,
                        7.125,
                        11.75
                    ],
                    "rotation": 270,
                    "texture": "#0"
                },
                "down": {
                    "uv": [
                        7.125,
                        11.75,
                        7.125,
                        11.75
                    ],
                    "rotation": 270,
                    "texture": "#0"
                }
            }
        },
        {
            "from": [
                7.76575,
                7.42173,
                13.171
            ],
            "to": [
                8.18875,
                8.52173,
                14.771
            ],
            "rotation": {
                "angle": 0,
                "axis": "y",
                "origin": [
                    7.97725,
                    7.67173,
                    13.121
                ]
            },
            "faces": {
                "north": {
                    "uv": [
                        2.875,
                        2.875,
                        2.875,
                        2.875
                    ],
                    "rotation": 270,
                    "texture": "#0"
                },
                "east": {
                    "uv": [
                        2.875,
                        2.875,
                        2.875,
                        2.875
                    ],
                    "rotation": 270,
                    "texture": "#0"
                },
                "south": {
                    "uv": [
                        2.875,
                        2.875,
                        2.875,
                        2.875
                    ],
                    "rotation": 270,
                    "texture": "#0"
                },
                "west": {
                    "uv": [
                        2.875,
                        2.875,
                        2.875,
                        2.875
                    ],
                    "rotation": 270,
                    "texture": "#0"
                },
                "up": {
                    "uv": [
                        2.875,
                        2.875,
                        2.875,
                        2.875
                    ],
                    "rotation": 270,
                    "texture": "#0"
                },
                "down": {
                    "uv": [
                        2.875,
                        2.875,
                        2.875,
                        2.875
                    ],
                    "rotation": 270,
                    "texture": "#0"
                }
            }
        },
        {
            "from": [
                7.76575,
                7.32173,
                12.271
            ],
            "to": [
                8.18875,
                7.52173,
                13.071
            ],
            "rotation": {
                "angle": 0,
                "axis": "y",
                "origin": [
                    7.97725,
                    6.77173,
                    12.321
                ]
            },
            "faces": {
                "north": {
                    "uv": [
                        2.875,
                        2.875,
                        2.875,
                        2.875
                    ],
                    "rotation": 270,
                    "texture": "#0"
                },
                "east": {
                    "uv": [
                        2.875,
                        2.875,
                        2.875,
                        2.875
                    ],
                    "rotation": 270,
                    "texture": "#0"
                },
                "south": {
                    "uv": [
                        2.875,
                        2.875,
                        2.875,
                        2.875
                    ],
                    "rotation": 270,
                    "texture": "#0"
                },
                "west": {
                    "uv": [
                        2.875,
                        2.875,
                        2.875,
                        2.875
                    ],
                    "rotation": 270,
                    "texture": "#0"
                },
                "up": {
                    "uv": [
                        2.875,
                        2.875,
                        2.875,
                        2.875
                    ],
                    "rotation": 270,
                    "texture": "#0"
                },
                "down": {
                    "uv": [
                        2.875,
                        2.875,
                        2.875,
                        2.875
                    ],
                    "rotation": 270,
                    "texture": "#0"
                }
            }
        },
        {
            "from": [
                7.76575,
                7.421,
                11.97194
            ],
            "to": [
                8.18875,
                7.621,
                12.07194
            ],
            "rotation": {
                "angle": 22.5,
                "axis": "x",
                "origin": [
                    7.97725,
                    6.871,
                    11.92194
                ]
            },
            "faces": {
                "north": {
                    "uv": [
                        2.875,
                        2.875,
                        2.875,
                        2.875
                    ],
                    "rotation": 270,
                    "texture": "#0"
                },
                "east": {
                    "uv": [
                        2.875,
                        2.875,
                        2.875,
                        2.875
                    ],
                    "rotation": 270,
                    "texture": "#0"
                },
                "south": {
                    "uv": [
                        2.875,
                        2.875,
                        2.875,
                        2.875
                    ],
                    "rotation": 270,
                    "texture": "#0"
                },
                "west": {
                    "uv": [
                        2.875,
                        2.875,
                        2.875,
                        2.875
                    ],
                    "rotation": 270,
                    "texture": "#0"
                },
                "up": {
                    "uv": [
                        2.875,
                        2.875,
                        2.875,
                        2.875
                    ],
                    "rotation": 270,
                    "texture": "#0"
                },
                "down": {
                    "uv": [
                        2.875,
                        2.875,
                        2.875,
                        2.875
                    ],
                    "rotation": 270,
                    "texture": "#0"
                }
            }
        },
        {
            "from": [
                7.76575,
                7.46719,
                13.00228
            ],
            "to": [
                8.18875,
                7.66719,
                13.80228
            ],
            "rotation": {
                "angle": -22.5,
                "axis": "x",
                "origin": [
                    7.97725,
                    7.56719,
                    13.40228
                ]
            },
            "faces": {
                "north": {
                    "uv": [
                        2.875,
                        2.875,
                        2.875,
                        2.875
                    ],
                    "rotation": 270,
                    "texture": "#0"
                },
                "east": {
                    "uv": [
                        2.875,
                        2.875,
                        2.875,
                        2.875
                    ],
                    "rotation": 270,
                    "texture": "#0"
                },
                "south": {
                    "uv": [
                        2.875,
                        2.875,
                        2.875,
                        2.875
                    ],
                    "rotation": 270,
                    "texture": "#0"
                },
                "west": {
                    "uv": [
                        2.875,
                        2.875,
                        2.875,
                        2.875
                    ],
                    "rotation": 270,
                    "texture": "#0"
                },
                "up": {
                    "uv": [
                        2.875,
                        2.875,
                        2.875,
                        2.875
                    ],
                    "rotation": 270,
                    "texture": "#0"
                },
                "down": {
                    "uv": [
                        2.875,
                        2.875,
                        2.875,
                        2.875
                    ],
                    "rotation": 270,
                    "texture": "#0"
                }
            }
        },
        {
            "from": [
                7.76575,
                7.46719,
                12.40228
            ],
            "to": [
                8.18875,
                7.66719,
                13.30228
            ],
            "rotation": {
                "angle": -22.5,
                "axis": "x",
                "origin": [
                    7.97725,
                    7.56719,
                    12.80228
                ]
            },
            "faces": {
                "north": {
                    "uv": [
                        2.875,
                        2.875,
                        2.875,
                        2.875
                    ],
                    "rotation": 270,
                    "texture": "#0"
                },
                "east": {
                    "uv": [
                        2.875,
                        2.875,
                        2.875,
                        2.875
                    ],
                    "rotation": 270,
                    "texture": "#0"
                },
                "south": {
                    "uv": [
                        2.875,
                        2.875,
                        2.875,
                        2.875
                    ],
                    "rotation": 270,
                    "texture": "#0"
                },
                "west": {
                    "uv": [
                        2.875,
                        2.875,
                        2.875,
                        2.875
                    ],
                    "rotation": 270,
                    "texture": "#0"
                },
                "up": {
                    "uv": [
                        2.875,
                        2.875,
                        2.875,
                        2.875
                    ],
                    "rotation": 270,
                    "texture": "#0"
                },
                "down": {
                    "uv": [
                        2.875,
                        2.875,
                        2.875,
                        2.875
                    ],
                    "rotation": 270,
                    "texture": "#0"
                }
            }
        },
        {
            "from": [
                7.76575,
                7.46719,
                12.50228
            ],
            "to": [
                8.18875,
                7.66719,
                13.30228
            ],
            "rotation": {
                "angle": -22.5,
                "axis": "x",
                "origin": [
                    7.97725,
                    7.56719,
                    12.90228
                ]
            },
            "faces": {
                "north": {
                    "uv": [
                        2.875,
                        2.875,
                        2.875,
                        2.875
                    ],
                    "rotation": 270,
                    "texture": "#0"
                },
                "east": {
                    "uv": [
                        2.875,
                        2.875,
                        2.875,
                        2.875
                    ],
                    "rotation": 270,
                    "texture": "#0"
                },
                "south": {
                    "uv": [
                        2.875,
                        2.875,
                        2.875,
                        2.875
                    ],
                    "rotation": 270,
                    "texture": "#0"
                },
                "west": {
                    "uv": [
                        2.875,
                        2.875,
                        2.875,
                        2.875
                    ],
                    "rotation": 270,
                    "texture": "#0"
                },
                "up": {
                    "uv": [
                        2.875,
                        2.875,
                        2.875,
                        2.875
                    ],
                    "rotation": 270,
                    "texture": "#0"
                },
                "down": {
                    "uv": [
                        2.875,
                        2.875,
                        2.875,
                        2.875
                    ],
                    "rotation": 270,
                    "texture": "#0"
                }
            }
        },
        {
            "from": [
                7.56575,
                8.14593,
                13.58255
            ],
            "to": [
                8.38875,
                9.14593,
                15.25755
            ],
            "rotation": {
                "angle": 22.5,
                "axis": "x",
                "origin": [
                    7.97725,
                    8.49593,
                    14.50755
                ]
            },
            "faces": {
                "north": {
                    "uv": [
                        2.875,
                        2.75,
                        2.875,
                        2.75
                    ],
                    "texture": "#0"
                },
                "east": {
                    "uv": [
                        2.875,
                        2.75,
                        2.875,
                        2.75
                    ],
                    "texture": "#0"
                },
                "south": {
                    "uv": [
                        2.875,
                        2.75,
                        2.875,
                        2.75
                    ],
                    "texture": "#0"
                },
                "west": {
                    "uv": [
                        2.875,
                        2.75,
                        2.875,
                        2.75
                    ],
                    "texture": "#0"
                },
                "up": {
                    "uv": [
                        2.875,
                        2.75,
                        2.875,
                        2.75
                    ],
                    "texture": "#0"
                },
                "down": {
                    "uv": [
                        2.875,
                        2.75,
                        2.875,
                        2.75
                    ],
                    "texture": "#0"
                }
            }
        },
        {
            "from": [
                7.66575,
                8.12173,
                14.171
            ],
            "to": [
                8.28875,
                9.12174,
                15.371
            ],
            "rotation": {
                "angle": 0,
                "axis": "y",
                "origin": [
                    7.97725,
                    8.87173,
                    14.621
                ]
            },
            "faces": {
                "north": {
                    "uv": [
                        2.875,
                        2.875,
                        2.875,
                        2.875
                    ],
                    "rotation": 90,
                    "texture": "#0"
                },
                "east": {
                    "uv": [
                        2.875,
                        2.875,
                        2.875,
                        2.875
                    ],
                    "rotation": 90,
                    "texture": "#0"
                },
                "south": {
                    "uv": [
                        2.875,
                        2.875,
                        2.875,
                        2.875
                    ],
                    "rotation": 90,
                    "texture": "#0"
                },
                "west": {
                    "uv": [
                        2.875,
                        2.875,
                        2.875,
                        2.875
                    ],
                    "rotation": 90,
                    "texture": "#0"
                },
                "up": {
                    "uv": [
                        2.875,
                        2.875,
                        2.875,
                        2.875
                    ],
                    "rotation": 90,
                    "texture": "#0"
                },
                "down": {
                    "uv": [
                        2.875,
                        2.875,
                        2.875,
                        2.875
                    ],
                    "rotation": 90,
                    "texture": "#0"
                }
            }
        },
        {
            "from": [
                7.66575,
                8.28394,
                14.1237
            ],
            "to": [
                8.28875,
                8.88394,
                15.7637
            ],
            "rotation": {
                "angle": 0,
                "axis": "y",
                "origin": [
                    7.97725,
                    8.58394,
                    14.9437
                ]
            },
            "faces": {
                "north": {
                    "uv": [
                        2.875,
                        2.875,
                        2.875,
                        2.875
                    ],
                    "rotation": 90,
                    "texture": "#0"
                },
                "east": {
                    "uv": [
                        2.875,
                        2.875,
                        2.875,
                        2.875
                    ],
                    "rotation": 90,
                    "texture": "#0"
                },
                "south": {
                    "uv": [
                        2.875,
                        2.875,
                        2.875,
                        2.875
                    ],
                    "rotation": 90,
                    "texture": "#0"
                },
                "west": {
                    "uv": [
                        2.875,
                        2.875,
                        2.875,
                        2.875
                    ],
                    "rotation": 90,
                    "texture": "#0"
                },
                "up": {
                    "uv": [
                        2.875,
                        2.875,
                        2.875,
                        2.875
                    ],
                    "rotation": 90,
                    "texture": "#0"
                },
                "down": {
                    "uv": [
                        2.875,
                        2.875,
                        2.875,
                        2.875
                    ],
                    "rotation": 90,
                    "texture": "#0"
                }
            }
        },
        {
            "from": [
                7.66575,
                7.62173,
                14.171
            ],
            "to": [
                8.28875,
                8.22173,
                15.671
            ],
            "rotation": {
                "angle": -22.5,
                "axis": "x",
                "origin": [
                    7.97725,
                    7.97173,
                    14.621
                ]
            },
            "faces": {
                "north": {
                    "uv": [
                        2.875,
                        2.875,
                        2.875,
                        2.875
                    ],
                    "rotation": 90,
                    "texture": "#0"
                },
                "east": {
                    "uv": [
                        2.875,
                        2.875,
                        2.875,
                        2.875
                    ],
                    "rotation": 90,
                    "texture": "#0"
                },
                "south": {
                    "uv": [
                        2.875,
                        2.875,
                        2.875,
                        2.875
                    ],
                    "rotation": 90,
                    "texture": "#0"
                },
                "west": {
                    "uv": [
                        2.875,
                        2.875,
                        2.875,
                        2.875
                    ],
                    "rotation": 90,
                    "texture": "#0"
                },
                "up": {
                    "uv": [
                        2.875,
                        2.875,
                        2.875,
                        2.875
                    ],
                    "rotation": 90,
                    "texture": "#0"
                },
                "down": {
                    "uv": [
                        2.875,
                        2.875,
                        2.875,
                        2.875
                    ],
                    "rotation": 90,
                    "texture": "#0"
                }
            }
        },
        {
            "from": [
                7.66575,
                8.36032,
                14.56224
            ],
            "to": [
                8.28875,
                9.06032,
                15.56224
            ],
            "rotation": {
                "angle": -22.5,
                "axis": "x",
                "origin": [
                    7.97725,
                    8.61032,
                    15.31224
                ]
            },
            "faces": {
                "north": {
                    "uv": [
                        2.875,
                        2.875,
                        2.875,
                        2.875
                    ],
                    "rotation": 180,
                    "texture": "#0"
                },
                "east": {
                    "uv": [
                        2.875,
                        2.875,
                        2.875,
                        2.875
                    ],
                    "rotation": 180,
                    "texture": "#0"
                },
                "south": {
                    "uv": [
                        2.875,
                        2.875,
                        2.875,
                        2.875
                    ],
                    "rotation": 180,
                    "texture": "#0"
                },
                "west": {
                    "uv": [
                        2.875,
                        2.875,
                        2.875,
                        2.875
                    ],
                    "rotation": 180,
                    "texture": "#0"
                },
                "up": {
                    "uv": [
                        2.875,
                        2.875,
                        2.875,
                        2.875
                    ],
                    "rotation": 180,
                    "texture": "#0"
                },
                "down": {
                    "uv": [
                        2.875,
                        2.875,
                        2.875,
                        2.875
                    ],
                    "rotation": 180,
                    "texture": "#0"
                }
            }
        }
    ],
    "display": {
        "thirdperson_righthand": {
            "translation": [
                0,
                0,
                -3.5
            ]
        },
        "thirdperson_lefthand": {
            "translation": [
                0,
                0,
                -3.5
            ]
        },
        "firstperson_righthand": {
            "translation": [
                0,
                2.75,
                -2.25
            ]
        },
        "firstperson_lefthand": {
            "translation": [
                0,
                2.75,
                -2.25
            ]
        },
        "ground": {
            "rotation": [
                0,
                0,
                -90
            ],
            "translation": [
                0,
                -2.5,
                0
            ]
        },
        "gui": {
            "rotation": [
                -26,
                150,
                0
            ],
            "scale": [
                0.85,
                0.85,
                0.85
            ]
        },
        "fixed": {
            "rotation": [
                90,
                45,
                -90
            ],
            "translation": [
                0.5,
                -0.25,
                -2.75
            ],
            "scale": [
                2,
                2,
                2
            ]
        }
    }
}