{
	"credit": "Made with Blockbench",
	"textures": {
		"0": "gci:items/common/all_in_one",
		"particle": "gci:items/common/all_in_one"
	},
	"elements": [
		{
			"from": [8.043, 15.56644, 5.556],
			"to": [8.603, 15.69444, 5.808],
			"rotation": {"angle": 0, "axis": "y", "origin": [8.06442, 15.52502, -8.42]},
			"faces": {
				"north": {"uv": [5.75, 11.75, 5.875, 11.875], "rotation": 270, "texture": "#0"},
				"east": {"uv": [5.75, 11.75, 5.875, 11.875], "rotation": 270, "texture": "#0"},
				"south": {"uv": [5.875, 11.75, 6, 11.875], "rotation": 270, "texture": "#0"},
				"west": {"uv": [5.875, 11.5, 6, 11.625], "rotation": 270, "texture": "#0"},
				"up": {"uv": [6, 11.5, 6.125, 11.625], "rotation": 270, "texture": "#0"},
				"down": {"uv": [15.25, 15.125, 15.75, 15.625], "rotation": 270, "texture": "#0"}
			}
		},
		{
			"from": [8.043, 15.56644, 6.068],
			"to": [8.603, 15.69444, 6.32],
			"rotation": {"angle": 0, "axis": "y", "origin": [8.06442, 15.52502, -7.908]},
			"faces": {
				"north": {"uv": [5.75, 11.75, 5.875, 11.875], "rotation": 270, "texture": "#0"},
				"east": {"uv": [5.75, 11.75, 5.875, 11.875], "rotation": 270, "texture": "#0"},
				"south": {"uv": [5.875, 11.75, 6, 11.875], "rotation": 270, "texture": "#0"},
				"west": {"uv": [5.875, 11.5, 6, 11.625], "rotation": 270, "texture": "#0"},
				"up": {"uv": [6, 11.5, 6.125, 11.625], "rotation": 270, "texture": "#0"},
				"down": {"uv": [15.25, 15.125, 15.75, 15.625], "rotation": 270, "texture": "#0"}
			}
		},
		{
			"from": [8.043, 15.56644, 5.044],
			"to": [8.603, 15.69444, 5.296],
			"rotation": {"angle": 0, "axis": "y", "origin": [8.06442, 15.52502, -8.932]},
			"faces": {
				"north": {"uv": [5.75, 11.75, 5.875, 11.875], "rotation": 270, "texture": "#0"},
				"east": {"uv": [5.75, 11.75, 5.875, 11.875], "rotation": 270, "texture": "#0"},
				"south": {"uv": [5.875, 11.75, 6, 11.875], "rotation": 270, "texture": "#0"},
				"west": {"uv": [5.875, 11.5, 6, 11.625], "rotation": 270, "texture": "#0"},
				"up": {"uv": [6, 11.5, 6.125, 11.625], "rotation": 270, "texture": "#0"},
				"down": {"uv": [15.25, 15.125, 15.75, 15.625], "rotation": 270, "texture": "#0"}
			}
		},
		{
			"from": [8.043, 15.56644, 4.564],
			"to": [8.603, 15.69444, 4.816],
			"rotation": {"angle": 0, "axis": "y", "origin": [8.06442, 15.52502, -9.412]},
			"faces": {
				"north": {"uv": [5.75, 11.75, 5.875, 11.875], "rotation": 270, "texture": "#0"},
				"east": {"uv": [5.75, 11.75, 5.875, 11.875], "rotation": 270, "texture": "#0"},
				"south": {"uv": [5.875, 11.75, 6, 11.875], "rotation": 270, "texture": "#0"},
				"west": {"uv": [5.875, 11.5, 6, 11.625], "rotation": 270, "texture": "#0"},
				"up": {"uv": [6, 11.5, 6.125, 11.625], "rotation": 270, "texture": "#0"},
				"down": {"uv": [15.25, 15.125, 15.75, 15.625], "rotation": 270, "texture": "#0"}
			}
		},
		{
			"from": [8.043, 15.56644, 3.54],
			"to": [8.603, 15.69444, 3.792],
			"rotation": {"angle": 0, "axis": "y", "origin": [8.06442, 15.52502, -10.436]},
			"faces": {
				"north": {"uv": [5.75, 11.75, 5.875, 11.875], "rotation": 270, "texture": "#0"},
				"east": {"uv": [5.75, 11.75, 5.875, 11.875], "rotation": 270, "texture": "#0"},
				"south": {"uv": [5.875, 11.75, 6, 11.875], "rotation": 270, "texture": "#0"},
				"west": {"uv": [5.875, 11.5, 6, 11.625], "rotation": 270, "texture": "#0"},
				"up": {"uv": [6, 11.5, 6.125, 11.625], "rotation": 270, "texture": "#0"},
				"down": {"uv": [15.25, 15.125, 15.75, 15.625], "rotation": 270, "texture": "#0"}
			}
		},
		{
			"from": [8.043, 15.56644, 4.052],
			"to": [8.603, 15.69444, 4.304],
			"rotation": {"angle": 0, "axis": "y", "origin": [8.06442, 15.52502, -9.924]},
			"faces": {
				"north": {"uv": [5.75, 11.75, 5.875, 11.875], "rotation": 270, "texture": "#0"},
				"east": {"uv": [5.75, 11.75, 5.875, 11.875], "rotation": 270, "texture": "#0"},
				"south": {"uv": [5.875, 11.75, 6, 11.875], "rotation": 270, "texture": "#0"},
				"west": {"uv": [5.875, 11.5, 6, 11.625], "rotation": 270, "texture": "#0"},
				"up": {"uv": [6, 11.5, 6.125, 11.625], "rotation": 270, "texture": "#0"},
				"down": {"uv": [15.25, 15.125, 15.75, 15.625], "rotation": 270, "texture": "#0"}
			}
		},
		{
			"from": [8.043, 15.56644, 3.028],
			"to": [8.603, 15.69444, 3.28],
			"rotation": {"angle": 0, "axis": "y", "origin": [8.06442, 15.52502, -10.948]},
			"faces": {
				"north": {"uv": [5.75, 11.75, 5.875, 11.875], "rotation": 270, "texture": "#0"},
				"east": {"uv": [5.75, 11.75, 5.875, 11.875], "rotation": 270, "texture": "#0"},
				"south": {"uv": [5.875, 11.75, 6, 11.875], "rotation": 270, "texture": "#0"},
				"west": {"uv": [5.875, 11.5, 6, 11.625], "rotation": 270, "texture": "#0"},
				"up": {"uv": [6, 11.5, 6.125, 11.625], "rotation": 270, "texture": "#0"},
				"down": {"uv": [15.25, 15.125, 15.75, 15.625], "rotation": 270, "texture": "#0"}
			}
		},
		{
			"from": [8.043, 15.47044, 2.016],
			"to": [8.603, 15.56644, 7.016],
			"rotation": {"angle": 0, "axis": "y", "origin": [8.06442, 15.42902, -15.748]},
			"faces": {
				"north": {"uv": [5.75, 11.5, 5.875, 11.625], "rotation": 270, "texture": "#0"},
				"east": {"uv": [5.75, 11.75, 5.875, 11.875], "rotation": 270, "texture": "#0"},
				"south": {"uv": [5.875, 11.75, 6, 11.875], "rotation": 270, "texture": "#0"},
				"west": {"uv": [5.75, 11.75, 5.875, 11.875], "rotation": 270, "texture": "#0"},
				"up": {"uv": [6, 11.5, 6.125, 11.625], "rotation": 270, "texture": "#0"},
				"down": {"uv": [15.25, 15.125, 15.75, 15.625], "rotation": 270, "texture": "#0"}
			}
		},
		{
			"from": [8.043, 14.98444, 6.802],
			"to": [8.603, 15.57444, 7.198],
			"rotation": {"angle": -22.5, "axis": "x", "origin": [8.323, 15.11844, 7.15]},
			"faces": {
				"north": {"uv": [15.25, 15.125, 15.75, 15.625], "rotation": 90, "texture": "#0"},
				"east": {"uv": [5.75, 11.75, 5.875, 11.875], "rotation": 180, "texture": "#0"},
				"south": {"uv": [6, 11.75, 6.125, 11.875], "rotation": 270, "texture": "#0"},
				"west": {"uv": [5.875, 11.5, 6, 11.625], "texture": "#0"},
				"up": {"uv": [15.25, 15.125, 15.75, 15.625], "rotation": 90, "texture": "#0"},
				"down": {"uv": [5.5, 11.75, 5.625, 11.875], "rotation": 270, "texture": "#0"}
			}
		},
		{
			"from": [8.44, 14.696, 5.424],
			"to": [8.54, 15.096, 6.984],
			"rotation": {"angle": 22.5, "axis": "z", "origin": [8.33558, 15.05786, 4.454]},
			"faces": {
				"north": {"uv": [5.625, 11.5, 5.75, 11.625], "texture": "#0"},
				"east": {"uv": [5.75, 11.75, 5.875, 11.875], "texture": "#0"},
				"south": {"uv": [6, 11.75, 6.125, 11.875], "texture": "#0"},
				"west": {"uv": [2.375, 3.5, 2.375, 3.625], "texture": "#0"},
				"up": {"uv": [5.625, 11.375, 5.75, 11.5], "texture": "#0"},
				"down": {"uv": [5.75, 11.625, 5.875, 11.75], "texture": "#0"}
			}
		},
		{
			"from": [8.46442, 14.10786, 2.024],
			"to": [8.66442, 14.80786, 4.484],
			"rotation": {"angle": 0, "axis": "y", "origin": [8.61442, 14.70786, -6.894]},
			"faces": {
				"north": {"uv": [5.75, 11.625, 5.875, 11.75], "texture": "#0"},
				"east": {"uv": [5.75, 11.75, 5.875, 11.875], "texture": "#0"},
				"south": {"uv": [5.875, 11.75, 6, 11.875], "texture": "#0"},
				"west": {"uv": [2.375, 3.5, 2.375, 3.625], "texture": "#0"},
				"up": {"uv": [5.625, 11.375, 5.75, 11.5], "texture": "#0"},
				"down": {"uv": [5.75, 11.625, 5.875, 11.75], "texture": "#0"}
			}
		},
		{
			"from": [8.46442, 14.10786, 5.924],
			"to": [8.66442, 14.80786, 6.984],
			"rotation": {"angle": 0, "axis": "y", "origin": [8.61442, 14.70786, -6.894]},
			"faces": {
				"north": {"uv": [5.625, 11.5, 5.75, 11.625], "texture": "#0"},
				"east": {"uv": [5.75, 11.75, 5.875, 11.875], "texture": "#0"},
				"south": {"uv": [6, 11.5, 6.125, 11.625], "texture": "#0"},
				"west": {"uv": [2.375, 3.5, 2.375, 3.625], "texture": "#0"},
				"up": {"uv": [2.375, 3.5, 2.375, 3.625], "texture": "#0"},
				"down": {"uv": [5.875, 11.875, 6, 12], "texture": "#0"}
			}
		},
		{
			"from": [8.34, 14.10786, 6.924],
			"to": [8.64, 14.80786, 7.084],
			"rotation": {"angle": -22.5, "axis": "y", "origin": [8.51442, 14.45786, 7.004]},
			"faces": {
				"north": {"uv": [2.375, 3.5, 2.375, 3.625], "texture": "#0"},
				"east": {"uv": [5.75, 11.75, 5.875, 11.875], "texture": "#0"},
				"south": {"uv": [6, 11.75, 6.125, 11.875], "texture": "#0"},
				"west": {"uv": [2.375, 3.5, 2.375, 3.625], "texture": "#0"},
				"up": {"uv": [5.625, 11.375, 5.75, 11.5], "texture": "#0"},
				"down": {"uv": [6, 11.75, 6.125, 11.875], "texture": "#0"}
			}
		},
		{
			"from": [8.005, 14.10786, 6.94],
			"to": [8.305, 14.80786, 7.1],
			"rotation": {"angle": 22.5, "axis": "y", "origin": [8.08558, 14.45786, 7.004]},
			"faces": {
				"north": {"uv": [2.375, 3.5, 2.375, 3.625], "texture": "#0"},
				"east": {"uv": [5.75, 11.75, 5.875, 11.875], "texture": "#0"},
				"south": {"uv": [5.75, 11.75, 5.875, 11.875], "texture": "#0"},
				"west": {"uv": [5.75, 11.75, 5.875, 11.875], "texture": "#0"},
				"up": {"uv": [5.875, 11.75, 6, 11.875], "texture": "#0"},
				"down": {"uv": [6, 11.75, 6, 11.875], "texture": "#0"}
			}
		},
		{
			"from": [8.46442, 14.40786, 5.824],
			"to": [8.66442, 14.57786, 6.984],
			"rotation": {"angle": 0, "axis": "y", "origin": [8.61442, 14.70786, -6.894]},
			"faces": {
				"north": {"uv": [5.625, 11.5, 5.75, 11.625], "texture": "#0"},
				"east": {"uv": [5.75, 11.75, 5.875, 11.875], "texture": "#0"},
				"south": {"uv": [2.375, 3.5, 2.375, 3.625], "texture": "#0"},
				"west": {"uv": [2.375, 3.5, 2.375, 3.625], "texture": "#0"},
				"up": {"uv": [5.625, 11.375, 5.75, 11.5], "texture": "#0"},
				"down": {"uv": [2.375, 3.5, 2.375, 3.625], "texture": "#0"}
			}
		},
		{
			"from": [7.9844, 14.10786, 2.024],
			"to": [8.1844, 14.80786, 6.984],
			"rotation": {"angle": 0, "axis": "y", "origin": [8.11442, 14.70786, -6.894]},
			"faces": {
				"north": {"uv": [5.75, 11.5, 5.875, 11.625], "texture": "#0"},
				"east": {"uv": [5.75, 11.75, 5.875, 11.875], "texture": "#0"},
				"south": {"uv": [5.875, 11.625, 5.875, 11.75], "texture": "#0"},
				"west": {"uv": [5.75, 11.75, 5.875, 11.875], "texture": "#0"},
				"up": {"uv": [2.375, 3.5, 2.375, 3.625], "texture": "#0"},
				"down": {"uv": [5.75, 12.125, 5.875, 12.25], "texture": "#0"}
			}
		},
		{
			"from": [8.1, 14.716, 2.024],
			"to": [8.2, 15.016, 6.984],
			"rotation": {"angle": -22.5, "axis": "z", "origin": [8.26442, 15.05786, 4.454]},
			"faces": {
				"north": {"uv": [5.75, 11.5, 5.875, 11.625], "texture": "#0"},
				"east": {"uv": [5.75, 11.75, 5.875, 11.875], "texture": "#0"},
				"south": {"uv": [5.75, 11.75, 5.875, 11.875], "texture": "#0"},
				"west": {"uv": [5.75, 11.75, 5.875, 11.875], "texture": "#0"},
				"up": {"uv": [2.375, 3.5, 2.375, 3.625], "texture": "#0"},
				"down": {"uv": [2.375, 3.5, 2.375, 3.625], "texture": "#0"}
			}
		},
		{
			"from": [8.44, 14.696, 2.024],
			"to": [8.54, 14.996, 4.484],
			"rotation": {"angle": 22.5, "axis": "z", "origin": [8.33558, 15.05786, 1.954]},
			"faces": {
				"north": {"uv": [5.75, 11.625, 5.875, 11.75], "texture": "#0"},
				"east": {"uv": [5.75, 11.75, 5.875, 11.875], "texture": "#0"},
				"south": {"uv": [5.875, 11.75, 6, 11.875], "texture": "#0"},
				"west": {"uv": [2.375, 3.5, 2.375, 3.625], "texture": "#0"},
				"up": {"uv": [5.625, 11.375, 5.75, 11.5], "texture": "#0"},
				"down": {"uv": [2.375, 3.5, 2.375, 3.625], "texture": "#0"}
			}
		},
		{
			"from": [8.488, 14.90786, 5.424],
			"to": [8.608, 15.50786, 6.984],
			"rotation": {"angle": 0, "axis": "y", "origin": [8.71442, 15.30786, -6.894]},
			"faces": {
				"north": {"uv": [5.625, 11.5, 5.75, 11.625], "texture": "#0"},
				"east": {"uv": [5.75, 11.75, 5.875, 11.875], "texture": "#0"},
				"south": {"uv": [2.375, 3.5, 2.375, 3.625], "texture": "#0"},
				"west": {"uv": [2.375, 3.5, 2.375, 3.625], "texture": "#0"},
				"up": {"uv": [14.125, 9.5, 14.125, 9.625], "texture": "#0"},
				"down": {"uv": [2.375, 3.5, 2.375, 3.625], "texture": "#0"}
			}
		},
		{
			"from": [8.488, 15.00786, 5.124],
			"to": [8.608, 15.20786, 5.684],
			"rotation": {"angle": 22.5, "axis": "x", "origin": [8.548, 15.10786, 5.404]},
			"faces": {
				"north": {"uv": [2.375, 3.5, 2.375, 3.625], "texture": "#0"},
				"east": {"uv": [5.75, 11.75, 5.875, 11.875], "texture": "#0"},
				"south": {"uv": [2.375, 3.5, 2.375, 3.625], "texture": "#0"},
				"west": {"uv": [2.375, 3.5, 2.375, 3.625], "texture": "#0"},
				"up": {"uv": [2.375, 3.5, 2.375, 3.625], "texture": "#0"},
				"down": {"uv": [5.75, 11.5, 5.875, 11.625], "texture": "#0"}
			}
		},
		{
			"from": [8.488, 14.90786, 2.024],
			"to": [8.608, 15.50786, 4.484],
			"rotation": {"angle": 0, "axis": "y", "origin": [8.71442, 15.30786, -6.894]},
			"faces": {
				"north": {"uv": [5.75, 11.625, 5.875, 11.75], "texture": "#0"},
				"east": {"uv": [5.75, 11.75, 5.875, 11.875], "texture": "#0"},
				"south": {"uv": [5.875, 11.75, 6, 11.875], "texture": "#0"},
				"west": {"uv": [2.375, 3.5, 2.375, 3.625], "texture": "#0"},
				"up": {"uv": [14.125, 9.5, 14.125, 9.625], "texture": "#0"},
				"down": {"uv": [2.375, 3.5, 2.375, 3.625], "texture": "#0"}
			}
		},
		{
			"from": [8.488, 15.10786, 2.024],
			"to": [8.608, 15.50786, 6.984],
			"rotation": {"angle": 0, "axis": "y", "origin": [8.71442, 15.30786, -6.894]},
			"faces": {
				"north": {"uv": [5.75, 11.5, 5.875, 11.625], "texture": "#0"},
				"east": {"uv": [5.75, 11.75, 5.875, 11.875], "texture": "#0"},
				"south": {"uv": [2.375, 3.5, 2.375, 3.625], "texture": "#0"},
				"west": {"uv": [2.375, 3.5, 2.375, 3.625], "texture": "#0"},
				"up": {"uv": [14.25, 9.75, 14.25, 9.875], "texture": "#0"},
				"down": {"uv": [6, 11.625, 6.125, 11.75], "texture": "#0"}
			}
		},
		{
			"from": [8.04, 14.90786, 2.024],
			"to": [8.16, 15.50786, 6.984],
			"rotation": {"angle": 0, "axis": "y", "origin": [8.21442, 15.30786, -6.894]},
			"faces": {
				"north": {"uv": [5.75, 11.5, 5.875, 11.625], "texture": "#0"},
				"east": {"uv": [5.75, 11.75, 5.875, 11.875], "texture": "#0"},
				"south": {"uv": [2.375, 3.5, 2.375, 3.625], "texture": "#0"},
				"west": {"uv": [5.75, 11.5, 5.875, 11.625], "texture": "#0"},
				"up": {"uv": [14.5, 9.625, 14.5, 9.75], "texture": "#0"},
				"down": {"uv": [2.375, 3.5, 2.375, 3.625], "texture": "#0"}
			}
		},
		{
			"from": [8.48, 14.40786, 3.624],
			"to": [8.58, 15.20786, 6.584],
			"rotation": {"angle": 0, "axis": "y", "origin": [8.51442, 14.50786, -7.294]},
			"faces": {
				"north": {"uv": [2.375, 3.5, 2.375, 3.625], "texture": "#0"},
				"east": {"uv": [3.125, 13, 3.25, 13.125], "texture": "#0"},
				"south": {"uv": [2.375, 3.5, 2.375, 3.625], "texture": "#0"},
				"west": {"uv": [2.375, 3.5, 2.375, 3.625], "texture": "#0"},
				"up": {"uv": [2.375, 3.5, 2.375, 3.625], "texture": "#0"},
				"down": {"uv": [2.375, 3.5, 2.375, 3.625], "texture": "#0"}
			}
		},
		{
			"from": [8.46442, 14.10786, 4.324],
			"to": [8.66442, 14.40786, 6.984],
			"rotation": {"angle": 0, "axis": "y", "origin": [8.61442, 14.70786, -6.894]},
			"faces": {
				"north": {"uv": [2.375, 3.5, 2.375, 3.625], "texture": "#0"},
				"east": {"uv": [5.75, 11.75, 5.875, 11.875], "texture": "#0"},
				"south": {"uv": [2.375, 3.5, 2.375, 3.625], "texture": "#0"},
				"west": {"uv": [2.375, 3.5, 2.375, 3.625], "texture": "#0"},
				"up": {"uv": [5.625, 11.375, 5.75, 11.5], "texture": "#0"},
				"down": {"uv": [5.875, 11.875, 6, 12], "texture": "#0"}
			}
		},
		{
			"from": [8.005, 12.046, 1.84],
			"to": [8.105, 12.746, 2.328],
			"rotation": {"angle": 0, "axis": "y", "origin": [7.725, 12.558, 1.984]},
			"faces": {
				"north": {"uv": [9.375, 10.25, 9.5, 10.375], "rotation": 90, "texture": "#0"},
				"east": {"uv": [9.375, 10, 9.5, 10.125], "rotation": 90, "texture": "#0"},
				"south": {"uv": [9.875, 10.375, 10, 10.5], "rotation": 90, "texture": "#0"},
				"west": {"uv": [9.5, 10, 9.625, 10.125], "rotation": 90, "texture": "#0"},
				"up": {"uv": [13.5, 15, 13.75, 15.5], "rotation": 90, "texture": "#0"},
				"down": {"uv": [9.25, 10.75, 9.375, 10.875], "rotation": 90, "texture": "#0"}
			}
		},
		{
			"from": [8.545, 12.046, 1.84],
			"to": [8.645, 12.746, 2.328],
			"rotation": {"angle": 0, "axis": "y", "origin": [8.425, 12.558, 1.984]},
			"faces": {
				"north": {"uv": [9.375, 10.25, 9.5, 10.375], "rotation": 90, "texture": "#0"},
				"east": {"uv": [8.875, 10.25, 9, 10.375], "rotation": 90, "texture": "#0"},
				"south": {"uv": [8.625, 10.25, 8.75, 10.375], "rotation": 90, "texture": "#0"},
				"west": {"uv": [8.75, 10.5, 8.875, 10.625], "rotation": 90, "texture": "#0"},
				"up": {"uv": [13.5, 15, 13.75, 15.5], "rotation": 90, "texture": "#0"},
				"down": {"uv": [8.5, 10.375, 8.625, 10.5], "rotation": 90, "texture": "#0"}
			}
		},
		{
			"from": [8.11, 13.081, 1.84],
			"to": [8.54, 13.281, 2.328],
			"rotation": {"angle": 0, "axis": "y", "origin": [7.725, 13.558, 1.984]},
			"faces": {
				"north": {"uv": [8.75, 10.125, 8.875, 10.25], "rotation": 90, "texture": "#0"},
				"east": {"uv": [14.125, 9.625, 14.125, 9.75], "rotation": 90, "texture": "#0"},
				"south": {"uv": [13.5, 15, 13.75, 15.5], "rotation": 90, "texture": "#0"},
				"west": {"uv": [13.5, 15, 13.75, 15.5], "rotation": 90, "texture": "#0"},
				"up": {"uv": [9, 10, 9.125, 10.125], "rotation": 90, "texture": "#0"},
				"down": {"uv": [9.375, 10.125, 9.5, 10.25], "rotation": 90, "texture": "#0"}
			}
		},
		{
			"from": [7.805, 12.046, 1.84],
			"to": [8.805, 12.246, 2.328],
			"rotation": {"angle": 0, "axis": "y", "origin": [7.725, 12.558, 1.984]},
			"faces": {
				"north": {"uv": [9.375, 10.25, 9.5, 10.375], "rotation": 90, "texture": "#0"},
				"east": {"uv": [14.125, 9.625, 14.125, 9.75], "rotation": 90, "texture": "#0"},
				"south": {"uv": [8.5, 10.375, 8.625, 10.5], "rotation": 90, "texture": "#0"},
				"west": {"uv": [9, 10.375, 9.125, 10.5], "rotation": 90, "texture": "#0"},
				"up": {"uv": [9.125, 10, 9.25, 10.125], "rotation": 90, "texture": "#0"},
				"down": {"uv": [9.25, 10.75, 9.375, 10.875], "rotation": 90, "texture": "#0"}
			}
		},
		{
			"from": [7.805, 12.046, 1.84],
			"to": [8.105, 12.546, 2.328],
			"rotation": {"angle": 0, "axis": "y", "origin": [7.725, 12.558, 1.984]},
			"faces": {
				"north": {"uv": [9.375, 10.25, 9.5, 10.375], "rotation": 90, "texture": "#0"},
				"east": {"uv": [9.625, 10.5, 9.75, 10.625], "rotation": 90, "texture": "#0"},
				"south": {"uv": [9, 10, 9.125, 10.125], "rotation": 90, "texture": "#0"},
				"west": {"uv": [9, 10.375, 9.125, 10.5], "rotation": 90, "texture": "#0"},
				"up": {"uv": [13.875, 6.125, 14.125, 6.5], "rotation": 90, "texture": "#0"},
				"down": {"uv": [9.25, 10.75, 9.375, 10.875], "rotation": 90, "texture": "#0"}
			}
		},
		{
			"from": [8.545, 12.046, 1.84],
			"to": [8.845, 12.546, 2.328],
			"rotation": {"angle": 0, "axis": "y", "origin": [8.425, 12.558, 1.984]},
			"faces": {
				"north": {"uv": [9.375, 10.25, 9.5, 10.375], "rotation": 90, "texture": "#0"},
				"east": {"uv": [9.125, 10.375, 9.25, 10.5], "rotation": 90, "texture": "#0"},
				"south": {"uv": [9.375, 10.5, 9.5, 10.625], "rotation": 90, "texture": "#0"},
				"west": {"uv": [9.125, 10.125, 9.25, 10.25], "rotation": 90, "texture": "#0"},
				"up": {"uv": [13.875, 6.125, 14.125, 6.5], "rotation": 90, "texture": "#0"},
				"down": {"uv": [9.25, 10.75, 9.375, 10.875], "rotation": 90, "texture": "#0"}
			}
		},
		{
			"from": [7.925, 12.358, 1.84],
			"to": [8.125, 13.158, 2.328],
			"rotation": {"angle": -22.5, "axis": "z", "origin": [8.325, 12.758, 1.984]},
			"faces": {
				"north": {"uv": [9.125, 10.125, 9.25, 10.25], "rotation": 270, "texture": "#0"},
				"east": {"uv": [9.375, 10, 9.5, 10.125], "rotation": 270, "texture": "#0"},
				"south": {"uv": [9.375, 10.125, 9.5, 10.25], "rotation": 270, "texture": "#0"},
				"west": {"uv": [9, 10.375, 9.125, 10.5], "rotation": 270, "texture": "#0"},
				"up": {"uv": [13.875, 6.125, 14.125, 6.5], "rotation": 270, "texture": "#0"},
				"down": {"uv": [13.5, 15, 13.75, 15.5], "rotation": 270, "texture": "#0"}
			}
		},
		{
			"from": [8.074, 12.541, 3.07],
			"to": [8.576, 13.393, 4.72],
			"rotation": {"angle": 0, "axis": "y", "origin": [8.323, 14.41844, 2.016]},
			"faces": {
				"north": {"uv": [15.25, 15.125, 15.75, 15.625], "rotation": 90, "texture": "#0"},
				"east": {"uv": [5.75, 11.75, 5.875, 11.875], "texture": "#0"},
				"south": {"uv": [15.25, 15.125, 15.75, 15.625], "rotation": 270, "texture": "#0"},
				"west": {"uv": [5.75, 11.5, 5.875, 11.625], "rotation": 180, "texture": "#0"},
				"up": {"uv": [15.25, 15.125, 15.75, 15.625], "rotation": 270, "texture": "#0"},
				"down": {"uv": [15.25, 15.125, 15.75, 15.625], "rotation": 90, "texture": "#0"}
			}
		},
		{
			"from": [8.1356, 14.046, 4.52371],
			"to": [8.2116, 14.146, 9.31171],
			"rotation": {"angle": -22.5, "axis": "z", "origin": [8.381, 14.36768, 7.11771]},
			"faces": {
				"north": {"uv": [13.5, 15.5, 13.75, 15], "rotation": 270, "texture": "#0"},
				"east": {"uv": [13.5, 15.5, 13.75, 15], "rotation": 270, "texture": "#0"},
				"south": {"uv": [13.875, 4.75, 14.125, 5], "rotation": 270, "texture": "#0"},
				"west": {"uv": [13.875, 4.875, 14.125, 5.125], "rotation": 270, "texture": "#0"},
				"up": {"uv": [13.625, 4.625, 13.875, 5.125], "rotation": 270, "texture": "#0"},
				"down": {"uv": [13.75, 4.875, 14, 5.125], "rotation": 270, "texture": "#0"}
			}
		},
		{
			"from": [8.031, 13.226, 9.1],
			"to": [8.607, 14.126, 9.388],
			"rotation": {"angle": -22.5, "axis": "x", "origin": [8.319, 13.71768, 9.26771]},
			"faces": {
				"north": {"uv": [13.75, 4.625, 14, 5.125], "rotation": 270, "texture": "#0"},
				"east": {"uv": [14.125, 4.625, 14.375, 4.875], "rotation": 270, "texture": "#0"},
				"south": {"uv": [14.125, 4.875, 14.375, 5.125], "rotation": 270, "texture": "#0"},
				"west": {"uv": [13.875, 4.875, 14.125, 5.125], "rotation": 270, "texture": "#0"},
				"up": {"uv": [13.5, 15, 13.75, 15.5], "rotation": 270, "texture": "#0"},
				"down": {"uv": [13.75, 4.875, 14, 5.125], "rotation": 270, "texture": "#0"}
			}
		},
		{
			"from": [8.081, 13.26768, 4.52371],
			"to": [8.557, 14.26768, 9.31171],
			"rotation": {"angle": 0, "axis": "y", "origin": [8.319, 12.42168, 8.16771]},
			"faces": {
				"north": {"uv": [13.5, 15, 13.75, 15.5], "rotation": 270, "texture": "#0"},
				"east": {"uv": [14, 6.375, 14.25, 6.625], "rotation": 270, "texture": "#0"},
				"south": {"uv": [13.875, 4.75, 14.125, 5], "rotation": 270, "texture": "#0"},
				"west": {"uv": [14.125, 6.5, 14.375, 6.75], "rotation": 270, "texture": "#0"},
				"up": {"uv": [13.75, 4.75, 14, 5], "rotation": 270, "texture": "#0"},
				"down": {"uv": [13.75, 4.875, 14, 5.125], "rotation": 270, "texture": "#0"}
			}
		},
		{
			"from": [8.031, 13.26768, 4.42371],
			"to": [8.607, 13.86768, 7.11171],
			"rotation": {"angle": 0, "axis": "y", "origin": [8.319, 13.56768, 5.76771]},
			"faces": {
				"north": {"uv": [13.5, 15, 13.75, 15.5], "rotation": 270, "texture": "#0"},
				"east": {"uv": [14.125, 4.625, 14.375, 4.875], "rotation": 270, "texture": "#0"},
				"south": {"uv": [13.875, 4.625, 14.125, 5.125], "rotation": 270, "texture": "#0"},
				"west": {"uv": [13.875, 4.875, 14.125, 5.125], "rotation": 270, "texture": "#0"},
				"up": {"uv": [13.625, 4.5, 13.875, 5], "rotation": 270, "texture": "#0"},
				"down": {"uv": [13.75, 5, 14, 5.5], "rotation": 270, "texture": "#0"}
			}
		},
		{
			"from": [8.031, 13.26768, 9.02371],
			"to": [8.607, 13.86768, 9.31171],
			"rotation": {"angle": 0, "axis": "y", "origin": [8.319, 12.42168, 8.16771]},
			"faces": {
				"north": {"uv": [13.75, 4.625, 14, 5.125], "rotation": 270, "texture": "#0"},
				"east": {"uv": [14.125, 4.625, 14.375, 4.875], "rotation": 270, "texture": "#0"},
				"south": {"uv": [13.5, 15, 13.75, 15.5], "rotation": 270, "texture": "#0"},
				"west": {"uv": [13.875, 4.875, 14.125, 5.125], "rotation": 270, "texture": "#0"},
				"up": {"uv": [13.5, 15, 13.75, 15.5], "rotation": 270, "texture": "#0"},
				"down": {"uv": [13.75, 4.625, 14, 5.125], "rotation": 270, "texture": "#0"}
			}
		},
		{
			"from": [8.031, 13.56768, 4.52371],
			"to": [8.607, 14.16768, 9.31171],
			"rotation": {"angle": 0, "axis": "y", "origin": [8.319, 12.42168, 8.16771]},
			"faces": {
				"north": {"uv": [13.875, 4.625, 14.125, 5.125], "rotation": 270, "texture": "#0"},
				"east": {"uv": [14.125, 4.625, 14.375, 4.875], "rotation": 270, "texture": "#0"},
				"south": {"uv": [13.875, 4.75, 14.125, 5], "rotation": 270, "texture": "#0"},
				"west": {"uv": [13.875, 4.875, 14.125, 5.125], "rotation": 270, "texture": "#0"},
				"up": {"uv": [13.625, 4.625, 13.875, 5.125], "rotation": 270, "texture": "#0"},
				"down": {"uv": [13.75, 4.875, 14, 5.125], "rotation": 270, "texture": "#0"}
			}
		},
		{
			"from": [8.031, 13.26768, 4.52371],
			"to": [8.607, 13.49968, 9.31171],
			"rotation": {"angle": 0, "axis": "y", "origin": [8.319, 12.42168, 8.16771]},
			"faces": {
				"north": {"uv": [13.5, 15, 13.75, 15.5], "rotation": 270, "texture": "#0"},
				"east": {"uv": [14.125, 4.625, 14.375, 4.875], "rotation": 270, "texture": "#0"},
				"south": {"uv": [13.75, 4.75, 14, 5.25], "rotation": 270, "texture": "#0"},
				"west": {"uv": [13.875, 4.875, 14.125, 5.125], "rotation": 270, "texture": "#0"},
				"up": {"uv": [13.75, 4.75, 14, 5.25], "rotation": 270, "texture": "#0"},
				"down": {"uv": [13.75, 5, 13.875, 5.125], "rotation": 270, "texture": "#0"}
			}
		},
		{
			"from": [7.98, 13.36768, 6.62371],
			"to": [8.556, 13.56768, 6.82371],
			"rotation": {"angle": 0, "axis": "y", "origin": [8.319, 12.52168, 8.96771]},
			"faces": {
				"north": {"uv": [14.25, 6.5, 14.5, 7], "rotation": 270, "texture": "#0"},
				"east": {"uv": [14.125, 4.625, 14.375, 4.875], "rotation": 270, "texture": "#0"},
				"south": {"uv": [14.375, 6.125, 14.625, 6.625], "rotation": 270, "texture": "#0"},
				"west": {"uv": [14.125, 6.75, 14.375, 7], "rotation": 270, "texture": "#0"},
				"up": {"uv": [14.125, 6.375, 14.375, 6.875], "rotation": 270, "texture": "#0"},
				"down": {"uv": [14.375, 6.25, 14.5, 6.375], "rotation": 270, "texture": "#0"}
			}
		},
		{
			"from": [7.98, 13.506, 6.7],
			"to": [8.556, 13.706, 6.8],
			"rotation": {"angle": 0, "axis": "y", "origin": [8.319, 12.62168, 8.96771]},
			"faces": {
				"north": {"uv": [14.25, 6.5, 14.5, 7], "rotation": 270, "texture": "#0"},
				"east": {"uv": [14.125, 4.625, 14.375, 4.875], "rotation": 270, "texture": "#0"},
				"south": {"uv": [14.375, 6.125, 14.625, 6.625], "rotation": 270, "texture": "#0"},
				"west": {"uv": [14.125, 6.75, 14.375, 7], "rotation": 270, "texture": "#0"},
				"up": {"uv": [14.125, 6.375, 14.375, 6.875], "rotation": 270, "texture": "#0"},
				"down": {"uv": [13.75, 5, 13.875, 5.125], "rotation": 270, "texture": "#0"}
			}
		},
		{
			"from": [8.03, 13.406, 6.4],
			"to": [8.53, 13.481, 6.475],
			"rotation": {"angle": 0, "axis": "y", "origin": [8.319, 12.52168, 8.66771]},
			"faces": {
				"north": {"uv": [13.75, 4.5, 14, 5], "rotation": 270, "texture": "#0"},
				"east": {"uv": [14.125, 4.625, 14.375, 4.875], "rotation": 270, "texture": "#0"},
				"south": {"uv": [13.75, 4.75, 14, 5.25], "rotation": 270, "texture": "#0"},
				"west": {"uv": [8.625, 6.875, 8.875, 7.125], "rotation": 270, "texture": "#0"},
				"up": {"uv": [13.75, 4.75, 14, 5.25], "rotation": 270, "texture": "#0"},
				"down": {"uv": [13.75, 5, 13.875, 5.125], "rotation": 270, "texture": "#0"}
			}
		},
		{
			"from": [8.0815, 13.43968, 6.45171],
			"to": [8.5564, 14.62768, 8.88371],
			"rotation": {"angle": 22.5, "axis": "x", "origin": [8.319, 14.18368, 8.06771]},
			"faces": {
				"north": {"uv": [13.5, 15, 13.75, 15.5], "rotation": 90, "texture": "#0"},
				"east": {"uv": [14.125, 4.625, 14.375, 4.875], "texture": "#0"},
				"south": {"uv": [14, 4.875, 14.25, 5.375], "rotation": 270, "texture": "#0"},
				"west": {"uv": [13.75, 4.75, 14, 5], "rotation": 180, "texture": "#0"},
				"up": {"uv": [13.75, 4.75, 14, 5], "rotation": 270, "texture": "#0"},
				"down": {"uv": [13.75, 4.875, 14, 5.125], "rotation": 90, "texture": "#0"}
			}
		},
		{
			"from": [8.081, 13.196, 4.52371],
			"to": [8.557, 13.428, 9.31171],
			"rotation": {"angle": 0, "axis": "y", "origin": [8.319, 12.32168, 8.16771]},
			"faces": {
				"north": {"uv": [13.5, 15, 13.75, 15.5], "rotation": 270, "texture": "#0"},
				"east": {"uv": [14.125, 4.625, 14.375, 4.875], "rotation": 270, "texture": "#0"},
				"south": {"uv": [13.75, 4.75, 14, 5.25], "rotation": 270, "texture": "#0"},
				"west": {"uv": [13.875, 4.875, 14.125, 5.125], "rotation": 270, "texture": "#0"},
				"up": {"uv": [13.5, 15, 13.75, 15.5], "rotation": 270, "texture": "#0"},
				"down": {"uv": [14, 4.75, 14.25, 5], "rotation": 270, "texture": "#0"}
			}
		},
		{
			"from": [8.425, 14.036, 4.52371],
			"to": [8.501, 14.136, 9.31171],
			"rotation": {"angle": 22.5, "axis": "z", "origin": [8.219, 14.36768, 7.11771]},
			"faces": {
				"north": {"uv": [13.5, 15, 13.75, 15.5], "rotation": 270, "texture": "#0"},
				"east": {"uv": [13.75, 5, 14, 5.25], "rotation": 270, "texture": "#0"},
				"south": {"uv": [13.875, 4.75, 14.125, 5], "rotation": 270, "texture": "#0"},
				"west": {"uv": [13.875, 4.875, 14.125, 5.125], "rotation": 270, "texture": "#0"},
				"up": {"uv": [13.625, 4.625, 13.875, 5.125], "rotation": 270, "texture": "#0"},
				"down": {"uv": [13.75, 4.875, 14, 5.125], "rotation": 270, "texture": "#0"}
			}
		},
		{
			"from": [8.245, 14.62695, 8.10087],
			"to": [8.395, 14.80195, 8.42087],
			"rotation": {"angle": -45, "axis": "x", "origin": [8.32, 14.68495, 8.29487]},
			"faces": {
				"north": {"uv": [13.5, 15, 13.75, 15.5], "rotation": 270, "texture": "#0"},
				"east": {"uv": [14.375, 6.375, 14.625, 6.625], "rotation": 270, "texture": "#0"},
				"south": {"uv": [14.125, 6.375, 14.375, 6.875], "rotation": 270, "texture": "#0"},
				"west": {"uv": [14.25, 6.625, 14.5, 6.875], "rotation": 270, "texture": "#0"},
				"up": {"uv": [14.125, 6.375, 14.375, 6.875], "rotation": 270, "texture": "#0"},
				"down": {"uv": [14.125, 6.375, 14.375, 6.625], "rotation": 270, "texture": "#0"}
			}
		},
		{
			"from": [8.245, 14.771, 8.30087],
			"to": [8.395, 14.931, 8.68887],
			"rotation": {"angle": -22.5, "axis": "x", "origin": [8.32, 14.88495, 8.49487]},
			"faces": {
				"north": {"uv": [13.5, 15, 13.75, 15.5], "rotation": 270, "texture": "#0"},
				"east": {"uv": [14.375, 6.375, 14.625, 6.625], "rotation": 270, "texture": "#0"},
				"south": {"uv": [14.375, 6, 14.625, 6.5], "rotation": 270, "texture": "#0"},
				"west": {"uv": [14.25, 6.625, 14.5, 6.875], "rotation": 270, "texture": "#0"},
				"up": {"uv": [14.375, 6.375, 14.625, 6.875], "rotation": 270, "texture": "#0"},
				"down": {"uv": [14.125, 6.375, 14.375, 6.625], "rotation": 270, "texture": "#0"}
			}
		},
		{
			"from": [8.245, 14.796, 8.43],
			"to": [8.395, 14.856, 8.718],
			"rotation": {"angle": 0, "axis": "y", "origin": [8.32, 14.88495, 8.49487]},
			"faces": {
				"north": {"uv": [13.5, 15, 13.75, 15.5], "rotation": 270, "texture": "#0"},
				"east": {"uv": [14.375, 6.375, 14.625, 6.625], "rotation": 270, "texture": "#0"},
				"south": {"uv": [14.25, 6.375, 14.5, 6.875], "rotation": 270, "texture": "#0"},
				"west": {"uv": [14.25, 6.625, 14.5, 6.875], "rotation": 270, "texture": "#0"},
				"up": {"uv": [13.5, 15, 13.75, 15.5], "rotation": 270, "texture": "#0"},
				"down": {"uv": [14.125, 6.375, 14.375, 6.625], "rotation": 270, "texture": "#0"}
			}
		},
		{
			"from": [8.125, 14.076, 1.97],
			"to": [8.525, 15.476, 2.12],
			"rotation": {"angle": 0, "axis": "y", "origin": [8.323, 15.51844, 2.016]},
			"faces": {
				"north": {"uv": [13.625, 5, 13.875, 5.25], "rotation": 90, "texture": "#0"},
				"east": {"uv": [13.875, 5, 14.125, 5.25], "texture": "#0"},
				"south": {"uv": [15.25, 15.125, 15.75, 15.625], "rotation": 270, "texture": "#0"},
				"west": {"uv": [13.625, 4.75, 14.125, 5.25], "rotation": 180, "texture": "#0"},
				"up": {"uv": [14, 5, 14.25, 5.25], "rotation": 270, "texture": "#0"},
				"down": {"uv": [15.25, 15.125, 15.75, 15.625], "rotation": 90, "texture": "#0"}
			}
		},
		{
			"from": [8.18, 14.606, 1.969],
			"to": [8.469, 14.956, 2.119],
			"rotation": {"angle": 0, "axis": "y", "origin": [8.323, 15.51844, 2.016]},
			"faces": {
				"north": {"uv": [7.375, 11.75, 7.625, 12], "rotation": 90, "texture": "#0"},
				"east": {"uv": [13.875, 5, 14.125, 5.25], "texture": "#0"},
				"south": {"uv": [15.25, 15.125, 15.75, 15.625], "rotation": 270, "texture": "#0"},
				"west": {"uv": [13.625, 4.75, 14.125, 5.25], "rotation": 180, "texture": "#0"},
				"up": {"uv": [14, 5, 14.25, 5.25], "rotation": 270, "texture": "#0"},
				"down": {"uv": [15.25, 15.125, 15.75, 15.625], "rotation": 90, "texture": "#0"}
			}
		},
		{
			"from": [8.075, 13.741, 1.97],
			"to": [8.575, 14.701, 4.72],
			"rotation": {"angle": 0, "axis": "y", "origin": [8.323, 15.61844, 2.016]},
			"faces": {
				"north": {"uv": [13.625, 5, 13.875, 5.25], "rotation": 90, "texture": "#0"},
				"east": {"uv": [13.875, 5, 14.125, 5.25], "texture": "#0"},
				"south": {"uv": [15.25, 15.125, 15.75, 15.625], "rotation": 270, "texture": "#0"},
				"west": {"uv": [13.5, 5, 13.75, 5.25], "rotation": 180, "texture": "#0"},
				"up": {"uv": [13.75, 5, 14, 5.25], "rotation": 270, "texture": "#0"},
				"down": {"uv": [13.625, 5, 13.875, 5.25], "rotation": 90, "texture": "#0"}
			}
		},
		{
			"from": [8.075, 12.841, 1.97],
			"to": [8.575, 13.793, 3.22],
			"rotation": {"angle": 0, "axis": "y", "origin": [8.323, 14.41844, 2.016]},
			"faces": {
				"north": {"uv": [14.125, 5, 14.25, 5.125], "rotation": 90, "texture": "#0"},
				"east": {"uv": [13.875, 5, 14, 5.125], "rotation": 270, "texture": "#0"},
				"south": {"uv": [15.25, 15.125, 15.75, 15.625], "rotation": 270, "texture": "#0"},
				"west": {"uv": [13.75, 5, 13.875, 5.125], "rotation": 180, "texture": "#0"},
				"up": {"uv": [13.875, 5, 14, 5], "rotation": 270, "texture": "#0"},
				"down": {"uv": [15.25, 15.125, 15.75, 15.625], "rotation": 90, "texture": "#0"}
			}
		},
		{
			"from": [8.075, 12.241, 1.969],
			"to": [8.575, 13.193, 3.219],
			"rotation": {"angle": 0, "axis": "y", "origin": [8.323, 14.41844, 2.016]},
			"faces": {
				"north": {"uv": [14.25, 6.375, 14.75, 6.875], "rotation": 90, "texture": "#0"},
				"east": {"uv": [14, 4.75, 14.125, 5], "rotation": 270, "texture": "#0"},
				"south": {"uv": [15.25, 15.125, 15.75, 15.625], "rotation": 270, "texture": "#0"},
				"west": {"uv": [14.125, 4.75, 14.375, 5.125], "rotation": 180, "texture": "#0"},
				"up": {"uv": [15.25, 15.125, 15.75, 15.625], "rotation": 270, "texture": "#0"},
				"down": {"uv": [15.25, 15.125, 15.75, 15.625], "rotation": 90, "texture": "#0"}
			}
		},
		{
			"from": [8.221, 14.751, 5.082],
			"to": [8.581, 14.761, 5.99],
			"rotation": {"angle": 0, "axis": "y", "origin": [8.401, 14.756, 5.185]},
			"faces": {
				"north": {"uv": [2.375, 3.5, 2.375, 3.625], "rotation": 90, "texture": "#0"},
				"east": {"uv": [14, 4.875, 14, 5], "rotation": 270, "texture": "#0"},
				"south": {"uv": [2.375, 3.5, 2.375, 3.625], "rotation": 90, "texture": "#0"},
				"west": {"uv": [2.375, 3.5, 2.375, 3.625], "rotation": 90, "texture": "#0"},
				"up": {"uv": [2.375, 3.5, 2.375, 3.625], "rotation": 180, "texture": "#0"},
				"down": {"uv": [3.125, 13, 3.25, 13.125], "texture": "#0"}
			}
		},
		{
			"from": [8.221, 14.751, 3.882],
			"to": [8.581, 14.761, 4.79],
			"rotation": {"angle": 0, "axis": "y", "origin": [8.401, 14.756, 3.985]},
			"faces": {
				"north": {"uv": [2.375, 3.5, 2.375, 3.625], "rotation": 90, "texture": "#0"},
				"east": {"uv": [14, 4.875, 14, 5], "rotation": 270, "texture": "#0"},
				"south": {"uv": [2.375, 3.5, 2.375, 3.625], "rotation": 90, "texture": "#0"},
				"west": {"uv": [2.375, 3.5, 2.375, 3.625], "rotation": 90, "texture": "#0"},
				"up": {"uv": [2.375, 3.5, 2.375, 3.625], "rotation": 180, "texture": "#0"},
				"down": {"uv": [3.125, 13, 3.25, 13.125], "texture": "#0"}
			}
		},
		{
			"from": [8.221, 14.551, 4.782],
			"to": [8.581, 14.561, 5.09],
			"rotation": {"angle": 0, "axis": "y", "origin": [8.401, 14.556, 4.885]},
			"faces": {
				"north": {"uv": [2.375, 3.5, 2.375, 3.625], "rotation": 90, "texture": "#0"},
				"east": {"uv": [14, 4.875, 14, 5], "rotation": 270, "texture": "#0"},
				"south": {"uv": [2.375, 3.5, 2.375, 3.625], "rotation": 90, "texture": "#0"},
				"west": {"uv": [2.375, 3.5, 2.375, 3.625], "rotation": 90, "texture": "#0"},
				"up": {"uv": [2.375, 3.5, 2.375, 3.625], "rotation": 180, "texture": "#0"},
				"down": {"uv": [3.125, 13, 3.25, 13.125], "texture": "#0"}
			}
		},
		{
			"from": [8.221, 14.556, 5.08],
			"to": [8.581, 14.756, 5.09],
			"rotation": {"angle": 0, "axis": "y", "origin": [8.46768, 14.99847, 5.15]},
			"faces": {
				"north": {"uv": [2.375, 3.5, 2.375, 3.625], "texture": "#0"},
				"east": {"uv": [14, 4.875, 14, 5], "texture": "#0"},
				"south": {"uv": [3.125, 13, 3.25, 13.125], "texture": "#0"},
				"west": {"uv": [2.375, 3.5, 2.375, 3.625], "texture": "#0"},
				"up": {"uv": [2.375, 3.5, 2.375, 3.625], "rotation": 90, "texture": "#0"},
				"down": {"uv": [2.375, 3.5, 2.375, 3.625], "rotation": 270, "texture": "#0"}
			}
		},
		{
			"from": [8.221, 14.556, 4.78],
			"to": [8.581, 14.756, 4.79],
			"rotation": {"angle": 0, "axis": "y", "origin": [8.46768, 14.99847, 4.85]},
			"faces": {
				"north": {"uv": [2.375, 3.5, 2.375, 3.625], "texture": "#0"},
				"east": {"uv": [14, 4.875, 14, 5], "texture": "#0"},
				"south": {"uv": [3.125, 13, 3.25, 13.125], "texture": "#0"},
				"west": {"uv": [2.375, 3.5, 2.375, 3.625], "texture": "#0"},
				"up": {"uv": [2.375, 3.5, 2.375, 3.625], "rotation": 90, "texture": "#0"},
				"down": {"uv": [2.375, 3.5, 2.375, 3.625], "rotation": 270, "texture": "#0"}
			}
		},
		{
			"from": [8.127, 12.49968, 7.98771],
			"to": [8.511, 13.63168, 8.87571],
			"rotation": {"angle": 0, "axis": "y", "origin": [8.319, 11.55368, 8.23171]},
			"faces": {
				"north": {"uv": [13.5, 15, 13.75, 15.5], "rotation": 270, "texture": "#0"},
				"east": {"uv": [13.625, 5.125, 13.875, 5.375], "rotation": 270, "texture": "#0"},
				"south": {"uv": [13.75, 4.875, 14, 5.375], "rotation": 270, "texture": "#0"},
				"west": {"uv": [13.5, 4.75, 13.75, 5.25], "rotation": 270, "texture": "#0"},
				"up": {"uv": [13.5, 15, 13.75, 15.5], "rotation": 270, "texture": "#0"},
				"down": {"uv": [13.5, 15, 13.75, 15.5], "rotation": 270, "texture": "#0"}
			}
		},
		{
			"from": [8.127, 10.73968, 7.71571],
			"to": [8.511, 12.59968, 9.00371],
			"rotation": {"angle": -22.5, "axis": "x", "origin": [8.319, 12.32168, 8.35971]},
			"faces": {
				"north": {"uv": [13.5, 15, 13.75, 15.5], "rotation": 270, "texture": "#0"},
				"east": {"uv": [13.75, 4.5, 14, 5], "rotation": 270, "texture": "#0"},
				"south": {"uv": [14, 4.75, 14.25, 5.25], "rotation": 270, "texture": "#0"},
				"west": {"uv": [13.875, 4.5, 14.125, 5], "rotation": 270, "texture": "#0"},
				"up": {"uv": [13.5, 15, 13.75, 15.5], "rotation": 270, "texture": "#0"},
				"down": {"uv": [13.75, 4.625, 14, 5.125], "rotation": 270, "texture": "#0"}
			}
		},
		{
			"from": [8.127, 11.74597, 7.90945],
			"to": [8.511, 12.70197, 9.00545],
			"rotation": {"angle": -45, "axis": "x", "origin": [8.319, 12.22397, 8.36145]},
			"faces": {
				"north": {"uv": [13.5, 15, 13.75, 15.5], "rotation": 270, "texture": "#0"},
				"east": {"uv": [13.75, 4.75, 14, 5.25], "rotation": 270, "texture": "#0"},
				"south": {"uv": [13.75, 4.875, 14, 5.375], "rotation": 270, "texture": "#0"},
				"west": {"uv": [13.5, 4.75, 13.75, 5.25], "rotation": 270, "texture": "#0"},
				"up": {"uv": [13.5, 15, 13.75, 15.5], "rotation": 270, "texture": "#0"},
				"down": {"uv": [13.5, 15, 13.75, 15.5], "rotation": 270, "texture": "#0"}
			}
		},
		{
			"from": [8.127, 11.28368, 8.64371],
			"to": [8.511, 12.23968, 9.93171],
			"rotation": {"angle": -22.5, "axis": "x", "origin": [8.319, 10.33768, 9.28771]},
			"faces": {
				"north": {"uv": [13.5, 15, 13.75, 15.5], "rotation": 270, "texture": "#0"},
				"east": {"uv": [13.75, 4.75, 14, 5], "rotation": 270, "texture": "#0"},
				"south": {"uv": [13.75, 4.875, 14, 5.375], "rotation": 270, "texture": "#0"},
				"west": {"uv": [13.5, 4.75, 13.75, 5.25], "rotation": 270, "texture": "#0"},
				"up": {"uv": [13.5, 15, 13.75, 15.5], "rotation": 270, "texture": "#0"},
				"down": {"uv": [13.5, 15, 13.75, 15.5], "rotation": 270, "texture": "#0"}
			}
		},
		{
			"from": [8.127, 11.11012, 8.23267],
			"to": [8.511, 11.45812, 9.52067],
			"rotation": {"angle": 0, "axis": "y", "origin": [8.319, 9.55612, 8.87667]},
			"faces": {
				"north": {"uv": [13.5, 15, 13.75, 15.5], "rotation": 270, "texture": "#0"},
				"east": {"uv": [13.75, 4.625, 14, 5.125], "rotation": 270, "texture": "#0"},
				"south": {"uv": [13.75, 4.875, 14, 5.375], "rotation": 270, "texture": "#0"},
				"west": {"uv": [13.5, 4.75, 13.75, 5.25], "rotation": 270, "texture": "#0"},
				"up": {"uv": [13.5, 15, 13.75, 15.5], "rotation": 270, "texture": "#0"},
				"down": {"uv": [13.5, 15, 13.75, 15.5], "rotation": 270, "texture": "#0"}
			}
		},
		{
			"from": [8.031, 10.73968, 7.65171],
			"to": [8.607, 12.59968, 8.93971],
			"rotation": {"angle": -22.5, "axis": "x", "origin": [8.319, 12.32168, 8.29571]},
			"faces": {
				"north": {"uv": [13.75, 4.5, 14, 5], "rotation": 270, "texture": "#0"},
				"east": {"uv": [14, 4.75, 14.25, 5], "rotation": 270, "texture": "#0"},
				"south": {"uv": [14, 4.625, 14.25, 5.125], "rotation": 270, "texture": "#0"},
				"west": {"uv": [14, 5, 14.25, 5.25], "rotation": 270, "texture": "#0"},
				"up": {"uv": [13.75, 4.75, 14, 5.25], "rotation": 270, "texture": "#0"},
				"down": {"uv": [13.625, 4.75, 13.875, 5.25], "rotation": 270, "texture": "#0"}
			}
		},
		{
			"from": [8.031, 10.73968, 6.25171],
			"to": [8.607, 10.99968, 8.93971],
			"rotation": {"angle": -22.5, "axis": "x", "origin": [8.319, 12.32168, 8.29571]},
			"faces": {
				"north": {"uv": [13.625, 15, 13.875, 15.5], "rotation": 270, "texture": "#0"},
				"east": {"uv": [14, 4.75, 14.25, 5], "rotation": 270, "texture": "#0"},
				"south": {"uv": [14, 4.625, 14.25, 5.125], "rotation": 270, "texture": "#0"},
				"west": {"uv": [14, 5, 14.25, 5.25], "rotation": 270, "texture": "#0"},
				"up": {"uv": [13.75, 4.75, 14, 5], "rotation": 270, "texture": "#0"},
				"down": {"uv": [13.75, 4.625, 14, 5.125], "rotation": 270, "texture": "#0"}
			}
		},
		{
			"from": [7.98, 10.076, 6.22514],
			"to": [8.665, 10.336, 7.01314],
			"rotation": {"angle": 0, "axis": "y", "origin": [8.419, 10.306, 6.61914]},
			"faces": {
				"north": {"uv": [5.75, 11.75, 5.875, 11.875], "rotation": 270, "texture": "#0"},
				"east": {"uv": [5.75, 11.75, 5.875, 11.875], "rotation": 270, "texture": "#0"},
				"south": {"uv": [13.625, 15, 13.875, 15.5], "rotation": 270, "texture": "#0"},
				"west": {"uv": [5.75, 11.5, 5.875, 11.625], "rotation": 270, "texture": "#0"},
				"up": {"uv": [13.625, 15, 13.875, 15.5], "rotation": 270, "texture": "#0"},
				"down": {"uv": [5.75, 11.375, 5.875, 11.5], "rotation": 270, "texture": "#0"}
			}
		},
		{
			"from": [7.98, 10.156, 6.88],
			"to": [8.665, 10.621, 7.14],
			"rotation": {"angle": 22.5, "axis": "x", "origin": [8.3225, 10.206, 7.01914]},
			"faces": {
				"north": {"uv": [13.625, 15, 13.875, 15.5], "rotation": 90, "texture": "#0"},
				"east": {"uv": [5.75, 11.75, 5.875, 11.875], "texture": "#0"},
				"south": {"uv": [5.625, 11.5, 5.75, 11.625], "rotation": 270, "texture": "#0"},
				"west": {"uv": [5.75, 11.5, 5.875, 11.625], "rotation": 180, "texture": "#0"},
				"up": {"uv": [5.625, 11.375, 5.75, 11.5], "rotation": 270, "texture": "#0"},
				"down": {"uv": [5.75, 11.375, 5.875, 11.5], "rotation": 90, "texture": "#0"}
			}
		},
		{
			"from": [7.98, 10.156, 6.68],
			"to": [8.665, 10.621, 6.94],
			"rotation": {"angle": 22.5, "axis": "x", "origin": [8.3225, 10.206, 6.81914]},
			"faces": {
				"north": {"uv": [13.625, 15, 13.875, 15.5], "rotation": 90, "texture": "#0"},
				"east": {"uv": [5.75, 11.75, 5.875, 11.875], "texture": "#0"},
				"south": {"uv": [13.625, 15, 13.875, 15.5], "rotation": 270, "texture": "#0"},
				"west": {"uv": [5.75, 11.5, 5.875, 11.625], "rotation": 180, "texture": "#0"},
				"up": {"uv": [13.625, 15, 13.875, 15.5], "rotation": 270, "texture": "#0"},
				"down": {"uv": [13.625, 15, 13.875, 15.5], "rotation": 90, "texture": "#0"}
			}
		},
		{
			"from": [7.98, 10.036, 6.92],
			"to": [8.665, 10.201, 7.03],
			"rotation": {"angle": -22.5, "axis": "x", "origin": [8.3225, 10.27811, 6.88054]},
			"faces": {
				"north": {"uv": [6, 11.5, 6.25, 12], "rotation": 90, "texture": "#0"},
				"east": {"uv": [5.75, 11.75, 5.875, 11.875], "texture": "#0"},
				"south": {"uv": [13.625, 15, 13.875, 15.5], "rotation": 270, "texture": "#0"},
				"west": {"uv": [5.75, 11.5, 5.875, 11.625], "rotation": 180, "texture": "#0"},
				"up": {"uv": [13.625, 15, 13.875, 15.5], "rotation": 270, "texture": "#0"},
				"down": {"uv": [5.5, 11.375, 5.625, 11.5], "rotation": 90, "texture": "#0"}
			}
		},
		{
			"from": [7.98, 10.396, 6.22514],
			"to": [8.665, 12.056, 7.31314],
			"rotation": {"angle": -22.5, "axis": "x", "origin": [8.419, 10.406, 6.91914]},
			"faces": {
				"north": {"uv": [5.75, 11.75, 5.875, 11.875], "rotation": 270, "texture": "#0"},
				"east": {"uv": [5.75, 11.75, 5.875, 11.875], "rotation": 270, "texture": "#0"},
				"south": {"uv": [5.625, 11.5, 5.75, 11.625], "rotation": 270, "texture": "#0"},
				"west": {"uv": [5.75, 11.5, 5.875, 11.625], "rotation": 270, "texture": "#0"},
				"up": {"uv": [5.625, 11.375, 5.75, 11.5], "rotation": 270, "texture": "#0"},
				"down": {"uv": [5.75, 11.375, 5.875, 11.5], "rotation": 270, "texture": "#0"}
			}
		},
		{
			"from": [8.031, 12.04713, 7.69189],
			"to": [8.607, 12.62313, 8.27989],
			"rotation": {"angle": -45, "axis": "x", "origin": [8.319, 12.37713, 7.98589]},
			"faces": {
				"north": {"uv": [13.625, 15, 13.875, 15.5], "rotation": 270, "texture": "#0"},
				"east": {"uv": [14, 4.75, 14.25, 5], "rotation": 270, "texture": "#0"},
				"south": {"uv": [13.625, 15, 13.875, 15.5], "rotation": 270, "texture": "#0"},
				"west": {"uv": [14, 5, 14.25, 5.25], "rotation": 270, "texture": "#0"},
				"up": {"uv": [13.75, 4.75, 14, 5.25], "rotation": 270, "texture": "#0"},
				"down": {"uv": [13.625, 15, 13.875, 15.5], "rotation": 270, "texture": "#0"}
			}
		},
		{
			"from": [8.031, 10.68166, 8.07814],
			"to": [8.607, 11.57366, 8.40614],
			"rotation": {"angle": 0, "axis": "y", "origin": [8.319, 9.70366, 8.72214]},
			"faces": {
				"north": {"uv": [13.75, 4.5, 14, 5], "rotation": 270, "texture": "#0"},
				"east": {"uv": [14, 4.75, 14.25, 5], "rotation": 270, "texture": "#0"},
				"south": {"uv": [13.5, 15, 13.75, 15.5], "rotation": 270, "texture": "#0"},
				"west": {"uv": [14, 5, 14.25, 5.25], "rotation": 270, "texture": "#0"},
				"up": {"uv": [13.5, 15, 13.75, 15.5], "rotation": 270, "texture": "#0"},
				"down": {"uv": [13.5, 15, 13.75, 15.5], "rotation": 270, "texture": "#0"}
			}
		},
		{
			"from": [8.081, 10.88166, 9.07814],
			"to": [8.557, 11.17366, 9.40614],
			"rotation": {"angle": 22.5, "axis": "x", "origin": [8.319, 11.02766, 9.24214]},
			"faces": {
				"north": {"uv": [13.5, 15, 13.75, 15.5], "rotation": 270, "texture": "#0"},
				"east": {"uv": [14.5, 6.5, 14.75, 6.75], "rotation": 270, "texture": "#0"},
				"south": {"uv": [14.125, 6.5, 14.375, 6.75], "rotation": 270, "texture": "#0"},
				"west": {"uv": [14.375, 6.25, 14.625, 6.5], "rotation": 270, "texture": "#0"},
				"up": {"uv": [13.5, 15, 13.75, 15.5], "rotation": 270, "texture": "#0"},
				"down": {"uv": [14.125, 6.375, 14.375, 6.625], "rotation": 270, "texture": "#0"}
			}
		},
		{
			"from": [8.081, 10.48166, 8.07814],
			"to": [8.557, 10.77366, 8.40614],
			"rotation": {"angle": 22.5, "axis": "x", "origin": [8.319, 10.62766, 8.24214]},
			"faces": {
				"north": {"uv": [13.5, 15, 13.75, 15.5], "rotation": 270, "texture": "#0"},
				"east": {"uv": [14.5, 6.5, 14.75, 6.75], "rotation": 270, "texture": "#0"},
				"south": {"uv": [14.125, 6.5, 14.375, 6.75], "rotation": 270, "texture": "#0"},
				"west": {"uv": [14.375, 6.25, 14.625, 6.5], "rotation": 270, "texture": "#0"},
				"up": {"uv": [13.5, 15, 13.75, 15.5], "rotation": 270, "texture": "#0"},
				"down": {"uv": [14.125, 6.375, 14.375, 6.625], "rotation": 270, "texture": "#0"}
			}
		},
		{
			"from": [8.031, 11.25168, 8.57971],
			"to": [8.607, 12.20768, 9.86771],
			"rotation": {"angle": -22.5, "axis": "x", "origin": [8.319, 10.30568, 9.22371]},
			"faces": {
				"north": {"uv": [13.5, 15, 13.75, 15.5], "rotation": 270, "texture": "#0"},
				"east": {"uv": [14, 4.75, 14.25, 5], "rotation": 270, "texture": "#0"},
				"south": {"uv": [14, 4.625, 14.25, 5.125], "rotation": 270, "texture": "#0"},
				"west": {"uv": [14, 5, 14.25, 5.25], "rotation": 270, "texture": "#0"},
				"up": {"uv": [13.5, 15, 13.75, 15.5], "rotation": 270, "texture": "#0"},
				"down": {"uv": [13.5, 15, 13.75, 15.5], "rotation": 270, "texture": "#0"}
			}
		},
		{
			"from": [8.031, 11.71397, 7.84545],
			"to": [8.607, 12.66997, 8.94145],
			"rotation": {"angle": -45, "axis": "x", "origin": [8.319, 12.19197, 8.29745]},
			"faces": {
				"north": {"uv": [13.75, 4.5, 14, 5], "rotation": 270, "texture": "#0"},
				"east": {"uv": [14, 4.75, 14.25, 5], "rotation": 270, "texture": "#0"},
				"south": {"uv": [14, 4.625, 14.25, 5.125], "rotation": 270, "texture": "#0"},
				"west": {"uv": [14, 5, 14.25, 5.25], "rotation": 270, "texture": "#0"},
				"up": {"uv": [13.875, 4.75, 14.125, 5.25], "rotation": 270, "texture": "#0"},
				"down": {"uv": [13.5, 15, 13.75, 15.5], "rotation": 270, "texture": "#0"}
			}
		},
		{
			"from": [8.031, 12.46768, 7.92371],
			"to": [8.607, 13.29968, 8.81171],
			"rotation": {"angle": 0, "axis": "y", "origin": [8.319, 11.52168, 8.16771]},
			"faces": {
				"north": {"uv": [13.75, 4.5, 14, 5], "rotation": 270, "texture": "#0"},
				"east": {"uv": [14, 4.75, 14.25, 5], "rotation": 270, "texture": "#0"},
				"south": {"uv": [14, 4.625, 14.25, 5.125], "rotation": 270, "texture": "#0"},
				"west": {"uv": [14, 5, 14.25, 5.25], "rotation": 270, "texture": "#0"},
				"up": {"uv": [13.5, 15, 13.75, 15.5], "rotation": 270, "texture": "#0"},
				"down": {"uv": [13.5, 15, 13.75, 15.5], "rotation": 270, "texture": "#0"}
			}
		},
		{
			"from": [8.031, 11.07812, 8.16867],
			"to": [8.607, 11.42612, 9.45667],
			"rotation": {"angle": 0, "axis": "y", "origin": [8.319, 9.52412, 8.81267]},
			"faces": {
				"north": {"uv": [13.5, 15, 13.75, 15.5], "rotation": 270, "texture": "#0"},
				"east": {"uv": [14, 4.75, 14.25, 5], "rotation": 270, "texture": "#0"},
				"south": {"uv": [14, 4.625, 14.25, 5.125], "rotation": 270, "texture": "#0"},
				"west": {"uv": [14, 5, 14.25, 5.25], "rotation": 270, "texture": "#0"},
				"up": {"uv": [13.5, 15, 13.75, 15.5], "rotation": 270, "texture": "#0"},
				"down": {"uv": [13.875, 4.875, 14.125, 5.375], "rotation": 270, "texture": "#0"}
			}
		},
		{
			"from": [8.031, 12.84713, 7.69189],
			"to": [8.607, 13.62313, 7.97989],
			"rotation": {"angle": -45, "axis": "x", "origin": [8.319, 13.17713, 7.98589]},
			"faces": {
				"north": {"uv": [13.75, 4.5, 14, 5], "rotation": 270, "texture": "#0"},
				"east": {"uv": [14, 4.75, 14.25, 5], "rotation": 270, "texture": "#0"},
				"south": {"uv": [13.875, 4.625, 14.125, 5.125], "rotation": 270, "texture": "#0"},
				"west": {"uv": [14, 5, 14.25, 5.25], "rotation": 270, "texture": "#0"},
				"up": {"uv": [13.625, 15, 13.875, 15.5], "rotation": 270, "texture": "#0"},
				"down": {"uv": [13.625, 15, 13.875, 15.5], "rotation": 270, "texture": "#0"}
			}
		},
		{
			"from": [8.031, 12.84713, 7.99189],
			"to": [8.607, 13.62313, 8.27989],
			"rotation": {"angle": -45, "axis": "x", "origin": [8.319, 13.17713, 8.28589]},
			"faces": {
				"north": {"uv": [13.625, 15, 13.875, 15.5], "rotation": 270, "texture": "#0"},
				"east": {"uv": [14, 4.75, 14.25, 5], "rotation": 270, "texture": "#0"},
				"south": {"uv": [13.875, 4.625, 14.125, 5.125], "rotation": 270, "texture": "#0"},
				"west": {"uv": [14, 5, 14.25, 5.25], "rotation": 270, "texture": "#0"},
				"up": {"uv": [13.625, 15, 13.875, 15.5], "rotation": 270, "texture": "#0"},
				"down": {"uv": [13.625, 15, 13.875, 15.5], "rotation": 270, "texture": "#0"}
			}
		},
		{
			"from": [8.245, 12.29968, 7.62],
			"to": [8.395, 13.13168, 8.208],
			"rotation": {"angle": 0, "axis": "y", "origin": [8.419, 11.65368, 8.03171]},
			"faces": {
				"north": {"uv": [13.5, 15, 13.75, 15.5], "rotation": 270, "texture": "#0"},
				"east": {"uv": [14.5, 6.25, 14.75, 6.5], "rotation": 270, "texture": "#0"},
				"south": {"uv": [13.5, 15, 13.75, 15.5], "rotation": 270, "texture": "#0"},
				"west": {"uv": [14.25, 6.625, 14.5, 6.875], "rotation": 270, "texture": "#0"},
				"up": {"uv": [13.5, 15, 13.75, 15.5], "rotation": 270, "texture": "#0"},
				"down": {"uv": [13.5, 15, 13.75, 15.5], "rotation": 270, "texture": "#0"}
			}
		},
		{
			"from": [8.245, 12.19968, 7.48],
			"to": [8.395, 12.71568, 8.068],
			"rotation": {"angle": 22.5, "axis": "x", "origin": [8.32, 12.40768, 7.814]},
			"faces": {
				"north": {"uv": [14.125, 6.375, 14.375, 6.875], "rotation": 270, "texture": "#0"},
				"east": {"uv": [14.5, 6.25, 14.75, 6.5], "rotation": 270, "texture": "#0"},
				"south": {"uv": [13.5, 15, 13.75, 15.5], "rotation": 270, "texture": "#0"},
				"west": {"uv": [14.25, 6.625, 14.5, 6.875], "rotation": 270, "texture": "#0"},
				"up": {"uv": [13.5, 15, 13.75, 15.5], "rotation": 270, "texture": "#0"},
				"down": {"uv": [14.375, 6.25, 14.625, 6.75], "rotation": 270, "texture": "#0"}
			}
		},
		{
			"from": [8.245, 12.71368, 7.506],
			"to": [8.395, 13.40168, 7.922],
			"rotation": {"angle": -22.5, "axis": "x", "origin": [8.32, 13.00768, 7.714]},
			"faces": {
				"north": {"uv": [14.25, 6.125, 14.5, 6.625], "rotation": 90, "texture": "#0"},
				"east": {"uv": [14.5, 6.25, 14.75, 6.5], "rotation": 180, "texture": "#0"},
				"south": {"uv": [13.5, 15, 13.75, 15.5], "rotation": 270, "texture": "#0"},
				"west": {"uv": [14.25, 6.625, 14.5, 6.875], "texture": "#0"},
				"up": {"uv": [13.5, 15, 13.75, 15.5], "rotation": 90, "texture": "#0"},
				"down": {"uv": [13.5, 5.125, 13.75, 5.375], "rotation": 270, "texture": "#0"}
			}
		},
		{
			"from": [8.245, 14.56141, 7.72761],
			"to": [8.395, 14.77741, 8.31561],
			"rotation": {"angle": 22.5, "axis": "x", "origin": [8.32, 14.66941, 8.02161]},
			"faces": {
				"north": {"uv": [14.125, 6.125, 14.375, 6.625], "rotation": 270, "texture": "#0"},
				"east": {"uv": [14.375, 6.375, 14.625, 6.625], "rotation": 270, "texture": "#0"},
				"south": {"uv": [14.125, 6.5, 14.375, 6.75], "rotation": 270, "texture": "#0"},
				"west": {"uv": [14.25, 6.625, 14.5, 6.875], "rotation": 270, "texture": "#0"},
				"up": {"uv": [14.375, 6.375, 14.625, 6.875], "rotation": 270, "texture": "#0"},
				"down": {"uv": [14.125, 6.375, 14.375, 6.625], "rotation": 270, "texture": "#0"}
			}
		},
		{
			"from": [8.245, 15.46141, 1.97],
			"to": [8.395, 15.77741, 2.058],
			"rotation": {"angle": 0, "axis": "y", "origin": [8.32, 15.66941, 2.22161]},
			"faces": {
				"north": {"uv": [5.75, 11.5, 5.875, 11.625], "rotation": 270, "texture": "#0"},
				"east": {"uv": [5.75, 11.75, 5.875, 11.875], "rotation": 270, "texture": "#0"},
				"south": {"uv": [13.5, 15, 13.75, 15.5], "rotation": 270, "texture": "#0"},
				"west": {"uv": [6, 11.875, 6.125, 12], "rotation": 270, "texture": "#0"},
				"up": {"uv": [14.125, 9.75, 14.375, 10], "rotation": 270, "texture": "#0"},
				"down": {"uv": [13.5, 15, 13.75, 15.5], "rotation": 270, "texture": "#0"}
			}
		},
		{
			"from": [8.045, 15.46141, 6.97],
			"to": [8.195, 15.77741, 7.058],
			"rotation": {"angle": 0, "axis": "y", "origin": [8.12, 15.66941, 7.22161]},
			"faces": {
				"north": {"uv": [5.875, 11.75, 6.125, 11.875], "rotation": 270, "texture": "#0"},
				"east": {"uv": [5.75, 11.75, 5.875, 11.875], "rotation": 270, "texture": "#0"},
				"south": {"uv": [5.875, 11.75, 6, 11.875], "rotation": 270, "texture": "#0"},
				"west": {"uv": [6, 11.875, 6.125, 12], "rotation": 270, "texture": "#0"},
				"up": {"uv": [5.75, 11.5, 6, 12], "rotation": 270, "texture": "#0"},
				"down": {"uv": [13.5, 15, 13.75, 15.5], "rotation": 270, "texture": "#0"}
			}
		},
		{
			"from": [8.445, 15.46141, 6.97],
			"to": [8.595, 15.77741, 7.058],
			"rotation": {"angle": 0, "axis": "y", "origin": [8.52, 15.66941, 7.22161]},
			"faces": {
				"north": {"uv": [5.875, 11.75, 6.125, 11.875], "rotation": 270, "texture": "#0"},
				"east": {"uv": [5.75, 11.75, 5.875, 11.875], "rotation": 270, "texture": "#0"},
				"south": {"uv": [5.875, 11.75, 6, 11.875], "rotation": 270, "texture": "#0"},
				"west": {"uv": [6, 11.875, 6.125, 12], "rotation": 270, "texture": "#0"},
				"up": {"uv": [5.75, 11.5, 6, 12], "rotation": 270, "texture": "#0"},
				"down": {"uv": [13.5, 15, 13.75, 15.5], "rotation": 270, "texture": "#0"}
			}
		},
		{
			"from": [8.245, 15.46141, 1.97],
			"to": [8.395, 15.67741, 2.158],
			"rotation": {"angle": 0, "axis": "y", "origin": [8.32, 15.56941, 2.32161]},
			"faces": {
				"north": {"uv": [5.75, 11.75, 5.875, 11.875], "rotation": 270, "texture": "#0"},
				"east": {"uv": [5.75, 11.75, 5.875, 11.875], "rotation": 270, "texture": "#0"},
				"south": {"uv": [13.5, 15, 13.75, 15.5], "rotation": 270, "texture": "#0"},
				"west": {"uv": [6, 11.875, 6.125, 12], "rotation": 270, "texture": "#0"},
				"up": {"uv": [13.5, 15, 13.75, 15.5], "rotation": 270, "texture": "#0"},
				"down": {"uv": [13.5, 15, 13.75, 15.5], "rotation": 270, "texture": "#0"}
			}
		},
		{
			"from": [8.245, 15.766, 1.975],
			"to": [8.395, 15.816, 2.025],
			"rotation": {"angle": 22.5, "axis": "x", "origin": [8.32, 15.78641, 1.995]},
			"faces": {
				"north": {"uv": [5.875, 11.75, 6, 11.875], "rotation": 90, "texture": "#0"},
				"east": {"uv": [5.75, 11.75, 5.875, 11.875], "rotation": 90, "texture": "#0"},
				"south": {"uv": [13.5, 15, 13.75, 15.5], "rotation": 90, "texture": "#0"},
				"west": {"uv": [6, 11.875, 6.125, 12], "rotation": 90, "texture": "#0"},
				"up": {"uv": [6, 11.5, 6.125, 11.625], "rotation": 90, "texture": "#0"},
				"down": {"uv": [13.5, 15, 13.75, 15.5], "rotation": 90, "texture": "#0"}
			}
		},
		{
			"from": [8.245, 15.406, 2.07],
			"to": [8.395, 15.622, 2.358],
			"rotation": {"angle": 0, "axis": "y", "origin": [8.32, 15.46941, 2.52161]},
			"faces": {
				"north": {"uv": [5.75, 11.75, 5.875, 11.875], "rotation": 270, "texture": "#0"},
				"east": {"uv": [5.75, 11.75, 5.875, 11.875], "rotation": 270, "texture": "#0"},
				"south": {"uv": [5.5, 11.75, 5.625, 11.875], "rotation": 270, "texture": "#0"},
				"west": {"uv": [6, 11.875, 6.125, 12], "rotation": 270, "texture": "#0"},
				"up": {"uv": [6, 11.5, 6.125, 11.625], "rotation": 270, "texture": "#0"},
				"down": {"uv": [13.5, 15, 13.75, 15.5], "rotation": 270, "texture": "#0"}
			}
		},
		{
			"from": [8.245, 15.566, 2.065],
			"to": [8.395, 15.821, 2.153],
			"rotation": {"angle": -45, "axis": "x", "origin": [8.32, 15.66941, 2.114]},
			"faces": {
				"north": {"uv": [5.75, 11.75, 5.875, 11.875], "rotation": 270, "texture": "#0"},
				"east": {"uv": [5.75, 11.75, 5.875, 11.875], "rotation": 270, "texture": "#0"},
				"south": {"uv": [5.5, 11.75, 5.625, 11.875], "rotation": 270, "texture": "#0"},
				"west": {"uv": [6, 11.875, 6.125, 12], "rotation": 270, "texture": "#0"},
				"up": {"uv": [6, 11.5, 6.125, 11.625], "rotation": 270, "texture": "#0"},
				"down": {"uv": [13.5, 15, 13.75, 15.5], "rotation": 270, "texture": "#0"}
			}
		},
		{
			"from": [8.031, 10.576, 7.40793],
			"to": [8.607, 10.776, 7.78793],
			"rotation": {"angle": 22.5, "axis": "x", "origin": [8.319, 10.61838, 7.59793]},
			"faces": {
				"north": {"uv": [13.5, 15, 13.75, 15.5], "rotation": 90, "texture": "#0"},
				"east": {"uv": [14, 4.75, 14.25, 5], "rotation": 90, "texture": "#0"},
				"south": {"uv": [13.5, 15, 13.75, 15.5], "rotation": 90, "texture": "#0"},
				"west": {"uv": [14, 5, 14.25, 5.25], "rotation": 90, "texture": "#0"},
				"up": {"uv": [13.75, 4.75, 14, 5], "rotation": 270, "texture": "#0"},
				"down": {"uv": [13.5, 15, 13.75, 15.5], "rotation": 270, "texture": "#0"}
			}
		},
		{
			"from": [8.031, 10.3338, 6.4],
			"to": [8.607, 11.7138, 7.3],
			"rotation": {"angle": -22.5, "axis": "x", "origin": [8.319, 11.32, 7.11123]},
			"faces": {
				"north": {"uv": [13.5, 15, 13.75, 15.5], "rotation": 90, "texture": "#0"},
				"east": {"uv": [14, 4.75, 14.25, 5], "texture": "#0"},
				"south": {"uv": [13.75, 4.75, 14, 5], "rotation": 270, "texture": "#0"},
				"west": {"uv": [14, 5, 14.25, 5.25], "rotation": 180, "texture": "#0"},
				"up": {"uv": [13.75, 4.75, 14, 5], "rotation": 270, "texture": "#0"},
				"down": {"uv": [13.5, 15, 13.75, 15.5], "rotation": 90, "texture": "#0"}
			}
		},
		{
			"from": [8.031, 11.53376, 6.59023],
			"to": [8.607, 12.32176, 6.99023],
			"rotation": {"angle": -45, "axis": "x", "origin": [8.319, 11.82, 6.81123]},
			"faces": {
				"north": {"uv": [13.5, 15, 13.75, 15.5], "rotation": 90, "texture": "#0"},
				"east": {"uv": [14, 4.75, 14.25, 5], "texture": "#0"},
				"south": {"uv": [13.75, 5.125, 14, 5.375], "rotation": 270, "texture": "#0"},
				"west": {"uv": [14, 5, 14.25, 5.25], "rotation": 180, "texture": "#0"},
				"up": {"uv": [13.75, 4.75, 14, 5], "rotation": 270, "texture": "#0"},
				"down": {"uv": [13.5, 15, 13.75, 15.5], "rotation": 90, "texture": "#0"}
			}
		},
		{
			"from": [7.98, 11.656, 5.65],
			"to": [8.665, 11.944, 5.75],
			"rotation": {"angle": 0, "axis": "y", "origin": [8.419, 11.74033, 5.72699]},
			"faces": {
				"north": {"uv": [5.75, 11.75, 5.875, 11.875], "rotation": 90, "texture": "#0"},
				"east": {"uv": [5.75, 11.75, 5.875, 11.875], "texture": "#0"},
				"south": {"uv": [13.5, 15, 13.75, 15.5], "rotation": 270, "texture": "#0"},
				"west": {"uv": [5.75, 11.5, 5.875, 11.625], "rotation": 180, "texture": "#0"},
				"up": {"uv": [13.5, 15, 13.75, 15.5], "rotation": 270, "texture": "#0"},
				"down": {"uv": [5.75, 11.375, 5.875, 11.5], "rotation": 90, "texture": "#0"}
			}
		},
		{
			"from": [8.031, 11.73376, 6.29023],
			"to": [8.607, 12.52176, 6.69023],
			"rotation": {"angle": -22.5, "axis": "x", "origin": [8.319, 12.02, 6.51123]},
			"faces": {
				"north": {"uv": [13.5, 15, 13.75, 15.5], "rotation": 90, "texture": "#0"},
				"east": {"uv": [14, 4.75, 14.25, 5], "texture": "#0"},
				"south": {"uv": [14, 4.875, 14.25, 5.125], "rotation": 270, "texture": "#0"},
				"west": {"uv": [13.75, 4.75, 14, 5.25], "rotation": 180, "texture": "#0"},
				"up": {"uv": [13.75, 4.75, 14, 5], "rotation": 270, "texture": "#0"},
				"down": {"uv": [13.5, 15, 13.75, 15.5], "rotation": 90, "texture": "#0"}
			}
		},
		{
			"from": [7.98, 11.53376, 5.59023],
			"to": [8.665, 12.32176, 6.39023],
			"rotation": {"angle": -22.5, "axis": "x", "origin": [8.419, 12.12, 5.81123]},
			"faces": {
				"north": {"uv": [5.75, 11.75, 5.875, 11.875], "rotation": 90, "texture": "#0"},
				"east": {"uv": [5.75, 11.75, 5.875, 11.875], "texture": "#0"},
				"south": {"uv": [13.5, 15, 13.75, 15.5], "rotation": 270, "texture": "#0"},
				"west": {"uv": [5.75, 11.5, 5.875, 11.625], "rotation": 180, "texture": "#0"},
				"up": {"uv": [13.5, 15, 13.75, 15.5], "rotation": 270, "texture": "#0"},
				"down": {"uv": [5.75, 11.375, 5.875, 11.5], "rotation": 90, "texture": "#0"}
			}
		},
		{
			"from": [7.98, 12.43376, 6.19023],
			"to": [8.665, 13.22176, 6.59023],
			"rotation": {"angle": 22.5, "axis": "x", "origin": [8.419, 12.72, 6.41123]},
			"faces": {
				"north": {"uv": [5.625, 11.625, 5.875, 12.125], "rotation": 90, "texture": "#0"},
				"east": {"uv": [5.75, 11.75, 5.875, 11.875], "texture": "#0"},
				"south": {"uv": [14, 5, 14.125, 5.125], "rotation": 270, "texture": "#0"},
				"west": {"uv": [5.75, 11.5, 5.875, 11.625], "rotation": 180, "texture": "#0"},
				"up": {"uv": [5.625, 11.375, 5.75, 11.5], "rotation": 270, "texture": "#0"},
				"down": {"uv": [13.5, 15, 13.75, 15.5], "rotation": 90, "texture": "#0"}
			}
		},
		{
			"from": [7.98, 11.9336, 6.13307],
			"to": [8.665, 12.7216, 6.53307],
			"rotation": {"angle": -22.5, "axis": "x", "origin": [8.3225, 12.3276, 6.33307]},
			"faces": {
				"north": {"uv": [13.5, 15, 13.75, 15.5], "rotation": 90, "texture": "#0"},
				"east": {"uv": [5.75, 11.75, 5.875, 11.875], "texture": "#0"},
				"south": {"uv": [5.625, 11.5, 5.75, 11.625], "rotation": 270, "texture": "#0"},
				"west": {"uv": [5.75, 11.5, 5.875, 11.625], "rotation": 180, "texture": "#0"},
				"up": {"uv": [5.625, 11.375, 5.75, 11.5], "rotation": 270, "texture": "#0"},
				"down": {"uv": [13.5, 15, 13.75, 15.5], "rotation": 90, "texture": "#0"}
			}
		},
		{
			"from": [8.031, 12.941, 6.325],
			"to": [8.607, 13.341, 6.813],
			"rotation": {"angle": -45, "axis": "x", "origin": [8.319, 13.12, 6.51123]},
			"faces": {
				"north": {"uv": [13.5, 15, 13.75, 15.5], "rotation": 270, "texture": "#0"},
				"east": {"uv": [14.125, 4.625, 14.375, 4.875], "rotation": 270, "texture": "#0"},
				"south": {"uv": [13.5, 15, 13.75, 15.5], "rotation": 270, "texture": "#0"},
				"west": {"uv": [13.875, 4.875, 14.125, 5.125], "rotation": 270, "texture": "#0"},
				"up": {"uv": [13.75, 4.75, 14, 5.25], "rotation": 270, "texture": "#0"},
				"down": {"uv": [13.5, 15, 13.75, 15.5], "rotation": 270, "texture": "#0"}
			}
		},
		{
			"from": [7.98, 12.141, 5.225],
			"to": [8.665, 12.641, 6.513],
			"rotation": {"angle": -22.5, "axis": "x", "origin": [8.419, 12.32, 5.71123]},
			"faces": {
				"north": {"uv": [13.5, 15, 13.75, 15.5], "rotation": 270, "texture": "#0"},
				"east": {"uv": [5.75, 11.75, 5.875, 11.875], "rotation": 270, "texture": "#0"},
				"south": {"uv": [13.875, 5, 14.125, 5.25], "rotation": 270, "texture": "#0"},
				"west": {"uv": [5.75, 11.5, 5.875, 11.625], "rotation": 270, "texture": "#0"},
				"up": {"uv": [13.5, 15, 13.75, 15.5], "rotation": 270, "texture": "#0"},
				"down": {"uv": [5.75, 11.375, 5.875, 11.5], "rotation": 270, "texture": "#0"}
			}
		},
		{
			"from": [7.98, 11.971, 3.64],
			"to": [8.665, 12.471, 5.328],
			"rotation": {"angle": 0, "axis": "y", "origin": [8.419, 12.22, 4.51123]},
			"faces": {
				"north": {"uv": [13.5, 15, 13.75, 15.5], "rotation": 270, "texture": "#0"},
				"east": {"uv": [5.75, 11.75, 5.875, 11.875], "rotation": 270, "texture": "#0"},
				"south": {"uv": [13.5, 15, 13.75, 15.5], "rotation": 270, "texture": "#0"},
				"west": {"uv": [5.75, 11.5, 5.875, 11.625], "rotation": 270, "texture": "#0"},
				"up": {"uv": [13.5, 15, 13.75, 15.5], "rotation": 270, "texture": "#0"},
				"down": {"uv": [5.75, 11.375, 5.875, 11.5], "rotation": 270, "texture": "#0"}
			}
		},
		{
			"from": [7.98, 12.158, 2.24],
			"to": [8.665, 12.958, 3.628],
			"rotation": {"angle": 0, "axis": "y", "origin": [8.419, 12.42, 2.41123]},
			"faces": {
				"north": {"uv": [5.75, 11.625, 5.875, 11.75], "rotation": 270, "texture": "#0"},
				"east": {"uv": [5.75, 11.75, 5.875, 11.875], "rotation": 270, "texture": "#0"},
				"south": {"uv": [5.75, 11.75, 5.875, 11.875], "rotation": 270, "texture": "#0"},
				"west": {"uv": [5.75, 11.5, 5.875, 11.625], "rotation": 270, "texture": "#0"},
				"up": {"uv": [5.625, 11.375, 5.75, 11.5], "rotation": 270, "texture": "#0"},
				"down": {"uv": [5.75, 11.375, 5.875, 11.5], "rotation": 270, "texture": "#0"}
			}
		},
		{
			"from": [8.50216, 12.47281, 1.84],
			"to": [8.70216, 13.27281, 2.328],
			"rotation": {"angle": 22.5, "axis": "z", "origin": [8.60216, 12.87281, 2.084]},
			"faces": {
				"north": {"uv": [9.5, 10.125, 9.75, 10.25], "rotation": 270, "texture": "#0"},
				"east": {"uv": [9.125, 10.375, 9.25, 10.5], "texture": "#0"},
				"south": {"uv": [9, 10.625, 9.125, 10.75], "texture": "#0"},
				"west": {"uv": [8.625, 10.125, 8.75, 10.25], "texture": "#0"},
				"up": {"uv": [13.875, 6.125, 14.125, 6.5], "texture": "#0"},
				"down": {"uv": [13.5, 15, 13.75, 15.5], "texture": "#0"}
			}
		},
		{
			"from": [7.98, 12.558, 4.14],
			"to": [8.665, 13.158, 4.728],
			"rotation": {"angle": 0, "axis": "y", "origin": [8.419, 12.92, 4.41123]},
			"faces": {
				"north": {"uv": [5.75, 11.625, 5.875, 11.75], "rotation": 270, "texture": "#0"},
				"east": {"uv": [5.75, 11.75, 5.875, 11.875], "rotation": 270, "texture": "#0"},
				"south": {"uv": [13.5, 15, 13.75, 15.5], "rotation": 270, "texture": "#0"},
				"west": {"uv": [5.75, 11.5, 5.875, 11.625], "rotation": 270, "texture": "#0"},
				"up": {"uv": [13.5, 15, 13.75, 15.5], "rotation": 270, "texture": "#0"},
				"down": {"uv": [13.5, 15, 13.75, 15.5], "rotation": 270, "texture": "#0"}
			}
		},
		{
			"from": [7.98, 12.264, 3.734],
			"to": [8.665, 12.752, 4.534],
			"rotation": {"angle": -22.5, "axis": "x", "origin": [8.3225, 12.508, 4.184]},
			"faces": {
				"north": {"uv": [5.75, 11.625, 5.875, 11.75], "rotation": 90, "texture": "#0"},
				"east": {"uv": [5.75, 11.75, 5.875, 11.875], "rotation": 180, "texture": "#0"},
				"south": {"uv": [13.5, 15, 13.75, 15.5], "rotation": 270, "texture": "#0"},
				"west": {"uv": [5.75, 11.5, 5.875, 11.625], "texture": "#0"},
				"up": {"uv": [5.75, 11.75, 5.875, 11.875], "rotation": 90, "texture": "#0"},
				"down": {"uv": [13.5, 15, 13.75, 15.5], "rotation": 270, "texture": "#0"}
			}
		},
		{
			"from": [7.98, 12.358, 5.64],
			"to": [8.665, 13.258, 6.428],
			"rotation": {"angle": 0, "axis": "y", "origin": [8.419, 12.62, 5.51123]},
			"faces": {
				"north": {"uv": [13.5, 15, 13.75, 15.5], "rotation": 270, "texture": "#0"},
				"east": {"uv": [5.75, 11.75, 5.875, 11.875], "rotation": 270, "texture": "#0"},
				"south": {"uv": [13.5, 15, 13.75, 15.5], "rotation": 270, "texture": "#0"},
				"west": {"uv": [5.75, 11.5, 5.875, 11.625], "rotation": 270, "texture": "#0"},
				"up": {"uv": [5.625, 11.375, 5.75, 11.5], "rotation": 270, "texture": "#0"},
				"down": {"uv": [13.5, 15, 13.75, 15.5], "rotation": 270, "texture": "#0"}
			}
		},
		{
			"from": [7.98, 12.458, 4.44],
			"to": [8.665, 13.358, 5.728],
			"rotation": {"angle": 0, "axis": "y", "origin": [8.419, 12.72, 4.81123]},
			"faces": {
				"north": {"uv": [13.5, 15, 13.75, 15.5], "rotation": 270, "texture": "#0"},
				"east": {"uv": [5.75, 11.75, 5.875, 11.875], "rotation": 270, "texture": "#0"},
				"south": {"uv": [5.75, 11.875, 5.875, 12], "rotation": 270, "texture": "#0"},
				"west": {"uv": [5.75, 11.5, 5.875, 11.625], "rotation": 270, "texture": "#0"},
				"up": {"uv": [5.625, 11.375, 5.75, 11.5], "rotation": 270, "texture": "#0"},
				"down": {"uv": [13.5, 15, 13.75, 15.5], "rotation": 270, "texture": "#0"}
			}
		},
		{
			"from": [7.98, 12.306, 3.94],
			"to": [8.665, 13.006, 4.528],
			"rotation": {"angle": 0, "axis": "y", "origin": [8.419, 12.62, 4.21123]},
			"faces": {
				"north": {"uv": [5.75, 11.625, 5.875, 11.75], "rotation": 270, "texture": "#0"},
				"east": {"uv": [5.75, 11.75, 5.875, 11.875], "rotation": 270, "texture": "#0"},
				"south": {"uv": [13.5, 15, 13.75, 15.5], "rotation": 270, "texture": "#0"},
				"west": {"uv": [5.75, 11.5, 5.875, 11.625], "rotation": 270, "texture": "#0"},
				"up": {"uv": [5.75, 11.75, 5.875, 11.875], "rotation": 270, "texture": "#0"},
				"down": {"uv": [13.5, 15, 13.75, 15.5], "rotation": 270, "texture": "#0"}
			}
		},
		{
			"from": [7.98, 13.158, 3.15],
			"to": [8.665, 14.158, 4.438],
			"rotation": {"angle": 0, "axis": "y", "origin": [8.419, 13.52, 3.51123]},
			"faces": {
				"north": {"uv": [5.75, 11.625, 5.875, 11.75], "rotation": 270, "texture": "#0"},
				"east": {"uv": [5.75, 11.75, 5.875, 11.875], "rotation": 270, "texture": "#0"},
				"south": {"uv": [6, 12, 6.125, 12.125], "rotation": 270, "texture": "#0"},
				"west": {"uv": [5.625, 11.75, 5.75, 11.875], "rotation": 270, "texture": "#0"},
				"up": {"uv": [5.625, 11.375, 5.75, 11.5], "rotation": 270, "texture": "#0"},
				"down": {"uv": [6, 11.75, 6.125, 11.875], "rotation": 270, "texture": "#0"}
			}
		},
		{
			"from": [7.979, 13.258, 4.15],
			"to": [8.6655, 13.458, 4.338],
			"rotation": {"angle": 45, "axis": "x", "origin": [8.32225, 13.358, 4.244]},
			"faces": {
				"north": {"uv": [13.5, 15, 13.75, 15.5], "rotation": 270, "texture": "#0"},
				"east": {"uv": [8, 12.125, 8.25, 12.625], "rotation": 270, "texture": "#0"},
				"south": {"uv": [13.5, 15, 13.75, 15.5], "rotation": 270, "texture": "#0"},
				"west": {"uv": [7.875, 12.375, 8.125, 12.875], "rotation": 270, "texture": "#0"},
				"up": {"uv": [13.5, 15, 13.75, 15.5], "rotation": 270, "texture": "#0"},
				"down": {"uv": [13.5, 15, 13.75, 15.5], "rotation": 270, "texture": "#0"}
			}
		},
		{
			"from": [7.979, 13.858, 4.15],
			"to": [8.6655, 14.058, 4.338],
			"rotation": {"angle": -45, "axis": "x", "origin": [8.32225, 13.958, 4.244]},
			"faces": {
				"north": {"uv": [13.5, 15, 13.75, 15.5], "rotation": 270, "texture": "#0"},
				"east": {"uv": [8, 12.125, 8.25, 12.625], "rotation": 270, "texture": "#0"},
				"south": {"uv": [13.5, 15, 13.75, 15.5], "rotation": 270, "texture": "#0"},
				"west": {"uv": [7.875, 12.375, 8.125, 12.875], "rotation": 270, "texture": "#0"},
				"up": {"uv": [13.5, 15, 13.75, 15.5], "rotation": 270, "texture": "#0"},
				"down": {"uv": [13.5, 15, 13.75, 15.5], "rotation": 270, "texture": "#0"}
			}
		},
		{
			"from": [7.979, 13.858, 3.25],
			"to": [8.6655, 14.058, 3.438],
			"rotation": {"angle": -45, "axis": "x", "origin": [8.32225, 13.958, 3.344]},
			"faces": {
				"north": {"uv": [13.5, 15, 13.75, 15.5], "rotation": 270, "texture": "#0"},
				"east": {"uv": [8, 12.125, 8.25, 12.625], "rotation": 270, "texture": "#0"},
				"south": {"uv": [13.5, 15, 13.75, 15.5], "rotation": 270, "texture": "#0"},
				"west": {"uv": [7.875, 12.375, 8.125, 12.875], "rotation": 270, "texture": "#0"},
				"up": {"uv": [13.5, 15, 13.75, 15.5], "rotation": 270, "texture": "#0"},
				"down": {"uv": [13.5, 15, 13.75, 15.5], "rotation": 270, "texture": "#0"}
			}
		},
		{
			"from": [7.979, 13.258, 3.25],
			"to": [8.6655, 13.458, 3.438],
			"rotation": {"angle": -45, "axis": "x", "origin": [8.32225, 13.358, 3.344]},
			"faces": {
				"north": {"uv": [13.5, 15, 13.75, 15.5], "rotation": 270, "texture": "#0"},
				"east": {"uv": [8, 12.125, 8.25, 12.625], "rotation": 270, "texture": "#0"},
				"south": {"uv": [13.5, 15, 13.75, 15.5], "rotation": 270, "texture": "#0"},
				"west": {"uv": [7.875, 12.375, 8.125, 12.875], "rotation": 270, "texture": "#0"},
				"up": {"uv": [13.5, 15, 13.75, 15.5], "rotation": 270, "texture": "#0"},
				"down": {"uv": [13.5, 15, 13.75, 15.5], "rotation": 270, "texture": "#0"}
			}
		},
		{
			"from": [8.08, 12.558, 3.15],
			"to": [8.565, 13.458, 4.438],
			"rotation": {"angle": 0, "axis": "y", "origin": [8.519, 12.82, 3.51123]},
			"faces": {
				"north": {"uv": [13.5, 15, 13.75, 15.5], "rotation": 270, "texture": "#0"},
				"east": {"uv": [13.5, 15, 13.75, 15.5], "rotation": 270, "texture": "#0"},
				"south": {"uv": [13.5, 15, 13.75, 15.5], "rotation": 270, "texture": "#0"},
				"west": {"uv": [13.5, 15, 13.75, 15.5], "rotation": 270, "texture": "#0"},
				"up": {"uv": [13.5, 15, 13.75, 15.5], "rotation": 270, "texture": "#0"},
				"down": {"uv": [13.5, 15, 13.75, 15.5], "rotation": 270, "texture": "#0"}
			}
		},
		{
			"from": [7.98, 12.051, 3.04],
			"to": [8.665, 12.651, 3.728],
			"rotation": {"angle": 22.5, "axis": "x", "origin": [8.419, 12.221, 3.484]},
			"faces": {
				"north": {"uv": [13.5, 15, 13.75, 15.5], "rotation": 270, "texture": "#0"},
				"east": {"uv": [5.75, 11.75, 5.875, 11.875], "rotation": 270, "texture": "#0"},
				"south": {"uv": [13.5, 15, 13.75, 15.5], "rotation": 270, "texture": "#0"},
				"west": {"uv": [5.75, 11.5, 5.875, 11.625], "rotation": 270, "texture": "#0"},
				"up": {"uv": [5.75, 11.75, 5.875, 11.875], "rotation": 270, "texture": "#0"},
				"down": {"uv": [5.75, 11.375, 5.875, 11.5], "rotation": 270, "texture": "#0"}
			}
		},
		{
			"from": [8.031, 13.041, 6.525],
			"to": [8.607, 13.441, 7.013],
			"rotation": {"angle": 0, "axis": "y", "origin": [8.319, 13.22, 6.71123]},
			"faces": {
				"north": {"uv": [13.5, 15, 13.75, 15.5], "rotation": 270, "texture": "#0"},
				"east": {"uv": [14.125, 4.625, 14.375, 4.875], "rotation": 270, "texture": "#0"},
				"south": {"uv": [13.5, 15, 13.75, 15.5], "rotation": 270, "texture": "#0"},
				"west": {"uv": [13.875, 4.875, 14.125, 5.125], "rotation": 270, "texture": "#0"},
				"up": {"uv": [13.5, 15, 13.75, 15.5], "rotation": 270, "texture": "#0"},
				"down": {"uv": [14, 4.75, 14.25, 5], "rotation": 270, "texture": "#0"}
			}
		},
		{
			"from": [8.031, 13.12, 6.81723],
			"to": [8.607, 13.52, 7.20523],
			"rotation": {"angle": -45, "axis": "x", "origin": [8.319, 13.32, 7.01123]},
			"faces": {
				"north": {"uv": [13.5, 15, 13.75, 15.5], "rotation": 270, "texture": "#0"},
				"east": {"uv": [14.125, 4.625, 14.375, 4.875], "rotation": 270, "texture": "#0"},
				"south": {"uv": [13.875, 4.625, 14.125, 5.125], "rotation": 270, "texture": "#0"},
				"west": {"uv": [13.875, 4.875, 14.125, 5.125], "rotation": 270, "texture": "#0"},
				"up": {"uv": [13.5, 15, 13.75, 15.5], "rotation": 270, "texture": "#0"},
				"down": {"uv": [14, 4.75, 14.25, 5], "rotation": 270, "texture": "#0"}
			}
		},
		{
			"from": [7.98, 10.276, 6.22],
			"to": [8.665, 10.636, 6.508],
			"rotation": {"angle": 22.5, "axis": "x", "origin": [8.419, 10.506, 6.26914]},
			"faces": {
				"north": {"uv": [5.75, 11.75, 5.875, 11.875], "rotation": 270, "texture": "#0"},
				"east": {"uv": [5.75, 11.75, 5.875, 11.875], "rotation": 270, "texture": "#0"},
				"south": {"uv": [13.625, 15, 13.875, 15.5], "rotation": 270, "texture": "#0"},
				"west": {"uv": [5.75, 11.5, 5.875, 11.625], "rotation": 270, "texture": "#0"},
				"up": {"uv": [13.625, 15, 13.875, 15.5], "rotation": 270, "texture": "#0"},
				"down": {"uv": [5.75, 11.375, 5.875, 11.5], "rotation": 270, "texture": "#0"}
			}
		},
		{
			"from": [7.98, 10.101, 6.19],
			"to": [8.665, 10.361, 6.478],
			"rotation": {"angle": -22.5, "axis": "x", "origin": [8.319, 10.206, 6.26914]},
			"faces": {
				"north": {"uv": [5.75, 11.75, 5.875, 11.875], "rotation": 270, "texture": "#0"},
				"east": {"uv": [5.75, 11.75, 5.875, 11.875], "rotation": 270, "texture": "#0"},
				"south": {"uv": [13.625, 15, 13.875, 15.5], "rotation": 270, "texture": "#0"},
				"west": {"uv": [5.75, 11.5, 5.875, 11.625], "rotation": 270, "texture": "#0"},
				"up": {"uv": [13.625, 15, 13.875, 15.5], "rotation": 270, "texture": "#0"},
				"down": {"uv": [5.75, 11.375, 5.875, 11.5], "rotation": 270, "texture": "#0"}
			}
		},
		{
			"from": [8.081, 10.68166, 8.57814],
			"to": [8.557, 10.97366, 8.90614],
			"rotation": {"angle": 22.5, "axis": "x", "origin": [8.319, 10.82766, 8.74214]},
			"faces": {
				"north": {"uv": [13.5, 15, 13.75, 15.5], "rotation": 270, "texture": "#0"},
				"east": {"uv": [14.5, 6.5, 14.75, 6.75], "rotation": 270, "texture": "#0"},
				"south": {"uv": [14.125, 6.5, 14.375, 6.75], "rotation": 270, "texture": "#0"},
				"west": {"uv": [14.375, 6.25, 14.625, 6.5], "rotation": 270, "texture": "#0"},
				"up": {"uv": [13.5, 15, 13.75, 15.5], "rotation": 270, "texture": "#0"},
				"down": {"uv": [14.125, 6.375, 14.375, 6.625], "rotation": 270, "texture": "#0"}
			}
		},
		{
			"from": [8.081, 10.28166, 7.57814],
			"to": [8.557, 10.57366, 7.90614],
			"rotation": {"angle": 22.5, "axis": "x", "origin": [8.319, 10.42766, 7.74214]},
			"faces": {
				"north": {"uv": [13.5, 15, 13.75, 15.5], "rotation": 270, "texture": "#0"},
				"east": {"uv": [14.5, 6.5, 14.75, 6.75], "rotation": 270, "texture": "#0"},
				"south": {"uv": [14.125, 6.5, 14.375, 6.75], "rotation": 270, "texture": "#0"},
				"west": {"uv": [14.375, 6.25, 14.625, 6.5], "rotation": 270, "texture": "#0"},
				"up": {"uv": [13.5, 15, 13.75, 15.5], "rotation": 270, "texture": "#0"},
				"down": {"uv": [14.125, 6.375, 14.375, 6.625], "rotation": 270, "texture": "#0"}
			}
		},
		{
			"from": [8.081, 10.08166, 7.07814],
			"to": [8.557, 10.37366, 7.40614],
			"rotation": {"angle": 22.5, "axis": "x", "origin": [8.319, 10.22766, 7.24214]},
			"faces": {
				"north": {"uv": [13.5, 15, 13.75, 15.5], "rotation": 270, "texture": "#0"},
				"east": {"uv": [14.5, 6.5, 14.75, 6.75], "rotation": 270, "texture": "#0"},
				"south": {"uv": [14.125, 6.5, 14.375, 6.75], "rotation": 270, "texture": "#0"},
				"west": {"uv": [14.375, 6.25, 14.625, 6.5], "rotation": 270, "texture": "#0"},
				"up": {"uv": [13.5, 15, 13.75, 15.5], "rotation": 270, "texture": "#0"},
				"down": {"uv": [14.125, 6.375, 14.375, 6.625], "rotation": 270, "texture": "#0"}
			}
		},
		{
			"from": [8.46442, 14.70786, 1.824],
			"to": [8.56442, 14.90786, 6.584],
			"rotation": {"angle": 45, "axis": "z", "origin": [8.323, 14.80786, -6.294]},
			"faces": {
				"north": {"uv": [3, 12.5, 3, 12.625], "rotation": 180, "texture": "#0"},
				"east": {"uv": [2.75, 12.625, 2.875, 12.75], "rotation": 180, "texture": "#0"},
				"south": {"uv": [2.375, 3.5, 2.375, 3.625], "rotation": 180, "texture": "#0"},
				"west": {"uv": [3, 12.75, 3, 12.875], "rotation": 180, "texture": "#0"},
				"up": {"uv": [3, 12.625, 3, 12.75], "rotation": 180, "texture": "#0"},
				"down": {"uv": [3.125, 9.75, 3.125, 9.875], "rotation": 180, "texture": "#0"}
			}
		},
		{
			"from": [8.08157, 14.70786, 1.824],
			"to": [8.18157, 14.90786, 6.584],
			"rotation": {"angle": 45, "axis": "z", "origin": [8.323, 14.80786, -6.294]},
			"faces": {
				"north": {"uv": [3, 12.5, 3, 12.625], "rotation": 180, "texture": "#0"},
				"east": {"uv": [2.75, 12.625, 2.875, 12.75], "rotation": 180, "texture": "#0"},
				"south": {"uv": [2.375, 3.5, 2.375, 3.625], "rotation": 180, "texture": "#0"},
				"west": {"uv": [3, 12.875, 3, 13], "rotation": 180, "texture": "#0"},
				"up": {"uv": [2.375, 3.5, 2.375, 3.625], "rotation": 180, "texture": "#0"},
				"down": {"uv": [3.125, 9.75, 3.125, 9.875], "rotation": 180, "texture": "#0"}
			}
		},
		{
			"from": [8.223, 14.56644, 1.824],
			"to": [8.423, 14.66644, 6.584],
			"rotation": {"angle": 0, "axis": "y", "origin": [8.06442, 14.52502, -20.044]},
			"faces": {
				"north": {"uv": [3, 12.5, 3, 12.625], "rotation": 270, "texture": "#0"},
				"east": {"uv": [2.75, 12.625, 2.875, 12.75], "rotation": 270, "texture": "#0"},
				"south": {"uv": [2.375, 3.5, 2.375, 3.625], "rotation": 270, "texture": "#0"},
				"west": {"uv": [2.375, 3.5, 2.375, 3.625], "rotation": 270, "texture": "#0"},
				"up": {"uv": [3, 12.625, 3, 12.75], "rotation": 270, "texture": "#0"},
				"down": {"uv": [3, 12.75, 3, 12.875], "rotation": 270, "texture": "#0"}
			}
		},
		{
			"from": [8.223, 14.94929, 1.824],
			"to": [8.423, 15.04929, 6.584],
			"rotation": {"angle": 0, "axis": "y", "origin": [8.06442, 14.90786, -20.044]},
			"faces": {
				"north": {"uv": [3, 12.5, 3, 12.625], "rotation": 270, "texture": "#0"},
				"east": {"uv": [2.75, 12.625, 2.875, 12.75], "rotation": 270, "texture": "#0"},
				"south": {"uv": [2.375, 3.5, 2.375, 3.625], "rotation": 270, "texture": "#0"},
				"west": {"uv": [2.375, 3.5, 2.375, 3.625], "rotation": 270, "texture": "#0"},
				"up": {"uv": [2.875, 12.75, 2.875, 12.875], "rotation": 270, "texture": "#0"},
				"down": {"uv": [3.125, 12.5, 3.125, 12.625], "rotation": 270, "texture": "#0"}
			}
		},
		{
			"from": [8.0816, 14.70786, 1.824],
			"to": [8.1816, 14.90786, 6.584],
			"rotation": {"angle": 0, "axis": "y", "origin": [8.13157, 14.80786, -7.294]},
			"faces": {
				"north": {"uv": [3, 12.5, 3, 12.625], "texture": "#0"},
				"east": {"uv": [2.75, 12.625, 2.875, 12.75], "texture": "#0"},
				"south": {"uv": [2.375, 3.5, 2.375, 3.625], "texture": "#0"},
				"west": {"uv": [2.75, 12.75, 2.75, 12.875], "texture": "#0"},
				"up": {"uv": [2.375, 3.5, 2.375, 3.625], "texture": "#0"},
				"down": {"uv": [3.125, 9.75, 3.125, 9.875], "texture": "#0"}
			}
		},
		{
			"from": [8.46442, 14.70786, 1.824],
			"to": [8.56442, 14.90786, 6.584],
			"rotation": {"angle": 0, "axis": "y", "origin": [8.51442, 14.80786, -7.294]},
			"faces": {
				"north": {"uv": [3, 12.5, 3, 12.625], "texture": "#0"},
				"east": {"uv": [2.75, 12.625, 2.875, 12.75], "texture": "#0"},
				"south": {"uv": [2.375, 3.5, 2.375, 3.625], "texture": "#0"},
				"west": {"uv": [2.875, 12.5, 2.875, 12.625], "texture": "#0"},
				"up": {"uv": [3, 12.625, 3, 12.75], "texture": "#0"},
				"down": {"uv": [3.125, 9.75, 3.125, 9.875], "texture": "#0"}
			}
		},
		{
			"from": [8.223, 14.56644, 1.824],
			"to": [8.423, 14.66644, 6.584],
			"rotation": {"angle": 45, "axis": "z", "origin": [8.323, 14.80786, -6.294]},
			"faces": {
				"north": {"uv": [3, 12.5, 3, 12.625], "rotation": 90, "texture": "#0"},
				"east": {"uv": [2.75, 12.625, 2.875, 12.75], "rotation": 90, "texture": "#0"},
				"south": {"uv": [2.375, 3.5, 2.375, 3.625], "rotation": 90, "texture": "#0"},
				"west": {"uv": [2.375, 3.5, 2.375, 3.625], "rotation": 90, "texture": "#0"},
				"up": {"uv": [3, 12.625, 3, 12.75], "rotation": 90, "texture": "#0"},
				"down": {"uv": [3, 12.625, 3, 12.75], "rotation": 90, "texture": "#0"}
			}
		},
		{
			"from": [8.223, 14.94929, 1.824],
			"to": [8.423, 15.04929, 6.584],
			"rotation": {"angle": 45, "axis": "z", "origin": [8.323, 14.80786, -6.294]},
			"faces": {
				"north": {"uv": [3, 12.5, 3, 12.625], "rotation": 90, "texture": "#0"},
				"east": {"uv": [2.75, 12.625, 2.875, 12.75], "rotation": 90, "texture": "#0"},
				"south": {"uv": [2.375, 3.5, 2.375, 3.625], "rotation": 90, "texture": "#0"},
				"west": {"uv": [2.375, 3.5, 2.375, 3.625], "rotation": 90, "texture": "#0"},
				"up": {"uv": [2.75, 12.875, 2.75, 13], "rotation": 90, "texture": "#0"},
				"down": {"uv": [2.875, 12.375, 2.875, 12.5], "rotation": 90, "texture": "#0"}
			}
		}
	],
	"display": {
		"thirdperson_righthand": {
			"translation": [-0.75, -6.5, 1.5],
			"scale": [1.28, 1.28, 1.28]
		},
		"thirdperson_lefthand": {
			"translation": [0, -6, 1.5],
			"scale": [1.28, 1.28, 1.28]
		},
		"firstperson_righthand": {
			"translation": [-5.5, 1, 6.75],
			"scale": [1, 1, 0.9]
		},
		"firstperson_lefthand": {
			"translation": [-5.5, 1, 6.75],
			"scale": [1, 1, 0.9]
		},
		"ground": {
			"rotation": [0, 0, 45],
			"scale": [0.88, 0.88, 0.88]
		},
		"gui": {
			"rotation": [20, 27, -14],
			"translation": [0.5, -11.5, 0],
			"scale": [1.95, 1.95, 2.59]
		},
		"head": {
			"rotation": [0, 122, 90],
			"translation": [-3.25, 7.25, -10.5],
			"scale": [1.95, 1.92, 1.91]
		},
		"fixed": {
			"rotation": [90, 45, -90],
			"translation": [-2.5, -6.5, -1.5],
			"scale": [1.28, 1.28, 1.28]
		}
	},
	"groups": [
		{
			"name": "gun",
			"origin": [8, 8, 8],
			"children": [
				{
					"name": "Picatos",
					"origin": [8, 8, 8],
					"children": [0, 1, 2, 3, 4, 5, 6, 7, 8]
				},
				{
					"name": "foreskin",
					"origin": [8, 8, 8],
					"children": [9, 10, 11, 12, 13, 14, 15, 16, 17, 18, 19, 20, 21, 22, 23, 24, 25, 26, 27, 28, 29, 30, 31, 32]
				},
				{
					"name": "corob",
					"origin": [8.319, 10.72768, 8.06771],
					"children": [33, 34, 35, 36, 37, 38, 39, 40, 41, 42, 43, 44, 45, 46, 47, 48, 49, 50, 51, 52, 53, 54, 55, 56, 57, 58]
				},
				{
					"name": "pistoletka",
					"origin": [8.319, 4.34012, 9.74067],
					"children": [59, 60, 61, 62, 63, 64, 65, 66, 67, 68, 69, 70, 71, 72, 73, 74, 75, 76, 77, 78, 79, 80, 81, 82, 83, 84, 85, 86, 87, 88, 89, 90, 91, 92, 93, 94, 95, 96, 97, 98, 99, 100, 101, 102, 103, 104, 105, 106, 107, 108, 109, 110, 111, 112, 113, 114, 115, 116, 117, 118, 119, 120, 121, 122, 123]
				},
				{
					"name": "stvol",
					"origin": [8.323, 9.52386, -3.098],
					"children": [124, 125, 126, 127, 128, 129, 130, 131]
				}
			]
		}
	]
}