{
    "textures": {
        "0": "gci:items/common/all_in_one",
        "1": "gci:items/common/mpz",
        "particle": "gci:items/common/all_in_one"
    },
    "elements": [
        {
            "from": [
                8.04,
                15.61351,
                2.84072
            ],
            "to": [
                8.6,
                15.82351,
                4.78672
            ],
            "rotation": {
                "angle": 0,
                "axis": "y",
                "origin": [
                    8.32,
                    15.75419,
                    3.8444
                ]
            },
            "faces": {
                "north": {
                    "uv": [
                        8.66667,
                        0.66667,
                        9.66667,
                        2
                    ],
                    "rotation": 180,
                    "texture": "#1"
                },
                "east": {
                    "uv": [
                        8.66667,
                        0.66667,
                        9.66667,
                        2
                    ],
                    "rotation": 180,
                    "texture": "#1"
                },
                "south": {
                    "uv": [
                        8.66667,
                        0.66667,
                        9.66667,
                        2
                    ],
                    "rotation": 180,
                    "texture": "#1"
                },
                "west": {
                    "uv": [
                        8.66667,
                        0.66667,
                        9.66667,
                        2
                    ],
                    "rotation": 180,
                    "texture": "#1"
                },
                "up": {
                    "uv": [
                        8.66667,
                        0.66667,
                        9.66667,
                        2
                    ],
                    "rotation": 180,
                    "texture": "#1"
                },
                "down": {
                    "uv": [
                        8.66667,
                        0.66667,
                        9.66667,
                        2
                    ],
                    "rotation": 180,
                    "texture": "#1"
                }
            }
        },
        {
            "from": [
                8.04,
                15.762,
                2.98921
            ],
            "to": [
                8.6,
                15.972,
                4.79521
            ],
            "rotation": {
                "angle": 0,
                "axis": "y",
                "origin": [
                    8.32,
                    15.75419,
                    3.8444
                ]
            },
            "faces": {
                "north": {
                    "uv": [
                        8.66667,
                        0.66667,
                        9.66667,
                        2
                    ],
                    "rotation": 180,
                    "texture": "#1"
                },
                "east": {
                    "uv": [
                        8.66667,
                        0.66667,
                        9.66667,
                        2
                    ],
                    "rotation": 180,
                    "texture": "#1"
                },
                "south": {
                    "uv": [
                        8.66667,
                        0.66667,
                        9.66667,
                        2
                    ],
                    "rotation": 180,
                    "texture": "#1"
                },
                "west": {
                    "uv": [
                        8.66667,
                        0.66667,
                        9.66667,
                        2
                    ],
                    "rotation": 180,
                    "texture": "#1"
                },
                "up": {
                    "uv": [
                        8.66667,
                        0.66667,
                        9.66667,
                        2
                    ],
                    "rotation": 180,
                    "texture": "#1"
                },
                "down": {
                    "uv": [
                        8.66667,
                        0.66667,
                        9.66667,
                        2
                    ],
                    "rotation": 180,
                    "texture": "#1"
                }
            }
        },
        {
            "from": [
                8.04,
                15.0935,
                3.08568
            ],
            "to": [
                8.6,
                15.3035,
                3.29568
            ],
            "rotation": {
                "angle": 45,
                "axis": "x",
                "origin": [
                    8.32,
                    15.75419,
                    3.8444
                ]
            },
            "faces": {
                "north": {
                    "uv": [
                        8.66667,
                        0.66667,
                        9.66667,
                        2
                    ],
                    "rotation": 180,
                    "texture": "#1"
                },
                "east": {
                    "uv": [
                        8.66667,
                        0.66667,
                        9.66667,
                        2
                    ],
                    "rotation": 180,
                    "texture": "#1"
                },
                "south": {
                    "uv": [
                        8.66667,
                        0.66667,
                        9.66667,
                        2
                    ],
                    "rotation": 180,
                    "texture": "#1"
                },
                "west": {
                    "uv": [
                        8.66667,
                        0.66667,
                        9.66667,
                        2
                    ],
                    "rotation": 180,
                    "texture": "#1"
                },
                "up": {
                    "uv": [
                        8.66667,
                        0.66667,
                        9.66667,
                        2
                    ],
                    "rotation": 180,
                    "texture": "#1"
                },
                "down": {
                    "uv": [
                        8.66667,
                        0.66667,
                        9.66667,
                        2
                    ],
                    "rotation": 180,
                    "texture": "#1"
                }
            }
        },
        {
            "from": [
                8.04,
                15.64428,
                4.0124
            ],
            "to": [
                8.054,
                16.41428,
                4.4184
            ],
            "rotation": {
                "angle": 0,
                "axis": "y",
                "origin": [
                    8.32,
                    15.75419,
                    3.8444
                ]
            },
            "faces": {
                "north": {
                    "uv": [
                        8.66667,
                        0.66667,
                        9.66667,
                        2
                    ],
                    "rotation": 180,
                    "texture": "#1"
                },
                "east": {
                    "uv": [
                        8.66667,
                        0.66667,
                        9.66667,
                        2
                    ],
                    "rotation": 180,
                    "texture": "#1"
                },
                "south": {
                    "uv": [
                        8.66667,
                        0.66667,
                        9.66667,
                        2
                    ],
                    "rotation": 180,
                    "texture": "#1"
                },
                "west": {
                    "uv": [
                        8.66667,
                        0.66667,
                        9.66667,
                        2
                    ],
                    "rotation": 180,
                    "texture": "#1"
                },
                "up": {
                    "uv": [
                        8.66667,
                        0.66667,
                        9.66667,
                        2
                    ],
                    "rotation": 180,
                    "texture": "#1"
                },
                "down": {
                    "uv": [
                        8.66667,
                        0.66667,
                        9.66667,
                        2
                    ],
                    "rotation": 180,
                    "texture": "#1"
                }
            }
        },
        {
            "from": [
                8.586,
                15.64428,
                4.0124
            ],
            "to": [
                8.6,
                16.41428,
                4.4184
            ],
            "rotation": {
                "angle": 0,
                "axis": "y",
                "origin": [
                    8.32,
                    15.75419,
                    3.8444
                ]
            },
            "faces": {
                "north": {
                    "uv": [
                        8.66667,
                        0.66667,
                        9.66667,
                        2
                    ],
                    "rotation": 180,
                    "texture": "#1"
                },
                "east": {
                    "uv": [
                        8.66667,
                        0.66667,
                        9.66667,
                        2
                    ],
                    "rotation": 180,
                    "texture": "#1"
                },
                "south": {
                    "uv": [
                        8.66667,
                        0.66667,
                        9.66667,
                        2
                    ],
                    "rotation": 180,
                    "texture": "#1"
                },
                "west": {
                    "uv": [
                        8.66667,
                        0.66667,
                        9.66667,
                        2
                    ],
                    "rotation": 180,
                    "texture": "#1"
                },
                "up": {
                    "uv": [
                        8.66667,
                        0.66667,
                        9.66667,
                        2
                    ],
                    "rotation": 180,
                    "texture": "#1"
                },
                "down": {
                    "uv": [
                        8.66667,
                        0.66667,
                        9.66667,
                        2
                    ],
                    "rotation": 180,
                    "texture": "#1"
                }
            }
        },
        {
            "from": [
                8.04,
                16.40028,
                4.0124
            ],
            "to": [
                8.586,
                16.41428,
                4.4184
            ],
            "rotation": {
                "angle": 0,
                "axis": "y",
                "origin": [
                    8.32,
                    15.75419,
                    3.8444
                ]
            },
            "faces": {
                "north": {
                    "uv": [
                        8.66667,
                        0.66667,
                        9.66667,
                        2
                    ],
                    "rotation": 180,
                    "texture": "#1"
                },
                "east": {
                    "uv": [
                        8.66667,
                        0.66667,
                        9.66667,
                        2
                    ],
                    "rotation": 180,
                    "texture": "#1"
                },
                "south": {
                    "uv": [
                        8.66667,
                        0.66667,
                        9.66667,
                        2
                    ],
                    "rotation": 180,
                    "texture": "#1"
                },
                "west": {
                    "uv": [
                        8.66667,
                        0.66667,
                        9.66667,
                        2
                    ],
                    "rotation": 180,
                    "texture": "#1"
                },
                "up": {
                    "uv": [
                        8.66667,
                        0.66667,
                        9.66667,
                        2
                    ],
                    "rotation": 180,
                    "texture": "#1"
                },
                "down": {
                    "uv": [
                        8.66667,
                        0.66667,
                        9.66667,
                        2
                    ],
                    "rotation": 180,
                    "texture": "#1"
                }
            }
        },
        {
            "from": [
                8.04,
                15.72982,
                3.46794
            ],
            "to": [
                8.054,
                15.86982,
                3.87394
            ],
            "rotation": {
                "angle": 0,
                "axis": "y",
                "origin": [
                    8.32,
                    15.75419,
                    3.8444
                ]
            },
            "faces": {
                "north": {
                    "uv": [
                        8.66667,
                        0.66667,
                        9.66667,
                        2
                    ],
                    "rotation": 180,
                    "texture": "#1"
                },
                "east": {
                    "uv": [
                        8.66667,
                        0.66667,
                        9.66667,
                        2
                    ],
                    "rotation": 180,
                    "texture": "#1"
                },
                "south": {
                    "uv": [
                        8.66667,
                        0.66667,
                        9.66667,
                        2
                    ],
                    "rotation": 180,
                    "texture": "#1"
                },
                "west": {
                    "uv": [
                        8.66667,
                        0.66667,
                        9.66667,
                        2
                    ],
                    "rotation": 180,
                    "texture": "#1"
                },
                "up": {
                    "uv": [
                        8.66667,
                        0.66667,
                        9.66667,
                        2
                    ],
                    "rotation": 180,
                    "texture": "#1"
                },
                "down": {
                    "uv": [
                        8.66667,
                        0.66667,
                        9.66667,
                        2
                    ],
                    "rotation": 180,
                    "texture": "#1"
                }
            }
        },
        {
            "from": [
                8.586,
                15.72982,
                3.46794
            ],
            "to": [
                8.6,
                15.86982,
                3.87394
            ],
            "rotation": {
                "angle": 0,
                "axis": "y",
                "origin": [
                    8.32,
                    15.75419,
                    3.8444
                ]
            },
            "faces": {
                "north": {
                    "uv": [
                        8.66667,
                        0.66667,
                        9.66667,
                        2
                    ],
                    "rotation": 180,
                    "texture": "#1"
                },
                "east": {
                    "uv": [
                        8.66667,
                        0.66667,
                        9.66667,
                        2
                    ],
                    "rotation": 180,
                    "texture": "#1"
                },
                "south": {
                    "uv": [
                        8.66667,
                        0.66667,
                        9.66667,
                        2
                    ],
                    "rotation": 180,
                    "texture": "#1"
                },
                "west": {
                    "uv": [
                        8.66667,
                        0.66667,
                        9.66667,
                        2
                    ],
                    "rotation": 180,
                    "texture": "#1"
                },
                "up": {
                    "uv": [
                        8.66667,
                        0.66667,
                        9.66667,
                        2
                    ],
                    "rotation": 180,
                    "texture": "#1"
                },
                "down": {
                    "uv": [
                        8.66667,
                        0.66667,
                        9.66667,
                        2
                    ],
                    "rotation": 180,
                    "texture": "#1"
                }
            }
        },
        {
            "from": [
                8.586,
                15.56975,
                3.49644
            ],
            "to": [
                8.6,
                16.33975,
                3.91644
            ],
            "rotation": {
                "angle": 45,
                "axis": "x",
                "origin": [
                    8.32,
                    15.75419,
                    3.8444
                ]
            },
            "faces": {
                "north": {
                    "uv": [
                        8.66667,
                        0.66667,
                        9.66667,
                        2
                    ],
                    "rotation": 180,
                    "texture": "#1"
                },
                "east": {
                    "uv": [
                        8.66667,
                        0.66667,
                        9.66667,
                        2
                    ],
                    "rotation": 180,
                    "texture": "#1"
                },
                "south": {
                    "uv": [
                        8.66667,
                        0.66667,
                        9.66667,
                        2
                    ],
                    "rotation": 180,
                    "texture": "#1"
                },
                "west": {
                    "uv": [
                        8.66667,
                        0.66667,
                        9.66667,
                        2
                    ],
                    "rotation": 180,
                    "texture": "#1"
                },
                "up": {
                    "uv": [
                        8.66667,
                        0.66667,
                        9.66667,
                        2
                    ],
                    "rotation": 180,
                    "texture": "#1"
                },
                "down": {
                    "uv": [
                        8.66667,
                        0.66667,
                        9.66667,
                        2
                    ],
                    "rotation": 180,
                    "texture": "#1"
                }
            }
        },
        {
            "from": [
                8.04,
                15.56974,
                3.49643
            ],
            "to": [
                8.054,
                16.33974,
                3.91643
            ],
            "rotation": {
                "angle": 45,
                "axis": "x",
                "origin": [
                    7.774,
                    15.75418,
                    3.84439
                ]
            },
            "faces": {
                "north": {
                    "uv": [
                        8.66667,
                        0.66667,
                        9.66667,
                        2
                    ],
                    "rotation": 180,
                    "texture": "#1"
                },
                "east": {
                    "uv": [
                        8.66667,
                        0.66667,
                        9.66667,
                        2
                    ],
                    "rotation": 180,
                    "texture": "#1"
                },
                "south": {
                    "uv": [
                        8.66667,
                        0.66667,
                        9.66667,
                        2
                    ],
                    "rotation": 180,
                    "texture": "#1"
                },
                "west": {
                    "uv": [
                        8.66667,
                        0.66667,
                        9.66667,
                        2
                    ],
                    "rotation": 180,
                    "texture": "#1"
                },
                "up": {
                    "uv": [
                        8.66667,
                        0.66667,
                        9.66667,
                        2
                    ],
                    "rotation": 180,
                    "texture": "#1"
                },
                "down": {
                    "uv": [
                        8.66667,
                        0.66667,
                        9.66667,
                        2
                    ],
                    "rotation": 180,
                    "texture": "#1"
                }
            }
        },
        {
            "from": [
                8.06563,
                15.52686,
                2.84072
            ],
            "to": [
                8.17763,
                15.63886,
                4.78672
            ],
            "rotation": {
                "angle": -22.5,
                "axis": "z",
                "origin": [
                    8.32,
                    15.75419,
                    3.8444
                ]
            },
            "faces": {
                "north": {
                    "uv": [
                        8.66667,
                        0.66667,
                        9.66667,
                        2
                    ],
                    "rotation": 90,
                    "texture": "#1"
                },
                "east": {
                    "uv": [
                        8.66667,
                        0.66667,
                        9.66667,
                        2
                    ],
                    "rotation": 90,
                    "texture": "#1"
                },
                "south": {
                    "uv": [
                        8.66667,
                        0.66667,
                        9.66667,
                        2
                    ],
                    "rotation": 90,
                    "texture": "#1"
                },
                "west": {
                    "uv": [
                        8.66667,
                        0.66667,
                        9.66667,
                        2
                    ],
                    "rotation": 90,
                    "texture": "#1"
                },
                "up": {
                    "uv": [
                        8.66667,
                        0.66667,
                        9.66667,
                        2
                    ],
                    "rotation": 90,
                    "texture": "#1"
                },
                "down": {
                    "uv": [
                        8.66667,
                        0.66667,
                        9.66667,
                        2
                    ],
                    "rotation": 90,
                    "texture": "#1"
                }
            }
        },
        {
            "from": [
                8.04,
                15.64151,
                2.84072
            ],
            "to": [
                8.6,
                15.75351,
                4.78672
            ],
            "rotation": {
                "angle": 0,
                "axis": "y",
                "origin": [
                    8.32,
                    15.75419,
                    3.8444
                ]
            },
            "faces": {
                "north": {
                    "uv": [
                        8.66667,
                        0.66667,
                        9.66667,
                        2
                    ],
                    "rotation": 180,
                    "texture": "#1"
                },
                "east": {
                    "uv": [
                        8.66667,
                        0.66667,
                        9.66667,
                        2
                    ],
                    "rotation": 180,
                    "texture": "#1"
                },
                "south": {
                    "uv": [
                        8.66667,
                        0.66667,
                        9.66667,
                        2
                    ],
                    "rotation": 180,
                    "texture": "#1"
                },
                "west": {
                    "uv": [
                        8.66667,
                        0.66667,
                        9.66667,
                        2
                    ],
                    "rotation": 180,
                    "texture": "#1"
                },
                "up": {
                    "uv": [
                        8.66667,
                        0.66667,
                        9.66667,
                        2
                    ],
                    "rotation": 180,
                    "texture": "#1"
                },
                "down": {
                    "uv": [
                        8.66667,
                        0.66667,
                        9.66667,
                        2
                    ],
                    "rotation": 180,
                    "texture": "#1"
                }
            }
        },
        {
            "from": [
                7.998,
                15.50151,
                2.84072
            ],
            "to": [
                8.642,
                15.64151,
                4.78672
            ],
            "rotation": {
                "angle": 0,
                "axis": "y",
                "origin": [
                    8.32,
                    15.75419,
                    3.8444
                ]
            },
            "faces": {
                "north": {
                    "uv": [
                        8.66667,
                        0.66667,
                        9.66667,
                        2
                    ],
                    "rotation": 180,
                    "texture": "#1"
                },
                "east": {
                    "uv": [
                        6,
                        0.66667,
                        7,
                        2
                    ],
                    "rotation": 180,
                    "texture": "#1"
                },
                "south": {
                    "uv": [
                        8.66667,
                        0.66667,
                        9.66667,
                        2
                    ],
                    "rotation": 180,
                    "texture": "#1"
                },
                "west": {
                    "uv": [
                        6,
                        0.66667,
                        7,
                        2
                    ],
                    "rotation": 180,
                    "texture": "#1"
                },
                "up": {
                    "uv": [
                        8.66667,
                        0.66667,
                        9.66667,
                        2
                    ],
                    "rotation": 180,
                    "texture": "#1"
                },
                "down": {
                    "uv": [
                        0.33333,
                        1,
                        1.33333,
                        2.33333
                    ],
                    "rotation": 180,
                    "texture": "#1"
                }
            }
        },
        {
            "from": [
                8.46237,
                15.52686,
                2.84072
            ],
            "to": [
                8.57437,
                15.63886,
                4.78672
            ],
            "rotation": {
                "angle": 22.5,
                "axis": "z",
                "origin": [
                    8.32,
                    15.75419,
                    3.8444
                ]
            },
            "faces": {
                "north": {
                    "uv": [
                        8.66667,
                        0.66667,
                        9.66667,
                        2
                    ],
                    "rotation": 90,
                    "texture": "#1"
                },
                "east": {
                    "uv": [
                        8.66667,
                        0.66667,
                        9.66667,
                        2
                    ],
                    "rotation": 90,
                    "texture": "#1"
                },
                "south": {
                    "uv": [
                        8.66667,
                        0.66667,
                        9.66667,
                        2
                    ],
                    "rotation": 90,
                    "texture": "#1"
                },
                "west": {
                    "uv": [
                        8.66667,
                        0.66667,
                        9.66667,
                        2
                    ],
                    "rotation": 90,
                    "texture": "#1"
                },
                "up": {
                    "uv": [
                        8.66667,
                        0.66667,
                        9.66667,
                        2
                    ],
                    "rotation": 90,
                    "texture": "#1"
                },
                "down": {
                    "uv": [
                        8.66667,
                        0.66667,
                        9.66667,
                        2
                    ],
                    "rotation": 90,
                    "texture": "#1"
                }
            }
        },
        {
            "from": [
                8.288,
                16.15271,
                4.19592
            ],
            "to": [
                8.366,
                16.23071,
                4.19592
            ],
            "rotation": {
                "angle": 0,
                "axis": "y",
                "origin": [
                    8.32,
                    15.75419,
                    3.8444
                ]
            },
            "faces": {
                "north": {
                    "uv": [
                        5.66667,
                        14.33333,
                        6.66667,
                        15.66667
                    ],
                    "rotation": 90,
                    "texture": "#1"
                },
                "east": {
                    "uv": [
                        5.66667,
                        14.33333,
                        6.66667,
                        15.66667
                    ],
                    "rotation": 90,
                    "texture": "#1"
                },
                "south": {
                    "uv": [
                        5.66667,
                        14.33333,
                        6.66667,
                        15.66667
                    ],
                    "rotation": 90,
                    "texture": "#1"
                },
                "west": {
                    "uv": [
                        5.66667,
                        14.33333,
                        6.66667,
                        15.66667
                    ],
                    "rotation": 90,
                    "texture": "#1"
                },
                "up": {
                    "uv": [
                        5.66667,
                        14.33333,
                        6.66667,
                        15.66667
                    ],
                    "rotation": 90,
                    "texture": "#1"
                },
                "down": {
                    "uv": [
                        5.66667,
                        14.33333,
                        6.66667,
                        15.66667
                    ],
                    "rotation": 90,
                    "texture": "#1"
                }
            }
        },
        {
            "from": [
                7.9,
                15.45405,
                4.38072
            ],
            "to": [
                8.74,
                15.56605,
                4.64672
            ],
            "rotation": {
                "angle": 0,
                "axis": "y",
                "origin": [
                    8.32,
                    15.75419,
                    3.8444
                ]
            },
            "faces": {
                "north": {
                    "uv": [
                        0.66667,
                        0.66667,
                        1.66667,
                        2
                    ],
                    "rotation": 180,
                    "texture": "#1"
                },
                "east": {
                    "uv": [
                        0.66667,
                        0.66667,
                        1.66667,
                        2
                    ],
                    "rotation": 180,
                    "texture": "#1"
                },
                "south": {
                    "uv": [
                        0.66667,
                        0.66667,
                        1.66667,
                        2
                    ],
                    "rotation": 180,
                    "texture": "#1"
                },
                "west": {
                    "uv": [
                        0.66667,
                        0.66667,
                        1.66667,
                        2
                    ],
                    "rotation": 180,
                    "texture": "#1"
                },
                "up": {
                    "uv": [
                        0.66667,
                        0.66667,
                        1.66667,
                        2
                    ],
                    "rotation": 180,
                    "texture": "#1"
                },
                "down": {
                    "uv": [
                        0.66667,
                        0.66667,
                        1.66667,
                        2
                    ],
                    "rotation": 180,
                    "texture": "#1"
                }
            }
        },
        {
            "from": [
                7.9,
                15.92183,
                4.43431
            ],
            "to": [
                8.74,
                16.18783,
                4.54631
            ],
            "rotation": {
                "angle": 45,
                "axis": "x",
                "origin": [
                    8.32,
                    15.75419,
                    3.8444
                ]
            },
            "faces": {
                "north": {
                    "uv": [
                        0.66667,
                        0.66667,
                        1.66667,
                        2
                    ],
                    "rotation": 90,
                    "texture": "#1"
                },
                "east": {
                    "uv": [
                        0.66667,
                        0.66667,
                        1.66667,
                        2
                    ],
                    "rotation": 90,
                    "texture": "#1"
                },
                "south": {
                    "uv": [
                        0.66667,
                        0.66667,
                        1.66667,
                        2
                    ],
                    "rotation": 90,
                    "texture": "#1"
                },
                "west": {
                    "uv": [
                        0.66667,
                        0.66667,
                        1.66667,
                        2
                    ],
                    "rotation": 90,
                    "texture": "#1"
                },
                "up": {
                    "uv": [
                        0.66667,
                        0.66667,
                        1.66667,
                        2
                    ],
                    "rotation": 90,
                    "texture": "#1"
                },
                "down": {
                    "uv": [
                        0.66667,
                        0.66667,
                        1.66667,
                        2
                    ],
                    "rotation": 90,
                    "texture": "#1"
                }
            }
        },
        {
            "from": [
                7.9,
                14.97527,
                4.08904
            ],
            "to": [
                8.74,
                15.24127,
                4.20104
            ],
            "rotation": {
                "angle": -45,
                "axis": "x",
                "origin": [
                    8.32,
                    15.75419,
                    3.8444
                ]
            },
            "faces": {
                "north": {
                    "uv": [
                        0.66667,
                        0.66667,
                        1.66667,
                        2
                    ],
                    "rotation": 90,
                    "texture": "#1"
                },
                "east": {
                    "uv": [
                        0.66667,
                        0.66667,
                        1.66667,
                        2
                    ],
                    "rotation": 90,
                    "texture": "#1"
                },
                "south": {
                    "uv": [
                        0.66667,
                        0.66667,
                        1.66667,
                        2
                    ],
                    "rotation": 90,
                    "texture": "#1"
                },
                "west": {
                    "uv": [
                        0.66667,
                        0.66667,
                        1.66667,
                        2
                    ],
                    "rotation": 90,
                    "texture": "#1"
                },
                "up": {
                    "uv": [
                        0.66667,
                        0.66667,
                        1.66667,
                        2
                    ],
                    "rotation": 90,
                    "texture": "#1"
                },
                "down": {
                    "uv": [
                        0.66667,
                        0.66667,
                        1.66667,
                        2
                    ],
                    "rotation": 90,
                    "texture": "#1"
                }
            }
        },
        {
            "from": [
                7.9,
                15.37705,
                4.45772
            ],
            "to": [
                8.74,
                15.64305,
                4.56972
            ],
            "rotation": {
                "angle": 0,
                "axis": "y",
                "origin": [
                    8.32,
                    15.75419,
                    3.8444
                ]
            },
            "faces": {
                "north": {
                    "uv": [
                        0.66667,
                        0.66667,
                        1.66667,
                        2
                    ],
                    "rotation": 90,
                    "texture": "#1"
                },
                "east": {
                    "uv": [
                        0.66667,
                        0.66667,
                        1.66667,
                        2
                    ],
                    "rotation": 90,
                    "texture": "#1"
                },
                "south": {
                    "uv": [
                        0.66667,
                        0.66667,
                        1.66667,
                        2
                    ],
                    "rotation": 90,
                    "texture": "#1"
                },
                "west": {
                    "uv": [
                        0.66667,
                        0.66667,
                        1.66667,
                        2
                    ],
                    "rotation": 90,
                    "texture": "#1"
                },
                "up": {
                    "uv": [
                        0.66667,
                        0.66667,
                        1.66667,
                        2
                    ],
                    "rotation": 90,
                    "texture": "#1"
                },
                "down": {
                    "uv": [
                        0.66667,
                        0.66667,
                        1.66667,
                        2
                    ],
                    "rotation": 90,
                    "texture": "#1"
                }
            }
        },
        {
            "from": [
                7.9,
                15.96522,
                3.09909
            ],
            "to": [
                8.74,
                16.23122,
                3.21109
            ],
            "rotation": {
                "angle": -45,
                "axis": "x",
                "origin": [
                    8.32,
                    15.75419,
                    3.8444
                ]
            },
            "faces": {
                "north": {
                    "uv": [
                        0.66667,
                        0.66667,
                        1.66667,
                        2
                    ],
                    "rotation": 90,
                    "texture": "#1"
                },
                "east": {
                    "uv": [
                        0.66667,
                        0.66667,
                        1.66667,
                        2
                    ],
                    "rotation": 90,
                    "texture": "#1"
                },
                "south": {
                    "uv": [
                        0.66667,
                        0.66667,
                        1.66667,
                        2
                    ],
                    "rotation": 90,
                    "texture": "#1"
                },
                "west": {
                    "uv": [
                        0.66667,
                        0.66667,
                        1.66667,
                        2
                    ],
                    "rotation": 90,
                    "texture": "#1"
                },
                "up": {
                    "uv": [
                        0.66667,
                        0.66667,
                        1.66667,
                        2
                    ],
                    "rotation": 90,
                    "texture": "#1"
                },
                "down": {
                    "uv": [
                        0.66667,
                        0.66667,
                        1.66667,
                        2
                    ],
                    "rotation": 90,
                    "texture": "#1"
                }
            }
        },
        {
            "from": [
                7.9,
                15.45405,
                2.98072
            ],
            "to": [
                8.74,
                15.56605,
                3.24672
            ],
            "rotation": {
                "angle": 0,
                "axis": "y",
                "origin": [
                    8.32,
                    15.75419,
                    3.8444
                ]
            },
            "faces": {
                "north": {
                    "uv": [
                        0.66667,
                        0.66667,
                        1.66667,
                        2
                    ],
                    "rotation": 180,
                    "texture": "#1"
                },
                "east": {
                    "uv": [
                        0.66667,
                        0.66667,
                        1.66667,
                        2
                    ],
                    "rotation": 180,
                    "texture": "#1"
                },
                "south": {
                    "uv": [
                        0.66667,
                        0.66667,
                        1.66667,
                        2
                    ],
                    "rotation": 180,
                    "texture": "#1"
                },
                "west": {
                    "uv": [
                        0.66667,
                        0.66667,
                        1.66667,
                        2
                    ],
                    "rotation": 180,
                    "texture": "#1"
                },
                "up": {
                    "uv": [
                        0.66667,
                        0.66667,
                        1.66667,
                        2
                    ],
                    "rotation": 180,
                    "texture": "#1"
                },
                "down": {
                    "uv": [
                        0.66667,
                        0.66667,
                        1.66667,
                        2
                    ],
                    "rotation": 180,
                    "texture": "#1"
                }
            }
        },
        {
            "from": [
                7.9,
                14.93189,
                3.44436
            ],
            "to": [
                8.74,
                15.19789,
                3.55636
            ],
            "rotation": {
                "angle": 45,
                "axis": "x",
                "origin": [
                    8.32,
                    15.75419,
                    3.8444
                ]
            },
            "faces": {
                "north": {
                    "uv": [
                        0.66667,
                        0.66667,
                        1.66667,
                        2
                    ],
                    "rotation": 90,
                    "texture": "#1"
                },
                "east": {
                    "uv": [
                        0.66667,
                        0.66667,
                        1.66667,
                        2
                    ],
                    "rotation": 90,
                    "texture": "#1"
                },
                "south": {
                    "uv": [
                        0.66667,
                        0.66667,
                        1.66667,
                        2
                    ],
                    "rotation": 90,
                    "texture": "#1"
                },
                "west": {
                    "uv": [
                        0.66667,
                        0.66667,
                        1.66667,
                        2
                    ],
                    "rotation": 90,
                    "texture": "#1"
                },
                "up": {
                    "uv": [
                        0.66667,
                        0.66667,
                        1.66667,
                        2
                    ],
                    "rotation": 90,
                    "texture": "#1"
                },
                "down": {
                    "uv": [
                        0.66667,
                        0.66667,
                        1.66667,
                        2
                    ],
                    "rotation": 90,
                    "texture": "#1"
                }
            }
        },
        {
            "from": [
                7.9,
                15.37705,
                3.05772
            ],
            "to": [
                8.74,
                15.64305,
                3.16972
            ],
            "rotation": {
                "angle": 0,
                "axis": "y",
                "origin": [
                    8.32,
                    15.75419,
                    3.8444
                ]
            },
            "faces": {
                "north": {
                    "uv": [
                        0.66667,
                        0.66667,
                        1.66667,
                        2
                    ],
                    "rotation": 90,
                    "texture": "#1"
                },
                "east": {
                    "uv": [
                        0.66667,
                        0.66667,
                        1.66667,
                        2
                    ],
                    "rotation": 90,
                    "texture": "#1"
                },
                "south": {
                    "uv": [
                        0.66667,
                        0.66667,
                        1.66667,
                        2
                    ],
                    "rotation": 90,
                    "texture": "#1"
                },
                "west": {
                    "uv": [
                        0.66667,
                        0.66667,
                        1.66667,
                        2
                    ],
                    "rotation": 90,
                    "texture": "#1"
                },
                "up": {
                    "uv": [
                        0.66667,
                        0.66667,
                        1.66667,
                        2
                    ],
                    "rotation": 90,
                    "texture": "#1"
                },
                "down": {
                    "uv": [
                        0.66667,
                        0.66667,
                        1.66667,
                        2
                    ],
                    "rotation": 90,
                    "texture": "#1"
                }
            }
        }
    ],
    "display": {
        "thirdperson_righthand": {
            "translation": [
                -0.75,
                -6.5,
                1.5
            ],
            "scale": [
                1.28,
                1.28,
                1.28
            ]
        },
        "thirdperson_lefthand": {
            "translation": [
                0,
                -6,
                1.5
            ],
            "scale": [
                1.28,
                1.28,
                1.28
            ]
        },
        "firstperson_righthand": {
            "translation": [
                -5.5,
                1,
                6.75
            ],
            "scale": [
                1,
                1,
                0.9
            ]
        },
        "firstperson_lefthand": {
            "translation": [
                -5.5,
                1,
                6.75
            ],
            "scale": [
                1,
                1,
                0.9
            ]
        },
        "ground": {
            "rotation": [
                0,
                0,
                45
            ],
            "scale": [
                0.88,
                0.88,
                0.88
            ]
        },
        "gui": {
            "rotation": [
                20,
                27,
                -14
            ],
            "translation": [
                0.5,
                -11.5,
                0
            ],
            "scale": [
                1.95,
                1.95,
                2.59
            ]
        },
        "head": {
            "rotation": [
                0,
                122,
                90
            ],
            "translation": [
                -3.25,
                7.25,
                -10.5
            ],
            "scale": [
                1.95,
                1.92,
                1.91
            ]
        },
        "fixed": {
            "rotation": [
                90,
                45,
                -90
            ],
            "translation": [
                -2.5,
                -8.5,
                -2.25
            ],
            "scale": [
                1.62,
                1.62,
                1.62
            ]
        }
    }
}