{
    "textures": {
        "5": "gci:items/common/all_in_one",
        "6": "gci:items/common/mpz",
        "particle": "gci:items/gun_heavyrevolver/grip"
    },
    "elements": [
        {
            "from": [
                8.30679,
                5.07012,
                -2.08285
            ],
            "to": [
                8.69559,
                5.35812,
                3.67715
            ],
            "rotation": {
                "angle": 0,
                "axis": "y",
                "origin": [
                    8.29341,
                    5.10612,
                    3.55124
                ]
            },
            "faces": {
                "north": {
                    "uv": [
                        4.5,
                        0.33333,
                        5.33333,
                        0.83333
                    ],
                    "rotation": 180,
                    "texture": "#6"
                },
                "east": {
                    "uv": [
                        4.5,
                        0.33333,
                        5.33333,
                        0.83333
                    ],
                    "rotation": 180,
                    "texture": "#6"
                },
                "south": {
                    "uv": [
                        4.5,
                        0.33333,
                        5.33333,
                        0.83333
                    ],
                    "rotation": 180,
                    "texture": "#6"
                },
                "west": {
                    "uv": [
                        4.5,
                        0.33333,
                        5.33333,
                        0.83333
                    ],
                    "rotation": 180,
                    "texture": "#6"
                },
                "up": {
                    "uv": [
                        4.5,
                        0.33333,
                        5.33333,
                        0.83333
                    ],
                    "rotation": 180,
                    "texture": "#6"
                },
                "down": {
                    "uv": [
                        4.5,
                        0.33333,
                        5.33333,
                        0.83333
                    ],
                    "rotation": 180,
                    "texture": "#6"
                }
            }
        },
        {
            "from": [
                8.30679,
                4.41949,
                -2.08285
            ],
            "to": [
                8.69559,
                4.70749,
                3.67715
            ],
            "rotation": {
                "angle": 0,
                "axis": "y",
                "origin": [
                    8.29341,
                    4.46986,
                    3.55124
                ]
            },
            "faces": {
                "north": {
                    "uv": [
                        4.5,
                        0.33333,
                        5.33333,
                        0.83333
                    ],
                    "rotation": 180,
                    "texture": "#6"
                },
                "east": {
                    "uv": [
                        4.5,
                        0.33333,
                        5.33333,
                        0.83333
                    ],
                    "rotation": 180,
                    "texture": "#6"
                },
                "south": {
                    "uv": [
                        4.5,
                        0.33333,
                        5.33333,
                        0.83333
                    ],
                    "rotation": 180,
                    "texture": "#6"
                },
                "west": {
                    "uv": [
                        4.5,
                        0.33333,
                        5.33333,
                        0.83333
                    ],
                    "rotation": 180,
                    "texture": "#6"
                },
                "up": {
                    "uv": [
                        4.5,
                        0.33333,
                        5.33333,
                        0.83333
                    ],
                    "rotation": 180,
                    "texture": "#6"
                },
                "down": {
                    "uv": [
                        4.5,
                        0.33333,
                        5.33333,
                        0.83333
                    ],
                    "rotation": 180,
                    "texture": "#6"
                }
            }
        },
        {
            "from": [
                8.03187,
                4.6944,
                -2.08285
            ],
            "to": [
                8.31987,
                5.0832,
                3.67715
            ],
            "rotation": {
                "angle": 0,
                "axis": "y",
                "origin": [
                    8.28387,
                    4.68822,
                    3.55124
                ]
            },
            "faces": {
                "north": {
                    "uv": [
                        4.5,
                        0.33333,
                        5.33333,
                        0.83333
                    ],
                    "rotation": 270,
                    "texture": "#6"
                },
                "east": {
                    "uv": [
                        4.5,
                        0.33333,
                        5.33333,
                        0.83333
                    ],
                    "rotation": 270,
                    "texture": "#6"
                },
                "south": {
                    "uv": [
                        4.5,
                        0.33333,
                        5.33333,
                        0.83333
                    ],
                    "rotation": 270,
                    "texture": "#6"
                },
                "west": {
                    "uv": [
                        4.5,
                        0.33333,
                        5.33333,
                        0.83333
                    ],
                    "rotation": 270,
                    "texture": "#6"
                },
                "up": {
                    "uv": [
                        4.5,
                        0.33333,
                        5.33333,
                        0.83333
                    ],
                    "rotation": 270,
                    "texture": "#6"
                },
                "down": {
                    "uv": [
                        4.5,
                        0.33333,
                        5.33333,
                        0.83333
                    ],
                    "rotation": 270,
                    "texture": "#6"
                }
            }
        },
        {
            "from": [
                8.68252,
                4.6944,
                -2.08285
            ],
            "to": [
                8.97052,
                5.0832,
                3.67715
            ],
            "rotation": {
                "angle": 0,
                "axis": "y",
                "origin": [
                    8.93452,
                    4.68822,
                    3.55124
                ]
            },
            "faces": {
                "north": {
                    "uv": [
                        4.5,
                        0.33333,
                        5.33333,
                        0.83333
                    ],
                    "rotation": 270,
                    "texture": "#6"
                },
                "east": {
                    "uv": [
                        4.5,
                        0.33333,
                        5.33333,
                        0.83333
                    ],
                    "rotation": 270,
                    "texture": "#6"
                },
                "south": {
                    "uv": [
                        4.5,
                        0.33333,
                        5.33333,
                        0.83333
                    ],
                    "rotation": 270,
                    "texture": "#6"
                },
                "west": {
                    "uv": [
                        4.5,
                        0.33333,
                        5.33333,
                        0.83333
                    ],
                    "rotation": 270,
                    "texture": "#6"
                },
                "up": {
                    "uv": [
                        4.5,
                        0.33333,
                        5.33333,
                        0.83333
                    ],
                    "rotation": 270,
                    "texture": "#6"
                },
                "down": {
                    "uv": [
                        4.5,
                        0.33333,
                        5.33333,
                        0.83333
                    ],
                    "rotation": 270,
                    "texture": "#6"
                }
            }
        },
        {
            "from": [
                8.20765,
                4.87483,
                -2.08285
            ],
            "to": [
                8.59645,
                5.16283,
                3.67715
            ],
            "rotation": {
                "angle": 45,
                "axis": "z",
                "origin": [
                    8.21587,
                    4.91083,
                    3.55124
                ]
            },
            "faces": {
                "north": {
                    "uv": [
                        4.5,
                        0.33333,
                        5.33333,
                        0.83333
                    ],
                    "rotation": 180,
                    "texture": "#6"
                },
                "east": {
                    "uv": [
                        4.5,
                        0.33333,
                        5.33333,
                        0.83333
                    ],
                    "rotation": 180,
                    "texture": "#6"
                },
                "south": {
                    "uv": [
                        4.5,
                        0.33333,
                        5.33333,
                        0.83333
                    ],
                    "rotation": 180,
                    "texture": "#6"
                },
                "west": {
                    "uv": [
                        4.5,
                        0.33333,
                        5.33333,
                        0.83333
                    ],
                    "rotation": 180,
                    "texture": "#6"
                },
                "up": {
                    "uv": [
                        4.5,
                        0.33333,
                        5.33333,
                        0.83333
                    ],
                    "rotation": 180,
                    "texture": "#6"
                },
                "down": {
                    "uv": [
                        4.5,
                        0.33333,
                        5.33333,
                        0.83333
                    ],
                    "rotation": 180,
                    "texture": "#6"
                }
            }
        },
        {
            "from": [
                8.66773,
                4.41475,
                -2.08285
            ],
            "to": [
                9.05653,
                4.70275,
                3.67715
            ],
            "rotation": {
                "angle": 45,
                "axis": "z",
                "origin": [
                    8.67595,
                    4.45075,
                    3.55124
                ]
            },
            "faces": {
                "north": {
                    "uv": [
                        4.5,
                        0.33333,
                        5.33333,
                        0.83333
                    ],
                    "rotation": 180,
                    "texture": "#6"
                },
                "east": {
                    "uv": [
                        4.5,
                        0.33333,
                        5.33333,
                        0.83333
                    ],
                    "rotation": 180,
                    "texture": "#6"
                },
                "south": {
                    "uv": [
                        4.5,
                        0.33333,
                        5.33333,
                        0.83333
                    ],
                    "rotation": 180,
                    "texture": "#6"
                },
                "west": {
                    "uv": [
                        4.5,
                        0.33333,
                        5.33333,
                        0.83333
                    ],
                    "rotation": 180,
                    "texture": "#6"
                },
                "up": {
                    "uv": [
                        4.5,
                        0.33333,
                        5.33333,
                        0.83333
                    ],
                    "rotation": 180,
                    "texture": "#6"
                },
                "down": {
                    "uv": [
                        4.5,
                        0.33333,
                        5.33333,
                        0.83333
                    ],
                    "rotation": 180,
                    "texture": "#6"
                }
            }
        },
        {
            "from": [
                8.51499,
                5.13812,
                -2.08285
            ],
            "to": [
                8.90379,
                5.42612,
                3.67715
            ],
            "rotation": {
                "angle": -45,
                "axis": "z",
                "origin": [
                    8.52321,
                    5.17412,
                    3.55124
                ]
            },
            "faces": {
                "north": {
                    "uv": [
                        4.5,
                        0.33333,
                        5.33333,
                        0.83333
                    ],
                    "rotation": 180,
                    "texture": "#6"
                },
                "east": {
                    "uv": [
                        4.5,
                        0.33333,
                        5.33333,
                        0.83333
                    ],
                    "rotation": 180,
                    "texture": "#6"
                },
                "south": {
                    "uv": [
                        4.5,
                        0.33333,
                        5.33333,
                        0.83333
                    ],
                    "rotation": 180,
                    "texture": "#6"
                },
                "west": {
                    "uv": [
                        4.5,
                        0.33333,
                        5.33333,
                        0.83333
                    ],
                    "rotation": 180,
                    "texture": "#6"
                },
                "up": {
                    "uv": [
                        4.5,
                        0.33333,
                        5.33333,
                        0.83333
                    ],
                    "rotation": 180,
                    "texture": "#6"
                },
                "down": {
                    "uv": [
                        4.5,
                        0.33333,
                        5.33333,
                        0.83333
                    ],
                    "rotation": 180,
                    "texture": "#6"
                }
            }
        },
        {
            "from": [
                8.05492,
                4.67804,
                -2.08285
            ],
            "to": [
                8.44372,
                4.96604,
                3.67715
            ],
            "rotation": {
                "angle": -45,
                "axis": "z",
                "origin": [
                    8.06314,
                    4.71404,
                    3.55124
                ]
            },
            "faces": {
                "north": {
                    "uv": [
                        4.5,
                        0.33333,
                        5.33333,
                        0.83333
                    ],
                    "rotation": 180,
                    "texture": "#6"
                },
                "east": {
                    "uv": [
                        4.5,
                        0.33333,
                        5.33333,
                        0.83333
                    ],
                    "rotation": 180,
                    "texture": "#6"
                },
                "south": {
                    "uv": [
                        4.5,
                        0.33333,
                        5.33333,
                        0.83333
                    ],
                    "rotation": 180,
                    "texture": "#6"
                },
                "west": {
                    "uv": [
                        4.5,
                        0.33333,
                        5.33333,
                        0.83333
                    ],
                    "rotation": 180,
                    "texture": "#6"
                },
                "up": {
                    "uv": [
                        4.5,
                        0.33333,
                        5.33333,
                        0.83333
                    ],
                    "rotation": 180,
                    "texture": "#6"
                },
                "down": {
                    "uv": [
                        4.5,
                        0.33333,
                        5.33333,
                        0.83333
                    ],
                    "rotation": 180,
                    "texture": "#6"
                }
            }
        }
    ],
    "display": {
        "thirdperson_righthand": {
            "translation": [
                -0.5,
                5.75,
                -1.25
            ],
            "scale": [
                1.2,
                1.2,
                1.2
            ]
        },
        "thirdperson_lefthand": {
            "translation": [
                0.25,
                5.75,
                -1.25
            ],
            "scale": [
                1.2,
                1.2,
                1.2
            ]
        },
        "firstperson_righthand": {
            "translation": [
                -0.5,
                7.25,
                -1.75
            ],
            "scale": [
                1.25,
                1.2,
                1.2
            ]
        },
        "firstperson_lefthand": {
            "translation": [
                -0.5,
                7.25,
                -1.75
            ],
            "scale": [
                1.25,
                1.2,
                1.2
            ]
        },
        "ground": {
            "translation": [
                0,
                11,
                0
            ],
            "scale": [
                1.5,
                1.5,
                1.5
            ]
        },
        "gui": {
            "rotation": [
                31,
                31,
                -23
            ],
            "translation": [
                4,
                8.5,
                0
            ],
            "scale": [
                2.2,
                2.2,
                2.2
            ]
        },
        "head": {
            "rotation": [
                90,
                90,
                0
            ],
            "translation": [
                0.5,
                6.5,
                7.5
            ],
            "scale": [
                2,
                2,
                2
            ]
        },
        "fixed": {
            "rotation": [
                0,
                90,
                0
            ],
            "translation": [
                0,
                6.75,
                0
            ],
            "scale": [
                2.5,
                2.5,
                2.5
            ]
        }
    }
}