{
    "textures": {
        "5": "gci:items/common/all_in_one",
        "6": "gci:items/common/mpz",
        "particle": "gci:items/gun_heavyrevolver/grip"
    },
    "elements": [
        {
            "from": [
                8.67204,
                4.70217,
                1.79254
            ],
            "to": [
                8.80004,
                4.95817,
                3.63062
            ],
            "rotation": {
                "angle": 45,
                "axis": "z",
                "origin": [
                    8.49103,
                    4.83017,
                    4.82102
                ]
            },
            "faces": {
                "north": {
                    "uv": [
                        3.8125,
                        6.1875,
                        3.8125,
                        6.25
                    ],
                    "rotation": 270,
                    "texture": "#6"
                },
                "east": {
                    "uv": [
                        2,
                        1.5,
                        2.3125,
                        1.5
                    ],
                    "rotation": 180,
                    "texture": "#6"
                },
                "south": {
                    "uv": [
                        2,
                        1.5,
                        2.3125,
                        1.5
                    ],
                    "rotation": 180,
                    "texture": "#6"
                },
                "west": {
                    "uv": [
                        3.8125,
                        6.1875,
                        3.8125,
                        6.25
                    ],
                    "rotation": 270,
                    "texture": "#6"
                },
                "up": {
                    "uv": [
                        2,
                        1.5,
                        2.3125,
                        1.5
                    ],
                    "rotation": 180,
                    "texture": "#6"
                },
                "down": {
                    "uv": [
                        2,
                        1.5,
                        2.3125,
                        1.5
                    ],
                    "rotation": 180,
                    "texture": "#6"
                }
            }
        },
        {
            "from": [
                8.182,
                4.70217,
                1.79254
            ],
            "to": [
                8.31,
                4.95817,
                3.63062
            ],
            "rotation": {
                "angle": 45,
                "axis": "z",
                "origin": [
                    8.49103,
                    4.83017,
                    4.82102
                ]
            },
            "faces": {
                "north": {
                    "uv": [
                        3.8125,
                        6.1875,
                        3.8125,
                        6.25
                    ],
                    "rotation": 270,
                    "texture": "#6"
                },
                "east": {
                    "uv": [
                        3.8125,
                        6.1875,
                        3.8125,
                        6.25
                    ],
                    "rotation": 270,
                    "texture": "#6"
                },
                "south": {
                    "uv": [
                        2,
                        1.5,
                        2.3125,
                        1.5
                    ],
                    "rotation": 180,
                    "texture": "#6"
                },
                "west": {
                    "uv": [
                        2,
                        1.5,
                        2.3125,
                        1.5
                    ],
                    "rotation": 180,
                    "texture": "#6"
                },
                "up": {
                    "uv": [
                        2,
                        1.5,
                        2.3125,
                        1.5
                    ],
                    "rotation": 180,
                    "texture": "#6"
                },
                "down": {
                    "uv": [
                        2,
                        1.5,
                        2.3125,
                        1.5
                    ],
                    "rotation": 180,
                    "texture": "#6"
                }
            }
        },
        {
            "from": [
                8.36303,
                4.52115,
                1.79254
            ],
            "to": [
                8.61903,
                4.64915,
                3.63062
            ],
            "rotation": {
                "angle": 0,
                "axis": "y",
                "origin": [
                    8.16004,
                    4.46813,
                    -12.77898
                ]
            },
            "faces": {
                "north": {
                    "uv": [
                        3.8125,
                        6.1875,
                        3.8125,
                        6.25
                    ],
                    "rotation": 270,
                    "texture": "#6"
                },
                "east": {
                    "uv": [
                        2,
                        1.5,
                        2.3125,
                        1.5
                    ],
                    "rotation": 270,
                    "texture": "#6"
                },
                "south": {
                    "uv": [
                        2,
                        1.5,
                        2.3125,
                        1.5
                    ],
                    "rotation": 270,
                    "texture": "#6"
                },
                "west": {
                    "uv": [
                        2,
                        1.5,
                        2.3125,
                        1.5
                    ],
                    "rotation": 270,
                    "texture": "#6"
                },
                "up": {
                    "uv": [
                        3.8125,
                        6.1875,
                        3.8125,
                        6.25
                    ],
                    "rotation": 270,
                    "texture": "#6"
                },
                "down": {
                    "uv": [
                        2,
                        1.5,
                        2.3125,
                        1.5
                    ],
                    "rotation": 270,
                    "texture": "#6"
                }
            }
        },
        {
            "from": [
                8.36303,
                5.0112,
                1.79254
            ],
            "to": [
                8.61903,
                5.1392,
                3.63062
            ],
            "rotation": {
                "angle": 0,
                "axis": "y",
                "origin": [
                    8.16004,
                    4.95817,
                    -12.77898
                ]
            },
            "faces": {
                "north": {
                    "uv": [
                        3.8125,
                        6.1875,
                        3.8125,
                        6.25
                    ],
                    "rotation": 270,
                    "texture": "#6"
                },
                "east": {
                    "uv": [
                        2,
                        1.5,
                        2.3125,
                        1.5
                    ],
                    "rotation": 270,
                    "texture": "#6"
                },
                "south": {
                    "uv": [
                        2,
                        1.5,
                        2.3125,
                        1.5
                    ],
                    "rotation": 270,
                    "texture": "#6"
                },
                "west": {
                    "uv": [
                        2,
                        1.5,
                        2.3125,
                        1.5
                    ],
                    "rotation": 270,
                    "texture": "#6"
                },
                "up": {
                    "uv": [
                        2,
                        1.5,
                        2.3125,
                        1.5
                    ],
                    "rotation": 270,
                    "texture": "#6"
                },
                "down": {
                    "uv": [
                        3.8125,
                        6.1875,
                        3.8125,
                        6.25
                    ],
                    "rotation": 270,
                    "texture": "#6"
                }
            }
        },
        {
            "from": [
                8.68902,
                4.65962,
                1.75158
            ],
            "to": [
                8.89894,
                4.99754,
                3.30294
            ],
            "rotation": {
                "angle": 0,
                "axis": "y",
                "origin": [
                    8.76778,
                    4.82858,
                    2.95734
                ]
            },
            "faces": {
                "north": {
                    "uv": [
                        1.5,
                        1.375,
                        1.5,
                        1.4375
                    ],
                    "texture": "#6"
                },
                "east": {
                    "uv": [
                        1.5,
                        1.375,
                        1.5,
                        1.4375
                    ],
                    "rotation": 180,
                    "texture": "#6"
                },
                "south": {
                    "uv": [
                        1.5,
                        1.375,
                        1.5,
                        1.4375
                    ],
                    "rotation": 180,
                    "texture": "#6"
                },
                "west": {
                    "uv": [
                        3.8125,
                        6.1875,
                        3.8125,
                        6.25
                    ],
                    "rotation": 270,
                    "texture": "#6"
                },
                "up": {
                    "uv": [
                        1.5,
                        1.375,
                        1.5,
                        1.4375
                    ],
                    "rotation": 180,
                    "texture": "#6"
                },
                "down": {
                    "uv": [
                        1.5,
                        1.375,
                        1.5,
                        1.4375
                    ],
                    "rotation": 180,
                    "texture": "#6"
                }
            }
        },
        {
            "from": [
                8.08312,
                4.65962,
                1.75158
            ],
            "to": [
                8.29304,
                4.99754,
                3.30294
            ],
            "rotation": {
                "angle": 0,
                "axis": "y",
                "origin": [
                    8.28346,
                    4.7426,
                    2.95734
                ]
            },
            "faces": {
                "north": {
                    "uv": [
                        1.5,
                        1.375,
                        1.5,
                        1.4375
                    ],
                    "rotation": 180,
                    "texture": "#6"
                },
                "east": {
                    "uv": [
                        3.8125,
                        6.1875,
                        3.8125,
                        6.25
                    ],
                    "rotation": 270,
                    "texture": "#6"
                },
                "south": {
                    "uv": [
                        1.5,
                        1.375,
                        1.5,
                        1.4375
                    ],
                    "texture": "#6"
                },
                "west": {
                    "uv": [
                        1.5,
                        1.375,
                        1.5,
                        1.4375
                    ],
                    "texture": "#6"
                },
                "up": {
                    "uv": [
                        1.5,
                        1.375,
                        1.5,
                        1.4375
                    ],
                    "texture": "#6"
                },
                "down": {
                    "uv": [
                        1.5,
                        1.375,
                        1.5,
                        1.4375
                    ],
                    "texture": "#6"
                }
            }
        },
        {
            "from": [
                8.08312,
                4.90538,
                1.5519
            ],
            "to": [
                8.21112,
                4.99754,
                1.75158
            ],
            "rotation": {
                "angle": 0,
                "axis": "y",
                "origin": [
                    8.28346,
                    4.7426,
                    2.75766
                ]
            },
            "faces": {
                "north": {
                    "uv": [
                        1.5,
                        1.375,
                        1.5,
                        1.4375
                    ],
                    "rotation": 180,
                    "texture": "#6"
                },
                "east": {
                    "uv": [
                        1.5,
                        1.375,
                        1.5,
                        1.4375
                    ],
                    "texture": "#6"
                },
                "south": {
                    "uv": [
                        1.5,
                        1.375,
                        1.5,
                        1.4375
                    ],
                    "texture": "#6"
                },
                "west": {
                    "uv": [
                        1.5,
                        1.375,
                        1.5,
                        1.4375
                    ],
                    "texture": "#6"
                },
                "up": {
                    "uv": [
                        1.5,
                        1.375,
                        1.5,
                        1.4375
                    ],
                    "texture": "#6"
                },
                "down": {
                    "uv": [
                        1.5,
                        1.375,
                        1.5,
                        1.4375
                    ],
                    "texture": "#6"
                }
            }
        },
        {
            "from": [
                8.77944,
                4.90538,
                1.5519
            ],
            "to": [
                8.90744,
                4.99754,
                1.75158
            ],
            "rotation": {
                "angle": 0,
                "axis": "y",
                "origin": [
                    8.97978,
                    4.7426,
                    2.75766
                ]
            },
            "faces": {
                "north": {
                    "uv": [
                        1.5,
                        1.375,
                        1.5,
                        1.4375
                    ],
                    "rotation": 180,
                    "texture": "#6"
                },
                "east": {
                    "uv": [
                        1.5,
                        1.375,
                        1.5,
                        1.4375
                    ],
                    "texture": "#6"
                },
                "south": {
                    "uv": [
                        1.5,
                        1.375,
                        1.5,
                        1.4375
                    ],
                    "texture": "#6"
                },
                "west": {
                    "uv": [
                        1.5,
                        1.375,
                        1.5,
                        1.4375
                    ],
                    "texture": "#6"
                },
                "up": {
                    "uv": [
                        1.5,
                        1.375,
                        1.5,
                        1.4375
                    ],
                    "texture": "#6"
                },
                "down": {
                    "uv": [
                        1.5,
                        1.375,
                        1.5,
                        1.4375
                    ],
                    "texture": "#6"
                }
            }
        },
        {
            "from": [
                8.08312,
                4.65962,
                1.5519
            ],
            "to": [
                8.21112,
                4.75178,
                1.75158
            ],
            "rotation": {
                "angle": 0,
                "axis": "y",
                "origin": [
                    8.28346,
                    4.5378,
                    2.75766
                ]
            },
            "faces": {
                "north": {
                    "uv": [
                        1.5,
                        1.375,
                        1.5,
                        1.4375
                    ],
                    "rotation": 180,
                    "texture": "#6"
                },
                "east": {
                    "uv": [
                        1.5,
                        1.375,
                        1.5,
                        1.4375
                    ],
                    "texture": "#6"
                },
                "south": {
                    "uv": [
                        1.5,
                        1.375,
                        1.5,
                        1.4375
                    ],
                    "texture": "#6"
                },
                "west": {
                    "uv": [
                        1.5,
                        1.375,
                        1.5,
                        1.4375
                    ],
                    "texture": "#6"
                },
                "up": {
                    "uv": [
                        1.5,
                        1.375,
                        1.5,
                        1.4375
                    ],
                    "texture": "#6"
                },
                "down": {
                    "uv": [
                        1.5,
                        1.375,
                        1.5,
                        1.4375
                    ],
                    "texture": "#6"
                }
            }
        },
        {
            "from": [
                8.77944,
                4.65962,
                1.5519
            ],
            "to": [
                8.90744,
                4.75178,
                1.75158
            ],
            "rotation": {
                "angle": 0,
                "axis": "y",
                "origin": [
                    8.97978,
                    4.5378,
                    2.75766
                ]
            },
            "faces": {
                "north": {
                    "uv": [
                        1.5,
                        1.375,
                        1.5,
                        1.4375
                    ],
                    "rotation": 180,
                    "texture": "#6"
                },
                "east": {
                    "uv": [
                        1.5,
                        1.375,
                        1.5,
                        1.4375
                    ],
                    "texture": "#6"
                },
                "south": {
                    "uv": [
                        1.5,
                        1.375,
                        1.5,
                        1.4375
                    ],
                    "texture": "#6"
                },
                "west": {
                    "uv": [
                        1.5,
                        1.375,
                        1.5,
                        1.4375
                    ],
                    "texture": "#6"
                },
                "up": {
                    "uv": [
                        1.5,
                        1.375,
                        1.5,
                        1.4375
                    ],
                    "texture": "#6"
                },
                "down": {
                    "uv": [
                        1.5,
                        1.375,
                        1.5,
                        1.4375
                    ],
                    "texture": "#6"
                }
            }
        },
        {
            "from": [
                8.40313,
                4.83087,
                1.75158
            ],
            "to": [
                8.74105,
                5.04079,
                3.30294
            ],
            "rotation": {
                "angle": -45,
                "axis": "z",
                "origin": [
                    8.76778,
                    4.82858,
                    2.95734
                ]
            },
            "faces": {
                "north": {
                    "uv": [
                        1.5,
                        1.375,
                        1.5,
                        1.4375
                    ],
                    "rotation": 270,
                    "texture": "#6"
                },
                "east": {
                    "uv": [
                        1.5,
                        1.375,
                        1.5,
                        1.4375
                    ],
                    "rotation": 270,
                    "texture": "#6"
                },
                "south": {
                    "uv": [
                        1.5,
                        1.375,
                        1.5,
                        1.4375
                    ],
                    "rotation": 270,
                    "texture": "#6"
                },
                "west": {
                    "uv": [
                        1.5,
                        1.375,
                        1.5,
                        1.4375
                    ],
                    "rotation": 270,
                    "texture": "#6"
                },
                "up": {
                    "uv": [
                        1.5,
                        1.375,
                        1.5,
                        1.4375
                    ],
                    "rotation": 270,
                    "texture": "#6"
                },
                "down": {
                    "uv": [
                        3.8125,
                        6.1875,
                        3.8125,
                        6.25
                    ],
                    "rotation": 270,
                    "texture": "#6"
                }
            }
        },
        {
            "from": [
                8.40313,
                4.91279,
                1.5519
            ],
            "to": [
                8.74105,
                5.04079,
                1.75158
            ],
            "rotation": {
                "angle": -45,
                "axis": "z",
                "origin": [
                    8.76778,
                    4.82858,
                    2.75766
                ]
            },
            "faces": {
                "north": {
                    "uv": [
                        1.5,
                        1.375,
                        1.5,
                        1.4375
                    ],
                    "rotation": 270,
                    "texture": "#6"
                },
                "east": {
                    "uv": [
                        1.5,
                        1.375,
                        1.5,
                        1.4375
                    ],
                    "rotation": 270,
                    "texture": "#6"
                },
                "south": {
                    "uv": [
                        1.5,
                        1.375,
                        1.5,
                        1.4375
                    ],
                    "rotation": 270,
                    "texture": "#6"
                },
                "west": {
                    "uv": [
                        1.5,
                        1.375,
                        1.5,
                        1.4375
                    ],
                    "rotation": 270,
                    "texture": "#6"
                },
                "up": {
                    "uv": [
                        1.5,
                        1.375,
                        1.5,
                        1.4375
                    ],
                    "rotation": 270,
                    "texture": "#6"
                },
                "down": {
                    "uv": [
                        1.5,
                        1.375,
                        1.5,
                        1.4375
                    ],
                    "rotation": 270,
                    "texture": "#6"
                }
            }
        },
        {
            "from": [
                8.08312,
                4.48768,
                1.75158
            ],
            "to": [
                8.29304,
                4.8256,
                3.30294
            ],
            "rotation": {
                "angle": 45,
                "axis": "z",
                "origin": [
                    8.28346,
                    4.7426,
                    2.95734
                ]
            },
            "faces": {
                "north": {
                    "uv": [
                        1.5,
                        1.375,
                        1.5,
                        1.4375
                    ],
                    "texture": "#6"
                },
                "east": {
                    "uv": [
                        3.8125,
                        6.1875,
                        3.8125,
                        6.25
                    ],
                    "rotation": 270,
                    "texture": "#6"
                },
                "south": {
                    "uv": [
                        1.5,
                        1.375,
                        1.5,
                        1.4375
                    ],
                    "rotation": 180,
                    "texture": "#6"
                },
                "west": {
                    "uv": [
                        1.5,
                        1.375,
                        1.5,
                        1.4375
                    ],
                    "rotation": 180,
                    "texture": "#6"
                },
                "up": {
                    "uv": [
                        1.5,
                        1.375,
                        1.5,
                        1.4375
                    ],
                    "rotation": 180,
                    "texture": "#6"
                },
                "down": {
                    "uv": [
                        1.5,
                        1.375,
                        1.5,
                        1.4375
                    ],
                    "rotation": 180,
                    "texture": "#6"
                }
            }
        },
        {
            "from": [
                8.08312,
                4.48768,
                1.5519
            ],
            "to": [
                8.21112,
                4.8256,
                1.75158
            ],
            "rotation": {
                "angle": 45,
                "axis": "z",
                "origin": [
                    8.28346,
                    4.7426,
                    2.75766
                ]
            },
            "faces": {
                "north": {
                    "uv": [
                        1.5,
                        1.375,
                        1.5,
                        1.4375
                    ],
                    "texture": "#6"
                },
                "east": {
                    "uv": [
                        1.5,
                        1.375,
                        1.5,
                        1.4375
                    ],
                    "rotation": 180,
                    "texture": "#6"
                },
                "south": {
                    "uv": [
                        1.5,
                        1.375,
                        1.5,
                        1.4375
                    ],
                    "rotation": 180,
                    "texture": "#6"
                },
                "west": {
                    "uv": [
                        1.5,
                        1.375,
                        1.5,
                        1.4375
                    ],
                    "rotation": 180,
                    "texture": "#6"
                },
                "up": {
                    "uv": [
                        1.5,
                        1.375,
                        1.5,
                        1.4375
                    ],
                    "rotation": 180,
                    "texture": "#6"
                },
                "down": {
                    "uv": [
                        1.5,
                        1.375,
                        1.5,
                        1.4375
                    ],
                    "rotation": 180,
                    "texture": "#6"
                }
            }
        },
        {
            "from": [
                8.32207,
                5.02657,
                1.75158
            ],
            "to": [
                8.65999,
                5.23649,
                3.30294
            ],
            "rotation": {
                "angle": 0,
                "axis": "y",
                "origin": [
                    8.49103,
                    5.19808,
                    2.95734
                ]
            },
            "faces": {
                "north": {
                    "uv": [
                        1.5,
                        1.375,
                        1.5,
                        1.4375
                    ],
                    "rotation": 270,
                    "texture": "#6"
                },
                "east": {
                    "uv": [
                        1.5,
                        1.375,
                        1.5,
                        1.4375
                    ],
                    "rotation": 270,
                    "texture": "#6"
                },
                "south": {
                    "uv": [
                        1.5,
                        1.375,
                        1.5,
                        1.4375
                    ],
                    "rotation": 270,
                    "texture": "#6"
                },
                "west": {
                    "uv": [
                        1.5,
                        1.375,
                        1.5,
                        1.4375
                    ],
                    "rotation": 270,
                    "texture": "#6"
                },
                "up": {
                    "uv": [
                        1.5,
                        1.375,
                        1.5,
                        1.4375
                    ],
                    "rotation": 270,
                    "texture": "#6"
                },
                "down": {
                    "uv": [
                        3.8125,
                        6.1875,
                        3.8125,
                        6.25
                    ],
                    "rotation": 270,
                    "texture": "#6"
                }
            }
        },
        {
            "from": [
                8.32207,
                5.10849,
                1.5519
            ],
            "to": [
                8.65999,
                5.23649,
                1.75158
            ],
            "rotation": {
                "angle": 0,
                "axis": "y",
                "origin": [
                    8.49103,
                    5.19808,
                    2.75766
                ]
            },
            "faces": {
                "north": {
                    "uv": [
                        1.5,
                        1.375,
                        1.5,
                        1.4375
                    ],
                    "rotation": 270,
                    "texture": "#6"
                },
                "east": {
                    "uv": [
                        1.5,
                        1.375,
                        1.5,
                        1.4375
                    ],
                    "rotation": 270,
                    "texture": "#6"
                },
                "south": {
                    "uv": [
                        1.5,
                        1.375,
                        1.5,
                        1.4375
                    ],
                    "rotation": 270,
                    "texture": "#6"
                },
                "west": {
                    "uv": [
                        1.5,
                        1.375,
                        1.5,
                        1.4375
                    ],
                    "rotation": 270,
                    "texture": "#6"
                },
                "up": {
                    "uv": [
                        1.5,
                        1.375,
                        1.5,
                        1.4375
                    ],
                    "rotation": 270,
                    "texture": "#6"
                },
                "down": {
                    "uv": [
                        1.5,
                        1.375,
                        1.5,
                        1.4375
                    ],
                    "rotation": 270,
                    "texture": "#6"
                }
            }
        },
        {
            "from": [
                8.32207,
                4.42068,
                1.75158
            ],
            "to": [
                8.65999,
                4.6306,
                3.30294
            ],
            "rotation": {
                "angle": 0,
                "axis": "y",
                "origin": [
                    8.28346,
                    4.7426,
                    2.95734
                ]
            },
            "faces": {
                "north": {
                    "uv": [
                        1.5,
                        1.375,
                        1.5,
                        1.4375
                    ],
                    "rotation": 90,
                    "texture": "#6"
                },
                "east": {
                    "uv": [
                        1.5,
                        1.375,
                        1.5,
                        1.4375
                    ],
                    "rotation": 90,
                    "texture": "#6"
                },
                "south": {
                    "uv": [
                        1.5,
                        1.375,
                        1.5,
                        1.4375
                    ],
                    "rotation": 90,
                    "texture": "#6"
                },
                "west": {
                    "uv": [
                        1.5,
                        1.375,
                        1.5,
                        1.4375
                    ],
                    "rotation": 90,
                    "texture": "#6"
                },
                "up": {
                    "uv": [
                        3.8125,
                        6.1875,
                        3.8125,
                        6.25
                    ],
                    "rotation": 270,
                    "texture": "#6"
                },
                "down": {
                    "uv": [
                        1.5,
                        1.375,
                        1.5,
                        1.4375
                    ],
                    "rotation": 90,
                    "texture": "#6"
                }
            }
        },
        {
            "from": [
                8.32207,
                4.42068,
                1.5519
            ],
            "to": [
                8.65999,
                4.54868,
                1.75158
            ],
            "rotation": {
                "angle": 0,
                "axis": "y",
                "origin": [
                    8.28346,
                    4.7426,
                    2.75766
                ]
            },
            "faces": {
                "north": {
                    "uv": [
                        1.5,
                        1.375,
                        1.5,
                        1.4375
                    ],
                    "rotation": 90,
                    "texture": "#6"
                },
                "east": {
                    "uv": [
                        1.5,
                        1.375,
                        1.5,
                        1.4375
                    ],
                    "rotation": 90,
                    "texture": "#6"
                },
                "south": {
                    "uv": [
                        1.5,
                        1.375,
                        1.5,
                        1.4375
                    ],
                    "rotation": 90,
                    "texture": "#6"
                },
                "west": {
                    "uv": [
                        1.5,
                        1.375,
                        1.5,
                        1.4375
                    ],
                    "rotation": 90,
                    "texture": "#6"
                },
                "up": {
                    "uv": [
                        1.5,
                        1.375,
                        1.5,
                        1.4375
                    ],
                    "rotation": 90,
                    "texture": "#6"
                },
                "down": {
                    "uv": [
                        1.5,
                        1.375,
                        1.5,
                        1.4375
                    ],
                    "rotation": 90,
                    "texture": "#6"
                }
            }
        },
        {
            "from": [
                8.77007,
                4.46393,
                1.75158
            ],
            "to": [
                8.97999,
                4.80185,
                3.30294
            ],
            "rotation": {
                "angle": -45,
                "axis": "z",
                "origin": [
                    8.76778,
                    4.82858,
                    2.95734
                ]
            },
            "faces": {
                "north": {
                    "uv": [
                        1.5,
                        1.375,
                        1.5,
                        1.4375
                    ],
                    "rotation": 180,
                    "texture": "#6"
                },
                "east": {
                    "uv": [
                        1.5,
                        1.375,
                        1.5,
                        1.4375
                    ],
                    "texture": "#6"
                },
                "south": {
                    "uv": [
                        1.5,
                        1.375,
                        1.5,
                        1.4375
                    ],
                    "texture": "#6"
                },
                "west": {
                    "uv": [
                        3.8125,
                        6.1875,
                        3.8125,
                        6.25
                    ],
                    "rotation": 270,
                    "texture": "#6"
                },
                "up": {
                    "uv": [
                        1.5,
                        1.375,
                        1.5,
                        1.4375
                    ],
                    "texture": "#6"
                },
                "down": {
                    "uv": [
                        1.5,
                        1.375,
                        1.5,
                        1.4375
                    ],
                    "texture": "#6"
                }
            }
        },
        {
            "from": [
                8.85199,
                4.46393,
                1.5519
            ],
            "to": [
                8.97999,
                4.80185,
                1.75158
            ],
            "rotation": {
                "angle": -45,
                "axis": "z",
                "origin": [
                    8.76778,
                    4.82858,
                    2.75766
                ]
            },
            "faces": {
                "north": {
                    "uv": [
                        1.5,
                        1.375,
                        1.5,
                        1.4375
                    ],
                    "rotation": 180,
                    "texture": "#6"
                },
                "east": {
                    "uv": [
                        1.5,
                        1.375,
                        1.5,
                        1.4375
                    ],
                    "texture": "#6"
                },
                "south": {
                    "uv": [
                        1.5,
                        1.375,
                        1.5,
                        1.4375
                    ],
                    "texture": "#6"
                },
                "west": {
                    "uv": [
                        1.5,
                        1.375,
                        1.5,
                        1.4375
                    ],
                    "texture": "#6"
                },
                "up": {
                    "uv": [
                        1.5,
                        1.375,
                        1.5,
                        1.4375
                    ],
                    "texture": "#6"
                },
                "down": {
                    "uv": [
                        1.5,
                        1.375,
                        1.5,
                        1.4375
                    ],
                    "texture": "#6"
                }
            }
        },
        {
            "from": [
                8.32207,
                4.85462,
                1.75158
            ],
            "to": [
                8.65999,
                5.06454,
                3.30294
            ],
            "rotation": {
                "angle": 45,
                "axis": "z",
                "origin": [
                    8.28346,
                    4.7426,
                    2.95734
                ]
            },
            "faces": {
                "north": {
                    "uv": [
                        1.5,
                        1.375,
                        1.5,
                        1.4375
                    ],
                    "rotation": 270,
                    "texture": "#6"
                },
                "east": {
                    "uv": [
                        1.5,
                        1.375,
                        1.5,
                        1.4375
                    ],
                    "rotation": 270,
                    "texture": "#6"
                },
                "south": {
                    "uv": [
                        1.5,
                        1.375,
                        1.5,
                        1.4375
                    ],
                    "rotation": 270,
                    "texture": "#6"
                },
                "west": {
                    "uv": [
                        1.5,
                        1.375,
                        1.5,
                        1.4375
                    ],
                    "rotation": 270,
                    "texture": "#6"
                },
                "up": {
                    "uv": [
                        1.5,
                        1.375,
                        1.5,
                        1.4375
                    ],
                    "rotation": 270,
                    "texture": "#6"
                },
                "down": {
                    "uv": [
                        3.8125,
                        6.1875,
                        3.8125,
                        6.25
                    ],
                    "rotation": 270,
                    "texture": "#6"
                }
            }
        },
        {
            "from": [
                8.32207,
                4.93654,
                1.5519
            ],
            "to": [
                8.65999,
                5.06454,
                1.75158
            ],
            "rotation": {
                "angle": 45,
                "axis": "z",
                "origin": [
                    8.28346,
                    4.7426,
                    2.75766
                ]
            },
            "faces": {
                "north": {
                    "uv": [
                        1.5,
                        1.375,
                        1.5,
                        1.4375
                    ],
                    "rotation": 270,
                    "texture": "#6"
                },
                "east": {
                    "uv": [
                        1.5,
                        1.375,
                        1.5,
                        1.4375
                    ],
                    "rotation": 270,
                    "texture": "#6"
                },
                "south": {
                    "uv": [
                        1.5,
                        1.375,
                        1.5,
                        1.4375
                    ],
                    "rotation": 270,
                    "texture": "#6"
                },
                "west": {
                    "uv": [
                        1.5,
                        1.375,
                        1.5,
                        1.4375
                    ],
                    "rotation": 270,
                    "texture": "#6"
                },
                "up": {
                    "uv": [
                        1.5,
                        1.375,
                        1.5,
                        1.4375
                    ],
                    "rotation": 270,
                    "texture": "#6"
                },
                "down": {
                    "uv": [
                        1.5,
                        1.375,
                        1.5,
                        1.4375
                    ],
                    "rotation": 270,
                    "texture": "#6"
                }
            }
        },
        {
            "from": [
                8.182,
                4.70217,
                1.79254
            ],
            "to": [
                8.31,
                4.95817,
                3.63062
            ],
            "rotation": {
                "angle": 0,
                "axis": "y",
                "origin": [
                    8.246,
                    4.83017,
                    3.54102
                ]
            },
            "faces": {
                "north": {
                    "uv": [
                        3.8125,
                        6.1875,
                        3.8125,
                        6.25
                    ],
                    "rotation": 270,
                    "texture": "#6"
                },
                "east": {
                    "uv": [
                        3.8125,
                        6.1875,
                        3.8125,
                        6.25
                    ],
                    "rotation": 270,
                    "texture": "#6"
                },
                "south": {
                    "uv": [
                        2,
                        1.5,
                        2.3125,
                        1.5
                    ],
                    "texture": "#6"
                },
                "west": {
                    "uv": [
                        2,
                        1.5,
                        2.3125,
                        1.5
                    ],
                    "texture": "#6"
                },
                "up": {
                    "uv": [
                        2,
                        1.5,
                        2.3125,
                        1.5
                    ],
                    "texture": "#6"
                },
                "down": {
                    "uv": [
                        2,
                        1.5,
                        2.3125,
                        1.5
                    ],
                    "texture": "#6"
                }
            }
        },
        {
            "from": [
                8.67204,
                4.70217,
                1.79254
            ],
            "to": [
                8.80004,
                4.95817,
                3.63062
            ],
            "rotation": {
                "angle": 0,
                "axis": "y",
                "origin": [
                    8.73604,
                    4.83017,
                    3.54102
                ]
            },
            "faces": {
                "north": {
                    "uv": [
                        3.8125,
                        6.1875,
                        3.8125,
                        6.25
                    ],
                    "rotation": 270,
                    "texture": "#6"
                },
                "east": {
                    "uv": [
                        2,
                        1.5,
                        2.3125,
                        1.5
                    ],
                    "texture": "#6"
                },
                "south": {
                    "uv": [
                        2,
                        1.5,
                        2.3125,
                        1.5
                    ],
                    "texture": "#6"
                },
                "west": {
                    "uv": [
                        3.8125,
                        6.1875,
                        3.8125,
                        6.25
                    ],
                    "rotation": 270,
                    "texture": "#6"
                },
                "up": {
                    "uv": [
                        2,
                        1.5,
                        2.3125,
                        1.5
                    ],
                    "texture": "#6"
                },
                "down": {
                    "uv": [
                        2,
                        1.5,
                        2.3125,
                        1.5
                    ],
                    "texture": "#6"
                }
            }
        },
        {
            "from": [
                8.36303,
                4.52115,
                1.79254
            ],
            "to": [
                8.61903,
                4.64915,
                3.63062
            ],
            "rotation": {
                "angle": 45,
                "axis": "z",
                "origin": [
                    8.49103,
                    4.83017,
                    4.82102
                ]
            },
            "faces": {
                "north": {
                    "uv": [
                        3.8125,
                        6.1875,
                        3.8125,
                        6.25
                    ],
                    "rotation": 270,
                    "texture": "#6"
                },
                "east": {
                    "uv": [
                        2,
                        1.5,
                        2.3125,
                        1.5
                    ],
                    "rotation": 90,
                    "texture": "#6"
                },
                "south": {
                    "uv": [
                        2,
                        1.5,
                        2.3125,
                        1.5
                    ],
                    "rotation": 90,
                    "texture": "#6"
                },
                "west": {
                    "uv": [
                        2,
                        1.5,
                        2.3125,
                        1.5
                    ],
                    "rotation": 90,
                    "texture": "#6"
                },
                "up": {
                    "uv": [
                        3.8125,
                        6.1875,
                        3.8125,
                        6.25
                    ],
                    "rotation": 270,
                    "texture": "#6"
                },
                "down": {
                    "uv": [
                        2,
                        1.5,
                        2.3125,
                        1.5
                    ],
                    "rotation": 90,
                    "texture": "#6"
                }
            }
        },
        {
            "from": [
                8.36303,
                5.0112,
                1.79254
            ],
            "to": [
                8.61903,
                5.1392,
                3.63062
            ],
            "rotation": {
                "angle": 45,
                "axis": "z",
                "origin": [
                    8.49103,
                    4.83017,
                    4.82102
                ]
            },
            "faces": {
                "north": {
                    "uv": [
                        3.8125,
                        6.1875,
                        3.8125,
                        6.25
                    ],
                    "rotation": 270,
                    "texture": "#6"
                },
                "east": {
                    "uv": [
                        2,
                        1.5,
                        2.3125,
                        1.5
                    ],
                    "rotation": 90,
                    "texture": "#6"
                },
                "south": {
                    "uv": [
                        2,
                        1.5,
                        2.3125,
                        1.5
                    ],
                    "rotation": 90,
                    "texture": "#6"
                },
                "west": {
                    "uv": [
                        2,
                        1.5,
                        2.3125,
                        1.5
                    ],
                    "rotation": 90,
                    "texture": "#6"
                },
                "up": {
                    "uv": [
                        2,
                        1.5,
                        2.3125,
                        1.5
                    ],
                    "rotation": 90,
                    "texture": "#6"
                },
                "down": {
                    "uv": [
                        3.8125,
                        6.1875,
                        3.8125,
                        6.25
                    ],
                    "rotation": 270,
                    "texture": "#6"
                }
            }
        }
    ],
    "display": {
        "thirdperson_righthand": {
            "translation": [
                -0.5,
                5.75,
                -1.25
            ],
            "scale": [
                1.2,
                1.2,
                1.2
            ]
        },
        "thirdperson_lefthand": {
            "translation": [
                0.25,
                5.75,
                -1.25
            ],
            "scale": [
                1.2,
                1.2,
                1.2
            ]
        },
        "firstperson_righthand": {
            "translation": [
                -0.5,
                7.25,
                -1.75
            ],
            "scale": [
                1.25,
                1.2,
                1.2
            ]
        },
        "firstperson_lefthand": {
            "translation": [
                -0.5,
                7.25,
                -1.75
            ],
            "scale": [
                1.25,
                1.2,
                1.2
            ]
        },
        "ground": {
            "translation": [
                0,
                11,
                0
            ],
            "scale": [
                1.5,
                1.5,
                1.5
            ]
        },
        "gui": {
            "rotation": [
                31,
                31,
                -23
            ],
            "translation": [
                4,
                8.5,
                0
            ],
            "scale": [
                2.2,
                2.2,
                2.2
            ]
        },
        "head": {
            "rotation": [
                90,
                90,
                0
            ],
            "translation": [
                0.5,
                6.5,
                7.5
            ],
            "scale": [
                2,
                2,
                2
            ]
        },
        "fixed": {
            "rotation": [
                0,
                90,
                0
            ],
            "translation": [
                0,
                6.75,
                0
            ],
            "scale": [
                2.5,
                2.5,
                2.5
            ]
        }
    }
}