{
    "textures": {
        "0": "gci:items/common/all_in_one",
        "2": "gci:items/common/mpz",
        "particle": "gci:items/common/all_in_one"
    },
    "elements": [
        {
            "from": [
                7.84607,
                9.05692,
                -10.16085
            ],
            "to": [
                8.11607,
                9.25692,
                -6.16085
            ],
            "rotation": {
                "angle": 0,
                "axis": "y",
                "origin": [
                    7.83678,
                    9.08192,
                    -6.24829
                ]
            },
            "faces": {
                "north": {
                    "uv": [
                        9,
                        0.5,
                        10.547,
                        3.047
                    ],
                    "rotation": 180,
                    "texture": "#2"
                },
                "east": {
                    "uv": [
                        9,
                        0.5,
                        10.547,
                        3.047
                    ],
                    "rotation": 180,
                    "texture": "#2"
                },
                "south": {
                    "uv": [
                        9,
                        0.5,
                        10.547,
                        3.047
                    ],
                    "rotation": 180,
                    "texture": "#2"
                },
                "west": {
                    "uv": [
                        9,
                        0.5,
                        10.547,
                        3.047
                    ],
                    "rotation": 180,
                    "texture": "#2"
                },
                "up": {
                    "uv": [
                        9,
                        0.5,
                        10.547,
                        3.047
                    ],
                    "rotation": 180,
                    "texture": "#2"
                },
                "down": {
                    "uv": [
                        9,
                        0.5,
                        10.547,
                        3.047
                    ],
                    "rotation": 180,
                    "texture": "#2"
                }
            }
        },
        {
            "from": [
                7.84607,
                8.60509,
                -10.16085
            ],
            "to": [
                8.11607,
                8.80509,
                -6.16085
            ],
            "rotation": {
                "angle": 0,
                "axis": "y",
                "origin": [
                    7.83678,
                    8.64007,
                    -6.24829
                ]
            },
            "faces": {
                "north": {
                    "uv": [
                        9,
                        0.5,
                        10.547,
                        3.047
                    ],
                    "rotation": 180,
                    "texture": "#2"
                },
                "east": {
                    "uv": [
                        9,
                        0.5,
                        10.547,
                        3.047
                    ],
                    "rotation": 180,
                    "texture": "#2"
                },
                "south": {
                    "uv": [
                        9,
                        0.5,
                        10.547,
                        3.047
                    ],
                    "rotation": 180,
                    "texture": "#2"
                },
                "west": {
                    "uv": [
                        9,
                        0.5,
                        10.547,
                        3.047
                    ],
                    "rotation": 180,
                    "texture": "#2"
                },
                "up": {
                    "uv": [
                        9,
                        0.5,
                        10.547,
                        3.047
                    ],
                    "rotation": 180,
                    "texture": "#2"
                },
                "down": {
                    "uv": [
                        9,
                        0.5,
                        10.547,
                        3.047
                    ],
                    "rotation": 180,
                    "texture": "#2"
                }
            }
        },
        {
            "from": [
                7.65515,
                8.796,
                -10.16085
            ],
            "to": [
                7.85515,
                9.066,
                -6.16085
            ],
            "rotation": {
                "angle": 0,
                "axis": "y",
                "origin": [
                    7.83015,
                    8.79171,
                    -6.24829
                ]
            },
            "faces": {
                "north": {
                    "uv": [
                        9,
                        0.5,
                        10.547,
                        3.047
                    ],
                    "rotation": 270,
                    "texture": "#2"
                },
                "east": {
                    "uv": [
                        9,
                        0.5,
                        10.547,
                        3.047
                    ],
                    "rotation": 270,
                    "texture": "#2"
                },
                "south": {
                    "uv": [
                        9,
                        0.5,
                        10.547,
                        3.047
                    ],
                    "rotation": 270,
                    "texture": "#2"
                },
                "west": {
                    "uv": [
                        9,
                        0.5,
                        10.547,
                        3.047
                    ],
                    "rotation": 270,
                    "texture": "#2"
                },
                "up": {
                    "uv": [
                        9,
                        0.5,
                        10.547,
                        3.047
                    ],
                    "rotation": 270,
                    "texture": "#2"
                },
                "down": {
                    "uv": [
                        9,
                        0.5,
                        10.547,
                        3.047
                    ],
                    "rotation": 270,
                    "texture": "#2"
                }
            }
        },
        {
            "from": [
                8.10699,
                8.796,
                -10.16085
            ],
            "to": [
                8.30699,
                9.066,
                -6.16085
            ],
            "rotation": {
                "angle": 0,
                "axis": "y",
                "origin": [
                    8.28199,
                    8.79171,
                    -6.24829
                ]
            },
            "faces": {
                "north": {
                    "uv": [
                        9,
                        0.5,
                        10.547,
                        3.047
                    ],
                    "rotation": 270,
                    "texture": "#2"
                },
                "east": {
                    "uv": [
                        9,
                        0.5,
                        10.547,
                        3.047
                    ],
                    "rotation": 270,
                    "texture": "#2"
                },
                "south": {
                    "uv": [
                        9,
                        0.5,
                        10.547,
                        3.047
                    ],
                    "rotation": 270,
                    "texture": "#2"
                },
                "west": {
                    "uv": [
                        9,
                        0.5,
                        10.547,
                        3.047
                    ],
                    "rotation": 270,
                    "texture": "#2"
                },
                "up": {
                    "uv": [
                        9,
                        0.5,
                        10.547,
                        3.047
                    ],
                    "rotation": 270,
                    "texture": "#2"
                },
                "down": {
                    "uv": [
                        9,
                        0.5,
                        10.547,
                        3.047
                    ],
                    "rotation": 270,
                    "texture": "#2"
                }
            }
        },
        {
            "from": [
                7.77722,
                8.9213,
                -10.16085
            ],
            "to": [
                8.04722,
                9.1213,
                -6.16085
            ],
            "rotation": {
                "angle": 45,
                "axis": "z",
                "origin": [
                    7.78293,
                    8.9463,
                    -6.24829
                ]
            },
            "faces": {
                "north": {
                    "uv": [
                        9,
                        0.5,
                        10.547,
                        3.047
                    ],
                    "rotation": 180,
                    "texture": "#2"
                },
                "east": {
                    "uv": [
                        9,
                        0.5,
                        10.547,
                        3.047
                    ],
                    "rotation": 180,
                    "texture": "#2"
                },
                "south": {
                    "uv": [
                        9,
                        0.5,
                        10.547,
                        3.047
                    ],
                    "rotation": 180,
                    "texture": "#2"
                },
                "west": {
                    "uv": [
                        9,
                        0.5,
                        10.547,
                        3.047
                    ],
                    "rotation": 180,
                    "texture": "#2"
                },
                "up": {
                    "uv": [
                        9,
                        0.5,
                        10.547,
                        3.047
                    ],
                    "rotation": 180,
                    "texture": "#2"
                },
                "down": {
                    "uv": [
                        9,
                        0.5,
                        10.547,
                        3.047
                    ],
                    "rotation": 180,
                    "texture": "#2"
                }
            }
        },
        {
            "from": [
                8.09672,
                8.6018,
                -10.16085
            ],
            "to": [
                8.36672,
                8.8018,
                -6.16085
            ],
            "rotation": {
                "angle": 45,
                "axis": "z",
                "origin": [
                    8.10243,
                    8.6268,
                    -6.24829
                ]
            },
            "faces": {
                "north": {
                    "uv": [
                        9,
                        0.5,
                        10.547,
                        3.047
                    ],
                    "rotation": 180,
                    "texture": "#2"
                },
                "east": {
                    "uv": [
                        9,
                        0.5,
                        10.547,
                        3.047
                    ],
                    "rotation": 180,
                    "texture": "#2"
                },
                "south": {
                    "uv": [
                        9,
                        0.5,
                        10.547,
                        3.047
                    ],
                    "rotation": 180,
                    "texture": "#2"
                },
                "west": {
                    "uv": [
                        9,
                        0.5,
                        10.547,
                        3.047
                    ],
                    "rotation": 180,
                    "texture": "#2"
                },
                "up": {
                    "uv": [
                        9,
                        0.5,
                        10.547,
                        3.047
                    ],
                    "rotation": 180,
                    "texture": "#2"
                },
                "down": {
                    "uv": [
                        9,
                        0.5,
                        10.547,
                        3.047
                    ],
                    "rotation": 180,
                    "texture": "#2"
                }
            }
        },
        {
            "from": [
                7.99065,
                9.10414,
                -10.16085
            ],
            "to": [
                8.26065,
                9.30414,
                -6.16085
            ],
            "rotation": {
                "angle": -45,
                "axis": "z",
                "origin": [
                    7.99636,
                    9.12914,
                    -6.24829
                ]
            },
            "faces": {
                "north": {
                    "uv": [
                        9,
                        0.5,
                        10.547,
                        3.047
                    ],
                    "rotation": 180,
                    "texture": "#2"
                },
                "east": {
                    "uv": [
                        9,
                        0.5,
                        10.547,
                        3.047
                    ],
                    "rotation": 180,
                    "texture": "#2"
                },
                "south": {
                    "uv": [
                        9,
                        0.5,
                        10.547,
                        3.047
                    ],
                    "rotation": 180,
                    "texture": "#2"
                },
                "west": {
                    "uv": [
                        9,
                        0.5,
                        10.547,
                        3.047
                    ],
                    "rotation": 180,
                    "texture": "#2"
                },
                "up": {
                    "uv": [
                        9,
                        0.5,
                        10.547,
                        3.047
                    ],
                    "rotation": 180,
                    "texture": "#2"
                },
                "down": {
                    "uv": [
                        9,
                        0.5,
                        10.547,
                        3.047
                    ],
                    "rotation": 180,
                    "texture": "#2"
                }
            }
        },
        {
            "from": [
                7.67116,
                8.78464,
                -10.16085
            ],
            "to": [
                7.94116,
                8.98464,
                -6.16085
            ],
            "rotation": {
                "angle": -45,
                "axis": "z",
                "origin": [
                    7.67687,
                    8.80964,
                    -6.24829
                ]
            },
            "faces": {
                "north": {
                    "uv": [
                        9,
                        0.5,
                        10.547,
                        3.047
                    ],
                    "rotation": 180,
                    "texture": "#2"
                },
                "east": {
                    "uv": [
                        9,
                        0.5,
                        10.547,
                        3.047
                    ],
                    "rotation": 180,
                    "texture": "#2"
                },
                "south": {
                    "uv": [
                        9,
                        0.5,
                        10.547,
                        3.047
                    ],
                    "rotation": 180,
                    "texture": "#2"
                },
                "west": {
                    "uv": [
                        9,
                        0.5,
                        10.547,
                        3.047
                    ],
                    "rotation": 180,
                    "texture": "#2"
                },
                "up": {
                    "uv": [
                        9,
                        0.5,
                        10.547,
                        3.047
                    ],
                    "rotation": 180,
                    "texture": "#2"
                },
                "down": {
                    "uv": [
                        9,
                        0.5,
                        10.547,
                        3.047
                    ],
                    "rotation": 180,
                    "texture": "#2"
                }
            }
        }
    ],
    "display": {
        "thirdperson_righthand": {
            "translation": [
                -0.75,
                0,
                -3.75
            ],
            "scale": [
                0.8,
                0.8,
                0.8
            ]
        },
        "thirdperson_lefthand": {
            "translation": [
                -0.75,
                0,
                -3.75
            ],
            "scale": [
                0.8,
                0.8,
                0.8
            ]
        },
        "firstperson_righthand": {
            "translation": [
                -5.5,
                4.75,
                0
            ],
            "scale": [
                1,
                1,
                0.9
            ]
        },
        "firstperson_lefthand": {
            "translation": [
                -5.5,
                4.75,
                0
            ],
            "scale": [
                1,
                1,
                0.9
            ]
        },
        "ground": {
            "rotation": [
                0,
                0,
                45
            ],
            "scale": [
                0.88,
                0.88,
                0.88
            ]
        },
        "gui": {
            "rotation": [
                20,
                27,
                -14
            ],
            "translation": [
                -1,
                2,
                0
            ]
        },
        "head": {
            "rotation": [
                0,
                122,
                90
            ],
            "translation": [
                -3.25,
                7.25,
                1.75
            ]
        },
        "fixed": {
            "rotation": [
                0,
                90,
                0
            ],
            "translation": [
                -1.75,
                0,
                -2.25
            ]
        }
    }
}