{
    "textures": {
        "0": "gci:items/common/all_in_one",
        "2": "gci:items/common/mpz",
        "particle": "gci:items/common/all_in_one"
    },
    "elements": [
        {
            "from": [
                8.14142,
                8.828,
                -7.77
            ],
            "to": [
                8.24142,
                9.028,
                -6.334
            ],
            "rotation": {
                "angle": 45,
                "axis": "z",
                "origin": [
                    8,
                    8.928,
                    -5.404
                ]
            },
            "faces": {
                "north": {
                    "uv": [
                        7.625,
                        12.375,
                        7.625,
                        12.5
                    ],
                    "rotation": 270,
                    "texture": "#0"
                },
                "east": {
                    "uv": [
                        4,
                        3,
                        4.625,
                        3
                    ],
                    "rotation": 180,
                    "texture": "#0"
                },
                "south": {
                    "uv": [
                        4,
                        3,
                        4.625,
                        3
                    ],
                    "rotation": 180,
                    "texture": "#0"
                },
                "west": {
                    "uv": [
                        7.625,
                        12.375,
                        7.625,
                        12.5
                    ],
                    "rotation": 270,
                    "texture": "#0"
                },
                "up": {
                    "uv": [
                        4,
                        3,
                        4.625,
                        3
                    ],
                    "rotation": 180,
                    "texture": "#0"
                },
                "down": {
                    "uv": [
                        4,
                        3,
                        4.625,
                        3
                    ],
                    "rotation": 180,
                    "texture": "#0"
                }
            }
        },
        {
            "from": [
                7.75857,
                8.828,
                -7.77
            ],
            "to": [
                7.85857,
                9.028,
                -6.334
            ],
            "rotation": {
                "angle": 45,
                "axis": "z",
                "origin": [
                    8,
                    8.928,
                    -5.404
                ]
            },
            "faces": {
                "north": {
                    "uv": [
                        7.625,
                        12.375,
                        7.625,
                        12.5
                    ],
                    "rotation": 270,
                    "texture": "#0"
                },
                "east": {
                    "uv": [
                        7.625,
                        12.375,
                        7.625,
                        12.5
                    ],
                    "rotation": 270,
                    "texture": "#0"
                },
                "south": {
                    "uv": [
                        4,
                        3,
                        4.625,
                        3
                    ],
                    "rotation": 180,
                    "texture": "#0"
                },
                "west": {
                    "uv": [
                        4,
                        3,
                        4.625,
                        3
                    ],
                    "rotation": 180,
                    "texture": "#0"
                },
                "up": {
                    "uv": [
                        4,
                        3,
                        4.625,
                        3
                    ],
                    "rotation": 180,
                    "texture": "#0"
                },
                "down": {
                    "uv": [
                        4,
                        3,
                        4.625,
                        3
                    ],
                    "rotation": 180,
                    "texture": "#0"
                }
            }
        },
        {
            "from": [
                7.9,
                8.68658,
                -7.77
            ],
            "to": [
                8.1,
                8.78658,
                -6.334
            ],
            "rotation": {
                "angle": 0,
                "axis": "y",
                "origin": [
                    7.74142,
                    8.64516,
                    -19.154
                ]
            },
            "faces": {
                "north": {
                    "uv": [
                        7.625,
                        12.375,
                        7.625,
                        12.5
                    ],
                    "rotation": 270,
                    "texture": "#0"
                },
                "east": {
                    "uv": [
                        4,
                        3,
                        4.625,
                        3
                    ],
                    "rotation": 270,
                    "texture": "#0"
                },
                "south": {
                    "uv": [
                        4,
                        3,
                        4.625,
                        3
                    ],
                    "rotation": 270,
                    "texture": "#0"
                },
                "west": {
                    "uv": [
                        4,
                        3,
                        4.625,
                        3
                    ],
                    "rotation": 270,
                    "texture": "#0"
                },
                "up": {
                    "uv": [
                        7.625,
                        12.375,
                        7.625,
                        12.5
                    ],
                    "rotation": 270,
                    "texture": "#0"
                },
                "down": {
                    "uv": [
                        4,
                        3,
                        4.625,
                        3
                    ],
                    "rotation": 270,
                    "texture": "#0"
                }
            }
        },
        {
            "from": [
                7.9,
                9.06943,
                -7.77
            ],
            "to": [
                8.1,
                9.16943,
                -6.334
            ],
            "rotation": {
                "angle": 0,
                "axis": "y",
                "origin": [
                    7.74142,
                    9.028,
                    -19.154
                ]
            },
            "faces": {
                "north": {
                    "uv": [
                        7.625,
                        12.375,
                        7.625,
                        12.5
                    ],
                    "rotation": 270,
                    "texture": "#0"
                },
                "east": {
                    "uv": [
                        4,
                        3,
                        4.625,
                        3
                    ],
                    "rotation": 270,
                    "texture": "#0"
                },
                "south": {
                    "uv": [
                        4,
                        3,
                        4.625,
                        3
                    ],
                    "rotation": 270,
                    "texture": "#0"
                },
                "west": {
                    "uv": [
                        4,
                        3,
                        4.625,
                        3
                    ],
                    "rotation": 270,
                    "texture": "#0"
                },
                "up": {
                    "uv": [
                        4,
                        3,
                        4.625,
                        3
                    ],
                    "rotation": 270,
                    "texture": "#0"
                },
                "down": {
                    "uv": [
                        7.625,
                        12.375,
                        7.625,
                        12.5
                    ],
                    "rotation": 270,
                    "texture": "#0"
                }
            }
        },
        {
            "from": [
                8.15468,
                8.79476,
                -7.802
            ],
            "to": [
                8.31868,
                9.05876,
                -6.59
            ],
            "rotation": {
                "angle": 0,
                "axis": "y",
                "origin": [
                    8.21621,
                    8.92676,
                    -6.86
                ]
            },
            "faces": {
                "north": {
                    "uv": [
                        3,
                        2.75,
                        3,
                        2.875
                    ],
                    "texture": "#0"
                },
                "east": {
                    "uv": [
                        3,
                        2.75,
                        3,
                        2.875
                    ],
                    "rotation": 180,
                    "texture": "#0"
                },
                "south": {
                    "uv": [
                        3,
                        2.75,
                        3,
                        2.875
                    ],
                    "rotation": 180,
                    "texture": "#0"
                },
                "west": {
                    "uv": [
                        7.625,
                        12.375,
                        7.625,
                        12.5
                    ],
                    "rotation": 270,
                    "texture": "#0"
                },
                "up": {
                    "uv": [
                        3,
                        2.75,
                        3,
                        2.875
                    ],
                    "rotation": 180,
                    "texture": "#0"
                },
                "down": {
                    "uv": [
                        3,
                        2.75,
                        3,
                        2.875
                    ],
                    "rotation": 180,
                    "texture": "#0"
                }
            }
        },
        {
            "from": [
                7.68132,
                8.79476,
                -7.802
            ],
            "to": [
                7.84532,
                9.05876,
                -6.59
            ],
            "rotation": {
                "angle": 0,
                "axis": "y",
                "origin": [
                    7.83784,
                    8.85959,
                    -6.86
                ]
            },
            "faces": {
                "north": {
                    "uv": [
                        3,
                        2.75,
                        3,
                        2.875
                    ],
                    "rotation": 180,
                    "texture": "#0"
                },
                "east": {
                    "uv": [
                        7.625,
                        12.375,
                        7.625,
                        12.5
                    ],
                    "rotation": 270,
                    "texture": "#0"
                },
                "south": {
                    "uv": [
                        3,
                        2.75,
                        3,
                        2.875
                    ],
                    "texture": "#0"
                },
                "west": {
                    "uv": [
                        3,
                        2.75,
                        3,
                        2.875
                    ],
                    "texture": "#0"
                },
                "up": {
                    "uv": [
                        3,
                        2.75,
                        3,
                        2.875
                    ],
                    "texture": "#0"
                },
                "down": {
                    "uv": [
                        3,
                        2.75,
                        3,
                        2.875
                    ],
                    "texture": "#0"
                }
            }
        },
        {
            "from": [
                7.68132,
                8.98676,
                -7.958
            ],
            "to": [
                7.78132,
                9.05876,
                -7.802
            ],
            "rotation": {
                "angle": 0,
                "axis": "y",
                "origin": [
                    7.83784,
                    8.85959,
                    -7.016
                ]
            },
            "faces": {
                "north": {
                    "uv": [
                        3,
                        2.75,
                        3,
                        2.875
                    ],
                    "rotation": 180,
                    "texture": "#0"
                },
                "east": {
                    "uv": [
                        3,
                        2.75,
                        3,
                        2.875
                    ],
                    "texture": "#0"
                },
                "south": {
                    "uv": [
                        3,
                        2.75,
                        3,
                        2.875
                    ],
                    "texture": "#0"
                },
                "west": {
                    "uv": [
                        3,
                        2.75,
                        3,
                        2.875
                    ],
                    "texture": "#0"
                },
                "up": {
                    "uv": [
                        3,
                        2.75,
                        3,
                        2.875
                    ],
                    "texture": "#0"
                },
                "down": {
                    "uv": [
                        3,
                        2.75,
                        3,
                        2.875
                    ],
                    "texture": "#0"
                }
            }
        },
        {
            "from": [
                8.22532,
                8.98676,
                -7.958
            ],
            "to": [
                8.32532,
                9.05876,
                -7.802
            ],
            "rotation": {
                "angle": 0,
                "axis": "y",
                "origin": [
                    8.38184,
                    8.85959,
                    -7.016
                ]
            },
            "faces": {
                "north": {
                    "uv": [
                        3,
                        2.75,
                        3,
                        2.875
                    ],
                    "rotation": 180,
                    "texture": "#0"
                },
                "east": {
                    "uv": [
                        3,
                        2.75,
                        3,
                        2.875
                    ],
                    "texture": "#0"
                },
                "south": {
                    "uv": [
                        3,
                        2.75,
                        3,
                        2.875
                    ],
                    "texture": "#0"
                },
                "west": {
                    "uv": [
                        3,
                        2.75,
                        3,
                        2.875
                    ],
                    "texture": "#0"
                },
                "up": {
                    "uv": [
                        3,
                        2.75,
                        3,
                        2.875
                    ],
                    "texture": "#0"
                },
                "down": {
                    "uv": [
                        3,
                        2.75,
                        3,
                        2.875
                    ],
                    "texture": "#0"
                }
            }
        },
        {
            "from": [
                7.68132,
                8.79476,
                -7.958
            ],
            "to": [
                7.78132,
                8.86676,
                -7.802
            ],
            "rotation": {
                "angle": 0,
                "axis": "y",
                "origin": [
                    7.83784,
                    8.69959,
                    -7.016
                ]
            },
            "faces": {
                "north": {
                    "uv": [
                        3,
                        2.75,
                        3,
                        2.875
                    ],
                    "rotation": 180,
                    "texture": "#0"
                },
                "east": {
                    "uv": [
                        3,
                        2.75,
                        3,
                        2.875
                    ],
                    "texture": "#0"
                },
                "south": {
                    "uv": [
                        3,
                        2.75,
                        3,
                        2.875
                    ],
                    "texture": "#0"
                },
                "west": {
                    "uv": [
                        3,
                        2.75,
                        3,
                        2.875
                    ],
                    "texture": "#0"
                },
                "up": {
                    "uv": [
                        3,
                        2.75,
                        3,
                        2.875
                    ],
                    "texture": "#0"
                },
                "down": {
                    "uv": [
                        3,
                        2.75,
                        3,
                        2.875
                    ],
                    "texture": "#0"
                }
            }
        },
        {
            "from": [
                8.22532,
                8.79476,
                -7.958
            ],
            "to": [
                8.32532,
                8.86676,
                -7.802
            ],
            "rotation": {
                "angle": 0,
                "axis": "y",
                "origin": [
                    8.38184,
                    8.69959,
                    -7.016
                ]
            },
            "faces": {
                "north": {
                    "uv": [
                        3,
                        2.75,
                        3,
                        2.875
                    ],
                    "rotation": 180,
                    "texture": "#0"
                },
                "east": {
                    "uv": [
                        3,
                        2.75,
                        3,
                        2.875
                    ],
                    "texture": "#0"
                },
                "south": {
                    "uv": [
                        3,
                        2.75,
                        3,
                        2.875
                    ],
                    "texture": "#0"
                },
                "west": {
                    "uv": [
                        3,
                        2.75,
                        3,
                        2.875
                    ],
                    "texture": "#0"
                },
                "up": {
                    "uv": [
                        3,
                        2.75,
                        3,
                        2.875
                    ],
                    "texture": "#0"
                },
                "down": {
                    "uv": [
                        3,
                        2.75,
                        3,
                        2.875
                    ],
                    "texture": "#0"
                }
            }
        },
        {
            "from": [
                7.93133,
                8.92855,
                -7.802
            ],
            "to": [
                8.19533,
                9.09255,
                -6.59
            ],
            "rotation": {
                "angle": -45,
                "axis": "z",
                "origin": [
                    8.21621,
                    8.92676,
                    -6.86
                ]
            },
            "faces": {
                "north": {
                    "uv": [
                        3,
                        2.75,
                        3,
                        2.875
                    ],
                    "rotation": 270,
                    "texture": "#0"
                },
                "east": {
                    "uv": [
                        3,
                        2.75,
                        3,
                        2.875
                    ],
                    "rotation": 270,
                    "texture": "#0"
                },
                "south": {
                    "uv": [
                        3,
                        2.75,
                        3,
                        2.875
                    ],
                    "rotation": 270,
                    "texture": "#0"
                },
                "west": {
                    "uv": [
                        3,
                        2.75,
                        3,
                        2.875
                    ],
                    "rotation": 270,
                    "texture": "#0"
                },
                "up": {
                    "uv": [
                        3,
                        2.75,
                        3,
                        2.875
                    ],
                    "rotation": 270,
                    "texture": "#0"
                },
                "down": {
                    "uv": [
                        7.625,
                        12.375,
                        7.625,
                        12.5
                    ],
                    "rotation": 270,
                    "texture": "#0"
                }
            }
        },
        {
            "from": [
                7.93133,
                8.99255,
                -7.958
            ],
            "to": [
                8.19533,
                9.09255,
                -7.802
            ],
            "rotation": {
                "angle": -45,
                "axis": "z",
                "origin": [
                    8.21621,
                    8.92676,
                    -7.016
                ]
            },
            "faces": {
                "north": {
                    "uv": [
                        3,
                        2.75,
                        3,
                        2.875
                    ],
                    "rotation": 270,
                    "texture": "#0"
                },
                "east": {
                    "uv": [
                        3,
                        2.75,
                        3,
                        2.875
                    ],
                    "rotation": 270,
                    "texture": "#0"
                },
                "south": {
                    "uv": [
                        3,
                        2.75,
                        3,
                        2.875
                    ],
                    "rotation": 270,
                    "texture": "#0"
                },
                "west": {
                    "uv": [
                        3,
                        2.75,
                        3,
                        2.875
                    ],
                    "rotation": 270,
                    "texture": "#0"
                },
                "up": {
                    "uv": [
                        3,
                        2.75,
                        3,
                        2.875
                    ],
                    "rotation": 270,
                    "texture": "#0"
                },
                "down": {
                    "uv": [
                        3,
                        2.75,
                        3,
                        2.875
                    ],
                    "rotation": 270,
                    "texture": "#0"
                }
            }
        },
        {
            "from": [
                7.68132,
                8.66043,
                -7.802
            ],
            "to": [
                7.84532,
                8.92443,
                -6.59
            ],
            "rotation": {
                "angle": 45,
                "axis": "z",
                "origin": [
                    7.83784,
                    8.85959,
                    -6.86
                ]
            },
            "faces": {
                "north": {
                    "uv": [
                        3,
                        2.75,
                        3,
                        2.875
                    ],
                    "texture": "#0"
                },
                "east": {
                    "uv": [
                        7.625,
                        12.375,
                        7.625,
                        12.5
                    ],
                    "rotation": 270,
                    "texture": "#0"
                },
                "south": {
                    "uv": [
                        3,
                        2.75,
                        3,
                        2.875
                    ],
                    "rotation": 180,
                    "texture": "#0"
                },
                "west": {
                    "uv": [
                        3,
                        2.75,
                        3,
                        2.875
                    ],
                    "rotation": 180,
                    "texture": "#0"
                },
                "up": {
                    "uv": [
                        3,
                        2.75,
                        3,
                        2.875
                    ],
                    "rotation": 180,
                    "texture": "#0"
                },
                "down": {
                    "uv": [
                        3,
                        2.75,
                        3,
                        2.875
                    ],
                    "rotation": 180,
                    "texture": "#0"
                }
            }
        },
        {
            "from": [
                7.68132,
                8.66043,
                -7.958
            ],
            "to": [
                7.78132,
                8.92443,
                -7.802
            ],
            "rotation": {
                "angle": 45,
                "axis": "z",
                "origin": [
                    7.83784,
                    8.85959,
                    -7.016
                ]
            },
            "faces": {
                "north": {
                    "uv": [
                        3,
                        2.75,
                        3,
                        2.875
                    ],
                    "texture": "#0"
                },
                "east": {
                    "uv": [
                        3,
                        2.75,
                        3,
                        2.875
                    ],
                    "rotation": 180,
                    "texture": "#0"
                },
                "south": {
                    "uv": [
                        3,
                        2.75,
                        3,
                        2.875
                    ],
                    "rotation": 180,
                    "texture": "#0"
                },
                "west": {
                    "uv": [
                        3,
                        2.75,
                        3,
                        2.875
                    ],
                    "rotation": 180,
                    "texture": "#0"
                },
                "up": {
                    "uv": [
                        3,
                        2.75,
                        3,
                        2.875
                    ],
                    "rotation": 180,
                    "texture": "#0"
                },
                "down": {
                    "uv": [
                        3,
                        2.75,
                        3,
                        2.875
                    ],
                    "rotation": 180,
                    "texture": "#0"
                }
            }
        },
        {
            "from": [
                7.868,
                9.08144,
                -7.802
            ],
            "to": [
                8.132,
                9.24544,
                -6.59
            ],
            "rotation": {
                "angle": 0,
                "axis": "y",
                "origin": [
                    8,
                    9.21543,
                    -6.86
                ]
            },
            "faces": {
                "north": {
                    "uv": [
                        3,
                        2.75,
                        3,
                        2.875
                    ],
                    "rotation": 270,
                    "texture": "#0"
                },
                "east": {
                    "uv": [
                        3,
                        2.75,
                        3,
                        2.875
                    ],
                    "rotation": 270,
                    "texture": "#0"
                },
                "south": {
                    "uv": [
                        3,
                        2.75,
                        3,
                        2.875
                    ],
                    "rotation": 270,
                    "texture": "#0"
                },
                "west": {
                    "uv": [
                        3,
                        2.75,
                        3,
                        2.875
                    ],
                    "rotation": 270,
                    "texture": "#0"
                },
                "up": {
                    "uv": [
                        3,
                        2.75,
                        3,
                        2.875
                    ],
                    "rotation": 270,
                    "texture": "#0"
                },
                "down": {
                    "uv": [
                        7.625,
                        12.375,
                        7.625,
                        12.5
                    ],
                    "rotation": 270,
                    "texture": "#0"
                }
            }
        },
        {
            "from": [
                7.868,
                9.14544,
                -7.958
            ],
            "to": [
                8.132,
                9.24544,
                -7.802
            ],
            "rotation": {
                "angle": 0,
                "axis": "y",
                "origin": [
                    8,
                    9.21543,
                    -7.016
                ]
            },
            "faces": {
                "north": {
                    "uv": [
                        3,
                        2.75,
                        3,
                        2.875
                    ],
                    "rotation": 270,
                    "texture": "#0"
                },
                "east": {
                    "uv": [
                        3,
                        2.75,
                        3,
                        2.875
                    ],
                    "rotation": 270,
                    "texture": "#0"
                },
                "south": {
                    "uv": [
                        3,
                        2.75,
                        3,
                        2.875
                    ],
                    "rotation": 270,
                    "texture": "#0"
                },
                "west": {
                    "uv": [
                        3,
                        2.75,
                        3,
                        2.875
                    ],
                    "rotation": 270,
                    "texture": "#0"
                },
                "up": {
                    "uv": [
                        3,
                        2.75,
                        3,
                        2.875
                    ],
                    "rotation": 270,
                    "texture": "#0"
                },
                "down": {
                    "uv": [
                        3,
                        2.75,
                        3,
                        2.875
                    ],
                    "rotation": 270,
                    "texture": "#0"
                }
            }
        },
        {
            "from": [
                7.868,
                8.60809,
                -7.802
            ],
            "to": [
                8.132,
                8.77209,
                -6.59
            ],
            "rotation": {
                "angle": 0,
                "axis": "y",
                "origin": [
                    7.83784,
                    8.85959,
                    -6.86
                ]
            },
            "faces": {
                "north": {
                    "uv": [
                        3,
                        2.75,
                        3,
                        2.875
                    ],
                    "rotation": 90,
                    "texture": "#0"
                },
                "east": {
                    "uv": [
                        3,
                        2.75,
                        3,
                        2.875
                    ],
                    "rotation": 90,
                    "texture": "#0"
                },
                "south": {
                    "uv": [
                        3,
                        2.75,
                        3,
                        2.875
                    ],
                    "rotation": 90,
                    "texture": "#0"
                },
                "west": {
                    "uv": [
                        3,
                        2.75,
                        3,
                        2.875
                    ],
                    "rotation": 90,
                    "texture": "#0"
                },
                "up": {
                    "uv": [
                        7.625,
                        12.375,
                        7.625,
                        12.5
                    ],
                    "rotation": 270,
                    "texture": "#0"
                },
                "down": {
                    "uv": [
                        3,
                        2.75,
                        3,
                        2.875
                    ],
                    "rotation": 90,
                    "texture": "#0"
                }
            }
        },
        {
            "from": [
                7.868,
                8.60809,
                -7.958
            ],
            "to": [
                8.132,
                8.70809,
                -7.802
            ],
            "rotation": {
                "angle": 0,
                "axis": "y",
                "origin": [
                    7.83784,
                    8.85959,
                    -7.016
                ]
            },
            "faces": {
                "north": {
                    "uv": [
                        3,
                        2.75,
                        3,
                        2.875
                    ],
                    "rotation": 90,
                    "texture": "#0"
                },
                "east": {
                    "uv": [
                        3,
                        2.75,
                        3,
                        2.875
                    ],
                    "rotation": 90,
                    "texture": "#0"
                },
                "south": {
                    "uv": [
                        3,
                        2.75,
                        3,
                        2.875
                    ],
                    "rotation": 90,
                    "texture": "#0"
                },
                "west": {
                    "uv": [
                        3,
                        2.75,
                        3,
                        2.875
                    ],
                    "rotation": 90,
                    "texture": "#0"
                },
                "up": {
                    "uv": [
                        3,
                        2.75,
                        3,
                        2.875
                    ],
                    "rotation": 90,
                    "texture": "#0"
                },
                "down": {
                    "uv": [
                        3,
                        2.75,
                        3,
                        2.875
                    ],
                    "rotation": 90,
                    "texture": "#0"
                }
            }
        },
        {
            "from": [
                8.218,
                8.64188,
                -7.802
            ],
            "to": [
                8.382,
                8.90588,
                -6.59
            ],
            "rotation": {
                "angle": -45,
                "axis": "z",
                "origin": [
                    8.21621,
                    8.92676,
                    -6.86
                ]
            },
            "faces": {
                "north": {
                    "uv": [
                        3,
                        2.75,
                        3,
                        2.875
                    ],
                    "rotation": 180,
                    "texture": "#0"
                },
                "east": {
                    "uv": [
                        3,
                        2.75,
                        3,
                        2.875
                    ],
                    "texture": "#0"
                },
                "south": {
                    "uv": [
                        3,
                        2.75,
                        3,
                        2.875
                    ],
                    "texture": "#0"
                },
                "west": {
                    "uv": [
                        7.625,
                        12.375,
                        7.625,
                        12.5
                    ],
                    "rotation": 270,
                    "texture": "#0"
                },
                "up": {
                    "uv": [
                        3,
                        2.75,
                        3,
                        2.875
                    ],
                    "texture": "#0"
                },
                "down": {
                    "uv": [
                        3,
                        2.75,
                        3,
                        2.875
                    ],
                    "texture": "#0"
                }
            }
        },
        {
            "from": [
                8.282,
                8.64188,
                -7.958
            ],
            "to": [
                8.382,
                8.90588,
                -7.802
            ],
            "rotation": {
                "angle": -45,
                "axis": "z",
                "origin": [
                    8.21621,
                    8.92676,
                    -7.016
                ]
            },
            "faces": {
                "north": {
                    "uv": [
                        3,
                        2.75,
                        3,
                        2.875
                    ],
                    "rotation": 180,
                    "texture": "#0"
                },
                "east": {
                    "uv": [
                        3,
                        2.75,
                        3,
                        2.875
                    ],
                    "texture": "#0"
                },
                "south": {
                    "uv": [
                        3,
                        2.75,
                        3,
                        2.875
                    ],
                    "texture": "#0"
                },
                "west": {
                    "uv": [
                        3,
                        2.75,
                        3,
                        2.875
                    ],
                    "texture": "#0"
                },
                "up": {
                    "uv": [
                        3,
                        2.75,
                        3,
                        2.875
                    ],
                    "texture": "#0"
                },
                "down": {
                    "uv": [
                        3,
                        2.75,
                        3,
                        2.875
                    ],
                    "texture": "#0"
                }
            }
        },
        {
            "from": [
                7.868,
                8.9471,
                -7.802
            ],
            "to": [
                8.132,
                9.1111,
                -6.59
            ],
            "rotation": {
                "angle": 45,
                "axis": "z",
                "origin": [
                    7.83784,
                    8.85959,
                    -6.86
                ]
            },
            "faces": {
                "north": {
                    "uv": [
                        3,
                        2.75,
                        3,
                        2.875
                    ],
                    "rotation": 270,
                    "texture": "#0"
                },
                "east": {
                    "uv": [
                        3,
                        2.75,
                        3,
                        2.875
                    ],
                    "rotation": 270,
                    "texture": "#0"
                },
                "south": {
                    "uv": [
                        3,
                        2.75,
                        3,
                        2.875
                    ],
                    "rotation": 270,
                    "texture": "#0"
                },
                "west": {
                    "uv": [
                        3,
                        2.75,
                        3,
                        2.875
                    ],
                    "rotation": 270,
                    "texture": "#0"
                },
                "up": {
                    "uv": [
                        3,
                        2.75,
                        3,
                        2.875
                    ],
                    "rotation": 270,
                    "texture": "#0"
                },
                "down": {
                    "uv": [
                        7.625,
                        12.375,
                        7.625,
                        12.5
                    ],
                    "rotation": 270,
                    "texture": "#0"
                }
            }
        },
        {
            "from": [
                7.868,
                9.0111,
                -7.958
            ],
            "to": [
                8.132,
                9.1111,
                -7.802
            ],
            "rotation": {
                "angle": 45,
                "axis": "z",
                "origin": [
                    7.83784,
                    8.85959,
                    -7.016
                ]
            },
            "faces": {
                "north": {
                    "uv": [
                        3,
                        2.75,
                        3,
                        2.875
                    ],
                    "rotation": 270,
                    "texture": "#0"
                },
                "east": {
                    "uv": [
                        3,
                        2.75,
                        3,
                        2.875
                    ],
                    "rotation": 270,
                    "texture": "#0"
                },
                "south": {
                    "uv": [
                        3,
                        2.75,
                        3,
                        2.875
                    ],
                    "rotation": 270,
                    "texture": "#0"
                },
                "west": {
                    "uv": [
                        3,
                        2.75,
                        3,
                        2.875
                    ],
                    "rotation": 270,
                    "texture": "#0"
                },
                "up": {
                    "uv": [
                        3,
                        2.75,
                        3,
                        2.875
                    ],
                    "rotation": 270,
                    "texture": "#0"
                },
                "down": {
                    "uv": [
                        3,
                        2.75,
                        3,
                        2.875
                    ],
                    "rotation": 270,
                    "texture": "#0"
                }
            }
        },
        {
            "from": [
                7.75857,
                8.828,
                -7.77
            ],
            "to": [
                7.85857,
                9.028,
                -6.334
            ],
            "rotation": {
                "angle": 0,
                "axis": "y",
                "origin": [
                    7.80857,
                    8.928,
                    -6.404
                ]
            },
            "faces": {
                "north": {
                    "uv": [
                        7.625,
                        12.375,
                        7.625,
                        12.5
                    ],
                    "rotation": 270,
                    "texture": "#0"
                },
                "east": {
                    "uv": [
                        7.625,
                        12.375,
                        7.625,
                        12.5
                    ],
                    "rotation": 270,
                    "texture": "#0"
                },
                "south": {
                    "uv": [
                        4,
                        3,
                        4.625,
                        3
                    ],
                    "texture": "#0"
                },
                "west": {
                    "uv": [
                        4,
                        3,
                        4.625,
                        3
                    ],
                    "texture": "#0"
                },
                "up": {
                    "uv": [
                        4,
                        3,
                        4.625,
                        3
                    ],
                    "texture": "#0"
                },
                "down": {
                    "uv": [
                        4,
                        3,
                        4.625,
                        3
                    ],
                    "texture": "#0"
                }
            }
        },
        {
            "from": [
                8.14142,
                8.828,
                -7.77
            ],
            "to": [
                8.24142,
                9.028,
                -6.334
            ],
            "rotation": {
                "angle": 0,
                "axis": "y",
                "origin": [
                    8.19142,
                    8.928,
                    -6.404
                ]
            },
            "faces": {
                "north": {
                    "uv": [
                        7.625,
                        12.375,
                        7.625,
                        12.5
                    ],
                    "rotation": 270,
                    "texture": "#0"
                },
                "east": {
                    "uv": [
                        4,
                        3,
                        4.625,
                        3
                    ],
                    "texture": "#0"
                },
                "south": {
                    "uv": [
                        4,
                        3,
                        4.625,
                        3
                    ],
                    "texture": "#0"
                },
                "west": {
                    "uv": [
                        7.625,
                        12.375,
                        7.625,
                        12.5
                    ],
                    "rotation": 270,
                    "texture": "#0"
                },
                "up": {
                    "uv": [
                        4,
                        3,
                        4.625,
                        3
                    ],
                    "texture": "#0"
                },
                "down": {
                    "uv": [
                        4,
                        3,
                        4.625,
                        3
                    ],
                    "texture": "#0"
                }
            }
        },
        {
            "from": [
                7.9,
                8.68658,
                -7.77
            ],
            "to": [
                8.1,
                8.78658,
                -6.334
            ],
            "rotation": {
                "angle": 45,
                "axis": "z",
                "origin": [
                    8,
                    8.928,
                    -5.404
                ]
            },
            "faces": {
                "north": {
                    "uv": [
                        7.625,
                        12.375,
                        7.625,
                        12.5
                    ],
                    "rotation": 270,
                    "texture": "#0"
                },
                "east": {
                    "uv": [
                        4,
                        3,
                        4.625,
                        3
                    ],
                    "rotation": 90,
                    "texture": "#0"
                },
                "south": {
                    "uv": [
                        4,
                        3,
                        4.625,
                        3
                    ],
                    "rotation": 90,
                    "texture": "#0"
                },
                "west": {
                    "uv": [
                        4,
                        3,
                        4.625,
                        3
                    ],
                    "rotation": 90,
                    "texture": "#0"
                },
                "up": {
                    "uv": [
                        7.625,
                        12.375,
                        7.625,
                        12.5
                    ],
                    "rotation": 270,
                    "texture": "#0"
                },
                "down": {
                    "uv": [
                        4,
                        3,
                        4.625,
                        3
                    ],
                    "rotation": 90,
                    "texture": "#0"
                }
            }
        },
        {
            "from": [
                7.9,
                9.06943,
                -7.77
            ],
            "to": [
                8.1,
                9.16943,
                -6.334
            ],
            "rotation": {
                "angle": 45,
                "axis": "z",
                "origin": [
                    8,
                    8.928,
                    -5.404
                ]
            },
            "faces": {
                "north": {
                    "uv": [
                        7.625,
                        12.375,
                        7.625,
                        12.5
                    ],
                    "rotation": 270,
                    "texture": "#0"
                },
                "east": {
                    "uv": [
                        4,
                        3,
                        4.625,
                        3
                    ],
                    "rotation": 90,
                    "texture": "#0"
                },
                "south": {
                    "uv": [
                        4,
                        3,
                        4.625,
                        3
                    ],
                    "rotation": 90,
                    "texture": "#0"
                },
                "west": {
                    "uv": [
                        4,
                        3,
                        4.625,
                        3
                    ],
                    "rotation": 90,
                    "texture": "#0"
                },
                "up": {
                    "uv": [
                        4,
                        3,
                        4.625,
                        3
                    ],
                    "rotation": 90,
                    "texture": "#0"
                },
                "down": {
                    "uv": [
                        7.625,
                        12.375,
                        7.625,
                        12.5
                    ],
                    "rotation": 270,
                    "texture": "#0"
                }
            }
        }
    ],
    "display": {
        "thirdperson_righthand": {
            "translation": [
                -0.75,
                0,
                -3.75
            ],
            "scale": [
                0.8,
                0.8,
                0.8
            ]
        },
        "thirdperson_lefthand": {
            "translation": [
                -0.75,
                0,
                -3.75
            ],
            "scale": [
                0.8,
                0.8,
                0.8
            ]
        },
        "firstperson_righthand": {
            "translation": [
                -5.5,
                4.75,
                0
            ],
            "scale": [
                1,
                1,
                0.9
            ]
        },
        "firstperson_lefthand": {
            "translation": [
                -5.5,
                4.75,
                0
            ],
            "scale": [
                1,
                1,
                0.9
            ]
        },
        "ground": {
            "rotation": [
                0,
                0,
                45
            ],
            "scale": [
                0.88,
                0.88,
                0.88
            ]
        },
        "gui": {
            "rotation": [
                20,
                27,
                -14
            ],
            "translation": [
                -1,
                2,
                0
            ]
        },
        "head": {
            "rotation": [
                0,
                122,
                90
            ],
            "translation": [
                -3.25,
                7.25,
                1.75
            ]
        },
        "fixed": {
            "rotation": [
                0,
                90,
                0
            ],
            "translation": [
                -1.75,
                0,
                -2.25
            ]
        }
    }
}