{
    "textures": {
        "0": "gci:items/common/all_in_one",
        "2": "gci:items/common/mpz",
        "particle": "gci:items/common/all_in_one"
    },
    "elements": [
        {
            "from": [
                7.97894,
                7.6588,
                -2.69468
            ],
            "to": [
                8.14994,
                7.7158,
                -1.89668
            ],
            "rotation": {
                "angle": 0,
                "axis": "y",
                "origin": [
                    8.01395,
                    7.6873,
                    -1.99636
                ]
            },
            "faces": {
                "north": {
                    "uv": [
                        9.5,
                        5,
                        11.547,
                        7.047
                    ],
                    "rotation": 180,
                    "texture": "#2"
                },
                "east": {
                    "uv": [
                        9.5,
                        5,
                        11.547,
                        7.047
                    ],
                    "rotation": 180,
                    "texture": "#2"
                },
                "south": {
                    "uv": [
                        9.5,
                        5,
                        11.547,
                        7.047
                    ],
                    "rotation": 180,
                    "texture": "#2"
                },
                "west": {
                    "uv": [
                        9.5,
                        5,
                        11.547,
                        7.047
                    ],
                    "rotation": 180,
                    "texture": "#2"
                },
                "up": {
                    "uv": [
                        9.5,
                        5,
                        11.547,
                        7.047
                    ],
                    "rotation": 90,
                    "texture": "#2"
                },
                "down": {
                    "uv": [
                        9.5,
                        5,
                        11.547,
                        7.047
                    ],
                    "rotation": 270,
                    "texture": "#2"
                }
            }
        },
        {
            "from": [
                7.95614,
                7.71578,
                -2.35268
            ],
            "to": [
                8.17274,
                7.77278,
                -2.23868
            ],
            "rotation": {
                "angle": 0,
                "axis": "y",
                "origin": [
                    8.01395,
                    7.6873,
                    -2.22436
                ]
            },
            "faces": {
                "north": {
                    "uv": [
                        9.5,
                        5,
                        11.547,
                        7.047
                    ],
                    "rotation": 180,
                    "texture": "#2"
                },
                "east": {
                    "uv": [
                        9.5,
                        5,
                        11.547,
                        7.047
                    ],
                    "rotation": 180,
                    "texture": "#2"
                },
                "south": {
                    "uv": [
                        9.5,
                        5,
                        11.547,
                        7.047
                    ],
                    "rotation": 180,
                    "texture": "#2"
                },
                "west": {
                    "uv": [
                        9.5,
                        5,
                        11.547,
                        7.047
                    ],
                    "rotation": 180,
                    "texture": "#2"
                },
                "up": {
                    "uv": [
                        9.5,
                        5,
                        11.547,
                        7.047
                    ],
                    "rotation": 90,
                    "texture": "#2"
                },
                "down": {
                    "uv": [
                        9.5,
                        5,
                        11.547,
                        7.047
                    ],
                    "rotation": 270,
                    "texture": "#2"
                }
            }
        },
        {
            "from": [
                7.95614,
                7.24986,
                -2.35268
            ],
            "to": [
                8.17274,
                7.30686,
                -2.23868
            ],
            "rotation": {
                "angle": 0,
                "axis": "y",
                "origin": [
                    8.01395,
                    7.22138,
                    -2.22436
                ]
            },
            "faces": {
                "north": {
                    "uv": [
                        9.5,
                        5,
                        11.547,
                        7.047
                    ],
                    "rotation": 180,
                    "texture": "#2"
                },
                "east": {
                    "uv": [
                        9.5,
                        5,
                        11.547,
                        7.047
                    ],
                    "rotation": 180,
                    "texture": "#2"
                },
                "south": {
                    "uv": [
                        9.5,
                        5,
                        11.547,
                        7.047
                    ],
                    "rotation": 180,
                    "texture": "#2"
                },
                "west": {
                    "uv": [
                        9.5,
                        5,
                        11.547,
                        7.047
                    ],
                    "rotation": 180,
                    "texture": "#2"
                },
                "up": {
                    "uv": [
                        9.5,
                        5,
                        11.547,
                        7.047
                    ],
                    "rotation": 90,
                    "texture": "#2"
                },
                "down": {
                    "uv": [
                        9.5,
                        5,
                        11.547,
                        7.047
                    ],
                    "rotation": 270,
                    "texture": "#2"
                }
            }
        },
        {
            "from": [
                8.2689,
                7.40302,
                -2.35268
            ],
            "to": [
                8.3259,
                7.61962,
                -2.23868
            ],
            "rotation": {
                "angle": 0,
                "axis": "y",
                "origin": [
                    8.35438,
                    7.45513,
                    -2.22436
                ]
            },
            "faces": {
                "north": {
                    "uv": [
                        9.5,
                        5,
                        11.547,
                        7.047
                    ],
                    "rotation": 270,
                    "texture": "#2"
                },
                "east": {
                    "uv": [
                        9.5,
                        5,
                        11.547,
                        7.047
                    ],
                    "rotation": 270,
                    "texture": "#2"
                },
                "south": {
                    "uv": [
                        9.5,
                        5,
                        11.547,
                        7.047
                    ],
                    "rotation": 270,
                    "texture": "#2"
                },
                "west": {
                    "uv": [
                        9.5,
                        5,
                        11.547,
                        7.047
                    ],
                    "rotation": 270,
                    "texture": "#2"
                },
                "up": {
                    "uv": [
                        9.5,
                        5,
                        11.547,
                        7.047
                    ],
                    "rotation": 180,
                    "texture": "#2"
                },
                "down": {
                    "uv": [
                        9.5,
                        5,
                        11.547,
                        7.047
                    ],
                    "texture": "#2"
                }
            }
        },
        {
            "from": [
                7.80298,
                7.40302,
                -2.35268
            ],
            "to": [
                7.85998,
                7.61962,
                -2.23868
            ],
            "rotation": {
                "angle": 0,
                "axis": "y",
                "origin": [
                    7.88846,
                    7.45513,
                    -2.22436
                ]
            },
            "faces": {
                "north": {
                    "uv": [
                        9.5,
                        5,
                        11.547,
                        7.047
                    ],
                    "rotation": 270,
                    "texture": "#2"
                },
                "east": {
                    "uv": [
                        9.5,
                        5,
                        11.547,
                        7.047
                    ],
                    "rotation": 270,
                    "texture": "#2"
                },
                "south": {
                    "uv": [
                        9.5,
                        5,
                        11.547,
                        7.047
                    ],
                    "rotation": 270,
                    "texture": "#2"
                },
                "west": {
                    "uv": [
                        9.5,
                        5,
                        11.547,
                        7.047
                    ],
                    "rotation": 270,
                    "texture": "#2"
                },
                "up": {
                    "uv": [
                        9.5,
                        5,
                        11.547,
                        7.047
                    ],
                    "rotation": 180,
                    "texture": "#2"
                },
                "down": {
                    "uv": [
                        9.5,
                        5,
                        11.547,
                        7.047
                    ],
                    "texture": "#2"
                }
            }
        },
        {
            "from": [
                7.84816,
                7.6245,
                -2.35268
            ],
            "to": [
                8.06476,
                7.6815,
                -2.23868
            ],
            "rotation": {
                "angle": 45,
                "axis": "z",
                "origin": [
                    7.90027,
                    7.59602,
                    -2.22436
                ]
            },
            "faces": {
                "north": {
                    "uv": [
                        9.5,
                        5,
                        11.547,
                        7.047
                    ],
                    "rotation": 180,
                    "texture": "#2"
                },
                "east": {
                    "uv": [
                        9.5,
                        5,
                        11.547,
                        7.047
                    ],
                    "rotation": 180,
                    "texture": "#2"
                },
                "south": {
                    "uv": [
                        9.5,
                        5,
                        11.547,
                        7.047
                    ],
                    "rotation": 180,
                    "texture": "#2"
                },
                "west": {
                    "uv": [
                        9.5,
                        5,
                        11.547,
                        7.047
                    ],
                    "rotation": 180,
                    "texture": "#2"
                },
                "up": {
                    "uv": [
                        9.5,
                        5,
                        11.547,
                        7.047
                    ],
                    "rotation": 90,
                    "texture": "#2"
                },
                "down": {
                    "uv": [
                        9.5,
                        5,
                        11.547,
                        7.047
                    ],
                    "rotation": 270,
                    "texture": "#2"
                }
            }
        },
        {
            "from": [
                8.17761,
                7.29505,
                -2.35268
            ],
            "to": [
                8.39421,
                7.35205,
                -2.23868
            ],
            "rotation": {
                "angle": 45,
                "axis": "z",
                "origin": [
                    8.22972,
                    7.26657,
                    -2.22436
                ]
            },
            "faces": {
                "north": {
                    "uv": [
                        9.5,
                        5,
                        11.547,
                        7.047
                    ],
                    "rotation": 180,
                    "texture": "#2"
                },
                "east": {
                    "uv": [
                        9.5,
                        5,
                        11.547,
                        7.047
                    ],
                    "rotation": 180,
                    "texture": "#2"
                },
                "south": {
                    "uv": [
                        9.5,
                        5,
                        11.547,
                        7.047
                    ],
                    "rotation": 180,
                    "texture": "#2"
                },
                "west": {
                    "uv": [
                        9.5,
                        5,
                        11.547,
                        7.047
                    ],
                    "rotation": 180,
                    "texture": "#2"
                },
                "up": {
                    "uv": [
                        9.5,
                        5,
                        11.547,
                        7.047
                    ],
                    "rotation": 90,
                    "texture": "#2"
                },
                "down": {
                    "uv": [
                        9.5,
                        5,
                        11.547,
                        7.047
                    ],
                    "rotation": 270,
                    "texture": "#2"
                }
            }
        },
        {
            "from": [
                8.09703,
                7.70397,
                -2.35268
            ],
            "to": [
                8.31363,
                7.76097,
                -2.23868
            ],
            "rotation": {
                "angle": -45,
                "axis": "z",
                "origin": [
                    8.14914,
                    7.67549,
                    -2.22436
                ]
            },
            "faces": {
                "north": {
                    "uv": [
                        9.5,
                        5,
                        11.547,
                        7.047
                    ],
                    "rotation": 180,
                    "texture": "#2"
                },
                "east": {
                    "uv": [
                        9.5,
                        5,
                        11.547,
                        7.047
                    ],
                    "rotation": 180,
                    "texture": "#2"
                },
                "south": {
                    "uv": [
                        9.5,
                        5,
                        11.547,
                        7.047
                    ],
                    "rotation": 180,
                    "texture": "#2"
                },
                "west": {
                    "uv": [
                        9.5,
                        5,
                        11.547,
                        7.047
                    ],
                    "rotation": 180,
                    "texture": "#2"
                },
                "up": {
                    "uv": [
                        9.5,
                        5,
                        11.547,
                        7.047
                    ],
                    "rotation": 90,
                    "texture": "#2"
                },
                "down": {
                    "uv": [
                        9.5,
                        5,
                        11.547,
                        7.047
                    ],
                    "rotation": 270,
                    "texture": "#2"
                }
            }
        },
        {
            "from": [
                7.76759,
                7.37451,
                -2.35268
            ],
            "to": [
                7.98419,
                7.43151,
                -2.23868
            ],
            "rotation": {
                "angle": -45,
                "axis": "z",
                "origin": [
                    7.8197,
                    7.34603,
                    -2.22436
                ]
            },
            "faces": {
                "north": {
                    "uv": [
                        9.5,
                        5,
                        11.547,
                        7.047
                    ],
                    "rotation": 180,
                    "texture": "#2"
                },
                "east": {
                    "uv": [
                        9.5,
                        5,
                        11.547,
                        7.047
                    ],
                    "rotation": 180,
                    "texture": "#2"
                },
                "south": {
                    "uv": [
                        9.5,
                        5,
                        11.547,
                        7.047
                    ],
                    "rotation": 180,
                    "texture": "#2"
                },
                "west": {
                    "uv": [
                        9.5,
                        5,
                        11.547,
                        7.047
                    ],
                    "rotation": 180,
                    "texture": "#2"
                },
                "up": {
                    "uv": [
                        9.5,
                        5,
                        11.547,
                        7.047
                    ],
                    "rotation": 90,
                    "texture": "#2"
                },
                "down": {
                    "uv": [
                        9.5,
                        5,
                        11.547,
                        7.047
                    ],
                    "rotation": 270,
                    "texture": "#2"
                }
            }
        },
        {
            "from": [
                7.86149,
                7.58654,
                -2.69468
            ],
            "to": [
                8.03249,
                7.64354,
                -1.89668
            ],
            "rotation": {
                "angle": 45,
                "axis": "z",
                "origin": [
                    7.91849,
                    7.61504,
                    -1.95368
                ]
            },
            "faces": {
                "north": {
                    "uv": [
                        9.5,
                        5,
                        11.547,
                        7.047
                    ],
                    "rotation": 180,
                    "texture": "#2"
                },
                "east": {
                    "uv": [
                        9.5,
                        5,
                        11.547,
                        7.047
                    ],
                    "rotation": 180,
                    "texture": "#2"
                },
                "south": {
                    "uv": [
                        9.5,
                        5,
                        11.547,
                        7.047
                    ],
                    "rotation": 180,
                    "texture": "#2"
                },
                "west": {
                    "uv": [
                        9.5,
                        5,
                        11.547,
                        7.047
                    ],
                    "rotation": 180,
                    "texture": "#2"
                },
                "up": {
                    "uv": [
                        9.5,
                        5,
                        11.547,
                        7.047
                    ],
                    "rotation": 90,
                    "texture": "#2"
                },
                "down": {
                    "uv": [
                        9.5,
                        5,
                        11.547,
                        7.047
                    ],
                    "rotation": 270,
                    "texture": "#2"
                }
            }
        },
        {
            "from": [
                7.85802,
                7.42389,
                -2.69468
            ],
            "to": [
                7.91502,
                7.59489,
                -1.89668
            ],
            "rotation": {
                "angle": 0,
                "axis": "y",
                "origin": [
                    8.24562,
                    7.85529,
                    -2.25008
                ]
            },
            "faces": {
                "north": {
                    "uv": [
                        9.5,
                        5,
                        11.547,
                        7.047
                    ],
                    "texture": "#2"
                },
                "east": {
                    "uv": [
                        9.5,
                        5,
                        11.547,
                        7.047
                    ],
                    "texture": "#2"
                },
                "south": {
                    "uv": [
                        9.5,
                        5,
                        11.547,
                        7.047
                    ],
                    "texture": "#2"
                },
                "west": {
                    "uv": [
                        9.5,
                        5,
                        11.547,
                        7.047
                    ],
                    "texture": "#2"
                },
                "up": {
                    "uv": [
                        9.5,
                        5,
                        11.547,
                        7.047
                    ],
                    "rotation": 270,
                    "texture": "#2"
                },
                "down": {
                    "uv": [
                        9.5,
                        5,
                        11.547,
                        7.047
                    ],
                    "rotation": 90,
                    "texture": "#2"
                }
            }
        },
        {
            "from": [
                7.93029,
                7.30643,
                -2.69468
            ],
            "to": [
                7.98729,
                7.47743,
                -1.89668
            ],
            "rotation": {
                "angle": 45,
                "axis": "z",
                "origin": [
                    7.95879,
                    7.36343,
                    -1.95368
                ]
            },
            "faces": {
                "north": {
                    "uv": [
                        9.5,
                        5,
                        11.547,
                        7.047
                    ],
                    "texture": "#2"
                },
                "east": {
                    "uv": [
                        9.5,
                        5,
                        11.547,
                        7.047
                    ],
                    "texture": "#2"
                },
                "south": {
                    "uv": [
                        9.5,
                        5,
                        11.547,
                        7.047
                    ],
                    "texture": "#2"
                },
                "west": {
                    "uv": [
                        9.5,
                        5,
                        11.547,
                        7.047
                    ],
                    "texture": "#2"
                },
                "up": {
                    "uv": [
                        9.5,
                        5,
                        11.547,
                        7.047
                    ],
                    "rotation": 270,
                    "texture": "#2"
                },
                "down": {
                    "uv": [
                        9.5,
                        5,
                        11.547,
                        7.047
                    ],
                    "rotation": 90,
                    "texture": "#2"
                }
            }
        },
        {
            "from": [
                8.1819,
                7.55804,
                -2.69468
            ],
            "to": [
                8.2389,
                7.72904,
                -1.89668
            ],
            "rotation": {
                "angle": 45,
                "axis": "z",
                "origin": [
                    8.2104,
                    7.61504,
                    -1.95368
                ]
            },
            "faces": {
                "north": {
                    "uv": [
                        9.5,
                        5,
                        11.547,
                        7.047
                    ],
                    "texture": "#2"
                },
                "east": {
                    "uv": [
                        9.5,
                        5,
                        11.547,
                        7.047
                    ],
                    "texture": "#2"
                },
                "south": {
                    "uv": [
                        9.5,
                        5,
                        11.547,
                        7.047
                    ],
                    "texture": "#2"
                },
                "west": {
                    "uv": [
                        9.5,
                        5,
                        11.547,
                        7.047
                    ],
                    "texture": "#2"
                },
                "up": {
                    "uv": [
                        9.5,
                        5,
                        11.547,
                        7.047
                    ],
                    "rotation": 270,
                    "texture": "#2"
                },
                "down": {
                    "uv": [
                        9.5,
                        5,
                        11.547,
                        7.047
                    ],
                    "rotation": 90,
                    "texture": "#2"
                }
            }
        },
        {
            "from": [
                8.21386,
                7.42389,
                -2.69468
            ],
            "to": [
                8.27086,
                7.59489,
                -1.89668
            ],
            "rotation": {
                "angle": 0,
                "axis": "y",
                "origin": [
                    8.53307,
                    7.62729,
                    -2.25008
                ]
            },
            "faces": {
                "north": {
                    "uv": [
                        9.5,
                        5,
                        11.547,
                        7.047
                    ],
                    "texture": "#2"
                },
                "east": {
                    "uv": [
                        9.5,
                        5,
                        11.547,
                        7.047
                    ],
                    "texture": "#2"
                },
                "south": {
                    "uv": [
                        9.5,
                        5,
                        11.547,
                        7.047
                    ],
                    "texture": "#2"
                },
                "west": {
                    "uv": [
                        9.5,
                        5,
                        11.547,
                        7.047
                    ],
                    "texture": "#2"
                },
                "up": {
                    "uv": [
                        9.5,
                        5,
                        11.547,
                        7.047
                    ],
                    "rotation": 270,
                    "texture": "#2"
                },
                "down": {
                    "uv": [
                        9.5,
                        5,
                        11.547,
                        7.047
                    ],
                    "rotation": 90,
                    "texture": "#2"
                }
            }
        },
        {
            "from": [
                8.1131,
                7.33493,
                -2.69468
            ],
            "to": [
                8.2841,
                7.39193,
                -1.89668
            ],
            "rotation": {
                "angle": 45,
                "axis": "z",
                "origin": [
                    8.1701,
                    7.36343,
                    -1.95368
                ]
            },
            "faces": {
                "north": {
                    "uv": [
                        9.5,
                        5,
                        11.547,
                        7.047
                    ],
                    "rotation": 180,
                    "texture": "#2"
                },
                "east": {
                    "uv": [
                        9.5,
                        5,
                        11.547,
                        7.047
                    ],
                    "rotation": 180,
                    "texture": "#2"
                },
                "south": {
                    "uv": [
                        9.5,
                        5,
                        11.547,
                        7.047
                    ],
                    "rotation": 180,
                    "texture": "#2"
                },
                "west": {
                    "uv": [
                        9.5,
                        5,
                        11.547,
                        7.047
                    ],
                    "rotation": 180,
                    "texture": "#2"
                },
                "up": {
                    "uv": [
                        9.5,
                        5,
                        11.547,
                        7.047
                    ],
                    "rotation": 90,
                    "texture": "#2"
                },
                "down": {
                    "uv": [
                        9.5,
                        5,
                        11.547,
                        7.047
                    ],
                    "rotation": 270,
                    "texture": "#2"
                }
            }
        },
        {
            "from": [
                7.97894,
                7.30297,
                -2.69468
            ],
            "to": [
                8.14994,
                7.35997,
                -1.89668
            ],
            "rotation": {
                "angle": 0,
                "axis": "y",
                "origin": [
                    8.04244,
                    7.33147,
                    -1.99636
                ]
            },
            "faces": {
                "north": {
                    "uv": [
                        9.5,
                        5,
                        11.547,
                        7.047
                    ],
                    "rotation": 180,
                    "texture": "#2"
                },
                "east": {
                    "uv": [
                        9.5,
                        5,
                        11.547,
                        7.047
                    ],
                    "rotation": 180,
                    "texture": "#2"
                },
                "south": {
                    "uv": [
                        9.5,
                        5,
                        11.547,
                        7.047
                    ],
                    "rotation": 180,
                    "texture": "#2"
                },
                "west": {
                    "uv": [
                        9.5,
                        5,
                        11.547,
                        7.047
                    ],
                    "rotation": 180,
                    "texture": "#2"
                },
                "up": {
                    "uv": [
                        9.5,
                        5,
                        11.547,
                        7.047
                    ],
                    "rotation": 90,
                    "texture": "#2"
                },
                "down": {
                    "uv": [
                        9.5,
                        5,
                        11.547,
                        7.047
                    ],
                    "rotation": 270,
                    "texture": "#2"
                }
            }
        },
        {
            "from": [
                7.72244,
                7.12708,
                -1.87388
            ],
            "to": [
                8.40644,
                7.35508,
                0.74812
            ],
            "rotation": {
                "angle": 0,
                "axis": "y",
                "origin": [
                    8.06444,
                    8.07912,
                    4.60932
                ]
            },
            "faces": {
                "north": {
                    "uv": [
                        0,
                        0,
                        3.032,
                        2.394
                    ],
                    "texture": "#2"
                },
                "east": {
                    "uv": [
                        0,
                        0,
                        3.032,
                        2.394
                    ],
                    "texture": "#2"
                },
                "south": {
                    "uv": [
                        0,
                        0,
                        3.032,
                        2.394
                    ],
                    "texture": "#2"
                },
                "west": {
                    "uv": [
                        0,
                        0,
                        3.032,
                        2.394
                    ],
                    "texture": "#2"
                },
                "up": {
                    "uv": [
                        0,
                        0,
                        3.032,
                        2.394
                    ],
                    "rotation": 270,
                    "texture": "#2"
                },
                "down": {
                    "uv": [
                        0,
                        0,
                        3.032,
                        2.394
                    ],
                    "rotation": 90,
                    "texture": "#2"
                }
            }
        },
        {
            "from": [
                7.83644,
                7.35508,
                -1.87388
            ],
            "to": [
                8.40644,
                7.69708,
                0.86212
            ],
            "rotation": {
                "angle": 0,
                "axis": "y",
                "origin": [
                    8.17844,
                    8.30712,
                    4.60932
                ]
            },
            "faces": {
                "north": {
                    "uv": [
                        0,
                        0,
                        3.032,
                        2.394
                    ],
                    "texture": "#2"
                },
                "east": {
                    "uv": [
                        0,
                        0,
                        3.032,
                        2.394
                    ],
                    "texture": "#2"
                },
                "south": {
                    "uv": [
                        0,
                        0,
                        3.032,
                        2.394
                    ],
                    "texture": "#2"
                },
                "west": {
                    "uv": [
                        0,
                        0,
                        3.032,
                        2.394
                    ],
                    "texture": "#2"
                },
                "up": {
                    "uv": [
                        0,
                        0,
                        3.032,
                        2.394
                    ],
                    "rotation": 270,
                    "texture": "#2"
                },
                "down": {
                    "uv": [
                        0,
                        0,
                        3.032,
                        2.394
                    ],
                    "rotation": 90,
                    "texture": "#2"
                }
            }
        },
        {
            "from": [
                7.72244,
                7.35508,
                -1.87388
            ],
            "to": [
                7.83644,
                7.69708,
                -1.64588
            ],
            "rotation": {
                "angle": 0,
                "axis": "y",
                "origin": [
                    8.06444,
                    8.30712,
                    4.60932
                ]
            },
            "faces": {
                "north": {
                    "uv": [
                        0,
                        0,
                        3.032,
                        2.394
                    ],
                    "texture": "#2"
                },
                "east": {
                    "uv": [
                        0,
                        0,
                        3.032,
                        2.394
                    ],
                    "texture": "#2"
                },
                "south": {
                    "uv": [
                        0,
                        0,
                        3.032,
                        2.394
                    ],
                    "texture": "#2"
                },
                "west": {
                    "uv": [
                        0,
                        0,
                        3.032,
                        2.394
                    ],
                    "texture": "#2"
                },
                "up": {
                    "uv": [
                        0,
                        0,
                        3.032,
                        2.394
                    ],
                    "rotation": 270,
                    "texture": "#2"
                },
                "down": {
                    "uv": [
                        0,
                        0,
                        3.032,
                        2.394
                    ],
                    "rotation": 90,
                    "texture": "#2"
                }
            }
        },
        {
            "from": [
                7.68824,
                7.81108,
                0.97612
            ],
            "to": [
                7.80444,
                8.15708,
                1.20412
            ],
            "rotation": {
                "angle": 0,
                "axis": "y",
                "origin": [
                    8.06444,
                    8.76312,
                    7.45932
                ]
            },
            "faces": {
                "north": {
                    "uv": [
                        0,
                        0,
                        3.032,
                        2.394
                    ],
                    "texture": "#2"
                },
                "east": {
                    "uv": [
                        0,
                        0,
                        3.032,
                        2.394
                    ],
                    "texture": "#2"
                },
                "south": {
                    "uv": [
                        0,
                        0,
                        3.032,
                        2.394
                    ],
                    "texture": "#2"
                },
                "west": {
                    "uv": [
                        0,
                        0,
                        3.032,
                        2.394
                    ],
                    "texture": "#2"
                },
                "up": {
                    "uv": [
                        0,
                        0,
                        3.032,
                        2.394
                    ],
                    "rotation": 270,
                    "texture": "#2"
                },
                "down": {
                    "uv": [
                        0,
                        0,
                        3.032,
                        2.394
                    ],
                    "rotation": 90,
                    "texture": "#2"
                }
            }
        },
        {
            "from": [
                7.68824,
                7.81108,
                -1.41788
            ],
            "to": [
                7.80444,
                8.15708,
                -1.18988
            ],
            "rotation": {
                "angle": 0,
                "axis": "y",
                "origin": [
                    8.06444,
                    8.76312,
                    5.06532
                ]
            },
            "faces": {
                "north": {
                    "uv": [
                        0,
                        0,
                        3.032,
                        2.394
                    ],
                    "texture": "#2"
                },
                "east": {
                    "uv": [
                        0,
                        0,
                        3.032,
                        2.394
                    ],
                    "texture": "#2"
                },
                "south": {
                    "uv": [
                        0,
                        0,
                        3.032,
                        2.394
                    ],
                    "texture": "#2"
                },
                "west": {
                    "uv": [
                        0,
                        0,
                        3.032,
                        2.394
                    ],
                    "texture": "#2"
                },
                "up": {
                    "uv": [
                        0,
                        0,
                        3.032,
                        2.394
                    ],
                    "rotation": 270,
                    "texture": "#2"
                },
                "down": {
                    "uv": [
                        0,
                        0,
                        3.032,
                        2.394
                    ],
                    "rotation": 90,
                    "texture": "#2"
                }
            }
        },
        {
            "from": [
                8.32444,
                7.81108,
                0.97612
            ],
            "to": [
                8.44064,
                8.15708,
                1.20412
            ],
            "rotation": {
                "angle": 0,
                "axis": "y",
                "origin": [
                    8.63444,
                    8.76312,
                    7.45932
                ]
            },
            "faces": {
                "north": {
                    "uv": [
                        0,
                        0,
                        3.032,
                        2.394
                    ],
                    "texture": "#2"
                },
                "east": {
                    "uv": [
                        0,
                        0,
                        3.032,
                        2.394
                    ],
                    "texture": "#2"
                },
                "south": {
                    "uv": [
                        0,
                        0,
                        3.032,
                        2.394
                    ],
                    "texture": "#2"
                },
                "west": {
                    "uv": [
                        0,
                        0,
                        3.032,
                        2.394
                    ],
                    "texture": "#2"
                },
                "up": {
                    "uv": [
                        0,
                        0,
                        3.032,
                        2.394
                    ],
                    "rotation": 270,
                    "texture": "#2"
                },
                "down": {
                    "uv": [
                        0,
                        0,
                        3.032,
                        2.394
                    ],
                    "rotation": 90,
                    "texture": "#2"
                }
            }
        },
        {
            "from": [
                8.32444,
                7.81108,
                -1.41788
            ],
            "to": [
                8.44064,
                8.15708,
                -1.18988
            ],
            "rotation": {
                "angle": 0,
                "axis": "y",
                "origin": [
                    8.63444,
                    8.76312,
                    5.06532
                ]
            },
            "faces": {
                "north": {
                    "uv": [
                        0,
                        0,
                        3.032,
                        2.394
                    ],
                    "texture": "#2"
                },
                "east": {
                    "uv": [
                        0,
                        0,
                        3.032,
                        2.394
                    ],
                    "texture": "#2"
                },
                "south": {
                    "uv": [
                        0,
                        0,
                        3.032,
                        2.394
                    ],
                    "texture": "#2"
                },
                "west": {
                    "uv": [
                        0,
                        0,
                        3.032,
                        2.394
                    ],
                    "texture": "#2"
                },
                "up": {
                    "uv": [
                        0,
                        0,
                        3.032,
                        2.394
                    ],
                    "rotation": 270,
                    "texture": "#2"
                },
                "down": {
                    "uv": [
                        0,
                        0,
                        3.032,
                        2.394
                    ],
                    "rotation": 90,
                    "texture": "#2"
                }
            }
        },
        {
            "from": [
                7.72244,
                7.67428,
                -1.87388
            ],
            "to": [
                8.40644,
                8.12628,
                1.31812
            ],
            "rotation": {
                "angle": 0,
                "axis": "y",
                "origin": [
                    8.06444,
                    8.53512,
                    4.60932
                ]
            },
            "faces": {
                "north": {
                    "uv": [
                        0,
                        0,
                        3.032,
                        2.394
                    ],
                    "texture": "#2"
                },
                "east": {
                    "uv": [
                        0,
                        0,
                        3.032,
                        2.394
                    ],
                    "texture": "#2"
                },
                "south": {
                    "uv": [
                        0,
                        0,
                        3.032,
                        2.394
                    ],
                    "texture": "#2"
                },
                "west": {
                    "uv": [
                        0,
                        0,
                        3.032,
                        2.394
                    ],
                    "texture": "#2"
                },
                "up": {
                    "uv": [
                        0,
                        0,
                        3.032,
                        2.394
                    ],
                    "rotation": 270,
                    "texture": "#2"
                },
                "down": {
                    "uv": [
                        0,
                        0,
                        3.032,
                        2.394
                    ],
                    "rotation": 90,
                    "texture": "#2"
                }
            }
        },
        {
            "from": [
                7.72244,
                6.70089,
                -0.73388
            ],
            "to": [
                8.40644,
                7.38489,
                0.06412
            ],
            "rotation": {
                "angle": -22.5,
                "axis": "x",
                "origin": [
                    8.06444,
                    7.04289,
                    -0.44888
                ]
            },
            "faces": {
                "north": {
                    "uv": [
                        0,
                        0,
                        3.032,
                        2.394
                    ],
                    "texture": "#2"
                },
                "east": {
                    "uv": [
                        0,
                        0,
                        3.032,
                        2.394
                    ],
                    "texture": "#2"
                },
                "south": {
                    "uv": [
                        0,
                        0,
                        3.032,
                        2.394
                    ],
                    "texture": "#2"
                },
                "west": {
                    "uv": [
                        0,
                        0,
                        3.032,
                        2.394
                    ],
                    "texture": "#2"
                },
                "up": {
                    "uv": [
                        0,
                        0,
                        3.032,
                        2.394
                    ],
                    "rotation": 270,
                    "texture": "#2"
                },
                "down": {
                    "uv": [
                        0,
                        0,
                        3.032,
                        2.394
                    ],
                    "rotation": 90,
                    "texture": "#2"
                }
            }
        },
        {
            "from": [
                7.72244,
                6.87628,
                -0.39188
            ],
            "to": [
                8.40644,
                7.67428,
                0.86212
            ],
            "rotation": {
                "angle": 0,
                "axis": "y",
                "origin": [
                    8.06444,
                    7.10428,
                    0.23512
                ]
            },
            "faces": {
                "north": {
                    "uv": [
                        0,
                        0,
                        3.032,
                        2.394
                    ],
                    "texture": "#2"
                },
                "east": {
                    "uv": [
                        0,
                        0,
                        3.032,
                        2.394
                    ],
                    "texture": "#2"
                },
                "south": {
                    "uv": [
                        0,
                        0,
                        3.032,
                        2.394
                    ],
                    "texture": "#2"
                },
                "west": {
                    "uv": [
                        0,
                        0,
                        3.032,
                        2.394
                    ],
                    "texture": "#2"
                },
                "up": {
                    "uv": [
                        0,
                        0,
                        3.032,
                        2.394
                    ],
                    "rotation": 270,
                    "texture": "#2"
                },
                "down": {
                    "uv": [
                        0,
                        0,
                        3.032,
                        2.394
                    ],
                    "rotation": 90,
                    "texture": "#2"
                }
            }
        },
        {
            "from": [
                7.72244,
                6.79206,
                0.59531
            ],
            "to": [
                8.40644,
                7.81806,
                1.16531
            ],
            "rotation": {
                "angle": 22.5,
                "axis": "x",
                "origin": [
                    8.06444,
                    7.36206,
                    0.88031
                ]
            },
            "faces": {
                "north": {
                    "uv": [
                        0,
                        0,
                        3.032,
                        2.394
                    ],
                    "texture": "#2"
                },
                "east": {
                    "uv": [
                        0,
                        0,
                        3.032,
                        2.394
                    ],
                    "texture": "#2"
                },
                "south": {
                    "uv": [
                        0,
                        0,
                        3.032,
                        2.394
                    ],
                    "texture": "#2"
                },
                "west": {
                    "uv": [
                        0,
                        0,
                        3.032,
                        2.394
                    ],
                    "texture": "#2"
                },
                "up": {
                    "uv": [
                        0,
                        0,
                        3.032,
                        2.394
                    ],
                    "rotation": 270,
                    "texture": "#2"
                },
                "down": {
                    "uv": [
                        0,
                        0,
                        3.032,
                        2.394
                    ],
                    "rotation": 90,
                    "texture": "#2"
                }
            }
        },
        {
            "from": [
                7.95044,
                6.71001,
                -1.75197
            ],
            "to": [
                8.17844,
                6.76701,
                -1.40997
            ],
            "rotation": {
                "angle": 45,
                "axis": "x",
                "origin": [
                    8.06444,
                    6.73851,
                    -1.69497
                ]
            },
            "faces": {
                "north": {
                    "uv": [
                        9,
                        4.5,
                        11.3,
                        6.594
                    ],
                    "texture": "#2"
                },
                "east": {
                    "uv": [
                        9,
                        4.5,
                        11.3,
                        6.594
                    ],
                    "texture": "#2"
                },
                "south": {
                    "uv": [
                        9,
                        4.5,
                        11.3,
                        6.594
                    ],
                    "texture": "#2"
                },
                "west": {
                    "uv": [
                        9,
                        4.5,
                        11.3,
                        6.594
                    ],
                    "texture": "#2"
                },
                "up": {
                    "uv": [
                        9,
                        4.5,
                        11.3,
                        6.594
                    ],
                    "rotation": 270,
                    "texture": "#2"
                },
                "down": {
                    "uv": [
                        9,
                        4.5,
                        11.3,
                        6.594
                    ],
                    "rotation": 90,
                    "texture": "#2"
                }
            }
        },
        {
            "from": [
                7.95044,
                6.75656,
                -1.82304
            ],
            "to": [
                8.17844,
                6.98456,
                -1.76604
            ],
            "rotation": {
                "angle": -22.5,
                "axis": "x",
                "origin": [
                    8.06444,
                    6.92756,
                    -1.79454
                ]
            },
            "faces": {
                "north": {
                    "uv": [
                        9,
                        4.5,
                        11.3,
                        6.594
                    ],
                    "rotation": 90,
                    "texture": "#2"
                },
                "east": {
                    "uv": [
                        9,
                        4.5,
                        11.3,
                        6.594
                    ],
                    "rotation": 90,
                    "texture": "#2"
                },
                "south": {
                    "uv": [
                        9,
                        4.5,
                        11.3,
                        6.594
                    ],
                    "rotation": 90,
                    "texture": "#2"
                },
                "west": {
                    "uv": [
                        9,
                        4.5,
                        11.3,
                        6.594
                    ],
                    "rotation": 90,
                    "texture": "#2"
                },
                "up": {
                    "uv": [
                        9,
                        4.5,
                        11.3,
                        6.594
                    ],
                    "texture": "#2"
                },
                "down": {
                    "uv": [
                        9,
                        4.5,
                        11.3,
                        6.594
                    ],
                    "rotation": 180,
                    "texture": "#2"
                }
            }
        },
        {
            "from": [
                7.95044,
                6.96932,
                -1.84268
            ],
            "to": [
                8.17844,
                7.19732,
                -1.78568
            ],
            "rotation": {
                "angle": 0,
                "axis": "y",
                "origin": [
                    8.06444,
                    7.14032,
                    -1.81418
                ]
            },
            "faces": {
                "north": {
                    "uv": [
                        9,
                        4.5,
                        11.3,
                        6.594
                    ],
                    "rotation": 90,
                    "texture": "#2"
                },
                "east": {
                    "uv": [
                        9,
                        4.5,
                        11.3,
                        6.594
                    ],
                    "rotation": 90,
                    "texture": "#2"
                },
                "south": {
                    "uv": [
                        9,
                        4.5,
                        11.3,
                        6.594
                    ],
                    "rotation": 90,
                    "texture": "#2"
                },
                "west": {
                    "uv": [
                        9,
                        4.5,
                        11.3,
                        6.594
                    ],
                    "rotation": 90,
                    "texture": "#2"
                },
                "up": {
                    "uv": [
                        9,
                        4.5,
                        11.3,
                        6.594
                    ],
                    "texture": "#2"
                },
                "down": {
                    "uv": [
                        9,
                        4.5,
                        11.3,
                        6.594
                    ],
                    "rotation": 180,
                    "texture": "#2"
                }
            }
        },
        {
            "from": [
                7.95044,
                6.51684,
                -1.51359
            ],
            "to": [
                8.17844,
                6.57384,
                -0.94359
            ],
            "rotation": {
                "angle": 0,
                "axis": "y",
                "origin": [
                    8.06444,
                    6.54534,
                    -1.02909
                ]
            },
            "faces": {
                "north": {
                    "uv": [
                        9,
                        4.5,
                        11.3,
                        6.594
                    ],
                    "texture": "#2"
                },
                "east": {
                    "uv": [
                        9,
                        4.5,
                        11.3,
                        6.594
                    ],
                    "texture": "#2"
                },
                "south": {
                    "uv": [
                        9,
                        4.5,
                        11.3,
                        6.594
                    ],
                    "texture": "#2"
                },
                "west": {
                    "uv": [
                        9,
                        4.5,
                        11.3,
                        6.594
                    ],
                    "texture": "#2"
                },
                "up": {
                    "uv": [
                        9,
                        4.5,
                        11.3,
                        6.594
                    ],
                    "rotation": 270,
                    "texture": "#2"
                },
                "down": {
                    "uv": [
                        9,
                        4.5,
                        11.3,
                        6.594
                    ],
                    "rotation": 90,
                    "texture": "#2"
                }
            }
        },
        {
            "from": [
                7.95044,
                6.55613,
                -0.97409
            ],
            "to": [
                8.17844,
                6.61313,
                -0.46109
            ],
            "rotation": {
                "angle": -22.5,
                "axis": "x",
                "origin": [
                    8.06444,
                    6.61313,
                    -0.86009
                ]
            },
            "faces": {
                "north": {
                    "uv": [
                        9,
                        4.5,
                        11.3,
                        6.594
                    ],
                    "texture": "#2"
                },
                "east": {
                    "uv": [
                        9,
                        4.5,
                        11.3,
                        6.594
                    ],
                    "texture": "#2"
                },
                "south": {
                    "uv": [
                        9,
                        4.5,
                        11.3,
                        6.594
                    ],
                    "texture": "#2"
                },
                "west": {
                    "uv": [
                        9,
                        4.5,
                        11.3,
                        6.594
                    ],
                    "texture": "#2"
                },
                "up": {
                    "uv": [
                        9,
                        4.5,
                        11.3,
                        6.594
                    ],
                    "rotation": 270,
                    "texture": "#2"
                },
                "down": {
                    "uv": [
                        9,
                        4.5,
                        11.3,
                        6.594
                    ],
                    "rotation": 90,
                    "texture": "#2"
                }
            }
        },
        {
            "from": [
                8.00744,
                6.83547,
                -0.93487
            ],
            "to": [
                8.12144,
                6.94947,
                -0.87787
            ],
            "rotation": {
                "angle": 22.5,
                "axis": "x",
                "origin": [
                    8.06444,
                    7.00647,
                    -0.90637
                ]
            },
            "faces": {
                "north": {
                    "uv": [
                        1,
                        5,
                        2.8,
                        7.094
                    ],
                    "rotation": 270,
                    "texture": "#2"
                },
                "east": {
                    "uv": [
                        1,
                        5,
                        2.8,
                        7.094
                    ],
                    "rotation": 270,
                    "texture": "#2"
                },
                "south": {
                    "uv": [
                        1,
                        5,
                        2.8,
                        7.094
                    ],
                    "rotation": 270,
                    "texture": "#2"
                },
                "west": {
                    "uv": [
                        1,
                        5,
                        2.8,
                        7.094
                    ],
                    "rotation": 270,
                    "texture": "#2"
                },
                "up": {
                    "uv": [
                        1,
                        5,
                        2.8,
                        7.094
                    ],
                    "rotation": 180,
                    "texture": "#2"
                },
                "down": {
                    "uv": [
                        1,
                        5,
                        2.8,
                        7.094
                    ],
                    "texture": "#2"
                }
            }
        },
        {
            "from": [
                8.00744,
                6.76044,
                -1.03444
            ],
            "to": [
                8.12144,
                6.87444,
                -0.97744
            ],
            "rotation": {
                "angle": 45,
                "axis": "x",
                "origin": [
                    8.06444,
                    6.81744,
                    -1.00594
                ]
            },
            "faces": {
                "north": {
                    "uv": [
                        1,
                        5,
                        2.8,
                        7.094
                    ],
                    "rotation": 270,
                    "texture": "#2"
                },
                "east": {
                    "uv": [
                        1,
                        5,
                        2.8,
                        7.094
                    ],
                    "rotation": 270,
                    "texture": "#2"
                },
                "south": {
                    "uv": [
                        1,
                        5,
                        2.8,
                        7.094
                    ],
                    "rotation": 270,
                    "texture": "#2"
                },
                "west": {
                    "uv": [
                        1,
                        5,
                        2.8,
                        7.094
                    ],
                    "rotation": 270,
                    "texture": "#2"
                },
                "up": {
                    "uv": [
                        1,
                        5,
                        2.8,
                        7.094
                    ],
                    "rotation": 180,
                    "texture": "#2"
                },
                "down": {
                    "uv": [
                        1,
                        5,
                        2.8,
                        7.094
                    ],
                    "texture": "#2"
                }
            }
        },
        {
            "from": [
                8.00744,
                6.9408,
                -0.89125
            ],
            "to": [
                8.12144,
                7.2828,
                -0.83425
            ],
            "rotation": {
                "angle": 22.5,
                "axis": "x",
                "origin": [
                    8.06444,
                    7.1118,
                    -0.86275
                ]
            },
            "faces": {
                "north": {
                    "uv": [
                        1,
                        5,
                        2.8,
                        7.094
                    ],
                    "rotation": 270,
                    "texture": "#2"
                },
                "east": {
                    "uv": [
                        1,
                        5,
                        2.8,
                        7.094
                    ],
                    "rotation": 270,
                    "texture": "#2"
                },
                "south": {
                    "uv": [
                        1,
                        5,
                        2.8,
                        7.094
                    ],
                    "rotation": 270,
                    "texture": "#2"
                },
                "west": {
                    "uv": [
                        1,
                        5,
                        2.8,
                        7.094
                    ],
                    "rotation": 270,
                    "texture": "#2"
                },
                "up": {
                    "uv": [
                        1,
                        5,
                        2.8,
                        7.094
                    ],
                    "rotation": 180,
                    "texture": "#2"
                },
                "down": {
                    "uv": [
                        1,
                        5,
                        2.8,
                        7.094
                    ],
                    "texture": "#2"
                }
            }
        },
        {
            "from": [
                8.00744,
                7.03299,
                -0.89559
            ],
            "to": [
                8.12144,
                7.37499,
                -0.83859
            ],
            "rotation": {
                "angle": 22.5,
                "axis": "x",
                "origin": [
                    8.06444,
                    7.20399,
                    -0.86709
                ]
            },
            "faces": {
                "north": {
                    "uv": [
                        2,
                        6,
                        3.3,
                        7.094
                    ],
                    "rotation": 270,
                    "texture": "#2"
                },
                "east": {
                    "uv": [
                        2,
                        6,
                        3.3,
                        7.094
                    ],
                    "rotation": 270,
                    "texture": "#2"
                },
                "south": {
                    "uv": [
                        2,
                        6,
                        3.3,
                        7.094
                    ],
                    "rotation": 270,
                    "texture": "#2"
                },
                "west": {
                    "uv": [
                        2,
                        6,
                        3.3,
                        7.094
                    ],
                    "rotation": 270,
                    "texture": "#2"
                },
                "up": {
                    "uv": [
                        2,
                        6,
                        3.3,
                        7.094
                    ],
                    "rotation": 270,
                    "texture": "#2"
                },
                "down": {
                    "uv": [
                        2,
                        6,
                        3.3,
                        7.094
                    ],
                    "rotation": 270,
                    "texture": "#2"
                }
            }
        },
        {
            "from": [
                8.00744,
                7.0569,
                -0.95886
            ],
            "to": [
                8.12144,
                7.3989,
                -0.90186
            ],
            "rotation": {
                "angle": 0,
                "axis": "y",
                "origin": [
                    8.06444,
                    7.2279,
                    -0.93036
                ]
            },
            "faces": {
                "north": {
                    "uv": [
                        2,
                        6,
                        3.3,
                        7.094
                    ],
                    "rotation": 270,
                    "texture": "#2"
                },
                "east": {
                    "uv": [
                        2,
                        6,
                        3.3,
                        7.094
                    ],
                    "rotation": 270,
                    "texture": "#2"
                },
                "south": {
                    "uv": [
                        2,
                        6,
                        3.3,
                        7.094
                    ],
                    "rotation": 270,
                    "texture": "#2"
                },
                "west": {
                    "uv": [
                        2,
                        6,
                        3.3,
                        7.094
                    ],
                    "rotation": 270,
                    "texture": "#2"
                },
                "up": {
                    "uv": [
                        2,
                        6,
                        3.3,
                        7.094
                    ],
                    "rotation": 270,
                    "texture": "#2"
                },
                "down": {
                    "uv": [
                        2,
                        6,
                        3.3,
                        7.094
                    ],
                    "rotation": 270,
                    "texture": "#2"
                }
            }
        },
        {
            "from": [
                8.00744,
                6.9429,
                -0.95886
            ],
            "to": [
                8.12144,
                7.0569,
                -0.90186
            ],
            "rotation": {
                "angle": 0,
                "axis": "y",
                "origin": [
                    8.06444,
                    7.1139,
                    -0.93036
                ]
            },
            "faces": {
                "north": {
                    "uv": [
                        1,
                        5,
                        2.8,
                        7.094
                    ],
                    "rotation": 270,
                    "texture": "#2"
                },
                "east": {
                    "uv": [
                        1,
                        5,
                        2.8,
                        7.094
                    ],
                    "rotation": 270,
                    "texture": "#2"
                },
                "south": {
                    "uv": [
                        1,
                        5,
                        2.8,
                        7.094
                    ],
                    "rotation": 270,
                    "texture": "#2"
                },
                "west": {
                    "uv": [
                        1,
                        5,
                        2.8,
                        7.094
                    ],
                    "rotation": 270,
                    "texture": "#2"
                },
                "up": {
                    "uv": [
                        1,
                        5,
                        2.8,
                        7.094
                    ],
                    "rotation": 180,
                    "texture": "#2"
                },
                "down": {
                    "uv": [
                        1,
                        5,
                        2.8,
                        7.094
                    ],
                    "texture": "#2"
                }
            }
        },
        {
            "from": [
                7.7441,
                7.35508,
                -1.64588
            ],
            "to": [
                7.8581,
                7.69708,
                -0.27788
            ],
            "rotation": {
                "angle": 0,
                "axis": "y",
                "origin": [
                    8.06444,
                    8.30712,
                    4.83732
                ]
            },
            "faces": {
                "north": {
                    "uv": [
                        4.5,
                        4.5,
                        7.263,
                        7.099
                    ],
                    "texture": "#2"
                },
                "east": {
                    "uv": [
                        4.5,
                        4.5,
                        7.263,
                        7.099
                    ],
                    "texture": "#2"
                },
                "south": {
                    "uv": [
                        4.5,
                        4.5,
                        7.263,
                        7.099
                    ],
                    "texture": "#2"
                },
                "west": {
                    "uv": [
                        4.5,
                        4.5,
                        7.263,
                        7.099
                    ],
                    "texture": "#2"
                },
                "up": {
                    "uv": [
                        4.5,
                        4.5,
                        7.263,
                        7.099
                    ],
                    "rotation": 270,
                    "texture": "#2"
                },
                "down": {
                    "uv": [
                        4.5,
                        4.5,
                        7.263,
                        7.099
                    ],
                    "rotation": 90,
                    "texture": "#2"
                }
            }
        },
        {
            "from": [
                7.38159,
                7.48744,
                -1.46886
            ],
            "to": [
                7.59819,
                7.62424,
                -1.37766
            ],
            "rotation": {
                "angle": 45,
                "axis": "y",
                "origin": [
                    7.49559,
                    7.55584,
                    -1.43466
                ]
            },
            "faces": {
                "north": {
                    "uv": [
                        4.5,
                        4.5,
                        7.263,
                        7.099
                    ],
                    "texture": "#2"
                },
                "east": {
                    "uv": [
                        4.5,
                        4.5,
                        7.263,
                        7.099
                    ],
                    "texture": "#2"
                },
                "south": {
                    "uv": [
                        4.5,
                        4.5,
                        7.263,
                        7.099
                    ],
                    "texture": "#2"
                },
                "west": {
                    "uv": [
                        4.5,
                        4.5,
                        7.263,
                        7.099
                    ],
                    "texture": "#2"
                },
                "up": {
                    "uv": [
                        4.5,
                        4.5,
                        7.263,
                        7.099
                    ],
                    "rotation": 270,
                    "texture": "#2"
                },
                "down": {
                    "uv": [
                        4.5,
                        4.5,
                        7.263,
                        7.099
                    ],
                    "rotation": 90,
                    "texture": "#2"
                }
            }
        },
        {
            "from": [
                7.45454,
                7.48744,
                -1.5296
            ],
            "to": [
                7.54574,
                7.62424,
                -1.313
            ],
            "rotation": {
                "angle": 0,
                "axis": "y",
                "origin": [
                    7.50014,
                    7.55584,
                    -1.4213
                ]
            },
            "faces": {
                "north": {
                    "uv": [
                        4.5,
                        4.5,
                        6.763,
                        6.099
                    ],
                    "texture": "#2"
                },
                "east": {
                    "uv": [
                        4.5,
                        4.5,
                        6.763,
                        6.099
                    ],
                    "texture": "#2"
                },
                "south": {
                    "uv": [
                        4.5,
                        4.5,
                        6.763,
                        6.099
                    ],
                    "texture": "#2"
                },
                "west": {
                    "uv": [
                        4.5,
                        4.5,
                        6.763,
                        6.099
                    ],
                    "texture": "#2"
                },
                "up": {
                    "uv": [
                        4.5,
                        4.5,
                        6.763,
                        6.099
                    ],
                    "rotation": 270,
                    "texture": "#2"
                },
                "down": {
                    "uv": [
                        4.5,
                        4.5,
                        6.763,
                        6.099
                    ],
                    "rotation": 90,
                    "texture": "#2"
                }
            }
        },
        {
            "from": [
                7.39184,
                7.48744,
                -1.4669
            ],
            "to": [
                7.60844,
                7.62424,
                -1.3757
            ],
            "rotation": {
                "angle": 0,
                "axis": "y",
                "origin": [
                    7.73384,
                    8.42112,
                    5.4073
                ]
            },
            "faces": {
                "north": {
                    "uv": [
                        4.5,
                        4.5,
                        7.263,
                        7.099
                    ],
                    "texture": "#2"
                },
                "east": {
                    "uv": [
                        4.5,
                        4.5,
                        7.263,
                        7.099
                    ],
                    "texture": "#2"
                },
                "south": {
                    "uv": [
                        4.5,
                        4.5,
                        7.263,
                        7.099
                    ],
                    "texture": "#2"
                },
                "west": {
                    "uv": [
                        4.5,
                        4.5,
                        7.263,
                        7.099
                    ],
                    "texture": "#2"
                },
                "up": {
                    "uv": [
                        4.5,
                        4.5,
                        7.263,
                        7.099
                    ],
                    "rotation": 270,
                    "texture": "#2"
                },
                "down": {
                    "uv": [
                        4.5,
                        4.5,
                        7.263,
                        7.099
                    ],
                    "rotation": 90,
                    "texture": "#2"
                }
            }
        },
        {
            "from": [
                7.39184,
                7.48744,
                -1.4669
            ],
            "to": [
                7.60844,
                7.62424,
                -1.3757
            ],
            "rotation": {
                "angle": -45,
                "axis": "y",
                "origin": [
                    7.50014,
                    7.55584,
                    -1.4213
                ]
            },
            "faces": {
                "north": {
                    "uv": [
                        4.5,
                        4.5,
                        7.263,
                        7.099
                    ],
                    "texture": "#2"
                },
                "east": {
                    "uv": [
                        4.5,
                        4.5,
                        7.263,
                        7.099
                    ],
                    "texture": "#2"
                },
                "south": {
                    "uv": [
                        4.5,
                        4.5,
                        7.263,
                        7.099
                    ],
                    "texture": "#2"
                },
                "west": {
                    "uv": [
                        4.5,
                        4.5,
                        7.263,
                        7.099
                    ],
                    "texture": "#2"
                },
                "up": {
                    "uv": [
                        4.5,
                        4.5,
                        7.263,
                        7.099
                    ],
                    "rotation": 270,
                    "texture": "#2"
                },
                "down": {
                    "uv": [
                        4.5,
                        4.5,
                        7.263,
                        7.099
                    ],
                    "rotation": 90,
                    "texture": "#2"
                }
            }
        },
        {
            "from": [
                7.60844,
                7.51024,
                -1.4669
            ],
            "to": [
                8.12144,
                7.60144,
                -1.3757
            ],
            "rotation": {
                "angle": 0,
                "axis": "y",
                "origin": [
                    7.95044,
                    8.42112,
                    5.4073
                ]
            },
            "faces": {
                "north": {
                    "uv": [
                        4.5,
                        4.5,
                        7.263,
                        7.099
                    ],
                    "texture": "#2"
                },
                "east": {
                    "uv": [
                        4.5,
                        4.5,
                        7.263,
                        7.099
                    ],
                    "texture": "#2"
                },
                "south": {
                    "uv": [
                        4.5,
                        4.5,
                        7.263,
                        7.099
                    ],
                    "texture": "#2"
                },
                "west": {
                    "uv": [
                        4.5,
                        4.5,
                        7.263,
                        7.099
                    ],
                    "texture": "#2"
                },
                "up": {
                    "uv": [
                        4.5,
                        4.5,
                        7.263,
                        7.099
                    ],
                    "rotation": 270,
                    "texture": "#2"
                },
                "down": {
                    "uv": [
                        4.5,
                        4.5,
                        7.263,
                        7.099
                    ],
                    "rotation": 90,
                    "texture": "#2"
                }
            }
        }
    ],
    "display": {
        "thirdperson_righthand": {
            "translation": [
                -0.75,
                0,
                -3.75
            ],
            "scale": [
                0.8,
                0.8,
                0.8
            ]
        },
        "thirdperson_lefthand": {
            "translation": [
                -0.75,
                0,
                -3.75
            ],
            "scale": [
                0.8,
                0.8,
                0.8
            ]
        },
        "firstperson_righthand": {
            "translation": [
                -5.5,
                4.75,
                0
            ],
            "scale": [
                1,
                1,
                0.9
            ]
        },
        "firstperson_lefthand": {
            "translation": [
                -5.5,
                4.75,
                0
            ],
            "scale": [
                1,
                1,
                0.9
            ]
        },
        "ground": {
            "rotation": [
                0,
                0,
                45
            ],
            "scale": [
                0.88,
                0.88,
                0.88
            ]
        },
        "gui": {
            "rotation": [
                20,
                27,
                -14
            ],
            "translation": [
                -1,
                2,
                0
            ]
        },
        "head": {
            "rotation": [
                0,
                122,
                90
            ],
            "translation": [
                -3.25,
                7.25,
                1.75
            ]
        },
        "fixed": {
            "rotation": [
                0,
                90,
                0
            ],
            "translation": [
                -1.75,
                0,
                -2.25
            ]
        }
    }
}