{
	"credit": "Made with Blockbench",
	"textures": {
		"0": "gci:items/common/all_in_one",
		"particle": "gci:items/common/all_in_one"
	},
	"elements": [
		{
			"from": [5.39, 5.16917, 8.90244],
			"to": [5.532, 5.46917, 9.00244],
			"rotation": {"angle": 0, "axis": "x", "origin": [5.301, 5.31917, 8.95244]},
			"faces": {
				"north": {"uv": [4.25, 2, 4.375, 2.125], "rotation": 180, "texture": "#0"},
				"east": {"uv": [4.25, 2, 4.375, 2.125], "rotation": 180, "texture": "#0"},
				"south": {"uv": [4.25, 2, 4.375, 2.125], "rotation": 180, "texture": "#0"},
				"west": {"uv": [4.25, 2, 4.375, 2.125], "rotation": 180, "texture": "#0"},
				"up": {"uv": [4.25, 2, 4.375, 2.125], "rotation": 180, "texture": "#0"},
				"down": {"uv": [4.25, 2, 4.375, 2.125], "rotation": 180, "texture": "#0"}
			}
		},
		{
			"from": [5.07, 5.16917, 8.90244],
			"to": [5.212, 5.46917, 9.00244],
			"rotation": {"angle": 0, "axis": "x", "origin": [5.301, 5.31917, 8.95244]},
			"faces": {
				"north": {"uv": [4.25, 2, 4.375, 2.125], "rotation": 180, "texture": "#0"},
				"east": {"uv": [4.25, 2, 4.375, 2.125], "rotation": 180, "texture": "#0"},
				"south": {"uv": [4.25, 2, 4.375, 2.125], "rotation": 180, "texture": "#0"},
				"west": {"uv": [4.25, 2, 4.375, 2.125], "rotation": 180, "texture": "#0"},
				"up": {"uv": [4.25, 2, 4.375, 2.125], "rotation": 180, "texture": "#0"},
				"down": {"uv": [4.25, 2, 4.375, 2.125], "rotation": 180, "texture": "#0"}
			}
		},
		{
			"from": [5.12728, 5.37644, 6.10244],
			"to": [5.27728, 5.52644, 6.20244],
			"rotation": {"angle": 45, "axis": "z", "origin": [5.35828, 5.52644, 6.15244]},
			"faces": {
				"north": {"uv": [4.25, 2, 4.375, 2.125], "rotation": 180, "texture": "#0"},
				"east": {"uv": [4.25, 2, 4.375, 2.125], "rotation": 180, "texture": "#0"},
				"south": {"uv": [4.25, 2, 4.375, 2.125], "rotation": 180, "texture": "#0"},
				"west": {"uv": [4.25, 2, 4.375, 2.125], "rotation": 180, "texture": "#0"},
				"up": {"uv": [4.25, 2, 4.375, 2.125], "rotation": 180, "texture": "#0"},
				"down": {"uv": [4.25, 2, 4.375, 2.125], "rotation": 180, "texture": "#0"}
			}
		},
		{
			"from": [5.07, 5.17775, 8.78172],
			"to": [5.212, 5.47775, 8.88172],
			"rotation": {"angle": 45, "axis": "x", "origin": [5.301, 5.32775, 8.83172]},
			"faces": {
				"north": {"uv": [4.25, 2, 4.375, 2.125], "rotation": 180, "texture": "#0"},
				"east": {"uv": [4.25, 2, 4.375, 2.125], "rotation": 180, "texture": "#0"},
				"south": {"uv": [4.25, 2, 4.375, 2.125], "rotation": 180, "texture": "#0"},
				"west": {"uv": [4.25, 2, 4.375, 2.125], "rotation": 180, "texture": "#0"},
				"up": {"uv": [4.25, 2, 4.375, 2.125], "rotation": 180, "texture": "#0"},
				"down": {"uv": [4.25, 2, 4.375, 2.125], "rotation": 180, "texture": "#0"}
			}
		},
		{
			"from": [5.39, 5.17775, 8.78172],
			"to": [5.532, 5.47775, 8.88172],
			"rotation": {"angle": 45, "axis": "x", "origin": [5.301, 5.32775, 8.83172]},
			"faces": {
				"north": {"uv": [4.25, 2, 4.375, 2.125], "rotation": 180, "texture": "#0"},
				"east": {"uv": [4.25, 2, 4.375, 2.125], "rotation": 180, "texture": "#0"},
				"south": {"uv": [4.25, 2, 4.375, 2.125], "rotation": 180, "texture": "#0"},
				"west": {"uv": [4.25, 2, 4.375, 2.125], "rotation": 180, "texture": "#0"},
				"up": {"uv": [4.25, 2, 4.375, 2.125], "rotation": 180, "texture": "#0"},
				"down": {"uv": [4.25, 2, 4.375, 2.125], "rotation": 180, "texture": "#0"}
			}
		},
		{
			"from": [5.07, 5.26145, 8.96364],
			"to": [5.212, 5.46145, 9.06364],
			"rotation": {"angle": -22.5, "axis": "x", "origin": [5.301, 5.31145, 9.01364]},
			"faces": {
				"north": {"uv": [4.25, 2, 4.375, 2.125], "texture": "#0"},
				"east": {"uv": [4.25, 2, 4.375, 2.125], "texture": "#0"},
				"south": {"uv": [4.25, 2, 4.375, 2.125], "texture": "#0"},
				"west": {"uv": [4.25, 2, 4.375, 2.125], "texture": "#0"},
				"up": {"uv": [4.25, 2, 4.375, 2.125], "texture": "#0"},
				"down": {"uv": [4.25, 2, 4.375, 2.125], "texture": "#0"}
			}
		},
		{
			"from": [5.39, 5.26145, 8.96364],
			"to": [5.532, 5.46145, 9.06364],
			"rotation": {"angle": -22.5, "axis": "x", "origin": [5.301, 5.31145, 9.01364]},
			"faces": {
				"north": {"uv": [4.25, 2, 4.375, 2.125], "texture": "#0"},
				"east": {"uv": [4.25, 2, 4.375, 2.125], "texture": "#0"},
				"south": {"uv": [4.25, 2, 4.375, 2.125], "texture": "#0"},
				"west": {"uv": [4.25, 2, 4.375, 2.125], "texture": "#0"},
				"up": {"uv": [4.25, 2, 4.375, 2.125], "texture": "#0"},
				"down": {"uv": [4.25, 2, 4.375, 2.125], "texture": "#0"}
			}
		},
		{
			"from": [4.95, 4.96917, 8.73144],
			"to": [5.05, 5.16917, 8.81544],
			"rotation": {"angle": 0, "axis": "x", "origin": [5, 5.06917, 8.77344]},
			"faces": {
				"north": {"uv": [5.125, 2.25, 5.25, 2.375], "rotation": 90, "texture": "#0"},
				"east": {"uv": [5.125, 2.25, 5.25, 2.375], "rotation": 90, "texture": "#0"},
				"south": {"uv": [5.125, 2.25, 5.25, 2.375], "rotation": 90, "texture": "#0"},
				"west": {"uv": [5.125, 2.25, 5.25, 2.375], "rotation": 90, "texture": "#0"},
				"up": {"uv": [5.125, 2.25, 5.25, 2.375], "rotation": 90, "texture": "#0"},
				"down": {"uv": [5.125, 2.25, 5.25, 2.375], "rotation": 90, "texture": "#0"}
			}
		},
		{
			"from": [4.95, 4.96917, 8.73144],
			"to": [5.05, 5.16917, 8.81544],
			"rotation": {"angle": 45, "axis": "x", "origin": [5, 5.06917, 8.77344]},
			"faces": {
				"north": {"uv": [5.125, 2.25, 5.25, 2.375], "rotation": 90, "texture": "#0"},
				"east": {"uv": [5.125, 2.25, 5.25, 2.375], "rotation": 90, "texture": "#0"},
				"south": {"uv": [5.125, 2.25, 5.25, 2.375], "rotation": 90, "texture": "#0"},
				"west": {"uv": [5.125, 2.25, 5.25, 2.375], "rotation": 90, "texture": "#0"},
				"up": {"uv": [5.125, 2.25, 5.25, 2.375], "rotation": 90, "texture": "#0"},
				"down": {"uv": [5.125, 2.25, 5.25, 2.375], "rotation": 90, "texture": "#0"}
			}
		},
		{
			"from": [4.95, 5.02717, 8.67344],
			"to": [5.05, 5.11117, 8.87344],
			"rotation": {"angle": 0, "axis": "x", "origin": [5, 5.06917, 8.77344]},
			"faces": {
				"north": {"uv": [5.125, 2.25, 5.25, 2.375], "rotation": 90, "texture": "#0"},
				"east": {"uv": [5.125, 2.25, 5.25, 2.375], "rotation": 90, "texture": "#0"},
				"south": {"uv": [5.125, 2.25, 5.25, 2.375], "rotation": 90, "texture": "#0"},
				"west": {"uv": [5.125, 2.25, 5.25, 2.375], "rotation": 90, "texture": "#0"},
				"up": {"uv": [5.125, 2.25, 5.25, 2.375], "rotation": 90, "texture": "#0"},
				"down": {"uv": [5.125, 2.25, 5.25, 2.375], "rotation": 90, "texture": "#0"}
			}
		},
		{
			"from": [4.95, 5.02717, 8.67344],
			"to": [5.05, 5.11117, 8.87344],
			"rotation": {"angle": 45, "axis": "x", "origin": [5, 5.06917, 8.77344]},
			"faces": {
				"north": {"uv": [5.125, 2.25, 5.25, 2.375], "rotation": 90, "texture": "#0"},
				"east": {"uv": [5.125, 2.25, 5.25, 2.375], "rotation": 90, "texture": "#0"},
				"south": {"uv": [5.125, 2.25, 5.25, 2.375], "rotation": 90, "texture": "#0"},
				"west": {"uv": [5.125, 2.25, 5.25, 2.375], "rotation": 90, "texture": "#0"},
				"up": {"uv": [5.125, 2.25, 5.25, 2.375], "rotation": 90, "texture": "#0"},
				"down": {"uv": [5.125, 2.25, 5.25, 2.375], "rotation": 90, "texture": "#0"}
			}
		},
		{
			"from": [4.95, 4.66777, 8.61404],
			"to": [5.05, 5.05177, 8.81404],
			"rotation": {"angle": 45, "axis": "x", "origin": [5, 5.00977, 8.71404]},
			"faces": {
				"north": {"uv": [5.125, 2.25, 5.25, 2.375], "rotation": 90, "texture": "#0"},
				"east": {"uv": [5.125, 2.25, 5.25, 2.375], "rotation": 90, "texture": "#0"},
				"south": {"uv": [5.125, 2.25, 5.25, 2.375], "rotation": 90, "texture": "#0"},
				"west": {"uv": [5.125, 2.25, 5.25, 2.375], "rotation": 90, "texture": "#0"},
				"up": {"uv": [5.125, 2.25, 5.25, 2.375], "rotation": 90, "texture": "#0"},
				"down": {"uv": [5.125, 2.25, 5.25, 2.375], "rotation": 90, "texture": "#0"}
			}
		},
		{
			"from": [4.95, 4.69665, 8.4015],
			"to": [5.05, 4.83865, 8.5435],
			"rotation": {"angle": 0, "axis": "x", "origin": [5, 4.79665, 8.7435]},
			"faces": {
				"north": {"uv": [5.125, 2.25, 5.25, 2.375], "rotation": 90, "texture": "#0"},
				"east": {"uv": [5.125, 2.25, 5.25, 2.375], "rotation": 90, "texture": "#0"},
				"south": {"uv": [5.125, 2.25, 5.25, 2.375], "rotation": 90, "texture": "#0"},
				"west": {"uv": [5.125, 2.25, 5.25, 2.375], "rotation": 90, "texture": "#0"},
				"up": {"uv": [5.125, 2.25, 5.25, 2.375], "rotation": 90, "texture": "#0"},
				"down": {"uv": [5.125, 2.25, 5.25, 2.375], "rotation": 90, "texture": "#0"}
			}
		},
		{
			"from": [5.2, 4.12975, 7.90697],
			"to": [5.4, 4.42975, 8.10697],
			"rotation": {"angle": -22.5, "axis": "x", "origin": [5.3, 4.16528, 7.90128]},
			"faces": {
				"north": {"uv": [5.125, 2.5, 5.25, 2.5], "texture": "#0"},
				"east": {"uv": [5.125, 2.5, 5.25, 2.5], "texture": "#0"},
				"south": {"uv": [5.125, 2.5, 5.25, 2.5], "texture": "#0"},
				"west": {"uv": [5.125, 2.5, 5.25, 2.5], "texture": "#0"},
				"up": {"uv": [5.125, 2.5, 5.25, 2.5], "texture": "#0"},
				"down": {"uv": [5.125, 2.5, 5.25, 2.5], "texture": "#0"}
			}
		},
		{
			"from": [5.2, 3.96528, 7.87426],
			"to": [5.4, 4.26528, 8.07426],
			"rotation": {"angle": 0, "axis": "y", "origin": [5.3, 4.16528, 7.90128]},
			"faces": {
				"north": {"uv": [5.125, 2.5, 5.25, 2.5], "texture": "#0"},
				"east": {"uv": [5.125, 2.5, 5.25, 2.5], "texture": "#0"},
				"south": {"uv": [5.125, 2.5, 5.25, 2.5], "texture": "#0"},
				"west": {"uv": [5.125, 2.5, 5.25, 2.5], "texture": "#0"},
				"up": {"uv": [5.125, 2.5, 5.25, 2.5], "texture": "#0"},
				"down": {"uv": [5.125, 2.5, 5.25, 2.5], "texture": "#0"}
			}
		},
		{
			"from": [5.2, 3.90082, 7.90697],
			"to": [5.4, 4.10082, 8.20697],
			"rotation": {"angle": 22.5, "axis": "x", "origin": [5.3, 4.16528, 7.90128]},
			"faces": {
				"north": {"uv": [5.125, 2.5, 5.25, 2.5], "texture": "#0"},
				"east": {"uv": [5.125, 2.5, 5.25, 2.5], "texture": "#0"},
				"south": {"uv": [5.125, 2.5, 5.25, 2.5], "texture": "#0"},
				"west": {"uv": [5.125, 2.5, 5.25, 2.5], "texture": "#0"},
				"up": {"uv": [5.125, 2.5, 5.25, 2.5], "texture": "#0"},
				"down": {"uv": [5.125, 2.5, 5.25, 2.5], "texture": "#0"}
			}
		},
		{
			"from": [5, 3.5, 8],
			"to": [5.6, 4.5, 9.1],
			"rotation": {"angle": 0, "axis": "y", "origin": [13, 10, 16]},
			"faces": {
				"north": {"uv": [6.625, 9.25, 6.75, 9.375], "texture": "#0"},
				"east": {"uv": [6.625, 9.25, 6.75, 9.375], "texture": "#0"},
				"south": {"uv": [6.625, 9.25, 6.75, 9.375], "texture": "#0"},
				"west": {"uv": [6.625, 9.25, 6.75, 9.375], "texture": "#0"},
				"up": {"uv": [6.625, 9.25, 6.75, 9.375], "texture": "#0"},
				"down": {"uv": [6.625, 9.25, 6.75, 9.375], "texture": "#0"}
			}
		},
		{
			"from": [5, 3.00583, 8.23753],
			"to": [5.6, 3.80583, 9.46153],
			"rotation": {"angle": -22.5, "axis": "x", "origin": [5.3, 3.05583, 8.88753]},
			"faces": {
				"north": {"uv": [6.625, 9.25, 6.75, 9.375], "texture": "#0"},
				"east": {"uv": [6.625, 9.25, 6.75, 9.375], "texture": "#0"},
				"south": {"uv": [6.625, 9.25, 6.75, 9.375], "texture": "#0"},
				"west": {"uv": [6.625, 9.25, 6.75, 9.375], "texture": "#0"},
				"up": {"uv": [6.625, 9.25, 6.75, 9.375], "texture": "#0"},
				"down": {"uv": [6.625, 9.25, 6.75, 9.375], "texture": "#0"}
			}
		},
		{
			"from": [5, 3.74494, 8.83139],
			"to": [5.6, 3.94494, 9.15539],
			"rotation": {"angle": -22.5, "axis": "x", "origin": [5.3, 3.79494, 8.58139]},
			"faces": {
				"north": {"uv": [6.625, 9.25, 6.75, 9.375], "texture": "#0"},
				"east": {"uv": [6.625, 9.25, 6.75, 9.375], "texture": "#0"},
				"south": {"uv": [6.625, 9.25, 6.75, 9.375], "texture": "#0"},
				"west": {"uv": [6.625, 9.25, 6.75, 9.375], "texture": "#0"},
				"up": {"uv": [6.625, 9.25, 6.75, 9.375], "texture": "#0"},
				"down": {"uv": [6.625, 9.25, 6.75, 9.375], "texture": "#0"}
			}
		},
		{
			"from": [5, 2.42441, 8.4978],
			"to": [5.6, 3.22441, 8.7978],
			"rotation": {"angle": 22.5, "axis": "x", "origin": [5.3, 3.07441, 9.2478]},
			"faces": {
				"north": {"uv": [6.625, 9.25, 6.75, 9.375], "texture": "#0"},
				"east": {"uv": [6.625, 9.25, 6.75, 9.375], "texture": "#0"},
				"south": {"uv": [6.625, 9.25, 6.75, 9.375], "texture": "#0"},
				"west": {"uv": [6.625, 9.25, 6.75, 9.375], "texture": "#0"},
				"up": {"uv": [6.625, 9.25, 6.75, 9.375], "texture": "#0"},
				"down": {"uv": [6.625, 9.25, 6.75, 9.375], "texture": "#0"}
			}
		},
		{
			"from": [5, 2.92909, 8.70604],
			"to": [5.6, 3.22909, 9.50604],
			"rotation": {"angle": -22.5, "axis": "x", "origin": [5.3, 2.47909, 9.35604]},
			"faces": {
				"north": {"uv": [6.625, 9.25, 6.75, 9.375], "texture": "#0"},
				"east": {"uv": [6.625, 9.25, 6.75, 9.375], "texture": "#0"},
				"south": {"uv": [6.625, 9.25, 6.75, 9.375], "texture": "#0"},
				"west": {"uv": [6.625, 9.25, 6.75, 9.375], "texture": "#0"},
				"up": {"uv": [6.625, 9.25, 6.75, 9.375], "texture": "#0"},
				"down": {"uv": [6.625, 9.25, 6.75, 9.375], "texture": "#0"}
			}
		},
		{
			"from": [5, 3.04389, 8.36162],
			"to": [5.6, 3.34389, 9.16162],
			"rotation": {"angle": 22.5, "axis": "x", "origin": [5.3, 2.59389, 9.01162]},
			"faces": {
				"north": {"uv": [6.625, 9.25, 6.75, 9.375], "texture": "#0"},
				"east": {"uv": [6.625, 9.25, 6.75, 9.375], "texture": "#0"},
				"south": {"uv": [6.625, 9.25, 6.75, 9.375], "texture": "#0"},
				"west": {"uv": [6.625, 9.25, 6.75, 9.375], "texture": "#0"},
				"up": {"uv": [6.625, 9.25, 6.75, 9.375], "texture": "#0"},
				"down": {"uv": [6.625, 9.25, 6.75, 9.375], "texture": "#0"}
			}
		},
		{
			"from": [5, 4.34389, 8.74],
			"to": [5.6, 4.94389, 8.94],
			"rotation": {"angle": 22.5, "axis": "x", "origin": [5.3, 3.89389, 8.81162]},
			"faces": {
				"north": {"uv": [6.625, 9.25, 6.75, 9.375], "texture": "#0"},
				"east": {"uv": [6.625, 9.25, 6.75, 9.375], "texture": "#0"},
				"south": {"uv": [6.625, 9.25, 6.75, 9.375], "texture": "#0"},
				"west": {"uv": [6.625, 9.25, 6.75, 9.375], "texture": "#0"},
				"up": {"uv": [6.625, 9.25, 6.75, 9.375], "texture": "#0"},
				"down": {"uv": [6.625, 9.25, 6.75, 9.375], "texture": "#0"}
			}
		},
		{
			"from": [5, 4.75374, 8.92485],
			"to": [5.6, 5.35374, 9.22485],
			"rotation": {"angle": -22.5, "axis": "x", "origin": [5.3, 5.05374, 9.12485]},
			"faces": {
				"north": {"uv": [6.625, 9.25, 6.75, 9.375], "rotation": 180, "texture": "#0"},
				"east": {"uv": [6.625, 9.25, 6.75, 9.375], "rotation": 180, "texture": "#0"},
				"south": {"uv": [6.625, 9.25, 6.75, 9.375], "rotation": 180, "texture": "#0"},
				"west": {"uv": [6.625, 9.25, 6.75, 9.375], "rotation": 180, "texture": "#0"},
				"up": {"uv": [6.625, 9.25, 6.75, 9.375], "rotation": 180, "texture": "#0"},
				"down": {"uv": [6.625, 9.25, 6.75, 9.375], "rotation": 180, "texture": "#0"}
			}
		},
		{
			"from": [5, 4.36917, 6.30244],
			"to": [5.6, 5.36917, 9.10244],
			"rotation": {"angle": 0, "axis": "y", "origin": [5.3, 5.26917, 8.80244]},
			"faces": {
				"north": {"uv": [6.625, 9.25, 6.75, 9.375], "texture": "#0"},
				"east": {"uv": [6.625, 9.25, 6.75, 9.375], "texture": "#0"},
				"south": {"uv": [6.625, 9.25, 6.75, 9.375], "texture": "#0"},
				"west": {"uv": [6.625, 9.25, 6.75, 9.375], "texture": "#0"},
				"up": {"uv": [6.625, 9.25, 6.75, 9.375], "texture": "#0"},
				"down": {"uv": [6.625, 9.25, 6.75, 9.375], "texture": "#0"}
			}
		},
		{
			"from": [5.2, 3.96917, 6.80244],
			"to": [5.4, 4.36917, 6.90244],
			"rotation": {"angle": 0, "axis": "y", "origin": [5.3, 5.26917, 8.80244]},
			"faces": {
				"north": {"uv": [6.625, 9.25, 6.75, 9.375], "texture": "#0"},
				"east": {"uv": [6.625, 9.25, 6.75, 9.375], "texture": "#0"},
				"south": {"uv": [6.625, 9.25, 6.75, 9.375], "texture": "#0"},
				"west": {"uv": [6.625, 9.25, 6.75, 9.375], "texture": "#0"},
				"up": {"uv": [6.625, 9.25, 6.75, 9.375], "texture": "#0"},
				"down": {"uv": [6.625, 9.25, 6.75, 9.375], "texture": "#0"}
			}
		},
		{
			"from": [5.2, 3.80733, 6.8943],
			"to": [5.4, 4.00733, 6.9943],
			"rotation": {"angle": -22.5, "axis": "x", "origin": [5.3, 3.75733, 6.9443]},
			"faces": {
				"north": {"uv": [6.625, 9.25, 6.75, 9.375], "texture": "#0"},
				"east": {"uv": [6.625, 9.25, 6.75, 9.375], "texture": "#0"},
				"south": {"uv": [6.625, 9.25, 6.75, 9.375], "texture": "#0"},
				"west": {"uv": [6.625, 9.25, 6.75, 9.375], "texture": "#0"},
				"up": {"uv": [6.625, 9.25, 6.75, 9.375], "texture": "#0"},
				"down": {"uv": [6.625, 9.25, 6.75, 9.375], "texture": "#0"}
			}
		},
		{
			"from": [5.2, 3.69297, 7.0411],
			"to": [5.4, 3.89297, 7.1411],
			"rotation": {"angle": -45, "axis": "x", "origin": [5.3, 3.64297, 7.0911]},
			"faces": {
				"north": {"uv": [6.625, 9.25, 6.75, 9.375], "texture": "#0"},
				"east": {"uv": [6.625, 9.25, 6.75, 9.375], "texture": "#0"},
				"south": {"uv": [6.625, 9.25, 6.75, 9.375], "texture": "#0"},
				"west": {"uv": [6.625, 9.25, 6.75, 9.375], "texture": "#0"},
				"up": {"uv": [6.625, 9.25, 6.75, 9.375], "texture": "#0"},
				"down": {"uv": [6.625, 9.25, 6.75, 9.375], "texture": "#0"}
			}
		},
		{
			"from": [5.2, 3.54349, 7.0205],
			"to": [5.4, 3.64349, 7.2205],
			"rotation": {"angle": 22.5, "axis": "x", "origin": [5.3, 3.59349, 7.2705]},
			"faces": {
				"north": {"uv": [6.625, 9.25, 6.75, 9.375], "texture": "#0"},
				"east": {"uv": [6.625, 9.25, 6.75, 9.375], "texture": "#0"},
				"south": {"uv": [6.625, 9.25, 6.75, 9.375], "texture": "#0"},
				"west": {"uv": [6.625, 9.25, 6.75, 9.375], "texture": "#0"},
				"up": {"uv": [6.625, 9.25, 6.75, 9.375], "texture": "#0"},
				"down": {"uv": [6.625, 9.25, 6.75, 9.375], "texture": "#0"}
			}
		},
		{
			"from": [5.2, 3.56644, 7.20517],
			"to": [5.4, 3.66644, 8.00517],
			"rotation": {"angle": 0, "axis": "y", "origin": [5.3, 3.61644, 7.45517]},
			"faces": {
				"north": {"uv": [6.625, 9.25, 6.75, 9.375], "texture": "#0"},
				"east": {"uv": [6.625, 9.25, 6.75, 9.375], "texture": "#0"},
				"south": {"uv": [6.625, 9.25, 6.75, 9.375], "texture": "#0"},
				"west": {"uv": [6.625, 9.25, 6.75, 9.375], "texture": "#0"},
				"up": {"uv": [6.625, 9.25, 6.75, 9.375], "texture": "#0"},
				"down": {"uv": [6.625, 9.25, 6.75, 9.375], "texture": "#0"}
			}
		},
		{
			"from": [5, 5.06917, 5.90244],
			"to": [5.6, 5.36917, 6.30244],
			"rotation": {"angle": 0, "axis": "y", "origin": [5.3, 5.16917, 6.00244]},
			"faces": {
				"north": {"uv": [6.625, 9.25, 6.75, 9.375], "texture": "#0"},
				"east": {"uv": [6.625, 9.25, 6.75, 9.375], "texture": "#0"},
				"south": {"uv": [6.625, 9.25, 6.75, 9.375], "texture": "#0"},
				"west": {"uv": [6.625, 9.25, 6.75, 9.375], "texture": "#0"},
				"up": {"uv": [6.625, 9.25, 6.75, 9.375], "texture": "#0"},
				"down": {"uv": [6.625, 9.25, 6.75, 9.375], "texture": "#0"}
			}
		},
		{
			"from": [5, 4.36917, 5.90244],
			"to": [5.6, 4.66917, 6.30244],
			"rotation": {"angle": 0, "axis": "y", "origin": [5.3, 4.46917, 6.00244]},
			"faces": {
				"north": {"uv": [6.625, 9.25, 6.75, 9.375], "texture": "#0"},
				"east": {"uv": [6.625, 9.25, 6.75, 9.375], "texture": "#0"},
				"south": {"uv": [6.625, 9.25, 6.75, 9.375], "texture": "#0"},
				"west": {"uv": [6.625, 9.25, 6.75, 9.375], "texture": "#0"},
				"up": {"uv": [6.625, 9.25, 6.75, 9.375], "texture": "#0"},
				"down": {"uv": [6.625, 9.25, 6.75, 9.375], "texture": "#0"}
			}
		},
		{
			"from": [5, 4.75704, 6.27315],
			"to": [5.6, 5.05704, 6.47315],
			"rotation": {"angle": -45, "axis": "x", "origin": [5.3, 4.85704, 6.17315]},
			"faces": {
				"north": {"uv": [6.625, 9.25, 6.75, 9.375], "texture": "#0"},
				"east": {"uv": [6.625, 9.25, 6.75, 9.375], "texture": "#0"},
				"south": {"uv": [6.625, 9.25, 6.75, 9.375], "texture": "#0"},
				"west": {"uv": [6.625, 9.25, 6.75, 9.375], "texture": "#0"},
				"up": {"uv": [6.625, 9.25, 6.75, 9.375], "texture": "#0"},
				"down": {"uv": [6.625, 9.25, 6.75, 9.375], "texture": "#0"}
			}
		},
		{
			"from": [5, 4.71059, 6.20244],
			"to": [5.6, 5.01059, 6.40244],
			"rotation": {"angle": 45, "axis": "x", "origin": [5.3, 4.81059, 6.10244]},
			"faces": {
				"north": {"uv": [6.625, 9.25, 6.75, 9.375], "texture": "#0"},
				"east": {"uv": [6.625, 9.25, 6.75, 9.375], "texture": "#0"},
				"south": {"uv": [6.625, 9.25, 6.75, 9.375], "texture": "#0"},
				"west": {"uv": [6.625, 9.25, 6.75, 9.375], "texture": "#0"},
				"up": {"uv": [6.625, 9.25, 6.75, 9.375], "texture": "#0"},
				"down": {"uv": [6.625, 9.25, 6.75, 9.375], "texture": "#0"}
			}
		},
		{
			"from": [5.25, 4.82256, 9.27084],
			"to": [5.35, 4.97256, 9.31084],
			"rotation": {"angle": -22.5, "axis": "x", "origin": [5.05, 4.97256, 9.32084]},
			"faces": {
				"north": {"uv": [5.125, 2.125, 5.25, 2.25], "rotation": 180, "texture": "#0"},
				"east": {"uv": [5.125, 2.125, 5.25, 2.25], "rotation": 180, "texture": "#0"},
				"south": {"uv": [5.125, 2.125, 5.25, 2.25], "rotation": 180, "texture": "#0"},
				"west": {"uv": [5.125, 2.125, 5.25, 2.25], "rotation": 180, "texture": "#0"},
				"up": {"uv": [5.125, 2.125, 5.25, 2.25], "rotation": 180, "texture": "#0"},
				"down": {"uv": [5.125, 2.125, 5.25, 2.25], "rotation": 180, "texture": "#0"}
			}
		},
		{
			"from": [5.25, 4.67632, 9.32824],
			"to": [5.35, 4.82632, 9.36824],
			"rotation": {"angle": 22.5, "axis": "x", "origin": [5.05, 4.82632, 9.37824]},
			"faces": {
				"north": {"uv": [5.125, 2.125, 5.25, 2.25], "rotation": 180, "texture": "#0"},
				"east": {"uv": [5.125, 2.125, 5.25, 2.25], "rotation": 180, "texture": "#0"},
				"south": {"uv": [5.125, 2.125, 5.25, 2.25], "rotation": 180, "texture": "#0"},
				"west": {"uv": [5.125, 2.125, 5.25, 2.25], "rotation": 180, "texture": "#0"},
				"up": {"uv": [5.125, 2.125, 5.25, 2.25], "rotation": 180, "texture": "#0"},
				"down": {"uv": [5.125, 2.125, 5.25, 2.25], "rotation": 180, "texture": "#0"}
			}
		},
		{
			"from": [4.95, 3.5, 8.1],
			"to": [5.65, 4.5, 9],
			"rotation": {"angle": 0, "axis": "y", "origin": [13, 10, 16]},
			"faces": {
				"north": {"uv": [6.875, 9.25, 7, 9.375], "texture": "#0"},
				"east": {"uv": [6.875, 9.25, 7, 9.375], "texture": "#0"},
				"south": {"uv": [6.875, 9.25, 7, 9.375], "texture": "#0"},
				"west": {"uv": [6.875, 9.25, 7, 9.375], "texture": "#0"},
				"up": {"uv": [6.875, 9.25, 7, 9.375], "texture": "#0"},
				"down": {"uv": [6.875, 9.25, 7, 9.375], "texture": "#0"}
			}
		},
		{
			"from": [4.95, 3.01027, 8.25709],
			"to": [5.65, 3.71027, 9.25709],
			"rotation": {"angle": -22.5, "axis": "x", "origin": [5.3, 3.21027, 8.70709]},
			"faces": {
				"north": {"uv": [6.875, 9.25, 7, 9.375], "texture": "#0"},
				"east": {"uv": [6.875, 9.25, 7, 9.375], "texture": "#0"},
				"south": {"uv": [6.875, 9.25, 7, 9.375], "texture": "#0"},
				"west": {"uv": [6.875, 9.25, 7, 9.375], "texture": "#0"},
				"up": {"uv": [6.875, 9.25, 7, 9.375], "texture": "#0"},
				"down": {"uv": [6.875, 9.25, 7, 9.375], "texture": "#0"}
			}
		},
		{
			"from": [4.95, 3.65698, 8.78921],
			"to": [5.65, 3.85698, 8.98921],
			"rotation": {"angle": -22.5, "axis": "x", "origin": [5.3, 3.85698, 8.43921]},
			"faces": {
				"north": {"uv": [6.875, 9.25, 7, 9.375], "texture": "#0"},
				"east": {"uv": [6.875, 9.25, 7, 9.375], "texture": "#0"},
				"south": {"uv": [6.875, 9.25, 7, 9.375], "texture": "#0"},
				"west": {"uv": [6.875, 9.25, 7, 9.375], "texture": "#0"},
				"up": {"uv": [6.875, 9.25, 7, 9.375], "texture": "#0"},
				"down": {"uv": [6.875, 9.25, 7, 9.375], "texture": "#0"}
			}
		},
		{
			"from": [4.95, 2.972, 8.47106],
			"to": [5.65, 3.172, 8.67106],
			"rotation": {"angle": 22.5, "axis": "x", "origin": [5.3, 3.172, 8.12106]},
			"faces": {
				"north": {"uv": [6.875, 9.25, 7, 9.375], "texture": "#0"},
				"east": {"uv": [6.875, 9.25, 7, 9.375], "texture": "#0"},
				"south": {"uv": [6.875, 9.25, 7, 9.375], "texture": "#0"},
				"west": {"uv": [6.875, 9.25, 7, 9.375], "texture": "#0"},
				"up": {"uv": [6.875, 9.25, 7, 9.375], "texture": "#0"},
				"down": {"uv": [6.875, 9.25, 7, 9.375], "texture": "#0"}
			}
		},
		{
			"from": [4.95, 2.81142, 8.32695],
			"to": [5.65, 3.01142, 9.04395],
			"rotation": {"angle": -22.5, "axis": "x", "origin": [5.3, 3.36142, 8.52695]},
			"faces": {
				"north": {"uv": [6.875, 9.25, 7, 9.375], "rotation": 90, "texture": "#0"},
				"east": {"uv": [6.875, 9.25, 7, 9.375], "rotation": 90, "texture": "#0"},
				"south": {"uv": [6.875, 9.25, 7, 9.375], "rotation": 90, "texture": "#0"},
				"west": {"uv": [6.875, 9.25, 7, 9.375], "rotation": 90, "texture": "#0"},
				"up": {"uv": [6.875, 9.25, 7, 9.375], "rotation": 90, "texture": "#0"},
				"down": {"uv": [6.875, 9.25, 7, 9.375], "rotation": 90, "texture": "#0"}
			}
		},
		{
			"from": [4.95, 3.24644, 9.13362],
			"to": [5.65, 3.44644, 9.33362],
			"rotation": {"angle": 22.5, "axis": "x", "origin": [5.3, 3.44644, 8.78362]},
			"faces": {
				"north": {"uv": [6.875, 9.25, 7, 9.375], "texture": "#0"},
				"east": {"uv": [6.875, 9.25, 7, 9.375], "texture": "#0"},
				"south": {"uv": [6.875, 9.25, 7, 9.375], "texture": "#0"},
				"west": {"uv": [6.875, 9.25, 7, 9.375], "texture": "#0"},
				"up": {"uv": [6.875, 9.25, 7, 9.375], "texture": "#0"},
				"down": {"uv": [6.875, 9.25, 7, 9.375], "texture": "#0"}
			}
		}
	],
	"display": {
		"thirdperson_righthand": {
			"translation": [2.5, 3.75, 1]
		},
		"thirdperson_lefthand": {
			"translation": [-3.25, 3.5, 1]
		},
		"firstperson_righthand": {
			"translation": [-1.25, 7.25, 4.25]
		},
		"firstperson_lefthand": {
			"translation": [-6.5, 7.25, 4.25]
		},
		"ground": {
			"translation": [3.5, 5, 0],
			"scale": [1.5, 1.5, 1.5]
		},
		"gui": {
			"rotation": [28, 52, -9],
			"translation": [7.75, 12, 0],
			"scale": [3, 3, 3]
		},
		"head": {
			"rotation": [-57, 0, 0],
			"translation": [11, -22, -4.25],
			"scale": [1.5, 1.5, 1.5]
		},
		"fixed": {
			"rotation": [90, 45, -90],
			"translation": [5, 2.75, -5.5],
			"scale": [1.5, 1.5, 1.5]
		}
	},
	"groups": [
		{
			"name": "base",
			"origin": [8, 8, 8],
			"children": [
				{
					"name": "sight",
					"origin": [8, 8, 8],
					"children": [0, 1, 2, 3, 4, 5, 6]
				},
				{
					"name": "lock",
					"origin": [4.991, 5.11917, 8.75244],
					"children": [7, 8, 9, 10, 11, 12]
				},
				{
					"name": "trigger",
					"origin": [5.3, 4.16528, 7.90128],
					"children": [13, 14, 15]
				},
				{
					"name": "chassis",
					"origin": [5.3, 3.61644, 7.45517],
					"children": [16, 17, 18, 19, 20, 21, 22, 23, 24, 25, 26, 27, 28, 29, 30, 31, 32, 33,
						{
							"name": "lock",
							"origin": [5.05, 4.82632, 9.37824],
							"children": [34, 35]
						},
						{
							"name": "patch",
							"origin": [8, 8, 8],
							"children": [36, 37, 38, 39, 40, 41]
						}
					]
				}
			]
		}
	]
}