{
	"credit": "Made with Blockbench",
	"textures": {
		"1": "gci:items/common/all_in_one",
		"particle": "gci:items/common/all_in_one"
	},
	"elements": [
		{
			"name": "hexadecagon",
			"from": [5.875, 0.21753, 8.17047],
			"to": [10.125, 20.84253, 9.47047],
			"rotation": {"angle": 0, "axis": "y", "origin": [8, 0.21753, 8.72047]},
			"faces": {
				"north": {"uv": [1.5125, 6.0125, 1.60625, 6.35625], "texture": "#1"},
				"east": {"uv": [1.5125, 6.0125, 1.60625, 6.35625], "texture": "#1"},
				"south": {"uv": [1.5125, 6.0125, 1.60625, 6.35625], "texture": "#1"},
				"west": {"uv": [1.5125, 6.0125, 1.60625, 6.35625], "texture": "#1"},
				"up": {"uv": [1.5125, 6.0125, 1.60625, 6.35625], "rotation": 90, "texture": "#1"},
				"down": {"uv": [1.5125, 6.0125, 1.60625, 6.35625], "rotation": 270, "texture": "#1"}
			}
		},
		{
			"name": "hexadecagon",
			"from": [6.125, 0.31753, 8.07047],
			"to": [9.875, 20.84253, 9.57047],
			"rotation": {"angle": 0, "axis": "y", "origin": [8, 0.21753, 8.72047]},
			"faces": {
				"north": {"uv": [1.5125, 6.0125, 1.60625, 6.35625], "texture": "#1"},
				"east": {"uv": [1.5125, 6.0125, 1.60625, 6.35625], "texture": "#1"},
				"south": {"uv": [1.5125, 6.0125, 1.60625, 6.35625], "texture": "#1"},
				"west": {"uv": [1.5125, 6.0125, 1.60625, 6.35625], "texture": "#1"},
				"up": {"uv": [1.5125, 6.0125, 1.60625, 6.35625], "rotation": 90, "texture": "#1"},
				"down": {"uv": [1.5125, 6.0125, 1.60625, 6.35625], "rotation": 270, "texture": "#1"}
			}
		},
		{
			"name": "hexadecagon",
			"from": [6.80073, 20.27856, 8.17047],
			"to": [9.20073, 21.90356, 9.47047],
			"rotation": {"angle": 0, "axis": "y", "origin": [7.67573, 0.27856, 8.72047]},
			"faces": {
				"north": {"uv": [1.6125, 6.025, 1.5125, 6.3625], "texture": "#1"},
				"east": {"uv": [1.6125, 6.025, 1.5125, 6.3625], "texture": "#1"},
				"south": {"uv": [1.6125, 6.025, 1.5125, 6.3625], "texture": "#1"},
				"west": {"uv": [1.6125, 6.025, 1.5125, 6.3625], "texture": "#1"},
				"up": {"uv": [1.6125, 6.025, 1.5125, 6.3625], "rotation": 90, "texture": "#1"},
				"down": {"uv": [1.6125, 6.025, 1.5125, 6.3625], "rotation": 270, "texture": "#1"}
			}
		},
		{
			"name": "hexadecagon",
			"from": [6.148, 20.46499, 8.17047],
			"to": [7.773, 21.21499, 9.47047],
			"rotation": {"angle": -22.5, "axis": "z", "origin": [6.9605, 21.33999, 8.82047]},
			"faces": {
				"north": {"uv": [1.6125, 6.025, 1.5125, 6.3625], "rotation": 90, "texture": "#1"},
				"east": {"uv": [1.6125, 6.025, 1.5125, 6.3625], "rotation": 180, "texture": "#1"},
				"south": {"uv": [1.6125, 6.025, 1.5125, 6.3625], "rotation": 270, "texture": "#1"},
				"west": {"uv": [1.6125, 6.025, 1.5125, 6.3625], "texture": "#1"},
				"up": {"uv": [1.6125, 6.025, 1.5125, 6.3625], "rotation": 270, "texture": "#1"},
				"down": {"uv": [1.6125, 6.025, 1.5125, 6.3625], "rotation": 270, "texture": "#1"}
			}
		},
		{
			"name": "hexadecagon",
			"from": [8.227, 20.46499, 8.17047],
			"to": [9.852, 21.21499, 9.47047],
			"rotation": {"angle": 22.5, "axis": "z", "origin": [9.0395, 21.33999, 8.82047]},
			"faces": {
				"north": {"uv": [1.6125, 6.025, 1.5125, 6.3625], "rotation": 90, "texture": "#1"},
				"east": {"uv": [1.6125, 6.025, 1.5125, 6.3625], "rotation": 180, "texture": "#1"},
				"south": {"uv": [1.6125, 6.025, 1.5125, 6.3625], "rotation": 270, "texture": "#1"},
				"west": {"uv": [1.6125, 6.025, 1.5125, 6.3625], "texture": "#1"},
				"up": {"uv": [1.6125, 6.025, 1.5125, 6.3625], "rotation": 270, "texture": "#1"},
				"down": {"uv": [1.6125, 6.025, 1.5125, 6.3625], "rotation": 270, "texture": "#1"}
			}
		},
		{
			"name": "hexadecagon",
			"from": [7.83224, 20.70463, 8.17047],
			"to": [9.45724, 20.95463, 9.47047],
			"rotation": {"angle": 45, "axis": "z", "origin": [8.64474, 21.57963, 8.82047]},
			"faces": {
				"north": {"uv": [1.6125, 6.025, 1.5125, 6.3625], "rotation": 90, "texture": "#1"},
				"east": {"uv": [1.6125, 6.025, 1.5125, 6.3625], "rotation": 180, "texture": "#1"},
				"south": {"uv": [1.6125, 6.025, 1.5125, 6.3625], "rotation": 270, "texture": "#1"},
				"west": {"uv": [1.6125, 6.025, 1.5125, 6.3625], "texture": "#1"},
				"up": {"uv": [1.6125, 6.025, 1.5125, 6.3625], "rotation": 270, "texture": "#1"},
				"down": {"uv": [1.6125, 6.025, 1.5125, 6.3625], "rotation": 270, "texture": "#1"}
			}
		},
		{
			"name": "hexadecagon",
			"from": [8.91689, 20.48391, 8.17047],
			"to": [9.41689, 22.10891, 9.47047],
			"rotation": {"angle": -22.5, "axis": "z", "origin": [8.54189, 21.29641, 8.82047]},
			"faces": {
				"north": {"uv": [1.6125, 6.025, 1.5125, 6.3625], "rotation": 180, "texture": "#1"},
				"east": {"uv": [1.6125, 6.025, 1.5125, 6.3625], "rotation": 180, "texture": "#1"},
				"south": {"uv": [1.6125, 6.025, 1.5125, 6.3625], "rotation": 180, "texture": "#1"},
				"west": {"uv": [1.6125, 6.025, 1.5125, 6.3625], "rotation": 180, "texture": "#1"},
				"up": {"uv": [1.6125, 6.025, 1.5125, 6.3625], "rotation": 90, "texture": "#1"},
				"down": {"uv": [1.6125, 6.025, 1.5125, 6.3625], "rotation": 270, "texture": "#1"}
			}
		},
		{
			"name": "hexadecagon",
			"from": [6.65923, 20.10123, 8.17047],
			"to": [7.15923, 21.72623, 9.47047],
			"rotation": {"angle": 22.5, "axis": "z", "origin": [6.53423, 20.91373, 8.82047]},
			"faces": {
				"north": {"uv": [1.6125, 6.025, 1.5125, 6.3625], "rotation": 180, "texture": "#1"},
				"east": {"uv": [1.6125, 6.025, 1.5125, 6.3625], "rotation": 180, "texture": "#1"},
				"south": {"uv": [1.6125, 6.025, 1.5125, 6.3625], "rotation": 180, "texture": "#1"},
				"west": {"uv": [1.6125, 6.025, 1.5125, 6.3625], "rotation": 180, "texture": "#1"},
				"up": {"uv": [1.6125, 6.025, 1.5125, 6.3625], "rotation": 90, "texture": "#1"},
				"down": {"uv": [1.6125, 6.025, 1.5125, 6.3625], "rotation": 270, "texture": "#1"}
			}
		},
		{
			"name": "hexadecagon",
			"from": [6.54276, 20.70463, 8.17047],
			"to": [8.16776, 20.95463, 9.47047],
			"rotation": {"angle": -45, "axis": "z", "origin": [7.35526, 21.57963, 8.82047]},
			"faces": {
				"north": {"uv": [1.6125, 6.025, 1.5125, 6.3625], "rotation": 90, "texture": "#1"},
				"east": {"uv": [1.6125, 6.025, 1.5125, 6.3625], "rotation": 180, "texture": "#1"},
				"south": {"uv": [1.6125, 6.025, 1.5125, 6.3625], "rotation": 270, "texture": "#1"},
				"west": {"uv": [1.6125, 6.025, 1.5125, 6.3625], "texture": "#1"},
				"up": {"uv": [1.6125, 6.025, 1.5125, 6.3625], "rotation": 270, "texture": "#1"},
				"down": {"uv": [1.6125, 6.025, 1.5125, 6.3625], "rotation": 270, "texture": "#1"}
			}
		},
		{
			"name": "hexadecagon",
			"from": [7.977, 20.46499, 8.07047],
			"to": [9.602, 21.21499, 9.57047],
			"rotation": {"angle": 22.5, "axis": "z", "origin": [8.7895, 21.33999, 8.82047]},
			"faces": {
				"north": {"uv": [1.54375, 6.025, 1.6125, 6.3625], "rotation": 90, "texture": "#1"},
				"east": {"uv": [1.54375, 6.025, 1.6125, 6.3625], "rotation": 180, "texture": "#1"},
				"south": {"uv": [1.54375, 6.025, 1.6125, 6.3625], "rotation": 270, "texture": "#1"},
				"west": {"uv": [1.54375, 6.025, 1.6125, 6.3625], "texture": "#1"},
				"up": {"uv": [1.54375, 6.025, 1.6125, 6.3625], "rotation": 270, "texture": "#1"},
				"down": {"uv": [1.54375, 6.025, 1.6125, 6.3625], "rotation": 270, "texture": "#1"}
			}
		},
		{
			"name": "hexadecagon",
			"from": [7.58224, 20.70463, 8.07047],
			"to": [9.20724, 20.95463, 9.57047],
			"rotation": {"angle": 45, "axis": "z", "origin": [8.39474, 21.57963, 8.82047]},
			"faces": {
				"north": {"uv": [1.54375, 6.025, 1.6125, 6.3625], "rotation": 90, "texture": "#1"},
				"east": {"uv": [1.54375, 6.025, 1.6125, 6.3625], "rotation": 180, "texture": "#1"},
				"south": {"uv": [1.54375, 6.025, 1.6125, 6.3625], "rotation": 270, "texture": "#1"},
				"west": {"uv": [1.54375, 6.025, 1.6125, 6.3625], "texture": "#1"},
				"up": {"uv": [1.54375, 6.025, 1.6125, 6.3625], "rotation": 270, "texture": "#1"},
				"down": {"uv": [1.54375, 6.025, 1.6125, 6.3625], "rotation": 270, "texture": "#1"}
			}
		},
		{
			"name": "hexadecagon",
			"from": [6.58879, 20.08722, 8.07047],
			"to": [9.40879, 21.71222, 9.57047],
			"rotation": {"angle": 0, "axis": "y", "origin": [7.46379, 0.08722, 8.72047]},
			"faces": {
				"north": {"uv": [1.54375, 6.025, 1.6125, 6.3625], "texture": "#1"},
				"east": {"uv": [1.54375, 6.025, 1.6125, 6.3625], "texture": "#1"},
				"south": {"uv": [1.54375, 6.025, 1.6125, 6.3625], "texture": "#1"},
				"west": {"uv": [1.54375, 6.025, 1.6125, 6.3625], "texture": "#1"},
				"up": {"uv": [1.54375, 6.025, 1.6125, 6.3625], "rotation": 90, "texture": "#1"},
				"down": {"uv": [1.54375, 6.025, 1.6125, 6.3625], "rotation": 270, "texture": "#1"}
			}
		},
		{
			"name": "hexadecagon",
			"from": [6.79276, 20.70463, 8.07047],
			"to": [8.41776, 20.95463, 9.57047],
			"rotation": {"angle": -45, "axis": "z", "origin": [7.60526, 21.57963, 8.82047]},
			"faces": {
				"north": {"uv": [1.54375, 6.025, 1.6125, 6.3625], "rotation": 90, "texture": "#1"},
				"east": {"uv": [1.54375, 6.025, 1.6125, 6.3625], "rotation": 180, "texture": "#1"},
				"south": {"uv": [1.54375, 6.025, 1.6125, 6.3625], "rotation": 270, "texture": "#1"},
				"west": {"uv": [1.54375, 6.025, 1.6125, 6.3625], "texture": "#1"},
				"up": {"uv": [1.54375, 6.025, 1.6125, 6.3625], "rotation": 270, "texture": "#1"},
				"down": {"uv": [1.54375, 6.025, 1.6125, 6.3625], "rotation": 270, "texture": "#1"}
			}
		},
		{
			"name": "hexadecagon",
			"from": [6.398, 20.46499, 8.07047],
			"to": [8.023, 21.21499, 9.57047],
			"rotation": {"angle": -22.5, "axis": "z", "origin": [7.2105, 21.33999, 8.82047]},
			"faces": {
				"north": {"uv": [1.54375, 6.025, 1.6125, 6.3625], "rotation": 90, "texture": "#1"},
				"east": {"uv": [1.54375, 6.025, 1.6125, 6.3625], "rotation": 180, "texture": "#1"},
				"south": {"uv": [1.54375, 6.025, 1.6125, 6.3625], "rotation": 270, "texture": "#1"},
				"west": {"uv": [1.54375, 6.025, 1.6125, 6.3625], "texture": "#1"},
				"up": {"uv": [1.54375, 6.025, 1.6125, 6.3625], "rotation": 270, "texture": "#1"},
				"down": {"uv": [1.54375, 6.025, 1.6125, 6.3625], "rotation": 270, "texture": "#1"}
			}
		},
		{
			"name": "hexadecagon",
			"from": [7.37158, -12.78247, 8.69547],
			"to": [8.62842, 0.34253, 8.94547],
			"rotation": {"angle": 45, "axis": "y", "origin": [8, 0.21753, 8.82047]},
			"faces": {
				"north": {"uv": [1.65, 6.125, 1.725, 5.0125], "texture": "#1"},
				"east": {"uv": [1.65, 6.125, 1.725, 5.0125], "texture": "#1"},
				"south": {"uv": [1.65, 6.125, 1.725, 5.0125], "texture": "#1"},
				"west": {"uv": [1.65, 6.125, 1.725, 5.0125], "texture": "#1"},
				"up": {"uv": [1.65, 6.125, 1.725, 5.0125], "rotation": 90, "texture": "#1"},
				"down": {"uv": [1.65, 6.125, 1.725, 5.0125], "rotation": 270, "texture": "#1"}
			}
		},
		{
			"name": "hexadecagon",
			"from": [7.37158, -12.78247, 8.69547],
			"to": [8.62842, 0.34253, 8.94547],
			"rotation": {"angle": 22.5, "axis": "y", "origin": [8, 0.21753, 8.82047]},
			"faces": {
				"north": {"uv": [1.65, 6.125, 1.725, 5.0125], "texture": "#1"},
				"east": {"uv": [1.65, 6.125, 1.725, 5.0125], "texture": "#1"},
				"south": {"uv": [1.65, 6.125, 1.725, 5.0125], "texture": "#1"},
				"west": {"uv": [1.65, 6.125, 1.725, 5.0125], "texture": "#1"},
				"up": {"uv": [1.65, 6.125, 1.725, 5.0125], "rotation": 90, "texture": "#1"},
				"down": {"uv": [1.65, 6.125, 1.725, 5.0125], "rotation": 270, "texture": "#1"}
			}
		},
		{
			"name": "hexadecagon",
			"from": [7.37158, -12.78247, 8.69547],
			"to": [8.62842, 0.34253, 8.94547],
			"rotation": {"angle": 0, "axis": "y", "origin": [8, 0.21753, 8.82047]},
			"faces": {
				"north": {"uv": [1.65, 6.125, 1.725, 5.0125], "texture": "#1"},
				"east": {"uv": [1.65, 6.125, 1.725, 5.0125], "texture": "#1"},
				"south": {"uv": [1.65, 6.125, 1.725, 5.0125], "texture": "#1"},
				"west": {"uv": [1.65, 6.125, 1.725, 5.0125], "texture": "#1"},
				"up": {"uv": [1.65, 6.125, 1.725, 5.0125], "rotation": 90, "texture": "#1"},
				"down": {"uv": [1.65, 6.125, 1.725, 5.0125], "rotation": 270, "texture": "#1"}
			}
		},
		{
			"name": "hexadecagon",
			"from": [7.37158, -12.78247, 8.69547],
			"to": [8.62842, 0.34253, 8.94547],
			"rotation": {"angle": -22.5, "axis": "y", "origin": [8, 0.21753, 8.82047]},
			"faces": {
				"north": {"uv": [1.65, 6.125, 1.725, 5.0125], "texture": "#1"},
				"east": {"uv": [1.65, 6.125, 1.725, 5.0125], "texture": "#1"},
				"south": {"uv": [1.65, 6.125, 1.725, 5.0125], "texture": "#1"},
				"west": {"uv": [1.65, 6.125, 1.725, 5.0125], "texture": "#1"},
				"up": {"uv": [1.65, 6.125, 1.725, 5.0125], "rotation": 90, "texture": "#1"},
				"down": {"uv": [1.65, 6.125, 1.725, 5.0125], "rotation": 270, "texture": "#1"}
			}
		},
		{
			"name": "hexadecagon",
			"from": [7.37158, -12.78247, 8.69547],
			"to": [8.62842, 0.34253, 8.94547],
			"rotation": {"angle": -45, "axis": "y", "origin": [8, 0.21753, 8.82047]},
			"faces": {
				"north": {"uv": [1.65, 6.125, 1.725, 5.0125], "texture": "#1"},
				"east": {"uv": [1.65, 6.125, 1.725, 5.0125], "texture": "#1"},
				"south": {"uv": [1.65, 6.125, 1.725, 5.0125], "texture": "#1"},
				"west": {"uv": [1.65, 6.125, 1.725, 5.0125], "texture": "#1"},
				"up": {"uv": [1.65, 6.125, 1.725, 5.0125], "rotation": 90, "texture": "#1"},
				"down": {"uv": [1.65, 6.125, 1.725, 5.0125], "rotation": 270, "texture": "#1"}
			}
		},
		{
			"name": "hexadecagon",
			"from": [7.875, -12.78247, 8.19205],
			"to": [8.125, 0.34253, 9.44889],
			"rotation": {"angle": 22.5, "axis": "y", "origin": [8, 0.21753, 8.82047]},
			"faces": {
				"north": {"uv": [1.65, 6.125, 1.725, 5.0125], "texture": "#1"},
				"east": {"uv": [1.65, 6.125, 1.725, 5.0125], "texture": "#1"},
				"south": {"uv": [1.65, 6.125, 1.725, 5.0125], "texture": "#1"},
				"west": {"uv": [1.65, 6.125, 1.725, 5.0125], "texture": "#1"},
				"up": {"uv": [1.65, 6.125, 1.725, 5.0125], "rotation": 90, "texture": "#1"},
				"down": {"uv": [1.65, 6.125, 1.725, 5.0125], "rotation": 270, "texture": "#1"}
			}
		},
		{
			"name": "hexadecagon",
			"from": [7.875, -12.78247, 8.19205],
			"to": [8.125, -0.85747, 9.44889],
			"rotation": {"angle": 0, "axis": "y", "origin": [8, 0.21753, 8.82047]},
			"faces": {
				"north": {"uv": [1.65, 6.125, 1.725, 5.0125], "texture": "#1"},
				"east": {"uv": [1.65, 6.125, 1.725, 5.0125], "texture": "#1"},
				"south": {"uv": [1.65, 6.125, 1.725, 5.0125], "texture": "#1"},
				"west": {"uv": [1.65, 6.125, 1.725, 5.0125], "texture": "#1"},
				"up": {"uv": [1.65, 6.125, 1.725, 5.0125], "rotation": 90, "texture": "#1"},
				"down": {"uv": [1.65, 6.125, 1.725, 5.0125], "rotation": 270, "texture": "#1"}
			}
		},
		{
			"name": "hexadecagon",
			"from": [7.875, -12.78247, 8.19205],
			"to": [8.125, 0.34253, 9.44889],
			"rotation": {"angle": -22.5, "axis": "y", "origin": [8, 0.21753, 8.82047]},
			"faces": {
				"north": {"uv": [1.65, 6.125, 1.725, 5.0125], "texture": "#1"},
				"east": {"uv": [1.65, 6.125, 1.725, 5.0125], "texture": "#1"},
				"south": {"uv": [1.65, 6.125, 1.725, 5.0125], "texture": "#1"},
				"west": {"uv": [1.65, 6.125, 1.725, 5.0125], "texture": "#1"},
				"up": {"uv": [1.65, 6.125, 1.725, 5.0125], "rotation": 90, "texture": "#1"},
				"down": {"uv": [1.65, 6.125, 1.725, 5.0125], "rotation": 270, "texture": "#1"}
			}
		},
		{
			"name": "hexadecagon",
			"from": [7.21448, -12.9231, 8.66422],
			"to": [8.78552, -11.76685, 8.97672],
			"rotation": {"angle": 45, "axis": "y", "origin": [8, 3.3269, 8.82047]},
			"faces": {
				"north": {"uv": [1.65, 6.125, 1.725, 5.0125], "texture": "#1"},
				"east": {"uv": [1.65, 6.125, 1.725, 5.0125], "texture": "#1"},
				"south": {"uv": [1.65, 6.125, 1.725, 5.0125], "texture": "#1"},
				"west": {"uv": [1.65, 6.125, 1.725, 5.0125], "texture": "#1"},
				"up": {"uv": [1.65, 6.125, 1.725, 5.0125], "rotation": 90, "texture": "#1"},
				"down": {"uv": [1.65, 6.125, 1.725, 5.0125], "rotation": 270, "texture": "#1"}
			}
		},
		{
			"name": "hexadecagon",
			"from": [7.21448, -12.9231, 8.66422],
			"to": [8.78552, -11.76685, 8.97672],
			"rotation": {"angle": 22.5, "axis": "y", "origin": [8, 3.3269, 8.82047]},
			"faces": {
				"north": {"uv": [1.65, 6.125, 1.725, 5.0125], "texture": "#1"},
				"east": {"uv": [1.65, 6.125, 1.725, 5.0125], "texture": "#1"},
				"south": {"uv": [1.65, 6.125, 1.725, 5.0125], "texture": "#1"},
				"west": {"uv": [1.65, 6.125, 1.725, 5.0125], "texture": "#1"},
				"up": {"uv": [1.65, 6.125, 1.725, 5.0125], "rotation": 90, "texture": "#1"},
				"down": {"uv": [1.65, 6.125, 1.725, 5.0125], "rotation": 270, "texture": "#1"}
			}
		},
		{
			"name": "hexadecagon",
			"from": [7.21448, -12.9231, 8.66422],
			"to": [8.78552, -11.76685, 8.97672],
			"rotation": {"angle": 0, "axis": "y", "origin": [8, 3.3269, 8.82047]},
			"faces": {
				"north": {"uv": [1.65, 6.125, 1.725, 5.0125], "texture": "#1"},
				"east": {"uv": [1.65, 6.125, 1.725, 5.0125], "texture": "#1"},
				"south": {"uv": [1.65, 6.125, 1.725, 5.0125], "texture": "#1"},
				"west": {"uv": [1.65, 6.125, 1.725, 5.0125], "texture": "#1"},
				"up": {"uv": [1.65, 6.125, 1.725, 5.0125], "rotation": 90, "texture": "#1"},
				"down": {"uv": [1.65, 6.125, 1.725, 5.0125], "rotation": 270, "texture": "#1"}
			}
		},
		{
			"name": "hexadecagon",
			"from": [7.21448, -12.9231, 8.66422],
			"to": [8.78552, -11.76685, 8.97672],
			"rotation": {"angle": -22.5, "axis": "y", "origin": [8, 3.3269, 8.82047]},
			"faces": {
				"north": {"uv": [1.65, 6.125, 1.725, 5.0125], "texture": "#1"},
				"east": {"uv": [1.65, 6.125, 1.725, 5.0125], "texture": "#1"},
				"south": {"uv": [1.65, 6.125, 1.725, 5.0125], "texture": "#1"},
				"west": {"uv": [1.65, 6.125, 1.725, 5.0125], "texture": "#1"},
				"up": {"uv": [1.65, 6.125, 1.725, 5.0125], "rotation": 90, "texture": "#1"},
				"down": {"uv": [1.65, 6.125, 1.725, 5.0125], "rotation": 270, "texture": "#1"}
			}
		},
		{
			"name": "hexadecagon",
			"from": [7.21448, -12.9231, 8.66422],
			"to": [8.78552, -11.76685, 8.97672],
			"rotation": {"angle": -45, "axis": "y", "origin": [8, 3.3269, 8.82047]},
			"faces": {
				"north": {"uv": [1.65, 6.125, 1.725, 5.0125], "texture": "#1"},
				"east": {"uv": [1.65, 6.125, 1.725, 5.0125], "texture": "#1"},
				"south": {"uv": [1.65, 6.125, 1.725, 5.0125], "texture": "#1"},
				"west": {"uv": [1.65, 6.125, 1.725, 5.0125], "texture": "#1"},
				"up": {"uv": [1.65, 6.125, 1.725, 5.0125], "rotation": 90, "texture": "#1"},
				"down": {"uv": [1.65, 6.125, 1.725, 5.0125], "rotation": 270, "texture": "#1"}
			}
		},
		{
			"name": "hexadecagon",
			"from": [7.84375, -12.9231, 8.03495],
			"to": [8.15625, -11.76685, 9.60599],
			"rotation": {"angle": 22.5, "axis": "y", "origin": [8, 3.3269, 8.82047]},
			"faces": {
				"north": {"uv": [1.65, 6.125, 1.725, 5.0125], "texture": "#1"},
				"east": {"uv": [1.65, 6.125, 1.725, 5.0125], "texture": "#1"},
				"south": {"uv": [1.65, 6.125, 1.725, 5.0125], "texture": "#1"},
				"west": {"uv": [1.65, 6.125, 1.725, 5.0125], "texture": "#1"},
				"up": {"uv": [1.65, 6.125, 1.725, 5.0125], "rotation": 90, "texture": "#1"},
				"down": {"uv": [1.65, 6.125, 1.725, 5.0125], "rotation": 270, "texture": "#1"}
			}
		},
		{
			"name": "hexadecagon",
			"from": [7.84375, -12.9231, 8.03495],
			"to": [8.15625, -11.76685, 9.60599],
			"rotation": {"angle": 0, "axis": "y", "origin": [8, 3.3269, 8.82047]},
			"faces": {
				"north": {"uv": [1.65, 6.125, 1.725, 5.0125], "texture": "#1"},
				"east": {"uv": [1.65, 6.125, 1.725, 5.0125], "texture": "#1"},
				"south": {"uv": [1.65, 6.125, 1.725, 5.0125], "texture": "#1"},
				"west": {"uv": [1.65, 6.125, 1.725, 5.0125], "texture": "#1"},
				"up": {"uv": [1.65, 6.125, 1.725, 5.0125], "rotation": 90, "texture": "#1"},
				"down": {"uv": [1.65, 6.125, 1.725, 5.0125], "rotation": 270, "texture": "#1"}
			}
		},
		{
			"name": "hexadecagon",
			"from": [7.84375, -12.9231, 8.03495],
			"to": [8.15625, -11.76685, 9.60599],
			"rotation": {"angle": -22.5, "axis": "y", "origin": [8, 3.3269, 8.82047]},
			"faces": {
				"north": {"uv": [1.65, 6.125, 1.725, 5.0125], "texture": "#1"},
				"east": {"uv": [1.65, 6.125, 1.725, 5.0125], "texture": "#1"},
				"south": {"uv": [1.65, 6.125, 1.725, 5.0125], "texture": "#1"},
				"west": {"uv": [1.65, 6.125, 1.725, 5.0125], "texture": "#1"},
				"up": {"uv": [1.65, 6.125, 1.725, 5.0125], "rotation": 90, "texture": "#1"},
				"down": {"uv": [1.65, 6.125, 1.725, 5.0125], "rotation": 270, "texture": "#1"}
			}
		},
		{
			"name": "hexadecagon",
			"from": [8.34645, -0.76991, 8.19205],
			"to": [9.59645, -0.14491, 9.44889],
			"rotation": {"angle": 45, "axis": "z", "origin": [8.47145, -0.76991, 8.82047]},
			"faces": {
				"north": {"uv": [1.725, 6.125, 1.65, 5.0125], "texture": "#1"},
				"east": {"uv": [1.725, 6.125, 1.65, 5.0125], "texture": "#1"},
				"south": {"uv": [1.725, 6.125, 1.65, 5.0125], "texture": "#1"},
				"west": {"uv": [1.725, 6.125, 1.65, 5.0125], "texture": "#1"},
				"up": {"uv": [1.725, 6.125, 1.65, 5.0125], "rotation": 90, "texture": "#1"},
				"down": {"uv": [1.725, 6.125, 1.65, 5.0125], "rotation": 270, "texture": "#1"}
			}
		},
		{
			"name": "hexadecagon",
			"from": [7.34645, -0.26991, 8.19205],
			"to": [8.59645, 0.35509, 9.44889],
			"rotation": {"angle": 0, "axis": "y", "origin": [7.47145, -0.26991, 8.82047]},
			"faces": {
				"north": {"uv": [1.725, 6.125, 1.65, 5.0125], "texture": "#1"},
				"east": {"uv": [1.725, 6.125, 1.65, 5.0125], "texture": "#1"},
				"south": {"uv": [1.725, 6.125, 1.65, 5.0125], "texture": "#1"},
				"west": {"uv": [1.725, 6.125, 1.65, 5.0125], "texture": "#1"},
				"up": {"uv": [1.725, 6.125, 1.65, 5.0125], "rotation": 90, "texture": "#1"},
				"down": {"uv": [1.725, 6.125, 1.65, 5.0125], "rotation": 270, "texture": "#1"}
			}
		},
		{
			"name": "hexadecagon",
			"from": [7.59645, -0.86991, 8.19205],
			"to": [8.34645, -0.24491, 9.44889],
			"rotation": {"angle": 0, "axis": "y", "origin": [7.47145, -0.86991, 8.82047]},
			"faces": {
				"north": {"uv": [1.725, 6.125, 1.65, 5.0125], "texture": "#1"},
				"east": {"uv": [1.725, 6.125, 1.65, 5.0125], "texture": "#1"},
				"south": {"uv": [1.725, 6.125, 1.65, 5.0125], "texture": "#1"},
				"west": {"uv": [1.725, 6.125, 1.65, 5.0125], "texture": "#1"},
				"up": {"uv": [1.725, 6.125, 1.65, 5.0125], "rotation": 90, "texture": "#1"},
				"down": {"uv": [1.725, 6.125, 1.65, 5.0125], "rotation": 270, "texture": "#1"}
			}
		},
		{
			"name": "hexadecagon",
			"from": [8.04153, -1.27038, 8.29205],
			"to": [8.66653, 0.17962, 9.34889],
			"rotation": {"angle": -22.5, "axis": "z", "origin": [8.35403, -0.44538, 8.82047]},
			"faces": {
				"north": {"uv": [1.725, 6.125, 1.65, 5.0125], "rotation": 90, "texture": "#1"},
				"east": {"uv": [1.725, 6.125, 1.65, 5.0125], "rotation": 180, "texture": "#1"},
				"south": {"uv": [1.725, 6.125, 1.65, 5.0125], "rotation": 270, "texture": "#1"},
				"west": {"uv": [1.725, 6.125, 1.65, 5.0125], "texture": "#1"},
				"up": {"uv": [1.725, 6.125, 1.65, 5.0125], "rotation": 270, "texture": "#1"},
				"down": {"uv": [1.725, 6.125, 1.65, 5.0125], "rotation": 270, "texture": "#1"}
			}
		},
		{
			"name": "hexadecagon",
			"from": [8.89701, 0.10549, 8.19205],
			"to": [9.84701, 0.73049, 9.44889],
			"rotation": {"angle": 22.5, "axis": "z", "origin": [9.52201, 0.41799, 8.82047]},
			"faces": {
				"north": {"uv": [1.725, 6.125, 1.65, 5.0125], "texture": "#1"},
				"east": {"uv": [1.725, 6.125, 1.65, 5.0125], "texture": "#1"},
				"south": {"uv": [1.725, 6.125, 1.65, 5.0125], "texture": "#1"},
				"west": {"uv": [1.725, 6.125, 1.65, 5.0125], "texture": "#1"},
				"up": {"uv": [1.725, 6.125, 1.65, 5.0125], "rotation": 90, "texture": "#1"},
				"down": {"uv": [1.725, 6.125, 1.65, 5.0125], "rotation": 270, "texture": "#1"}
			}
		},
		{
			"name": "hexadecagon",
			"from": [6.10925, 0.04662, 8.19205],
			"to": [7.05925, 0.67162, 9.44889],
			"rotation": {"angle": -22.5, "axis": "z", "origin": [6.58425, 0.35912, 8.82047]},
			"faces": {
				"north": {"uv": [1.725, 6.125, 1.65, 5.0125], "rotation": 180, "texture": "#1"},
				"east": {"uv": [1.725, 6.125, 1.65, 5.0125], "rotation": 180, "texture": "#1"},
				"south": {"uv": [1.725, 6.125, 1.65, 5.0125], "rotation": 180, "texture": "#1"},
				"west": {"uv": [1.725, 6.125, 1.65, 5.0125], "rotation": 180, "texture": "#1"},
				"up": {"uv": [1.725, 6.125, 1.65, 5.0125], "rotation": 90, "texture": "#1"},
				"down": {"uv": [1.725, 6.125, 1.65, 5.0125], "rotation": 270, "texture": "#1"}
			}
		},
		{
			"name": "hexadecagon",
			"from": [6.83356, -0.41106, 8.19205],
			"to": [8.08356, 0.21394, 9.44889],
			"rotation": {"angle": -45, "axis": "z", "origin": [7.29245, -0.03314, 8.82047]},
			"faces": {
				"north": {"uv": [1.725, 6.125, 1.65, 5.0125], "rotation": 180, "texture": "#1"},
				"east": {"uv": [1.725, 6.125, 1.65, 5.0125], "rotation": 180, "texture": "#1"},
				"south": {"uv": [1.725, 6.125, 1.65, 5.0125], "rotation": 180, "texture": "#1"},
				"west": {"uv": [1.725, 6.125, 1.65, 5.0125], "rotation": 180, "texture": "#1"},
				"up": {"uv": [1.725, 6.125, 1.65, 5.0125], "rotation": 90, "texture": "#1"},
				"down": {"uv": [1.725, 6.125, 1.65, 5.0125], "rotation": 270, "texture": "#1"}
			}
		},
		{
			"name": "hexadecagon",
			"from": [7.31729, -1.22634, 8.29205],
			"to": [7.94229, 0.22366, 9.34889],
			"rotation": {"angle": 22.5, "axis": "z", "origin": [7.62979, -0.50134, 8.82047]},
			"faces": {
				"north": {"uv": [1.725, 6.125, 1.65, 5.0125], "rotation": 90, "texture": "#1"},
				"east": {"uv": [1.725, 6.125, 1.65, 5.0125], "rotation": 180, "texture": "#1"},
				"south": {"uv": [1.725, 6.125, 1.65, 5.0125], "rotation": 270, "texture": "#1"},
				"west": {"uv": [1.725, 6.125, 1.65, 5.0125], "texture": "#1"},
				"up": {"uv": [1.725, 6.125, 1.65, 5.0125], "rotation": 270, "texture": "#1"},
				"down": {"uv": [1.725, 6.125, 1.65, 5.0125], "rotation": 270, "texture": "#1"}
			}
		}
	],
	"display": {
		"thirdperson_righthand": {
			"rotation": [0, -90, 0],
			"translation": [0.5, 11.5, 1.25],
			"scale": [0.8, 0.8, 0.8]
		},
		"thirdperson_lefthand": {
			"rotation": [0, -90, 0],
			"translation": [0.5, 15.75, 1.25]
		},
		"firstperson_righthand": {
			"rotation": [0, -90, 45],
			"translation": [0, 4, -5.5]
		},
		"firstperson_lefthand": {
			"rotation": [0, -90, 45],
			"translation": [0, 4, -5.5]
		},
		"ground": {
			"rotation": [0, 0, 45],
			"translation": [0, 11.25, 0]
		},
		"gui": {
			"rotation": [0, 0, 45],
			"translation": [0, 0.5, 0],
			"scale": [0.5, 0.5, 0.5]
		},
		"fixed": {
			"rotation": [0, 0, 132],
			"translation": [1, 1.25, -2],
			"scale": [0.8, 0.8, 0.8]
		}
	},
	"groups": [
		{
			"name": "Weapon",
			"origin": [8, 8, 8],
			"color": 0,
			"children": [
				{
					"name": "Bat",
					"origin": [8, 8, 8],
					"color": 0,
					"children": [
						0,
						1,
						2,
						3,
						4,
						5,
						6,
						7,
						8,
						{
							"name": "group",
							"origin": [6.9605, 3, -5.12246],
							"color": 0,
							"children": [9, 10, 11, 12, 13]
						}
					]
				},
				{
					"name": "Handle",
					"origin": [8, 8, 8],
					"color": 0,
					"children": [
						{
							"name": "group",
							"origin": [8, 3, 16],
							"color": 0,
							"children": [14, 15, 16, 17, 18, 19, 20, 21]
						},
						{
							"name": "group",
							"origin": [8, 3, 16],
							"color": 0,
							"children": [22, 23, 24, 25, 26, 27, 28, 29]
						},
						30,
						31,
						32,
						33,
						34,
						35,
						36,
						37
					]
				}
			]
		}
	]
}